version 1
nodes
  0 "Bip01" -1
  1 "Bip01 Pelvis" 0
  2 "Bip01 L Thigh" 1
  3 "Bip01 L Calf" 2
  4 "Bip01 L Foot" 3
  5 "Bip01 L Toe0" 4
  6 "Bip01 L Toe01" 5
  7 "Bip01 L Toe02" 6
  8 "Bip01 R Thigh" 1
  9 "Bip01 R Calf" 8
  10 "Bip01 R Foot" 9
  11 "Bip01 R Toe0" 10
  12 "Bip01 R Toe01" 11
  13 "Bip01 R Toe02" 12
  14 "Bip01 Spine" 1
  15 "Bip01 Spine1" 14
  16 "Bip01 Spine2" 15
  17 "Bip01 Spine3" 16
  18 "Bip01 Neck" 17
  19 "Bip01 L Clavicle" 18
  20 "Bip01 L UpperArm" 19
  21 "Bip01 L Forearm" 20
  22 "Bip01 L Hand" 21
  23 "Bip01 R Clavicle" 18
  24 "Bip01 R UpperArm" 23
  25 "Bip01 R Forearm" 24
  26 "Bip01 R Hand" 25
  27 "Bip01 Head" 18
  28 "Line01" 26
  29 "Shotgun" 26
end
skeleton
  time 0
    0 2.664153 -4.860220 25.215134 0.002972 -0.095871 -1.571131
    1 -1.760454 -0.230475 9.745319 -1.570795 -1.570796 0.000000
    2 -0.000007 0.000010 5.615750 0.025884 3.207648 -0.805153
    3 15.693467 0.000000 0.000000 0.000000 0.000000 -1.078189
    4 22.146627 0.000000 0.000000 0.035710 -0.061324 0.176736
    5 3.310129 5.734394 0.000000 0.000000 0.000000 1.570796
    6 1.055919 0.000000 0.000000 0.000000 0.000000 0.000000
    7 1.055919 0.000000 -0.000001 0.000000 0.000000 0.000000
    8 0.000008 -0.000006 -5.615750 -0.058675 3.052045 -0.155824
    9 15.693467 0.000000 0.000000 0.000000 0.000000 -0.995325
    10 22.146627 0.000000 0.000000 0.034748 0.101249 0.747958
    11 3.310129 5.734393 0.000000 0.000000 0.000000 1.570796
    12 1.055919 0.000000 0.000000 0.000000 0.000000 0.000000
    13 1.055919 0.000000 -0.000001 0.000000 0.000000 0.000000
    14 1.384163 -0.004728 0.000002 -0.431530 -0.129359 0.271185
    15 5.939814 -0.004730 0.000000 -0.093615 -0.026965 0.225908
    16 5.939809 -0.003975 0.000000 -0.095444 -0.068108 0.133534
    17 4.991439 -0.003975 0.000000 -0.087226 0.060306 0.042841
    18 4.991436 -0.001575 0.000000 0.000000 0.000000 0.000000
    19 0.000005 0.001564 3.638375 -0.000010 -1.283530 3.140806
    20 8.842831 0.000000 -0.000002 0.748200 -1.137628 -1.271408
    21 9.341936 0.000000 0.000003 0.000000 0.000000 -0.959609
    22 9.664094 0.000000 -0.000003 -4.283956 -0.348678 -0.066174
    23 0.000005 0.001585 -3.638375 -0.000010 1.082924 3.140787
    24 8.842831 0.000000 0.000001 -0.059692 0.069612 -2.136055
    25 9.341935 0.000000 -0.000001 0.000000 0.000000 -0.783239
    26 9.664097 0.000000 -0.000002 2.840654 0.149948 0.479130
    27 1.977383 0.000000 0.000000 0.487209 0.362921 -0.096804
    28 14.749151 -0.637065 0.609129 1.516377 -0.033041 -3.136054
    29 14.827692 0.339927 1.738213 1.712062 0.032858 0.003941
  time 1
    0 2.914447 -2.754066 25.215134 0.002972 -0.095871 -1.571131
    1 -1.760454 -0.230475 9.745319 -1.570795 -1.570796 0.000000
    2 -0.000007 0.000010 5.615750 -0.013707 3.346090 -0.788427
    3 15.693467 0.000000 0.000000 0.000000 0.000000 -1.113260
    4 22.146627 0.000000 0.000000 -0.037953 -0.113996 0.219811
    5 3.310129 5.734394 0.000000 0.000000 0.000000 1.570796
    6 1.055919 0.000000 0.000000 0.000000 0.000000 0.000000
    7 1.055919 0.000000 -0.000001 0.000000 0.000000 0.000000
    8 0.000008 -0.000006 -5.615750 -0.018216 3.116089 -0.184188
    9 15.693467 0.000000 0.000000 0.000000 0.000000 -1.019049
    10 22.146627 0.000000 0.000000 0.200592 0.047739 0.741162
    11 3.310129 5.734393 0.000000 0.000000 0.000000 1.570796
    12 1.055919 0.000000 0.000000 0.000000 0.000000 0.000000
    13 1.055919 0.000000 -0.000001 0.000000 0.000000 0.000000
    14 1.384163 -0.004728 0.000002 -0.431530 -0.129359 0.271185
    15 5.939814 -0.004730 0.000000 -0.093615 -0.026965 0.225908
    16 5.939809 -0.003975 0.000000 -0.095444 -0.068108 0.133534
    17 4.991439 -0.003975 0.000000 -0.087226 0.060306 0.042841
    18 4.991436 -0.001575 0.000000 0.000000 0.000000 0.000000
    19 0.000005 0.001564 3.638375 -0.000010 -1.283530 3.140806
    20 8.842831 0.000000 -0.000002 -0.454993 -1.100189 -0.274017
    21 9.341936 0.000000 0.000003 0.000000 0.000000 -1.292073
    22 9.664094 0.000000 -0.000003 -3.930307 -0.101677 0.023644
    23 0.000005 0.001585 -3.638375 -0.820206 0.909588 2.438515
    24 8.842831 0.000000 0.000001 -0.204915 0.304956 -1.893189
    25 9.341935 0.000000 -0.000001 0.000000 0.000000 -0.922403
    26 9.664097 0.000000 -0.000002 2.840654 0.149948 0.479130
    27 1.977383 0.000000 0.000000 0.487209 0.362921 -0.096804
    28 14.749151 -0.637065 0.609129 1.516377 -0.033041 -3.136054
    29 14.827692 0.339927 1.738213 1.712062 0.032858 0.003941
  time 2
    0 2.929170 0.549566 25.215134 0.002972 -0.095871 -1.571131
    1 -1.760454 -0.230475 9.745319 -1.570795 -1.570796 0.000000
    2 -0.000007 0.000010 5.615750 -0.097203 3.569380 -0.714452
    3 15.693467 0.000000 0.000000 0.000000 0.000000 -1.118809
    4 22.146627 0.000000 0.000000 -0.164453 -0.206209 0.264519
    5 3.310129 5.734394 0.000000 0.000000 0.000000 1.570796
    6 1.055919 0.000000 0.000000 0.000000 0.000000 0.000000
    7 1.055919 0.000000 -0.000001 0.000000 0.000000 0.000000
    8 0.000008 -0.000006 -5.615750 0.035379 3.194322 -0.252487
    9 15.693467 0.000000 0.000000 0.000000 0.000000 -1.051178
    10 22.146627 0.000000 0.000000 0.463121 -0.017161 0.714256
    11 3.310129 5.734393 0.000000 0.000000 0.000000 1.570796
    12 1.055919 0.000000 0.000000 0.000000 0.000000 0.000000
    13 1.055919 0.000000 -0.000001 0.000000 0.000000 0.000000
    14 1.384163 -0.004728 0.000002 -0.431530 -0.129359 0.271185
    15 5.939814 -0.004730 0.000000 -0.093615 -0.026965 0.225908
    16 5.939809 -0.003975 0.000000 -0.095444 -0.068108 0.133534
    17 4.991439 -0.003975 0.000000 -0.087226 0.060306 0.042841
    18 4.991436 -0.001575 0.000000 0.000000 0.000000 0.000000
    19 0.000005 0.001564 3.638375 -0.000010 -1.283530 3.140806
    20 8.842831 0.000000 -0.000002 -0.941364 -0.703563 0.149895
    21 9.341936 0.000000 0.000003 0.000000 0.000000 -1.671767
    22 9.664094 0.000000 -0.000003 -3.612656 0.084806 0.179116
    23 0.000005 0.001585 -3.638375 -1.301011 0.465385 2.122228
    24 8.842831 0.000000 0.000001 -0.191451 0.515247 -1.376847
    25 9.341935 0.000000 -0.000001 0.000000 0.000000 -1.210658
    26 9.664097 0.000000 -0.000002 2.840654 0.149948 0.479130
    27 1.977383 0.000000 0.000000 0.487209 0.362921 -0.096804
    28 14.749151 -0.637065 0.609129 1.516377 -0.033041 -3.136054
    29 14.827692 0.339927 1.738213 1.712062 0.032858 0.003941
  time 3
    0 2.804023 4.036342 25.215134 0.002972 -0.095871 -1.571131
    1 -1.760454 -0.230475 9.745319 -1.570795 -1.570796 0.000000
    2 -0.000007 0.000010 5.615750 -0.190764 3.744253 -0.621840
    3 15.693467 0.000000 0.000000 0.000000 0.000000 -1.110059
    4 22.146627 0.000000 0.000000 -0.270161 -0.286594 0.283540
    5 3.310129 5.734394 0.000000 0.000000 0.000000 1.570796
    6 1.055919 0.000000 0.000000 0.000000 0.000000 0.000000
    7 1.055919 0.000000 -0.000001 0.000000 0.000000 0.000000
    8 0.000008 -0.000006 -5.615750 0.058486 3.216277 -0.345526
    9 15.693467 0.000000 0.000000 0.000000 0.000000 -1.090669
    10 22.146627 0.000000 0.000000 0.680804 -0.029779 0.673851
    11 3.310129 5.734393 0.000000 0.000000 0.000000 1.570796
    12 1.055919 0.000000 0.000000 0.000000 0.000000 0.000000
    13 1.055919 0.000000 -0.000001 0.000000 0.000000 0.000000
    14 1.384163 -0.004728 0.000002 -0.431530 -0.129359 0.271185
    15 5.939814 -0.004730 0.000000 -0.093615 -0.026965 0.225908
    16 5.939809 -0.003975 0.000000 -0.095444 -0.068108 0.133534
    17 4.991439 -0.003975 0.000000 -0.087226 0.060306 0.042841
    18 4.991436 -0.001575 0.000000 0.000000 0.000000 0.000000
    19 0.000005 0.001564 3.638375 -0.000010 -1.283530 3.140806
    20 8.842831 0.000000 -0.000002 -0.785116 -0.796106 0.035183
    21 9.341936 0.000000 0.000003 0.000000 0.000000 -1.579531
    22 9.664094 0.000000 -0.000003 -3.655258 0.011468 0.166253
    23 0.000005 0.001585 -3.638375 -1.273879 0.503898 2.134884
    24 8.842831 0.000000 0.000001 -0.166158 0.504161 -1.357430
    25 9.341935 0.000000 -0.000001 0.000000 0.000000 -1.208327
    26 9.664097 0.000000 -0.000002 2.840654 0.149948 0.479130
    27 1.977383 0.000000 0.000000 0.487209 0.362921 -0.096804
    28 14.749151 -0.637065 0.609129 1.516377 -0.033041 -3.136054
    29 14.827692 0.339927 1.738213 1.712062 0.032858 0.003941
  time 4
    0 2.664153 6.706014 25.215134 0.002972 -0.095871 -1.571131
    1 -1.760454 -0.230475 9.745319 -1.570795 -1.570796 0.000000
    2 -0.000007 0.000010 5.615750 -0.226904 3.796792 -0.585139
    3 15.693467 0.000000 0.000000 0.000000 0.000000 -1.105577
    4 22.146627 0.000000 0.000000 -0.303329 -0.312461 0.286350
    5 3.310129 5.734394 0.000000 0.000000 0.000000 1.570796
    6 1.055919 0.000000 0.000000 0.000000 0.000000 0.000000
    7 1.055919 0.000000 -0.000001 0.000000 0.000000 0.000000
    8 0.000008 -0.000006 -5.615750 0.045638 3.190007 -0.422606
    9 15.693467 0.000000 0.000000 0.000000 0.000000 -1.125772
    10 22.146627 0.000000 0.000000 0.756901 0.002886 0.635006
    11 3.310129 5.734393 0.000000 0.000000 0.000000 1.570796
    12 1.055919 0.000000 0.000000 0.000000 0.000000 0.000000
    13 1.055919 0.000000 -0.000001 0.000000 0.000000 0.000000
    14 1.384163 -0.004728 0.000002 -0.431530 -0.129359 0.271185
    15 5.939814 -0.004730 0.000000 -0.093615 -0.026965 0.225908
    16 5.939809 -0.003975 0.000000 -0.095444 -0.068108 0.133534
    17 4.991439 -0.003975 0.000000 -0.087226 0.060306 0.042841
    18 4.991436 -0.001575 0.000000 0.000000 0.000000 0.000000
    19 0.000005 0.001564 3.638375 -0.000010 -1.283530 3.140806
    20 8.842831 0.000000 -0.000002 -0.426844 -0.897436 -0.390774
    21 9.341936 0.000000 0.000003 0.000000 0.000000 -1.343603
    22 9.664094 0.000000 -0.000003 -3.676416 -0.034705 0.100897
    23 0.000005 0.001585 -3.638375 -1.133520 0.673520 2.213212
    24 8.842831 0.000000 0.000001 -0.144055 0.421406 -1.458632
    25 9.341935 0.000000 -0.000001 0.000000 0.000000 -1.141176
    26 9.664097 0.000000 -0.000002 2.840654 0.149948 0.479130
    27 1.977383 0.000000 0.000000 0.487209 0.362921 -0.096804
    28 14.749151 -0.637065 0.609129 1.516377 -0.033041 -3.136054
    29 14.827692 0.339927 1.738213 1.712062 0.032858 0.003941
  time 5
    0 2.664153 4.733697 25.215134 0.002972 -0.095871 -1.571131
    1 -1.760454 -0.230475 9.745319 -1.570795 -1.570796 0.000000
    2 -0.000007 0.000010 5.615750 -0.206198 3.765633 -0.604350
    3 15.693467 0.000000 0.000000 0.000000 0.000000 -1.104012
    4 22.146627 0.000000 0.000000 -0.284670 -0.297908 0.284324
    5 3.310129 5.734394 0.000000 0.000000 0.000000 1.570796
    6 1.055919 0.000000 0.000000 0.000000 0.000000 0.000000
    7 1.055919 0.000000 -0.000001 0.000000 0.000000 0.000000
    8 0.000008 -0.000006 -5.615750 0.059924 3.213784 -0.368455
    9 15.693467 0.000000 0.000000 0.000000 0.000000 -1.101230
    10 22.146627 0.000000 0.000000 0.707542 -0.026648 0.663106
    11 3.310129 5.734393 0.000000 0.000000 0.000000 1.570796
    12 1.055919 0.000000 0.000000 0.000000 0.000000 0.000000
    13 1.055919 0.000000 -0.000001 0.000000 0.000000 0.000000
    14 1.384163 -0.004728 0.000002 -0.431530 -0.129359 0.271185
    15 5.939814 -0.004730 0.000000 -0.093615 -0.026965 0.225908
    16 5.939809 -0.003975 0.000000 -0.095444 -0.068108 0.133534
    17 4.991439 -0.003975 0.000000 -0.087226 0.060306 0.042841
    18 4.991436 -0.001575 0.000000 0.000000 0.000000 0.000000
    19 0.000005 0.001564 3.638375 -0.000010 -1.283530 3.140806
    20 8.842831 0.000000 -0.000002 -0.200824 -0.904668 -0.684673
    21 9.341936 0.000000 0.000003 0.000000 0.000000 -1.178558
    22 9.664094 0.000000 -0.000003 -3.684840 -0.044208 0.032269
    23 0.000005 0.001585 -3.638375 -0.998531 0.795522 2.303908
    24 8.842831 0.000000 0.000001 -0.133705 0.352968 -1.559260
    25 9.341935 0.000000 -0.000001 0.000000 0.000000 -1.081819
    26 9.664097 0.000000 -0.000002 2.840654 0.149948 0.479130
    27 1.977383 0.000000 0.000000 0.487209 0.362921 -0.096804
    28 14.749151 -0.637065 0.609129 1.516377 -0.033041 -3.136054
    29 14.827692 0.339927 1.738213 1.712062 0.032858 0.003941
  time 6
    0 2.664153 2.726159 25.215134 0.002972 -0.095871 -1.571131
    1 -1.760454 -0.230475 9.745319 -1.570795 -1.570796 0.000000
    2 -0.000007 0.000010 5.615750 -0.163827 3.694495 -0.643153
    3 15.693467 0.000000 0.000000 0.000000 0.000000 -1.100597
    4 22.146627 0.000000 0.000000 -0.242304 -0.265144 0.277919
    5 3.310129 5.734394 0.000000 0.000000 0.000000 1.570796
    6 1.055919 0.000000 0.000000 0.000000 0.000000 0.000000
    7 1.055919 0.000000 -0.000001 0.000000 0.000000 0.000000
    8 0.000008 -0.000006 -5.615750 0.058965 3.218961 -0.314374
    9 15.693467 0.000000 0.000000 0.000000 0.000000 -1.077059
    10 22.146627 0.000000 0.000000 0.608713 -0.037086 0.687441
    11 3.310129 5.734393 0.000000 0.000000 0.000000 1.570796
    12 1.055919 0.000000 0.000000 0.000000 0.000000 0.000000
    13 1.055919 0.000000 -0.000001 0.000000 0.000000 0.000000
    14 1.384163 -0.004728 0.000002 -0.431530 -0.129359 0.271185
    15 5.939814 -0.004730 0.000000 -0.093615 -0.026965 0.225908
    16 5.939809 -0.003975 0.000000 -0.095444 -0.068108 0.133534
    17 4.991439 -0.003975 0.000000 -0.087226 0.060306 0.042841
    18 4.991436 -0.001575 0.000000 0.000000 0.000000 0.000000
    19 0.000005 0.001564 3.638375 -0.000010 -1.283530 3.140806
    20 8.842831 0.000000 -0.000002 -0.106873 -0.899725 -0.816895
    21 9.341936 0.000000 0.000003 0.000000 0.000000 -1.101818
    22 9.664094 0.000000 -0.000003 -3.696424 -0.040891 -0.008625
    23 0.000005 0.001585 -3.638375 -0.881949 0.875144 2.390386
    24 8.842831 0.000000 0.000001 -0.129735 0.301551 -1.650801
    25 9.341935 0.000000 -0.000001 0.000000 0.000000 -1.032922
    26 9.664097 0.000000 -0.000002 2.840654 0.149948 0.479130
    27 1.977383 0.000000 0.000000 0.487209 0.362921 -0.096804
    28 14.749151 -0.637065 0.609129 1.516377 -0.033041 -3.136054
    29 14.827692 0.339927 1.738213 1.712062 0.032858 0.003941
  time 7
    0 2.664153 0.782017 25.215134 0.002972 -0.095871 -1.571131
    1 -1.760454 -0.230475 9.745319 -1.570795 -1.570796 0.000000
    2 -0.000007 0.000010 5.615750 -0.118388 3.605524 -0.684155
    3 15.693467 0.000000 0.000000 0.000000 0.000000 -1.096400
    4 22.146627 0.000000 0.000000 -0.189842 -0.225088 0.266611
    5 3.310129 5.734394 0.000000 0.000000 0.000000 1.570796
    6 1.055919 0.000000 0.000000 0.000000 0.000000 0.000000
    7 1.055919 0.000000 -0.000001 0.000000 0.000000 0.000000
    8 0.000008 -0.000006 -5.615750 0.047268 3.208415 -0.260014
    9 15.693467 0.000000 0.000000 0.000000 0.000000 -1.052516
    10 22.146627 0.000000 0.000000 0.492510 -0.031560 0.710307
    11 3.310129 5.734393 0.000000 0.000000 0.000000 1.570796
    12 1.055919 0.000000 0.000000 0.000000 0.000000 0.000000
    13 1.055919 0.000000 -0.000001 0.000000 0.000000 0.000000
    14 1.384163 -0.004728 0.000002 -0.431530 -0.129359 0.271185
    15 5.939814 -0.004730 0.000000 -0.093615 -0.026965 0.225908
    16 5.939809 -0.003975 0.000000 -0.095444 -0.068108 0.133534
    17 4.991439 -0.003975 0.000000 -0.087226 0.060306 0.042841
    18 4.991436 -0.001575 0.000000 0.000000 0.000000 0.000000
    19 0.000005 0.001564 3.638375 -0.000010 -1.283530 3.140806
    20 8.842831 0.000000 -0.000002 -0.028333 -0.905766 -0.907634
    21 9.341936 0.000000 0.000003 0.000000 0.000000 -1.049250
    22 9.664094 0.000000 -0.000003 -3.730124 -0.045643 -0.043571
    23 0.000005 0.001585 -3.638375 -0.740152 0.947643 2.502654
    24 8.842831 0.000000 0.000001 -0.123587 0.248564 -1.752386
    25 9.341935 0.000000 -0.000001 0.000000 0.000000 -0.980094
    26 9.664097 0.000000 -0.000002 2.840654 0.149948 0.479130
    27 1.977383 0.000000 0.000000 0.487209 0.362921 -0.096804
    28 14.749151 -0.637065 0.609129 1.516377 -0.033041 -3.136054
    29 14.827692 0.339927 1.738213 1.712062 0.032858 0.003941
  time 8
    0 2.664153 -1.007156 25.215134 0.002972 -0.095871 -1.571131
    1 -1.760454 -0.230475 9.745319 -1.570795 -1.570796 0.000000
    2 -0.000007 0.000010 5.615750 -0.076976 3.511280 -0.720473
    3 15.693467 0.000000 0.000000 0.000000 0.000000 -1.091990
    4 22.146627 0.000000 0.000000 -0.134950 -0.183882 0.250924
    5 3.310129 5.734394 0.000000 0.000000 0.000000 1.570796
    6 1.055919 0.000000 0.000000 0.000000 0.000000 0.000000
    7 1.055919 0.000000 -0.000001 0.000000 0.000000 0.000000
    8 0.000008 -0.000006 -5.615750 0.028572 3.185022 -0.210044
    9 15.693467 0.000000 0.000000 0.000000 0.000000 -1.028569
    10 22.146627 0.000000 0.000000 0.375968 -0.013385 0.730235
    11 3.310129 5.734393 0.000000 0.000000 0.000000 1.570796
    12 1.055919 0.000000 0.000000 0.000000 0.000000 0.000000
    13 1.055919 0.000000 -0.000001 0.000000 0.000000 0.000000
    14 1.384163 -0.004728 0.000002 -0.431530 -0.129359 0.271185
    15 5.939814 -0.004730 0.000000 -0.093615 -0.026965 0.225908
    16 5.939809 -0.003975 0.000000 -0.095444 -0.068108 0.133534
    17 4.991439 -0.003975 0.000000 -0.087226 0.060306 0.042841
    18 4.991436 -0.001575 0.000000 0.000000 0.000000 0.000000
    19 0.000005 0.001564 3.638375 -0.000010 -1.283530 3.140806
    20 8.842831 0.000000 -0.000002 0.080016 -0.940275 -0.971863
    21 9.341936 0.000000 0.000003 0.000000 0.000000 -1.015218
    22 9.664094 0.000000 -0.000003 -3.812073 -0.081236 -0.069966
    23 0.000005 0.001585 -3.638375 -0.583879 1.004320 2.632179
    24 8.842831 0.000000 0.000001 -0.113859 0.200203 -1.849475
    25 9.341935 0.000000 -0.000001 0.000000 0.000000 -0.929997
    26 9.664097 0.000000 -0.000002 2.840654 0.149948 0.479130
    27 1.977383 0.000000 0.000000 0.487209 0.362921 -0.096804
    28 14.749151 -0.637065 0.609129 1.516377 -0.033041 -3.136054
    29 14.827692 0.339927 1.738213 1.712062 0.032858 0.003941
  time 9
    0 2.664153 -2.556835 25.215134 0.002972 -0.095871 -1.571131
    1 -1.760454 -0.230475 9.745319 -1.570795 -1.570796 0.000000
    2 -0.000007 0.000010 5.615750 -0.041699 3.419050 -0.750675
    3 15.693467 0.000000 0.000000 0.000000 0.000000 -1.087793
    4 22.146627 0.000000 0.000000 -0.081965 -0.144855 0.232034
    5 3.310129 5.734394 0.000000 0.000000 0.000000 1.570796
    6 1.055919 0.000000 0.000000 0.000000 0.000000 0.000000
    7 1.055919 0.000000 -0.000001 0.000000 0.000000 0.000000
    8 0.000008 -0.000006 -5.615750 0.006041 3.152233 -0.170459
    9 15.693467 0.000000 0.000000 0.000000 0.000000 -1.007596
    10 22.146627 0.000000 0.000000 0.267493 0.013846 0.744652
    11 3.310129 5.734393 0.000000 0.000000 0.000000 1.570796
    12 1.055919 0.000000 0.000000 0.000000 0.000000 0.000000
    13 1.055919 0.000000 -0.000001 0.000000 0.000000 0.000000
    14 1.384163 -0.004728 0.000002 -0.431530 -0.129359 0.271185
    15 5.939814 -0.004730 0.000000 -0.093615 -0.026965 0.225908
    16 5.939809 -0.003975 0.000000 -0.095444 -0.068108 0.133534
    17 4.991439 -0.003975 0.000000 -0.087226 0.060306 0.042841
    18 4.991436 -0.001575 0.000000 0.000000 0.000000 0.000000
    19 0.000005 0.001564 3.638375 -0.000010 -1.283530 3.140806
    20 8.842831 0.000000 -0.000002 0.287947 -1.022201 -1.044029
    21 9.341936 0.000000 0.000003 0.000000 0.000000 -0.993642
    22 9.664094 0.000000 -0.000003 -3.979324 -0.174747 -0.077029
    23 0.000005 0.001585 -3.638375 -0.422140 1.043902 2.770428
    24 8.842831 0.000000 0.000001 -0.101329 0.158040 -1.937573
    25 9.341935 0.000000 -0.000001 0.000000 0.000000 -0.884764
    26 9.664097 0.000000 -0.000002 2.840654 0.149948 0.479130
    27 1.977383 0.000000 0.000000 0.487209 0.362921 -0.096804
    28 14.749151 -0.637065 0.609129 1.516377 -0.033041 -3.136054
    29 14.827692 0.339927 1.738213 1.712062 0.032858 0.003941
  time 10
    0 2.664153 -3.775445 25.215134 0.002972 -0.095871 -1.571131
    1 -1.760454 -0.230475 9.745319 -1.570795 -1.570796 0.000000
    2 -0.000007 0.000010 5.615750 -0.012461 3.333530 -0.774856
    3 15.693467 0.000000 0.000000 0.000000 0.000000 -1.083880
    4 22.146627 0.000000 0.000000 -0.033728 -0.110033 0.211640
    5 3.310129 5.734394 0.000000 0.000000 0.000000 1.570796
    6 1.055919 0.000000 0.000000 0.000000 0.000000 0.000000
    7 1.055919 0.000000 -0.000001 0.000000 0.000000 0.000000
    8 0.000008 -0.000006 -5.615750 -0.017640 3.114651 -0.146624
    9 15.693467 0.000000 0.000000 0.000000 0.000000 -0.993094
    10 22.146627 0.000000 0.000000 0.171372 0.045805 0.752274
    11 3.310129 5.734393 0.000000 0.000000 0.000000 1.570796
    12 1.055919 0.000000 0.000000 0.000000 0.000000 0.000000
    13 1.055919 0.000000 -0.000001 0.000000 0.000000 0.000000
    14 1.384163 -0.004728 0.000002 -0.431530 -0.129359 0.271185
    15 5.939814 -0.004730 0.000000 -0.093615 -0.026965 0.225908
    16 5.939809 -0.003975 0.000000 -0.095444 -0.068108 0.133534
    17 4.991439 -0.003975 0.000000 -0.087226 0.060306 0.042841
    18 4.991436 -0.001575 0.000000 0.000000 0.000000 0.000000
    19 0.000005 0.001564 3.638375 -0.000010 -1.283530 3.140806
    20 8.842831 0.000000 -0.000002 0.586876 -1.114927 -1.169459
    21 9.341936 0.000000 0.000003 0.000000 0.000000 -0.979703
    22 9.664094 0.000000 -0.000003 -4.186975 -0.293451 -0.054798
    23 0.000005 0.001585 -3.638375 -0.263374 1.068271 2.908773
    24 8.842831 0.000000 0.000001 -0.087243 0.121988 -2.016105
    25 9.341935 0.000000 -0.000001 0.000000 0.000000 -0.844594
    26 9.664097 0.000000 -0.000002 2.840654 0.149948 0.479130
    27 1.977383 0.000000 0.000000 0.487209 0.362921 -0.096804
    28 14.749151 -0.637065 0.609129 1.516377 -0.033041 -3.136054
    29 14.827692 0.339927 1.738213 1.712062 0.032858 0.003941
  time 11
    0 2.664153 -4.578460 25.215134 0.002972 -0.095871 -1.571131
    1 -1.760454 -0.230475 9.745319 -1.570795 -1.570796 0.000000
    2 -0.000007 0.000010 5.615750 0.010450 3.260283 -0.793206
    3 15.693467 0.000000 0.000000 0.000000 0.000000 -1.080537
    4 22.146627 0.000000 0.000000 0.006918 -0.081292 0.192031
    5 3.310129 5.734394 0.000000 0.000000 0.000000 1.570796
    6 1.055919 0.000000 0.000000 0.000000 0.000000 0.000000
    7 1.055919 0.000000 -0.000001 0.000000 0.000000 0.000000
    8 0.000008 -0.000006 -5.615750 -0.040363 3.078602 -0.141955
    9 15.693467 0.000000 0.000000 0.000000 0.000000 -0.988409
    10 22.146627 0.000000 0.000000 0.091383 0.077211 0.752917
    11 3.310129 5.734393 0.000000 0.000000 0.000000 1.570796
    12 1.055919 0.000000 0.000000 0.000000 0.000000 0.000000
    13 1.055919 0.000000 -0.000001 0.000000 0.000000 0.000000
    14 1.384163 -0.004728 0.000002 -0.431530 -0.129359 0.271185
    15 5.939814 -0.004730 0.000000 -0.093615 -0.026965 0.225908
    16 5.939809 -0.003975 0.000000 -0.095444 -0.068108 0.133534
    17 4.991439 -0.003975 0.000000 -0.087226 0.060306 0.042841
    18 4.991436 -0.001575 0.000000 0.000000 0.000000 0.000000
    19 0.000005 0.001564 3.638375 -0.000010 -1.283530 3.140806
    20 8.842831 0.000000 -0.000002 0.748938 -1.146598 -1.259544
    21 9.341936 0.000000 0.000003 0.000000 0.000000 -0.969471
    22 9.664094 0.000000 -0.000003 -4.285105 -0.347603 -0.046842
    23 0.000005 0.001585 -3.638375 -0.117551 1.080075 3.037052
    24 8.842831 0.000000 0.000001 -0.072689 0.092134 -2.083828
    25 9.341935 0.000000 -0.000001 0.000000 0.000000 -0.810019
    26 9.664097 0.000000 -0.000002 2.840654 0.149948 0.479130
    27 1.977383 0.000000 0.000000 0.487209 0.362921 -0.096804
    28 14.749151 -0.637065 0.609129 1.516377 -0.033041 -3.136054
    29 14.827692 0.339927 1.738213 1.712062 0.032858 0.003941
  time 12
    0 2.664153 -4.860220 25.215134 0.002972 -0.095871 -1.571131
    1 -1.760454 -0.230475 9.745319 -1.570795 -1.570796 0.000000
    2 -0.000007 0.000010 5.615750 0.025884 3.207648 -0.805153
    3 15.693467 0.000000 0.000000 0.000000 0.000000 -1.078189
    4 22.146627 0.000000 0.000000 0.035710 -0.061324 0.176736
    5 3.310129 5.734394 0.000000 0.000000 0.000000 1.570796
    6 1.055919 0.000000 0.000000 0.000000 0.000000 0.000000
    7 1.055919 0.000000 -0.000001 0.000000 0.000000 0.000000
    8 0.000008 -0.000006 -5.615750 -0.058675 3.052045 -0.155824
    9 15.693467 0.000000 0.000000 0.000000 0.000000 -0.995325
    10 22.146627 0.000000 0.000000 0.034748 0.101249 0.747958
    11 3.310129 5.734393 0.000000 0.000000 0.000000 1.570796
    12 1.055919 0.000000 0.000000 0.000000 0.000000 0.000000
    13 1.055919 0.000000 -0.000001 0.000000 0.000000 0.000000
    14 1.384163 -0.004728 0.000002 -0.431530 -0.129359 0.271185
    15 5.939814 -0.004730 0.000000 -0.093615 -0.026965 0.225908
    16 5.939809 -0.003975 0.000000 -0.095444 -0.068108 0.133534
    17 4.991439 -0.003975 0.000000 -0.087226 0.060306 0.042841
    18 4.991436 -0.001575 0.000000 0.000000 0.000000 0.000000
    19 0.000005 0.001564 3.638375 -0.000010 -1.283530 3.140806
    20 8.842831 0.000000 -0.000002 0.747554 -1.137445 -1.271080
    21 9.341936 0.000000 0.000003 0.000000 0.000000 -0.959609
    22 9.664094 0.000000 -0.000003 -4.283573 -0.348499 -0.066248
    23 0.000005 0.001585 -3.638375 -0.000010 1.082924 3.140787
    24 8.842831 0.000000 0.000001 -0.059692 0.069612 -2.136055
    25 9.341935 0.000000 -0.000001 0.000000 0.000000 -0.783239
    26 9.664097 0.000000 -0.000002 2.840654 0.149948 0.479130
    27 1.977383 0.000000 0.000000 0.487209 0.362921 -0.096804
    28 14.749151 -0.637065 0.609129 1.516377 -0.033041 -3.136054
    29 14.827692 0.339927 1.738213 1.712062 0.032858 0.003941
end
