version 1
nodes
  0 "Bip01" -1
  1 "Bip01 Pelvis" 0
  2 "Bip01 L Thigh" 1
  3 "Bip01 L Calf" 2
  4 "Bip01 L Foot" 3
  5 "Bip01 L Toe0" 4
  6 "Bip01 L Toe01" 5
  7 "Bip01 L Toe02" 6
  8 "Bip01 R Thigh" 1
  9 "Bip01 R Calf" 8
  10 "Bip01 R Foot" 9
  11 "Bip01 R Toe0" 10
  12 "Bip01 R Toe01" 11
  13 "Bip01 R Toe02" 12
  14 "Bip01 Spine" 1
  15 "Bip01 Spine1" 14
  16 "Bip01 Spine2" 15
  17 "Bip01 Spine3" 16
  18 "Bip01 Neck" 17
  19 "Bip01 L Clavicle" 18
  20 "Bip01 L UpperArm" 19
  21 "Bip01 L Forearm" 20
  22 "Bip01 L Hand" 21
  23 "Bip01 R Clavicle" 18
  24 "Bip01 R UpperArm" 23
  25 "Bip01 R Forearm" 24
  26 "Bip01 R Hand" 25
  27 "Bip01 Head" 18
  28 "Line01" 26
  29 "Shotgun" 26
end
skeleton
  time 0
    0 2.664153 -4.860220 25.215134 0.002972 -0.095871 -1.571131
    1 -1.760454 -0.230475 9.745319 -1.570795 -1.570796 0.000000
    2 -0.000007 0.000010 5.615750 0.025884 3.207648 -0.805153
    3 15.693467 0.000000 0.000000 0.000000 0.000000 -1.078189
    4 22.146627 0.000000 0.000000 0.035710 -0.061324 0.176736
    5 3.310129 5.734394 0.000000 0.000000 0.000000 1.570796
    6 1.055919 0.000000 0.000000 0.000000 0.000000 0.000000
    7 1.055919 0.000000 -0.000001 0.000000 0.000000 0.000000
    8 0.000008 -0.000006 -5.615750 -0.058675 3.052045 -0.155824
    9 15.693467 0.000000 0.000000 0.000000 0.000000 -0.995325
    10 22.146627 0.000000 0.000000 0.034748 0.101249 0.747958
    11 3.310129 5.734393 0.000000 0.000000 0.000000 1.570796
    12 1.055919 0.000000 0.000000 0.000000 0.000000 0.000000
    13 1.055919 0.000000 -0.000001 0.000000 0.000000 0.000000
    14 1.384163 -0.004728 0.000002 -0.431530 -0.129359 0.271185
    15 5.939814 -0.004730 0.000000 -0.093615 -0.026965 0.225908
    16 5.939809 -0.003975 0.000000 -0.095444 -0.068108 0.133534
    17 4.991439 -0.003975 0.000000 -0.087226 0.060306 0.042841
    18 4.991436 -0.001575 0.000000 0.000000 0.000000 0.000000
    19 0.000005 0.001564 3.638375 -0.000010 -1.283530 3.140806
    20 8.842831 0.000000 -0.000002 0.481296 -0.765441 -1.588380
    21 9.341936 0.000000 0.000003 0.000000 0.000000 -0.446975
    22 9.664094 0.000000 -0.000003 -3.820690 -0.067339 -0.376969
    23 0.000005 0.001585 -3.638375 -0.000010 1.082924 3.140787
    24 8.842831 0.000000 0.000001 -0.059692 0.069612 -2.136055
    25 9.341935 0.000000 -0.000001 0.000000 0.000000 -0.783239
    26 9.664097 0.000000 -0.000002 2.840654 0.149948 0.479130
    27 1.977383 0.000000 0.000000 0.487209 0.362921 -0.096804
    28 14.749151 -0.637065 0.609129 1.516377 -0.033041 -3.136054
    29 14.827692 0.339927 1.738213 1.712062 0.032858 0.003941
  time 1
    0 2.664153 -4.860220 25.215134 0.002972 -0.095871 -1.571131
    1 -1.760454 -0.230475 9.745319 -1.570795 -1.570796 0.000000
    2 -0.000007 0.000010 5.615750 0.037004 3.224138 -0.791964
    3 15.693467 0.000000 0.000000 0.000000 0.000000 -1.096116
    4 22.146627 0.000000 0.000000 -0.130089 -0.097235 0.208699
    5 3.310129 5.734394 0.000000 0.000000 0.000000 1.570796
    6 1.055919 0.000000 0.000000 0.000000 0.000000 0.000000
    7 1.055919 0.000000 -0.000001 0.000000 0.000000 0.000000
    8 0.000008 -0.000006 -5.615750 -0.020708 2.998643 -0.209278
    9 15.693467 0.000000 0.000000 0.000000 0.000000 -1.045972
    10 22.146627 0.000000 0.000000 0.089183 0.142878 0.733173
    11 3.310129 5.734393 0.000000 0.000000 0.000000 1.570796
    12 1.055919 0.000000 0.000000 0.000000 0.000000 0.000000
    13 1.055919 0.000000 -0.000001 0.000000 0.000000 0.000000
    14 1.384163 -0.004728 0.000002 -0.431530 -0.129359 0.271185
    15 5.939814 -0.004730 0.000000 -0.093615 -0.026965 0.225908
    16 5.939809 -0.003975 0.000000 -0.095444 -0.068108 0.133534
    17 4.991439 -0.003975 0.000000 -0.087226 0.060306 0.042841
    18 4.991436 -0.001575 0.000000 0.000000 0.000000 0.000000
    19 0.000005 0.001564 3.638375 -0.000010 -1.283530 3.140806
    20 8.842831 0.000000 -0.000002 0.599151 -0.793543 -1.715283
    21 9.341936 0.000000 0.000003 0.000000 0.000000 -0.315146
    22 9.664094 0.000000 -0.000003 -3.854867 -0.084553 -0.440243
    23 0.000005 0.001585 -3.638375 -0.000010 1.082924 3.140787
    24 8.842831 0.000000 0.000001 -0.081717 0.120940 -2.157195
    25 9.341935 0.000000 -0.000001 0.000000 0.000000 -0.783239
    26 9.664097 0.000000 -0.000002 2.840654 0.149948 0.479130
    27 1.977383 0.000000 0.000000 0.487209 0.362921 -0.096804
    28 14.749151 -0.637065 0.609129 1.516377 -0.033041 -3.136054
    29 14.827692 0.339927 1.738213 1.712062 0.032858 0.003941
  time 2
    0 2.664153 -4.860220 25.215134 0.002972 -0.095871 -1.571131
    1 -1.760454 -0.230475 9.745319 -1.570795 -1.570796 0.000000
    2 -0.000007 0.000010 5.615750 0.041701 3.237848 -0.737295
    3 15.693467 0.000000 0.000000 0.000000 0.000000 -1.116674
    4 22.146627 0.000000 0.000000 -0.387948 -0.136142 0.290403
    5 3.310129 5.734394 0.000000 0.000000 0.000000 1.570796
    6 1.055919 0.000000 0.000000 0.000000 0.000000 0.000000
    7 1.055919 0.000000 -0.000001 0.000000 0.000000 0.000000
    8 0.000008 -0.000006 -5.615750 0.034229 2.915904 -0.273743
    9 15.693467 0.000000 0.000000 0.000000 0.000000 -1.087545
    10 22.146627 0.000000 0.000000 0.168043 0.197678 0.693778
    11 3.310129 5.734393 0.000000 0.000000 0.000000 1.570796
    12 1.055919 0.000000 0.000000 0.000000 0.000000 0.000000
    13 1.055919 0.000000 -0.000001 0.000000 0.000000 0.000000
    14 1.384163 -0.004728 0.000002 -0.431530 -0.129359 0.271185
    15 5.939814 -0.004730 0.000000 -0.093615 -0.026965 0.225908
    16 5.939809 -0.003975 0.000000 -0.095444 -0.068108 0.133534
    17 4.991439 -0.003975 0.000000 -0.087226 0.060306 0.042841
    18 4.991436 -0.001575 0.000000 0.000000 0.000000 0.000000
    19 0.000005 0.001564 3.638375 -0.000010 -1.283530 3.140806
    20 8.842831 0.000000 -0.000002 0.707408 -0.539255 -1.867142
    21 9.341936 0.000000 0.000003 0.000000 0.000000 -0.002924
    22 9.664094 0.000000 -0.000003 -3.867696 -0.159057 -0.580323
    23 0.000005 0.001585 -3.638375 -0.000010 1.082924 3.140787
    24 8.842831 0.000000 0.000001 -0.053388 0.074500 -2.048723
    25 9.341935 0.000000 -0.000001 0.000000 0.000000 -0.783239
    26 9.664097 0.000000 -0.000002 2.840654 0.149948 0.479130
    27 1.977383 0.000000 0.000000 0.487209 0.362921 -0.096804
    28 14.749151 -0.637065 0.609129 1.516377 -0.033041 -3.136054
    29 14.827692 0.339927 1.738213 1.712062 0.032858 0.003941
  time 3
    0 2.664153 -4.860220 25.215134 0.002972 -0.095871 -1.571131
    1 -1.760454 -0.230475 9.745319 -1.570795 -1.570796 0.000000
    2 -0.000007 0.000010 5.615750 0.036812 3.239095 -0.688934
    3 15.693467 0.000000 0.000000 0.000000 0.000000 -1.126562
    4 22.146627 0.000000 0.000000 -0.591252 -0.152630 0.357727
    5 3.310129 5.734394 0.000000 0.000000 0.000000 1.570796
    6 1.055919 0.000000 0.000000 0.000000 0.000000 0.000000
    7 1.055919 0.000000 -0.000001 0.000000 0.000000 0.000000
    8 0.000008 -0.000006 -5.615750 0.097220 2.812361 -0.340509
    9 15.693467 0.000000 0.000000 0.000000 0.000000 -1.121607
    10 22.146627 0.000000 0.000000 0.258073 0.253368 0.632619
    11 3.310129 5.734393 0.000000 0.000000 0.000000 1.570796
    12 1.055919 0.000000 0.000000 0.000000 0.000000 0.000000
    13 1.055919 0.000000 -0.000001 0.000000 0.000000 0.000000
    14 1.384163 -0.004728 0.000002 -0.431530 -0.129359 0.271185
    15 5.939814 -0.004730 0.000000 -0.093615 -0.026965 0.225908
    16 5.939809 -0.003975 0.000000 -0.095444 -0.068108 0.133534
    17 4.991439 -0.003975 0.000000 -0.087226 0.060306 0.042841
    18 4.991436 -0.001575 0.000000 0.000000 0.000000 0.000000
    19 0.000005 0.001564 3.638375 -0.000010 -1.283530 3.140806
    20 8.842831 0.000000 -0.000002 0.679905 -0.571659 -1.827050
    21 9.341936 0.000000 0.000003 0.000000 0.000000 -0.086485
    22 9.664094 0.000000 -0.000003 -3.861952 -0.152243 -0.540545
    23 0.000005 0.001585 -3.638375 -0.000010 1.082924 3.140787
    24 8.842831 0.000000 0.000001 -0.053700 0.074238 -2.053410
    25 9.341935 0.000000 -0.000001 0.000000 0.000000 -0.783239
    26 9.664097 0.000000 -0.000002 2.840654 0.149948 0.479130
    27 1.977383 0.000000 0.000000 0.487209 0.362921 -0.096804
    28 14.749151 -0.637065 0.609129 1.516377 -0.033041 -3.136054
    29 14.827692 0.339927 1.738213 1.712062 0.032858 0.003941
  time 4
    0 2.664153 -4.860220 25.215134 0.002972 -0.095871 -1.571131
    1 -1.760454 -0.230475 9.745319 -1.570795 -1.570796 0.000000
    2 -0.000007 0.000010 5.615750 0.034032 3.237561 -0.673164
    3 15.693467 0.000000 0.000000 0.000000 0.000000 -1.128483
    4 22.146627 0.000000 0.000000 -0.655268 -0.155111 0.378970
    5 3.310129 5.734394 0.000000 0.000000 0.000000 1.570796
    6 1.055919 0.000000 0.000000 0.000000 0.000000 0.000000
    7 1.055919 0.000000 -0.000001 0.000000 0.000000 0.000000
    8 0.000008 -0.000006 -5.615750 0.153308 2.714570 -0.393266
    9 15.693467 0.000000 0.000000 0.000000 0.000000 -1.144737
    10 22.146627 0.000000 0.000000 0.335523 0.293708 0.566133
    11 3.310129 5.734393 0.000000 0.000000 0.000000 1.570796
    12 1.055919 0.000000 0.000000 0.000000 0.000000 0.000000
    13 1.055919 0.000000 -0.000001 0.000000 0.000000 0.000000
    14 1.384163 -0.004728 0.000002 -0.431530 -0.129359 0.271185
    15 5.939814 -0.004730 0.000000 -0.093615 -0.026965 0.225908
    16 5.939809 -0.003975 0.000000 -0.095444 -0.068108 0.133534
    17 4.991439 -0.003975 0.000000 -0.087226 0.060306 0.042841
    18 4.991436 -0.001575 0.000000 0.000000 0.000000 0.000000
    19 0.000005 0.001564 3.638375 -0.000010 -1.283530 3.140806
    20 8.842831 0.000000 -0.000002 0.651295 -0.605252 -1.789004
    21 9.341936 0.000000 0.000003 0.000000 0.000000 -0.157441
    22 9.664094 0.000000 -0.000003 -3.855059 -0.141036 -0.507532
    23 0.000005 0.001585 -3.638375 -0.000010 1.082924 3.140787
    24 8.842831 0.000000 0.000001 -0.054478 0.073715 -2.063454
    25 9.341935 0.000000 -0.000001 0.000000 0.000000 -0.783239
    26 9.664097 0.000000 -0.000002 2.840654 0.149948 0.479130
    27 1.977383 0.000000 0.000000 0.487209 0.362921 -0.096804
    28 14.749151 -0.637065 0.609129 1.516377 -0.033041 -3.136054
    29 14.827692 0.339927 1.738213 1.712062 0.032858 0.003941
  time 5
    0 2.664153 -4.860220 25.215134 0.002972 -0.095871 -1.571131
    1 -1.760454 -0.230475 9.745319 -1.570795 -1.570796 0.000000
    2 -0.000007 0.000010 5.615750 0.036141 3.238328 -0.682912
    3 15.693467 0.000000 0.000000 0.000000 0.000000 -1.127416
    4 22.146627 0.000000 0.000000 -0.616230 -0.153780 0.365963
    5 3.310129 5.734394 0.000000 0.000000 0.000000 1.570796
    6 1.055919 0.000000 0.000000 0.000000 0.000000 0.000000
    7 1.055919 0.000000 -0.000001 0.000000 0.000000 0.000000
    8 0.000008 -0.000006 -5.615750 0.206040 2.642856 -0.409295
    9 15.693467 0.000000 0.000000 0.000000 0.000000 -1.127929
    10 22.146627 0.000000 0.000000 0.392045 0.315843 0.496158
    11 3.310129 5.734393 0.000000 0.000000 0.000000 1.570796
    12 1.055919 0.000000 0.000000 0.000000 0.000000 0.000000
    13 1.055919 0.000000 -0.000001 0.000000 0.000000 0.000000
    14 1.384163 -0.004728 0.000002 -0.431530 -0.129359 0.271185
    15 5.939814 -0.004730 0.000000 -0.093615 -0.026965 0.225908
    16 5.939809 -0.003975 0.000000 -0.095444 -0.068108 0.133534
    17 4.991439 -0.003975 0.000000 -0.087226 0.060306 0.042841
    18 4.991436 -0.001575 0.000000 0.000000 0.000000 0.000000
    19 0.000005 0.001564 3.638375 -0.000010 -1.283530 3.140806
    20 8.842831 0.000000 -0.000002 0.619085 -0.640402 -1.746702
    21 9.341936 0.000000 0.000003 0.000000 0.000000 -0.231067
    22 9.664094 0.000000 -0.000003 -3.848453 -0.128843 -0.473330
    23 0.000005 0.001585 -3.638375 -0.000010 1.082924 3.140787
    24 8.842831 0.000000 0.000001 -0.055334 0.073103 -2.075028
    25 9.341935 0.000000 -0.000001 0.000000 0.000000 -0.783239
    26 9.664097 0.000000 -0.000002 2.840654 0.149948 0.479130
    27 1.977383 0.000000 0.000000 0.487209 0.362921 -0.096804
    28 14.749151 -0.637065 0.609129 1.516377 -0.033041 -3.136054
    29 14.827692 0.339927 1.738213 1.712062 0.032858 0.003941
  time 6
    0 2.664153 -4.860220 25.215134 0.002972 -0.095871 -1.571131
    1 -1.760454 -0.230475 9.745319 -1.570795 -1.570796 0.000000
    2 -0.000007 0.000010 5.615750 0.039688 3.239191 -0.704417
    3 15.693467 0.000000 0.000000 0.000000 0.000000 -1.124073
    4 22.146627 0.000000 0.000000 -0.528320 -0.148939 0.336680
    5 3.310129 5.734394 0.000000 0.000000 0.000000 1.570796
    6 1.055919 0.000000 0.000000 0.000000 0.000000 0.000000
    7 1.055919 0.000000 -0.000001 0.000000 0.000000 0.000000
    8 0.000008 -0.000006 -5.615750 0.231255 2.629530 -0.390757
    9 15.693467 0.000000 0.000000 0.000000 0.000000 -1.086504
    10 22.146627 0.000000 0.000000 0.407614 0.319803 0.462640
    11 3.310129 5.734393 0.000000 0.000000 0.000000 1.570796
    12 1.055919 0.000000 0.000000 0.000000 0.000000 0.000000
    13 1.055919 0.000000 -0.000001 0.000000 0.000000 0.000000
    14 1.384163 -0.004728 0.000002 -0.431530 -0.129359 0.271185
    15 5.939814 -0.004730 0.000000 -0.093615 -0.026965 0.225908
    16 5.939809 -0.003975 0.000000 -0.095444 -0.068108 0.133534
    17 4.991439 -0.003975 0.000000 -0.087226 0.060306 0.042841
    18 4.991436 -0.001575 0.000000 0.000000 0.000000 0.000000
    19 0.000005 0.001564 3.638375 -0.000010 -1.283530 3.140806
    20 8.842831 0.000000 -0.000002 0.590475 -0.668962 -1.711765
    21 9.341936 0.000000 0.000003 0.000000 0.000000 -0.286527
    22 9.664094 0.000000 -0.000003 -3.842230 -0.116919 -0.447901
    23 0.000005 0.001585 -3.638375 -0.000010 1.082924 3.140787
    24 8.842831 0.000000 0.000001 -0.056112 0.072492 -2.086506
    25 9.341935 0.000000 -0.000001 0.000000 0.000000 -0.783239
    26 9.664097 0.000000 -0.000002 2.840654 0.149948 0.479130
    27 1.977383 0.000000 0.000000 0.487209 0.362921 -0.096804
    28 14.749151 -0.637065 0.609129 1.516377 -0.033041 -3.136054
    29 14.827692 0.339927 1.738213 1.712062 0.032858 0.003941
  time 7
    0 2.664153 -4.860220 25.215134 0.002972 -0.095871 -1.571131
    1 -1.760454 -0.230475 9.745319 -1.570795 -1.570796 0.000000
    2 -0.000007 0.000010 5.615750 0.041988 3.238136 -0.729935
    3 15.693467 0.000000 0.000000 0.000000 0.000000 -1.118595
    4 22.146627 0.000000 0.000000 -0.420704 -0.139712 0.301057
    5 3.310129 5.734394 0.000000 0.000000 0.000000 1.570796
    6 1.055919 0.000000 0.000000 0.000000 0.000000 0.000000
    7 1.055919 0.000000 -0.000001 0.000000 0.000000 0.000000
    8 0.000008 -0.000006 -5.615750 0.184659 2.693094 -0.377027
    9 15.693467 0.000000 0.000000 0.000000 0.000000 -1.097660
    10 22.146627 0.000000 0.000000 0.358538 0.300308 0.524075
    11 3.310129 5.734393 0.000000 0.000000 0.000000 1.570796
    12 1.055919 0.000000 0.000000 0.000000 0.000000 0.000000
    13 1.055919 0.000000 -0.000001 0.000000 0.000000 0.000000
    14 1.384163 -0.004728 0.000002 -0.431530 -0.129359 0.271185
    15 5.939814 -0.004730 0.000000 -0.093615 -0.026965 0.225908
    16 5.939809 -0.003975 0.000000 -0.095444 -0.068108 0.133534
    17 4.991439 -0.003975 0.000000 -0.087226 0.060306 0.042841
    18 4.991436 -0.001575 0.000000 0.000000 0.000000 0.000000
    19 0.000005 0.001564 3.638375 -0.000010 -1.283530 3.140806
    20 8.842831 0.000000 -0.000002 0.566111 -0.691663 -1.684110
    21 9.341936 0.000000 0.000003 0.000000 0.000000 -0.326416
    22 9.664094 0.000000 -0.000003 -3.836582 -0.105802 -0.430057
    23 0.000005 0.001585 -3.638375 -0.000010 1.082924 3.140787
    24 8.842831 0.000000 0.000001 -0.056891 0.071881 -2.097028
    25 9.341935 0.000000 -0.000001 0.000000 0.000000 -0.783239
    26 9.664097 0.000000 -0.000002 2.840654 0.149948 0.479130
    27 1.977383 0.000000 0.000000 0.487209 0.362921 -0.096804
    28 14.749151 -0.637065 0.609129 1.516377 -0.033041 -3.136054
    29 14.827692 0.339927 1.738213 1.712062 0.032858 0.003941
  time 8
    0 2.664153 -4.860220 25.215134 0.002972 -0.095871 -1.571131
    1 -1.760454 -0.230475 9.745319 -1.570795 -1.570796 0.000000
    2 -0.000007 0.000010 5.615750 0.042180 3.234589 -0.755072
    3 15.693467 0.000000 0.000000 0.000000 0.000000 -1.111268
    4 22.146627 0.000000 0.000000 -0.309199 -0.126370 0.264715
    5 3.310129 5.734394 0.000000 0.000000 0.000000 1.570796
    6 1.055919 0.000000 0.000000 0.000000 0.000000 0.000000
    7 1.055919 0.000000 -0.000001 0.000000 0.000000 0.000000
    8 0.000008 -0.000006 -5.615750 0.119943 2.787242 -0.343087
    9 15.693467 0.000000 0.000000 0.000000 0.000000 -1.099965
    10 22.146627 0.000000 0.000000 0.282893 0.264021 0.603967
    11 3.310129 5.734393 0.000000 0.000000 0.000000 1.570796
    12 1.055919 0.000000 0.000000 0.000000 0.000000 0.000000
    13 1.055919 0.000000 -0.000001 0.000000 0.000000 0.000000
    14 1.384163 -0.004728 0.000002 -0.431530 -0.129359 0.271185
    15 5.939814 -0.004730 0.000000 -0.093615 -0.026965 0.225908
    16 5.939809 -0.003975 0.000000 -0.095444 -0.068108 0.133534
    17 4.991439 -0.003975 0.000000 -0.087226 0.060306 0.042841
    18 4.991436 -0.001575 0.000000 0.000000 0.000000 0.000000
    19 0.000005 0.001564 3.638375 -0.000010 -1.283530 3.140806
    20 8.842831 0.000000 -0.000002 0.545161 -0.710062 -1.661527
    21 9.341936 0.000000 0.000003 0.000000 0.000000 -0.356296
    22 9.664094 0.000000 -0.000003 -3.831412 -0.095671 -0.416970
    23 0.000005 0.001585 -3.638375 -0.000010 1.082924 3.140787
    24 8.842831 0.000000 0.000001 -0.057591 0.071358 -2.106689
    25 9.341935 0.000000 -0.000001 0.000000 0.000000 -0.783239
    26 9.664097 0.000000 -0.000002 2.840654 0.149948 0.479130
    27 1.977383 0.000000 0.000000 0.487209 0.362921 -0.096804
    28 14.749151 -0.637065 0.609129 1.516377 -0.033041 -3.136054
    29 14.827692 0.339927 1.738213 1.712062 0.032858 0.003941
  time 9
    0 2.664153 -4.860220 25.215134 0.002972 -0.095871 -1.571131
    1 -1.760454 -0.230475 9.745319 -1.570795 -1.570796 0.000000
    2 -0.000007 0.000010 5.615750 0.040167 3.228836 -0.777819
    3 15.693467 0.000000 0.000000 0.000000 0.000000 -1.102660
    4 22.146627 0.000000 0.000000 -0.202219 -0.110093 0.230726
    5 3.310129 5.734394 0.000000 0.000000 0.000000 1.570796
    6 1.055919 0.000000 0.000000 0.000000 0.000000 0.000000
    7 1.055919 0.000000 -0.000001 0.000000 0.000000 0.000000
    8 0.000008 -0.000006 -5.615750 0.069799 2.868639 -0.294372
    9 15.693467 0.000000 0.000000 0.000000 0.000000 -1.074307
    10 22.146627 0.000000 0.000000 0.214468 0.224019 0.655301
    11 3.310129 5.734393 0.000000 0.000000 0.000000 1.570796
    12 1.055919 0.000000 0.000000 0.000000 0.000000 0.000000
    13 1.055919 0.000000 -0.000001 0.000000 0.000000 0.000000
    14 1.384163 -0.004728 0.000002 -0.431530 -0.129359 0.271185
    15 5.939814 -0.004730 0.000000 -0.093615 -0.026965 0.225908
    16 5.939809 -0.003975 0.000000 -0.095444 -0.068108 0.133534
    17 4.991439 -0.003975 0.000000 -0.087226 0.060306 0.042841
    18 4.991436 -0.001575 0.000000 0.000000 0.000000 0.000000
    19 0.000005 0.001564 3.638375 -0.000010 -1.283530 3.140806
    20 8.842831 0.000000 -0.000002 0.526241 -0.725989 -1.641727
    21 9.341936 0.000000 0.000003 0.000000 0.000000 -0.381061
    22 9.664094 0.000000 -0.000003 -3.826721 -0.086346 -0.406264
    23 0.000005 0.001585 -3.638375 -0.000010 1.082924 3.140787
    24 8.842831 0.000000 0.000001 -0.058214 0.070834 -2.115394
    25 9.341935 0.000000 -0.000001 0.000000 0.000000 -0.783239
    26 9.664097 0.000000 -0.000002 2.840654 0.149948 0.479130
    27 1.977383 0.000000 0.000000 0.487209 0.362921 -0.096804
    28 14.749151 -0.637065 0.609129 1.516377 -0.033041 -3.136054
    29 14.827692 0.339927 1.738213 1.712062 0.032858 0.003941
  time 10
    0 2.664153 -4.860220 25.215134 0.002972 -0.095871 -1.571131
    1 -1.760454 -0.230475 9.745319 -1.570795 -1.570796 0.000000
    2 -0.000007 0.000010 5.615750 0.036428 3.221646 -0.796934
    3 15.693467 0.000000 0.000000 0.000000 0.000000 -1.093555
    4 22.146627 0.000000 0.000000 -0.104849 -0.092425 0.200921
    5 3.310129 5.734394 0.000000 0.000000 0.000000 1.570796
    6 1.055919 0.000000 0.000000 0.000000 0.000000 0.000000
    7 1.055919 0.000000 -0.000001 0.000000 0.000000 0.000000
    8 0.000008 -0.000006 -5.615750 0.019464 2.945817 -0.240500
    9 15.693467 0.000000 0.000000 0.000000 0.000000 -1.042997
    10 22.146627 0.000000 0.000000 0.143957 0.178091 0.697267
    11 3.310129 5.734393 0.000000 0.000000 0.000000 1.570796
    12 1.055919 0.000000 0.000000 0.000000 0.000000 0.000000
    13 1.055919 0.000000 -0.000001 0.000000 0.000000 0.000000
    14 1.384163 -0.004728 0.000002 -0.431530 -0.129359 0.271185
    15 5.939814 -0.004730 0.000000 -0.093615 -0.026965 0.225908
    16 5.939809 -0.003975 0.000000 -0.095444 -0.068108 0.133534
    17 4.991439 -0.003975 0.000000 -0.087226 0.060306 0.042841
    18 4.991436 -0.001575 0.000000 0.000000 0.000000 0.000000
    19 0.000005 0.001564 3.638375 -0.000010 -1.283530 3.140806
    20 8.842831 0.000000 -0.000002 0.508244 -0.740543 -1.622745
    21 9.341936 0.000000 0.000003 0.000000 0.000000 -0.404194
    22 9.664094 0.000000 -0.000003 -3.822700 -0.077919 -0.396226
    23 0.000005 0.001585 -3.638375 -0.000010 1.082924 3.140787
    24 8.842831 0.000000 0.000001 -0.058758 0.070310 -2.123429
    25 9.341935 0.000000 -0.000001 0.000000 0.000000 -0.783239
    26 9.664097 0.000000 -0.000002 2.840654 0.149948 0.479130
    27 1.977383 0.000000 0.000000 0.487209 0.362921 -0.096804
    28 14.749151 -0.637065 0.609129 1.516377 -0.033041 -3.136054
    29 14.827692 0.339927 1.738213 1.712062 0.032858 0.003941
  time 11
    0 2.664153 -4.860220 25.215134 0.002972 -0.095871 -1.571131
    1 -1.760454 -0.230475 9.745319 -1.570795 -1.570796 0.000000
    2 -0.000007 0.000010 5.615750 0.031731 3.214072 -0.811843
    3 15.693467 0.000000 0.000000 0.000000 0.000000 -1.084876
    4 22.146627 0.000000 0.000000 -0.022510 -0.075483 0.176802
    5 3.310129 5.734394 0.000000 0.000000 0.000000 1.570796
    6 1.055919 0.000000 0.000000 0.000000 0.000000 0.000000
    7 1.055919 0.000000 -0.000001 0.000000 0.000000 0.000000
    8 0.000008 -0.000006 -5.615750 -0.024735 3.008231 -0.192203
    9 15.693467 0.000000 0.000000 0.000000 0.000000 -1.015182
    10 22.146627 0.000000 0.000000 0.081737 0.134958 0.727755
    11 3.310129 5.734393 0.000000 0.000000 0.000000 1.570796
    12 1.055919 0.000000 0.000000 0.000000 0.000000 0.000000
    13 1.055919 0.000000 -0.000001 0.000000 0.000000 0.000000
    14 1.384163 -0.004728 0.000002 -0.431530 -0.129359 0.271185
    15 5.939814 -0.004730 0.000000 -0.093615 -0.026965 0.225908
    16 5.939809 -0.003975 0.000000 -0.095444 -0.068108 0.133534
    17 4.991439 -0.003975 0.000000 -0.087226 0.060306 0.042841
    18 4.991436 -0.001575 0.000000 0.000000 0.000000 0.000000
    19 0.000005 0.001564 3.638375 -0.000010 -1.283530 3.140806
    20 8.842831 0.000000 -0.000002 0.491355 -0.753724 -1.604253
    21 9.341936 0.000000 0.000003 0.000000 0.000000 -0.426585
    22 9.664094 0.000000 -0.000003 -3.819541 -0.070567 -0.386337
    23 0.000005 0.001585 -3.638375 -0.000010 1.082924 3.140787
    24 8.842831 0.000000 0.000001 -0.059303 0.069961 -2.130507
    25 9.341935 0.000000 -0.000001 0.000000 0.000000 -0.783239
    26 9.664097 0.000000 -0.000002 2.840654 0.149948 0.479130
    27 1.977383 0.000000 0.000000 0.487209 0.362921 -0.096804
    28 14.749151 -0.637065 0.609129 1.516377 -0.033041 -3.136054
    29 14.827692 0.339927 1.738213 1.712062 0.032858 0.003941
  time 12
    0 2.664153 -4.860220 25.215134 0.002972 -0.095871 -1.571131
    1 -1.760454 -0.230475 9.745319 -1.570795 -1.570796 0.000000
    2 -0.000007 0.000010 5.615750 0.027609 3.208032 -0.821687
    3 15.693467 0.000000 0.000000 0.000000 0.000000 -1.078189
    4 22.146627 0.000000 0.000000 0.036009 -0.062383 0.160265
    5 3.310129 5.734394 0.000000 0.000000 0.000000 1.570796
    6 1.055919 0.000000 0.000000 0.000000 0.000000 0.000000
    7 1.055919 0.000000 -0.000001 0.000000 0.000000 0.000000
    8 0.000008 -0.000006 -5.615750 -0.058675 3.052045 -0.155824
    9 15.693467 0.000000 0.000000 0.000000 0.000000 -0.995325
    10 22.146627 0.000000 0.000000 0.034748 0.101249 0.747958
    11 3.310129 5.734393 0.000000 0.000000 0.000000 1.570796
    12 1.055919 0.000000 0.000000 0.000000 0.000000 0.000000
    13 1.055919 0.000000 -0.000001 0.000000 0.000000 0.000000
    14 1.384163 -0.004728 0.000002 -0.431530 -0.129359 0.271185
    15 5.939814 -0.004730 0.000000 -0.093615 -0.026965 0.225908
    16 5.939809 -0.003975 0.000000 -0.095444 -0.068108 0.133534
    17 4.991439 -0.003975 0.000000 -0.087226 0.060306 0.042841
    18 4.991436 -0.001575 0.000000 0.000000 0.000000 0.000000
    19 0.000005 0.001564 3.638375 -0.000010 -1.283530 3.140806
    20 8.842831 0.000000 -0.000002 0.476866 -0.764617 -1.587725
    21 9.341936 0.000000 0.000003 0.000000 0.000000 -0.446975
    22 9.664094 0.000000 -0.000003 -3.817243 -0.065008 -0.377192
    23 0.000005 0.001585 -3.638375 -0.000010 1.082924 3.140787
    24 8.842831 0.000000 0.000001 -0.059692 0.069612 -2.136055
    25 9.341935 0.000000 -0.000001 0.000000 0.000000 -0.783239
    26 9.664097 0.000000 -0.000002 2.840654 0.149948 0.479130
    27 1.977383 0.000000 0.000000 0.487209 0.362921 -0.096804
    28 14.749151 -0.637065 0.609129 1.516377 -0.033041 -3.136054
    29 14.827692 0.339927 1.738213 1.712062 0.032858 0.003941
end
