version 1
nodes
  0 "Bip01" -1
  1 "Bip01 Pelvis" 0
  2 "Bip01 L Thigh" 1
  3 "Bip01 L Calf" 2
  4 "Bip01 L Foot" 3
  5 "Bip01 L Toe0" 4
  6 "Bip01 L Toe01" 5
  7 "Bip01 L Toe02" 6
  8 "Bip01 R Thigh" 1
  9 "Bip01 R Calf" 8
  10 "Bip01 R Foot" 9
  11 "Bip01 R Toe0" 10
  12 "Bip01 R Toe01" 11
  13 "Bip01 R Toe02" 12
  14 "Bip01 Spine" 1
  15 "Bip01 Spine1" 14
  16 "Bip01 Spine2" 15
  17 "Bip01 Spine3" 16
  18 "Bip01 Neck" 17
  19 "Bip01 L Clavicle" 18
  20 "Bip01 L UpperArm" 19
  21 "Bip01 L Forearm" 20
  22 "Bip01 L Hand" 21
  23 "Bip01 R Clavicle" 18
  24 "Bip01 R UpperArm" 23
  25 "Bip01 R Forearm" 24
  26 "Bip01 R Hand" 25
  27 "Bip01 Head" 18
  28 "Line01" 26
  29 "Shotgun" 26
end
skeleton
  time 0
    0 2.664153 -10.939185 13.434075 0.003835 -0.706749 -1.573336
    1 -1.760454 -0.230475 9.745319 -1.570795 -1.570796 0.000000
    2 -0.000007 0.000010 5.615750 0.083401 3.222796 -1.236197
    3 15.693467 0.000000 0.000000 0.000000 0.000000 -1.971033
    4 22.146627 0.000000 0.000000 0.105933 -0.048255 0.028950
    5 3.310129 5.734394 0.000000 0.000000 0.000000 1.570796
    6 1.055919 0.000000 0.000000 0.000000 0.000000 0.000000
    7 1.055919 0.000000 -0.000001 0.000000 0.000000 0.000000
    8 0.000008 -0.000006 -5.615750 -0.163756 2.946488 -0.017275
    9 15.693467 0.000000 0.000000 0.000000 0.000000 -2.070286
    10 22.146627 0.000000 0.000000 -0.004682 0.254043 1.361755
    11 3.310129 5.734393 0.000000 0.000000 0.000000 1.570796
    12 1.055919 0.000000 0.000000 0.000000 0.000000 0.000000
    13 1.055919 0.000000 -0.000001 0.000000 0.000000 0.000000
    14 1.384163 -0.004728 0.000002 -0.431530 -0.129359 0.271185
    15 5.939814 -0.004730 0.000000 -0.093615 -0.026965 0.225908
    16 5.939809 -0.003975 0.000000 -0.095444 -0.068108 0.133534
    17 4.991439 -0.003975 0.000000 -0.087226 0.060306 0.042841
    18 4.991436 -0.001575 0.000000 0.000000 0.000000 0.000000
    19 0.000005 0.001564 3.638375 -0.000010 -1.283530 3.140806
    20 8.842831 0.000000 -0.000002 0.481296 -0.765441 -1.588380
    21 9.341936 0.000000 0.000003 0.000000 0.000000 -0.446975
    22 9.664094 0.000000 -0.000003 -3.820690 -0.067339 -0.376969
    23 0.000005 0.001585 -3.638375 -0.000010 1.082924 3.140787
    24 8.842831 0.000000 0.000001 -0.059692 0.069612 -2.136055
    25 9.341935 0.000000 -0.000001 0.000000 0.000000 -0.783239
    26 9.664097 0.000000 -0.000002 2.840654 0.149948 0.479130
    27 1.977383 0.000000 0.000000 0.487209 0.362921 -0.096804
    28 14.749151 -0.637065 0.609129 1.516377 -0.033041 -3.136054
    29 14.827692 0.339927 1.738213 1.712062 0.032858 0.003941
  time 1
    0 2.619983 -10.699689 13.434075 0.003835 -0.706749 -1.573336
    1 -1.760454 -0.230475 9.745319 -1.570795 -1.570796 0.000000
    2 -0.000007 0.000010 5.615750 0.084072 3.223755 -1.236579
    3 15.693467 0.000000 0.000000 0.000000 0.000000 -1.960291
    4 22.146627 0.000000 0.000000 0.107130 -0.048497 0.017838
    5 3.310129 5.734394 0.000000 0.000000 0.000000 1.570796
    6 1.055919 0.000000 0.000000 0.000000 0.000000 0.000000
    7 1.055919 0.000000 -0.000001 0.000000 0.000000 0.000000
    8 0.000008 -0.000006 -5.615750 -0.164715 2.949460 -0.034559
    9 15.693467 0.000000 0.000000 0.000000 0.000000 -2.079880
    10 22.146627 0.000000 0.000000 -0.006431 0.252416 1.353674
    11 3.310129 5.734393 0.000000 0.000000 0.000000 1.570796
    12 1.055919 0.000000 0.000000 0.000000 0.000000 0.000000
    13 1.055919 0.000000 -0.000001 0.000000 0.000000 0.000000
    14 1.384163 -0.004728 0.000002 -0.431530 -0.129359 0.271185
    15 5.939814 -0.004730 0.000000 -0.093615 -0.026965 0.225908
    16 5.939809 -0.003975 0.000000 -0.095444 -0.068108 0.133534
    17 4.991439 -0.003975 0.000000 -0.087226 0.060306 0.042841
    18 4.991436 -0.001575 0.000000 0.000000 0.000000 0.000000
    19 0.000005 0.001564 3.638375 -0.000010 -1.283530 3.140806
    20 8.842831 0.000000 -0.000002 0.487018 -0.770567 -1.600735
    21 9.341936 0.000000 0.000003 0.000000 0.000000 -0.617062
    22 9.664094 0.000000 -0.000003 -3.812552 -0.043760 -0.200232
    23 0.000005 0.001585 -3.638375 -0.000010 1.082924 3.140787
    24 8.842831 0.000000 0.000001 -0.036967 0.089166 -1.906772
    25 9.341935 0.000000 -0.000001 0.000000 0.000000 -1.122789
    26 9.664097 0.000000 -0.000002 2.857443 0.144113 0.582135
    27 1.977383 0.000000 0.000000 0.495788 0.350579 -0.072155
    28 14.749151 -0.637065 0.609129 1.516377 -0.033041 -3.136054
    29 14.827692 0.339927 1.738213 1.712062 0.032858 0.003941
  time 2
    0 2.708322 -10.234786 13.389195 0.003835 -0.706749 -1.573336
    1 -1.713577 -0.265632 9.745319 -1.570795 -1.570796 0.000000
    2 -0.000007 0.000010 5.615750 0.080237 3.221550 -1.236961
    3 15.693467 0.000000 0.000000 0.000000 0.000000 -1.941582
    4 22.146627 0.000000 0.000000 0.103652 -0.045623 -0.001313
    5 3.310129 5.734394 0.000000 0.000000 0.000000 1.570796
    6 1.055919 0.000000 0.000000 0.000000 0.000000 0.000000
    7 1.055919 0.000000 -0.000001 0.000000 0.000000 0.000000
    8 0.000008 -0.000006 -5.615750 -0.171810 2.948501 -0.066408
    9 15.693467 0.000000 0.000000 0.000000 0.000000 -2.094903
    10 22.146627 0.000000 0.000000 -0.010041 0.257605 1.337144
    11 3.310129 5.734393 0.000000 0.000000 0.000000 1.570796
    12 1.055919 0.000000 0.000000 0.000000 0.000000 0.000000
    13 1.055919 0.000000 -0.000001 0.000000 0.000000 0.000000
    14 1.384163 -0.004728 0.000002 -0.431530 -0.129359 0.271185
    15 5.939814 -0.004730 0.000000 -0.093615 -0.026965 0.225908
    16 5.939809 -0.003975 0.000000 -0.174827 -0.072471 0.052608
    17 4.991439 -0.003975 0.000000 -0.087226 0.060306 0.042841
    18 4.991436 -0.001575 0.000000 0.000000 0.000000 0.000000
    19 0.000005 0.001564 3.638375 -0.000010 -1.283530 3.140806
    20 8.842831 0.000000 -0.000002 0.186335 -0.883706 -1.155386
    21 9.341936 0.000000 0.000003 0.000000 0.000000 -1.119613
    22 9.664094 0.000000 -0.000003 -3.843283 0.033971 0.027064
    23 0.000005 0.001585 -3.638375 0.184354 1.075852 3.303484
    24 8.842831 0.000000 0.000001 0.010506 -0.046053 -2.029592
    25 9.341935 0.000000 -0.000001 0.000000 0.000000 -1.109932
    26 9.664097 0.000000 -0.000002 2.856548 0.144443 0.576693
    27 1.977383 0.000000 0.000000 0.601682 0.290456 0.109151
    28 14.749151 -0.637065 0.609129 1.516377 -0.033041 -3.136054
    29 14.827692 0.339927 1.738213 1.712062 0.032858 0.003941
  time 3
    0 2.664153 -9.953026 13.299434 0.003835 -0.706749 -1.573336
    1 -1.580761 -0.320321 9.745319 -1.570795 -1.570796 0.000000
    2 -0.000007 0.000010 5.615750 0.082826 3.224138 -1.236866
    3 15.693467 0.000000 0.000000 0.000000 0.000000 -1.932974
    4 22.146627 0.000000 0.000000 0.107018 -0.047196 -0.009745
    5 3.310129 5.734394 0.000000 0.000000 0.000000 1.570796
    6 1.055919 0.000000 0.000000 0.000000 0.000000 0.000000
    7 1.055919 0.000000 -0.000001 0.000000 0.000000 0.000000
    8 0.000008 -0.000006 -5.615750 -0.169988 2.953774 -0.078953
    9 15.693467 0.000000 0.000000 0.000000 0.000000 -2.102488
    10 22.146627 0.000000 0.000000 -0.010887 0.252508 1.331451
    11 3.310129 5.734393 0.000000 0.000000 0.000000 1.570796
    12 1.055919 0.000000 0.000000 0.000000 0.000000 0.000000
    13 1.055919 0.000000 -0.000001 0.000000 0.000000 0.000000
    14 1.384163 -0.004728 0.000002 -0.473846 -0.117582 0.276383
    15 5.939814 -0.004730 0.000000 -0.095453 -0.037668 0.113092
    16 5.939809 -0.003975 0.000000 -0.169882 -0.071812 0.057594
    17 4.991439 -0.003975 0.000000 -0.087226 0.060306 0.042841
    18 4.991436 -0.001575 0.000000 0.000000 0.000000 0.000000
    19 0.000005 0.001564 3.638375 -0.000010 -1.283530 3.140806
    20 8.842831 0.000000 -0.000002 0.080939 -0.757844 -0.889061
    21 9.341936 0.000000 0.000003 0.000000 0.000000 -1.357839
    22 9.664094 0.000000 -0.000003 -3.830838 -0.024843 0.134802
    23 0.000005 0.001585 -3.638375 0.173041 1.076666 3.293513
    24 8.842831 0.000000 0.000001 -0.003113 -0.167653 -2.043366
    25 9.341935 0.000000 -0.000001 0.000000 0.000000 -1.062767
    26 9.664097 0.000000 -0.000002 2.854654 0.145195 0.564665
    27 1.977383 0.000000 0.000000 0.633051 0.247121 0.198335
    28 14.749151 -0.637065 0.609129 1.516377 -0.033041 -3.136054
    29 14.827692 0.339927 1.738213 1.712062 0.032858 0.003941
  time 4
    0 1.802846 -9.889630 13.321874 0.003835 -0.706749 -1.573336
    1 -1.612012 -0.238288 9.745319 -1.570795 -1.570796 0.000000
    2 -0.000007 0.000010 5.615750 0.110721 3.247340 -1.235814
    3 15.693467 0.000000 0.000000 0.000000 0.000000 -1.922090
    4 22.146627 0.000000 0.000000 0.138614 -0.064864 -0.019157
    5 3.310129 5.734394 0.000000 0.000000 0.000000 1.570796
    6 1.055919 0.000000 0.000000 0.000000 0.000000 0.000000
    7 1.055919 0.000000 -0.000001 0.000000 0.000000 0.000000
    8 0.000008 -0.000006 -5.615750 -0.138828 2.990878 -0.082507
    9 15.693467 0.000000 0.000000 0.000000 0.000000 -2.115131
    10 22.146627 0.000000 0.000000 -0.008292 0.204432 1.335491
    11 3.310129 5.734393 0.000000 0.000000 0.000000 1.570796
    12 1.055919 0.000000 0.000000 0.000000 0.000000 0.000000
    13 1.055919 0.000000 -0.000001 0.000000 0.000000 0.000000
    14 1.384163 -0.004728 0.000002 -0.532871 -0.100725 0.282801
    15 5.939814 -0.004730 0.000000 -0.095353 -0.036877 0.121359
    16 5.939809 -0.003975 0.000000 -0.159592 -0.070613 0.068013
    17 4.991439 -0.003975 0.000000 -0.087226 0.060306 0.042841
    18 4.991436 -0.001575 0.000000 0.000000 0.000000 0.000000
    19 0.000005 0.001564 3.638375 -0.000010 -1.283530 3.140806
    20 8.842831 0.000000 -0.000002 -0.116286 -0.832263 -0.685819
    21 9.341936 0.000000 0.000003 0.000000 0.000000 -1.479881
    22 9.664094 0.000000 -0.000003 -3.842326 0.020971 0.166178
    23 0.000005 0.001585 -3.638375 0.149457 1.078294 3.272709
    24 8.842831 0.000000 0.000001 -0.007705 -0.135267 -2.119411
    25 9.341935 0.000000 -0.000001 0.000000 0.000000 -1.030390
    26 9.664097 0.000000 -0.000002 2.852654 0.145948 0.552446
    27 1.977383 0.000000 0.000000 0.671998 0.235052 0.155560
    28 14.749151 -0.637065 0.609129 1.516377 -0.033041 -3.136054
    29 14.827692 0.339927 1.738213 1.712062 0.032858 0.003941
  time 5
    0 1.250727 -10.002334 13.344314 0.003835 -0.706749 -1.573336
    1 -1.635450 -0.230475 9.745319 -1.570795 -1.570796 0.000000
    2 -0.000007 0.000010 5.615750 0.130661 3.263638 -1.235050
    3 15.693467 0.000000 0.000000 0.000000 0.000000 -1.920739
    4 22.146627 0.000000 0.000000 0.160938 -0.077752 -0.019353
    5 3.310129 5.734394 0.000000 0.000000 0.000000 1.570796
    6 1.055919 0.000000 0.000000 0.000000 0.000000 0.000000
    7 1.055919 0.000000 -0.000001 0.000000 0.000000 0.000000
    8 0.000008 -0.000006 -5.615750 -0.115339 3.016188 -0.073447
    9 15.693467 0.000000 0.000000 0.000000 0.000000 -2.116916
    10 22.146627 0.000000 0.000000 -0.005641 0.170140 1.343481
    11 3.310129 5.734393 0.000000 0.000000 0.000000 1.570796
    12 1.055919 0.000000 0.000000 0.000000 0.000000 0.000000
    13 1.055919 0.000000 -0.000001 0.000000 0.000000 0.000000
    14 1.384163 -0.004728 0.000002 -0.521337 -0.104059 0.281634
    15 5.939814 -0.004730 0.000000 -0.095155 -0.035307 0.137722
    16 5.939809 -0.003975 0.000000 -0.149206 -0.069630 0.078539
    17 4.991439 -0.003975 0.000000 -0.087226 0.060306 0.042841
    18 4.991436 -0.001575 0.000000 0.000000 0.000000 0.000000
    19 0.000005 0.001564 3.638375 -0.000010 -1.283530 3.140806
    20 8.842831 0.000000 -0.000002 -0.062481 -0.844803 -0.778849
    21 9.341936 0.000000 0.000003 0.000000 0.000000 -1.376523
    22 9.664094 0.000000 -0.000003 -3.838209 0.009316 0.109968
    23 0.000005 0.001585 -3.638375 0.125488 1.079668 3.251616
    24 8.842831 0.000000 0.000001 -0.014242 -0.102008 -2.125725
    25 9.341935 0.000000 -0.000001 0.000000 0.000000 -0.990886
    26 9.664097 0.000000 -0.000002 2.850759 0.146654 0.540608
    27 1.977383 0.000000 0.000000 0.648472 0.255912 0.117018
    28 14.749151 -0.637065 0.609129 1.516377 -0.033041 -3.136054
    29 14.827692 0.339927 1.738213 1.712062 0.032858 0.003941
  time 6
    0 1.316981 -10.206610 13.366755 0.003835 -0.706749 -1.573336
    1 -1.658888 -0.226568 9.745319 -1.570795 -1.570796 0.000000
    2 -0.000007 0.000010 5.615750 0.129606 3.262008 -1.235241
    3 15.693467 0.000000 0.000000 0.000000 0.000000 -1.929986
    4 22.146627 0.000000 0.000000 0.159105 -0.077268 -0.010333
    5 3.310129 5.734394 0.000000 0.000000 0.000000 1.570796
    6 1.055919 0.000000 0.000000 0.000000 0.000000 0.000000
    7 1.055919 0.000000 -0.000001 0.000000 0.000000 0.000000
    8 0.000008 -0.000006 -5.615750 -0.116681 3.012449 -0.059787
    9 15.693467 0.000000 0.000000 0.000000 0.000000 -2.109479
    10 22.146627 0.000000 0.000000 -0.004964 0.173793 1.350092
    11 3.310129 5.734393 0.000000 0.000000 0.000000 1.570796
    12 1.055919 0.000000 0.000000 0.000000 0.000000 0.000000
    13 1.055919 0.000000 -0.000001 0.000000 0.000000 0.000000
    14 1.384163 -0.004728 0.000002 -0.505015 -0.108743 0.279937
    15 5.939814 -0.004730 0.000000 -0.094931 -0.033749 0.154128
    16 5.939809 -0.003975 0.000000 -0.139164 -0.068887 0.088767
    17 4.991439 -0.003975 0.000000 -0.087226 0.060306 0.042841
    18 4.991436 -0.001575 0.000000 0.000000 0.000000 0.000000
    19 0.000005 0.001564 3.638375 -0.000010 -1.283530 3.140806
    20 8.842831 0.000000 -0.000002 0.014951 -0.849929 -0.898470
    21 9.341936 0.000000 0.000003 0.000000 0.000000 -1.252702
    22 9.664094 0.000000 -0.000003 -3.833518 -0.005656 0.044909
    23 0.000005 0.001585 -3.638375 0.102191 1.080787 3.231100
    24 8.842831 0.000000 0.000001 -0.021246 -0.069797 -2.127064
    25 9.341935 0.000000 -0.000001 0.000000 0.000000 -0.952181
    26 9.664097 0.000000 -0.000002 2.848864 0.147313 0.529153
    27 1.977383 0.000000 0.000000 0.620419 0.277642 0.079224
    28 14.749151 -0.637065 0.609129 1.516377 -0.033041 -3.136054
    29 14.827692 0.339927 1.738213 1.712062 0.032858 0.003941
  time 7
    0 1.412682 -10.354533 13.366755 0.003835 -0.706749 -1.573336
    1 -1.682326 -0.226568 9.745319 -1.570795 -1.570796 0.000000
    2 -0.000007 0.000010 5.615750 0.127018 3.259420 -1.235336
    3 15.693467 0.000000 0.000000 0.000000 0.000000 -1.936744
    4 22.146627 0.000000 0.000000 0.155740 -0.075786 -0.003797
    5 3.310129 5.734394 0.000000 0.000000 0.000000 1.570796
    6 1.055919 0.000000 0.000000 0.000000 0.000000 0.000000
    7 1.055919 0.000000 -0.000001 0.000000 0.000000 0.000000
    8 0.000008 -0.000006 -5.615750 -0.119557 3.007464 -0.050658
    9 15.693467 0.000000 0.000000 0.000000 0.000000 -2.103901
    10 22.146627 0.000000 0.000000 -0.004626 0.179411 1.354041
    11 3.310129 5.734393 0.000000 0.000000 0.000000 1.570796
    12 1.055919 0.000000 0.000000 0.000000 0.000000 0.000000
    13 1.055919 0.000000 -0.000001 0.000000 0.000000 0.000000
    14 1.384163 -0.004728 0.000002 -0.489032 -0.113295 0.278133
    15 5.939814 -0.004730 0.000000 -0.094683 -0.032263 0.169809
    16 5.939809 -0.003975 0.000000 -0.129605 -0.068372 0.098504
    17 4.991439 -0.003975 0.000000 -0.087226 0.060306 0.042841
    18 4.991436 -0.001575 0.000000 0.000000 0.000000 0.000000
    19 0.000005 0.001564 3.638375 -0.000010 -1.283530 3.140806
    20 8.842831 0.000000 -0.000002 0.096905 -0.849838 -1.022264
    21 9.341936 0.000000 0.000003 0.000000 0.000000 -1.122727
    22 9.664094 0.000000 -0.000003 -3.829306 -0.019553 -0.023570
    23 0.000005 0.001585 -3.638375 0.079948 1.081601 3.211446
    24 8.842831 0.000000 0.000001 -0.028484 -0.039156 -2.128307
    25 9.341935 0.000000 -0.000001 0.000000 0.000000 -0.915275
    26 9.664097 0.000000 -0.000002 2.847075 0.147925 0.518270
    27 1.977383 0.000000 0.000000 0.592577 0.297782 0.042275
    28 14.749151 -0.637065 0.609129 1.516377 -0.033041 -3.136054
    29 14.827692 0.339927 1.738213 1.712062 0.032858 0.003941
  time 8
    0 1.501021 -10.481325 13.389195 0.003835 -0.706749 -1.573336
    1 -1.701858 -0.226568 9.745319 -1.570795 -1.570796 0.000000
    2 -0.000007 0.000010 5.615750 0.124430 3.256927 -1.235432
    3 15.693467 0.000000 0.000000 0.000000 0.000000 -1.942578
    4 22.146627 0.000000 0.000000 0.152487 -0.074273 0.001890
    5 3.310129 5.734394 0.000000 0.000000 0.000000 1.570796
    6 1.055919 0.000000 0.000000 0.000000 0.000000 0.000000
    7 1.055919 0.000000 -0.000001 0.000000 0.000000 0.000000
    8 0.000008 -0.000006 -5.615750 -0.122242 3.002766 -0.042922
    9 15.693467 0.000000 0.000000 0.000000 0.000000 -2.098993
    10 22.146627 0.000000 0.000000 -0.004344 0.184753 1.357439
    11 3.310129 5.734393 0.000000 0.000000 0.000000 1.570796
    12 1.055919 0.000000 0.000000 0.000000 0.000000 0.000000
    13 1.055919 0.000000 -0.000001 0.000000 0.000000 0.000000
    14 1.384163 -0.004728 0.000002 -0.473992 -0.117529 0.276383
    15 5.939814 -0.004730 0.000000 -0.094435 -0.030860 0.184489
    16 5.939809 -0.003975 0.000000 -0.120638 -0.068072 0.107667
    17 4.991439 -0.003975 0.000000 -0.087226 0.060306 0.042841
    18 4.991436 -0.001575 0.000000 0.000000 0.000000 0.000000
    19 0.000005 0.001564 3.638375 -0.000010 -1.283530 3.140806
    20 8.842831 0.000000 -0.000002 0.180613 -0.844071 -1.147204
    21 9.341936 0.000000 0.000003 0.000000 0.000000 -0.987858
    22 9.664094 0.000000 -0.000003 -3.825764 -0.032105 -0.094800
    23 0.000005 0.001585 -3.638375 0.059048 1.082212 3.192942
    24 8.842831 0.000000 0.000001 -0.035878 -0.010524 -2.129838
    25 9.341935 0.000000 -0.000001 0.000000 0.000000 -0.880700
    26 9.664097 0.000000 -0.000002 2.845444 0.148489 0.507960
    27 1.977383 0.000000 0.000000 0.565840 0.315911 0.006920
    28 14.749151 -0.637065 0.609129 1.516377 -0.033041 -3.136054
    29 14.827692 0.339927 1.738213 1.712062 0.032858 0.003941
  time 9
    0 1.596722 -10.608117 13.411635 0.003835 -0.706749 -1.573336
    1 -1.721390 -0.226568 9.745319 -1.570795 -1.570796 0.000000
    2 -0.000007 0.000010 5.615750 0.121841 3.254339 -1.235432
    3 15.693467 0.000000 0.000000 0.000000 0.000000 -1.948411
    4 22.146627 0.000000 0.000000 0.149196 -0.072760 0.007642
    5 3.310129 5.734394 0.000000 0.000000 0.000000 1.570796
    6 1.055919 0.000000 0.000000 0.000000 0.000000 0.000000
    7 1.055919 0.000000 -0.000001 0.000000 0.000000 0.000000
    8 0.000008 -0.000006 -5.615750 -0.125022 2.998068 -0.035116
    9 15.693467 0.000000 0.000000 0.000000 0.000000 -2.094010
    10 22.146627 0.000000 0.000000 -0.004005 0.190034 1.360745
    11 3.310129 5.734393 0.000000 0.000000 0.000000 1.570796
    12 1.055919 0.000000 0.000000 0.000000 0.000000 0.000000
    13 1.055919 0.000000 -0.000001 0.000000 0.000000 0.000000
    14 1.384163 -0.004728 0.000002 -0.460257 -0.121393 0.274792
    15 5.939814 -0.004730 0.000000 -0.094186 -0.029602 0.197912
    16 5.939809 -0.003975 0.000000 -0.112469 -0.067941 0.116040
    17 4.991439 -0.003975 0.000000 -0.087226 0.060306 0.042841
    18 4.991436 -0.001575 0.000000 0.000000 0.000000 0.000000
    19 0.000005 0.001564 3.638375 -0.000010 -1.283530 3.140806
    20 8.842831 0.000000 -0.000002 0.264136 -0.831988 -1.270999
    21 9.341936 0.000000 0.000003 0.000000 0.000000 -0.848764
    22 9.664094 0.000000 -0.000003 -3.822796 -0.043043 -0.168112
    23 0.000005 0.001585 -3.638375 0.039969 1.082619 3.176068
    24 8.842831 0.000000 0.000001 -0.043038 0.015489 -2.131464
    25 9.341935 0.000000 -0.000001 0.000000 0.000000 -0.849190
    26 9.664097 0.000000 -0.000002 2.843865 0.148960 0.498700
    27 1.977383 0.000000 0.000000 0.540946 0.331829 -0.025945
    28 14.749151 -0.637065 0.609129 1.516377 -0.033041 -3.136054
    29 14.827692 0.339927 1.738213 1.712062 0.032858 0.003941
  time 10
    0 1.692422 -10.741953 13.411635 0.003835 -0.706749 -1.573336
    1 -1.737015 -0.226568 9.745319 -1.570795 -1.570796 0.000000
    2 -0.000007 0.000010 5.615750 0.118965 3.251654 -1.235432
    3 15.693467 0.000000 0.000000 0.000000 0.000000 -1.954742
    4 22.146627 0.000000 0.000000 0.145607 -0.071127 0.013917
    5 3.310129 5.734394 0.000000 0.000000 0.000000 1.570796
    6 1.055919 0.000000 0.000000 0.000000 0.000000 0.000000
    7 1.055919 0.000000 -0.000001 0.000000 0.000000 0.000000
    8 0.000008 -0.000006 -5.615750 -0.127803 2.993083 -0.026614
    9 15.693467 0.000000 0.000000 0.000000 0.000000 -2.088507
    10 22.146627 0.000000 0.000000 -0.003610 0.195682 1.364326
    11 3.310129 5.734393 0.000000 0.000000 0.000000 1.570796
    12 1.055919 0.000000 0.000000 0.000000 0.000000 0.000000
    13 1.055919 0.000000 -0.000001 0.000000 0.000000 0.000000
    14 1.384163 -0.004728 0.000002 -0.448215 -0.124754 0.273307
    15 5.939814 -0.004730 0.000000 -0.093963 -0.028487 0.209651
    16 5.939809 -0.003975 0.000000 -0.105334 -0.067941 0.123370
    17 4.991439 -0.003975 0.000000 -0.087226 0.060306 0.042841
    18 4.991436 -0.001575 0.000000 0.000000 0.000000 0.000000
    19 0.000005 0.001564 3.638375 -0.000010 -1.283530 3.140806
    20 8.842831 0.000000 -0.000002 0.344613 -0.813589 -1.390211
    21 9.341936 0.000000 0.000003 0.000000 0.000000 -0.707074
    22 9.664094 0.000000 -0.000003 -3.820402 -0.052457 -0.242464
    23 0.000005 0.001585 -3.638375 0.023191 1.082822 3.161304
    24 8.842831 0.000000 0.000001 -0.049731 0.038186 -2.133281
    25 9.341935 0.000000 -0.000001 0.000000 0.000000 -0.821544
    26 9.664097 0.000000 -0.000002 2.842549 0.149384 0.490490
    27 1.977383 0.000000 0.000000 0.518683 0.345215 -0.055324
    28 14.749151 -0.637065 0.609129 1.516377 -0.033041 -3.136054
    29 14.827692 0.339927 1.738213 1.712062 0.032858 0.003941
  time 11
    0 1.883824 -10.925097 13.411635 0.003835 -0.706749 -1.573336
    1 -1.748735 -0.230475 9.745319 -1.570795 -1.570796 0.000000
    2 -0.000007 0.000010 5.615750 0.112830 3.246093 -1.235432
    3 15.693467 0.000000 0.000000 0.000000 0.000000 -1.964061
    4 22.146627 0.000000 0.000000 0.138240 -0.067375 0.023133
    5 3.310129 5.734394 0.000000 0.000000 0.000000 1.570796
    6 1.055919 0.000000 0.000000 0.000000 0.000000 0.000000
    7 1.055919 0.000000 -0.000001 0.000000 0.000000 0.000000
    8 0.000008 -0.000006 -5.615750 -0.133843 2.983304 -0.014836
    9 15.693467 0.000000 0.000000 0.000000 0.000000 -2.080028
    10 22.146627 0.000000 0.000000 -0.003046 0.206919 1.368734
    11 3.310129 5.734393 0.000000 0.000000 0.000000 1.570796
    12 1.055919 0.000000 0.000000 0.000000 0.000000 0.000000
    13 1.055919 0.000000 -0.000001 0.000000 0.000000 0.000000
    14 1.384163 -0.004728 0.000002 -0.438325 -0.127507 0.272034
    15 5.939814 -0.004730 0.000000 -0.093764 -0.027589 0.219282
    16 5.939809 -0.003975 0.000000 -0.099466 -0.068013 0.129379
    17 4.991439 -0.003975 0.000000 -0.087226 0.060306 0.042841
    18 4.991436 -0.001575 0.000000 0.000000 0.000000 0.000000
    19 0.000005 0.001564 3.638375 -0.000010 -1.283530 3.140806
    20 8.842831 0.000000 -0.000002 0.418723 -0.789424 -1.500423
    21 9.341936 0.000000 0.000003 0.000000 0.000000 -0.566718
    22 9.664094 0.000000 -0.000003 -3.818488 -0.059898 -0.315479
    23 0.000005 0.001585 -3.638375 0.009386 1.082924 3.149128
    24 8.842831 0.000000 0.000001 -0.055568 0.056867 -2.134812
    25 9.341935 0.000000 -0.000001 0.000000 0.000000 -0.798827
    26 9.664097 0.000000 -0.000002 2.841444 0.149713 0.483808
    27 1.977383 0.000000 0.000000 0.500104 0.355843 -0.079824
    28 14.749151 -0.637065 0.609129 1.516377 -0.033041 -3.136054
    29 14.827692 0.339927 1.738213 1.712062 0.032858 0.003941
  time 12
    0 2.664153 -10.939185 13.434075 0.003835 -0.706749 -1.573336
    1 -1.760454 -0.230475 9.745319 -1.570795 -1.570796 0.000000
    2 -0.000007 0.000010 5.615750 0.083401 3.222796 -1.236197
    3 15.693467 0.000000 0.000000 0.000000 0.000000 -1.971033
    4 22.146627 0.000000 0.000000 0.105933 -0.048255 0.028950
    5 3.310129 5.734394 0.000000 0.000000 0.000000 1.570796
    6 1.055919 0.000000 0.000000 0.000000 0.000000 0.000000
    7 1.055919 0.000000 -0.000001 0.000000 0.000000 0.000000
    8 0.000008 -0.000006 -5.615750 -0.163756 2.946488 -0.017275
    9 15.693467 0.000000 0.000000 0.000000 0.000000 -2.070286
    10 22.146627 0.000000 0.000000 -0.004682 0.254043 1.361755
    11 3.310129 5.734393 0.000000 0.000000 0.000000 1.570796
    12 1.055919 0.000000 0.000000 0.000000 0.000000 0.000000
    13 1.055919 0.000000 -0.000001 0.000000 0.000000 0.000000
    14 1.384163 -0.004728 0.000002 -0.431530 -0.129359 0.271185
    15 5.939814 -0.004730 0.000000 -0.093615 -0.026965 0.225908
    16 5.939809 -0.003975 0.000000 -0.095444 -0.068108 0.133534
    17 4.991439 -0.003975 0.000000 -0.087226 0.060306 0.042841
    18 4.991436 -0.001575 0.000000 0.000000 0.000000 0.000000
    19 0.000005 0.001564 3.638375 -0.000010 -1.283530 3.140806
    20 8.842831 0.000000 -0.000002 0.481296 -0.765441 -1.588380
    21 9.341936 0.000000 0.000003 0.000000 0.000000 -0.446975
    22 9.664094 0.000000 -0.000003 -3.820690 -0.067339 -0.376969
    23 0.000005 0.001585 -3.638375 -0.000010 1.082924 3.140787
    24 8.842831 0.000000 0.000001 -0.059692 0.069612 -2.136055
    25 9.341935 0.000000 -0.000001 0.000000 0.000000 -0.783239
    26 9.664097 0.000000 -0.000002 2.840654 0.149948 0.479130
    27 1.977383 0.000000 0.000000 0.487209 0.362921 -0.096804
    28 14.749151 -0.637065 0.609129 1.516377 -0.033041 -3.136054
    29 14.827692 0.339927 1.738213 1.712062 0.032858 0.003941
end
