version 1
nodes
  0 "Bip01" -1
  1 "Bip01 Pelvis" 0
  2 "Bip01 L Thigh" 1
  3 "Bip01 L Calf" 2
  4 "Bip01 L Foot" 3
  5 "Bip01 L Toe0" 4
  6 "Bip01 L Toe01" 5
  7 "Bip01 L Toe02" 6
  8 "Bip01 R Thigh" 1
  9 "Bip01 R Calf" 8
  10 "Bip01 R Foot" 9
  11 "Bip01 R Toe0" 10
  12 "Bip01 R Toe01" 11
  13 "Bip01 R Toe02" 12
  14 "Bip01 Spine" 1
  15 "Bip01 Spine1" 14
  16 "Bip01 Spine2" 15
  17 "Bip01 Spine3" 16
  18 "Bip01 Neck" 17
  19 "Bip01 L Clavicle" 18
  20 "Bip01 L UpperArm" 19
  21 "Bip01 L Forearm" 20
  22 "Bip01 L Hand" 21
  23 "Bip01 R Clavicle" 18
  24 "Bip01 R UpperArm" 23
  25 "Bip01 R Forearm" 24
  26 "Bip01 R Hand" 25
  27 "Bip01 Head" 18
  28 "Line01" 26
  29 "Shotgun" 26
end
skeleton
  time 0
    0 2.664153 1.894968 10.157818 0.002972 -0.095871 -1.571131
    1 -1.760454 -0.230475 9.745319 -1.570795 -1.570796 0.000000
    2 -0.000007 0.000010 5.615750 -3.041308 6.259884 1.299219
    3 15.693467 0.000000 0.000000 0.000000 0.000000 -1.913981
    4 22.146627 0.000000 0.000000 0.057734 -0.085164 -0.025497
    5 3.310129 5.734394 0.000000 0.000000 0.000000 1.570796
    6 1.055919 0.000000 0.000000 0.000000 0.000000 0.000000
    7 1.055919 0.000000 -0.000001 0.000000 0.000000 0.000000
    8 0.000008 -0.000006 -5.615750 -0.202203 3.071699 -0.698379
    9 15.693467 0.000000 0.000000 0.000000 0.000000 -2.116396
    10 22.146627 0.000000 0.000000 0.093752 0.192428 1.338154
    11 3.310129 5.734393 0.000000 0.000000 0.000000 1.570796
    12 1.055919 0.000000 0.000000 0.000000 0.000000 0.000000
    13 1.055919 0.000000 -0.000001 0.000000 0.000000 0.000000
    14 1.384163 -0.004728 0.000002 -0.431530 -0.129359 0.271185
    15 5.939814 -0.004730 0.000000 -0.093615 -0.026965 0.225908
    16 5.939809 -0.003975 0.000000 -0.095444 -0.068108 0.133534
    17 4.991439 -0.003975 0.000000 -0.087226 0.060306 0.042841
    18 4.991436 -0.001575 0.000000 0.000000 0.000000 0.000000
    19 0.000005 0.001564 3.638375 -0.000010 -1.283530 3.140806
    20 8.842831 0.000000 -0.000002 0.050206 -0.532298 -0.672646
    21 9.341936 0.000000 0.000003 0.000000 0.000000 -1.422641
    22 9.664094 0.000000 -0.000003 -3.765642 -0.199492 0.056582
    23 0.000005 0.001585 -3.638375 -0.000010 1.082924 3.140787
    24 8.842831 0.000000 0.000001 -0.060626 -0.191746 -2.120368
    25 9.341935 0.000000 -0.000001 0.000000 0.000000 -0.783239
    26 9.664097 0.000000 -0.000002 2.840654 0.149948 0.479130
    27 1.977383 0.000000 0.000000 0.691314 0.215533 -0.175929
    28 14.749151 -0.637065 0.609129 1.516377 -0.033041 -3.136054
    29 14.827692 0.339927 1.738213 1.712062 0.032858 0.003941
  time 1
    0 2.642068 1.993584 10.157818 0.002876 -0.095966 -1.570460
    1 -1.752641 -0.234381 9.745319 -1.570795 -1.570796 0.000000
    2 -0.000007 0.000010 5.615750 -3.041020 6.259309 1.299506
    3 15.693467 0.000000 0.000000 0.000000 0.000000 -1.909285
    4 22.146627 0.000000 0.000000 0.059080 -0.085164 -0.030073
    5 3.310129 5.734394 0.000000 0.000000 0.000000 1.570796
    6 1.055919 0.000000 0.000000 0.000000 0.000000 0.000000
    7 1.055919 0.000000 -0.000001 0.000000 0.000000 0.000000
    8 0.000008 -0.000006 -5.615750 -0.201244 3.072945 -0.704930
    9 15.693467 0.000000 0.000000 0.000000 0.000000 -2.119817
    10 22.146627 0.000000 0.000000 0.093301 0.191630 1.334665
    11 3.310129 5.734393 0.000000 0.000000 0.000000 1.570796
    12 1.055919 0.000000 0.000000 0.000000 0.000000 0.000000
    13 1.055919 0.000000 -0.000001 0.000000 0.000000 0.000000
    14 1.384163 -0.004728 0.000002 -0.431530 -0.129359 0.271185
    15 5.939814 -0.004730 0.000000 -0.093665 -0.027205 0.223330
    16 5.939809 -0.003975 0.000000 -0.095513 -0.068636 0.128015
    17 4.991439 -0.003975 0.000000 -0.087226 0.060306 0.042841
    18 4.991436 -0.001575 0.000000 0.000000 0.000000 0.000000
    19 0.000005 0.001564 3.638375 -0.000010 -1.283530 3.140806
    20 8.842831 0.000000 -0.000002 0.076324 -0.537424 -0.684919
    21 9.341936 0.000000 0.000003 0.000000 0.000000 -1.398619
    22 9.664094 0.000000 -0.000003 -3.780002 -0.210519 0.044240
    23 0.000005 0.001585 -3.638375 -0.000010 1.078447 3.140787
    24 8.842831 0.000000 0.000001 -0.061638 -0.200737 -2.116542
    25 9.341935 0.000000 -0.000001 0.000000 0.000000 -0.783239
    26 9.664097 0.000000 -0.000002 2.840654 0.149948 0.479130
    27 1.977383 0.000000 0.000000 0.694682 0.219009 -0.170252
    28 14.749151 -0.637065 0.609129 1.516377 -0.033041 -3.136054
    29 14.827692 0.339927 1.738213 1.712062 0.032858 0.003941
  time 2
    0 2.634706 2.078112 10.157818 0.002780 -0.096349 -1.569118
    1 -1.744828 -0.242194 9.745319 -1.570795 -1.570796 0.000000
    2 -0.000007 0.000010 5.615750 -3.041404 6.259405 1.299888
    3 15.693467 0.000000 0.000000 0.000000 0.000000 -1.905017
    4 22.146627 0.000000 0.000000 0.060202 -0.084741 -0.034191
    5 3.310129 5.734394 0.000000 0.000000 0.000000 1.570796
    6 1.055919 0.000000 0.000000 0.000000 0.000000 0.000000
    7 1.055919 0.000000 -0.000001 0.000000 0.000000 0.000000
    8 0.000008 -0.000006 -5.615750 -0.200381 3.074192 -0.709739
    9 15.693467 0.000000 0.000000 0.000000 0.000000 -2.122569
    10 22.146627 0.000000 0.000000 0.093922 0.190709 1.332002
    11 3.310129 5.734393 0.000000 0.000000 0.000000 1.570796
    12 1.055919 0.000000 0.000000 0.000000 0.000000 0.000000
    13 1.055919 0.000000 -0.000001 0.000000 0.000000 0.000000
    14 1.384163 -0.004728 0.000002 -0.431530 -0.129359 0.271185
    15 5.939814 -0.004730 0.000000 -0.093740 -0.027493 0.220241
    16 5.939809 -0.003975 0.000000 -0.095595 -0.069295 0.121197
    17 4.991439 -0.003975 0.000000 -0.087226 0.060306 0.042841
    18 4.991436 -0.001575 0.000000 0.000000 0.000000 0.000000
    19 0.000005 0.001564 3.638375 -0.000010 -1.283530 3.140806
    20 8.842831 0.000000 -0.000002 0.092752 -0.528087 -0.701283
    21 9.341936 0.000000 0.000003 0.000000 0.000000 -1.370221
    22 9.664094 0.000000 -0.000003 -3.779140 -0.211326 0.028031
    23 0.000005 0.001585 -3.638375 -0.000010 1.079362 3.140787
    24 8.842831 0.000000 0.000001 -0.057202 -0.208507 -2.113098
    25 9.341935 0.000000 -0.000001 0.000000 0.000000 -0.783239
    26 9.664097 0.000000 -0.000002 2.840654 0.149948 0.479130
    27 1.977383 0.000000 0.000000 0.696840 0.222635 -0.164028
    28 14.749151 -0.637065 0.609129 1.516377 -0.033041 -3.136054
    29 14.827692 0.339927 1.738213 1.712062 0.032858 0.003941
  time 3
    0 2.634706 2.155596 10.157818 0.002589 -0.096635 -1.567680
    1 -1.737015 -0.246100 9.745319 -1.570795 -1.570796 0.000000
    2 -0.000007 0.000010 5.615750 -3.041883 6.259500 1.300366
    3 15.693467 0.000000 0.000000 0.000000 0.000000 -1.901318
    4 22.146627 0.000000 0.000000 0.061249 -0.084196 -0.037720
    5 3.310129 5.734394 0.000000 0.000000 0.000000 1.570796
    6 1.055919 0.000000 0.000000 0.000000 0.000000 0.000000
    7 1.055919 0.000000 -0.000001 0.000000 0.000000 0.000000
    8 0.000008 -0.000006 -5.615750 -0.199518 3.075246 -0.713572
    9 15.693467 0.000000 0.000000 0.000000 0.000000 -2.124725
    10 22.146627 0.000000 0.000000 0.094655 0.189941 1.329798
    11 3.310129 5.734393 0.000000 0.000000 0.000000 1.570796
    12 1.055919 0.000000 0.000000 0.000000 0.000000 0.000000
    13 1.055919 0.000000 -0.000001 0.000000 0.000000 0.000000
    14 1.384163 -0.004728 0.000002 -0.431530 -0.129359 0.271185
    15 5.939814 -0.004730 0.000000 -0.093814 -0.027816 0.216853
    16 5.939809 -0.003975 0.000000 -0.095678 -0.070014 0.113611
    17 4.991439 -0.003975 0.000000 -0.087226 0.060306 0.042841
    18 4.991436 -0.001575 0.000000 0.000000 0.000000 0.000000
    19 0.000005 0.001564 3.638375 -0.000010 -1.283530 3.140806
    20 8.842831 0.000000 -0.000002 0.110287 -0.517103 -0.718792
    21 9.341936 0.000000 0.000003 0.000000 0.000000 -1.341231
    22 9.664094 0.000000 -0.000003 -3.777800 -0.212133 0.012268
    23 0.000005 0.001585 -3.638375 -0.000010 1.083483 3.140787
    24 8.842831 0.000000 0.000001 -0.049575 -0.215490 -2.109846
    25 9.341935 0.000000 -0.000001 0.000000 0.000000 -0.783239
    26 9.664097 0.000000 -0.000002 2.840654 0.149948 0.479130
    27 1.977383 0.000000 0.000000 0.698103 0.226310 -0.157555
    28 14.749151 -0.637065 0.609129 1.516377 -0.033041 -3.136054
    29 14.827692 0.339927 1.738213 1.712062 0.032858 0.003941
  time 4
    0 2.634706 2.218992 10.157818 0.002493 -0.097209 -1.566146
    1 -1.729203 -0.253913 9.745319 -1.570795 -1.570796 0.000000
    2 -0.000007 0.000010 5.615750 -3.042554 6.259788 1.300940
    3 15.693467 0.000000 0.000000 0.000000 0.000000 -1.898188
    4 22.146627 0.000000 0.000000 0.062296 -0.083500 -0.040858
    5 3.310129 5.734394 0.000000 0.000000 0.000000 1.570796
    6 1.055919 0.000000 0.000000 0.000000 0.000000 0.000000
    7 1.055919 0.000000 -0.000001 0.000000 0.000000 0.000000
    8 0.000008 -0.000006 -5.615750 -0.198655 3.076013 -0.716430
    9 15.693467 0.000000 0.000000 0.000000 0.000000 -2.126510
    10 22.146627 0.000000 0.000000 0.095445 0.189174 1.327961
    11 3.310129 5.734393 0.000000 0.000000 0.000000 1.570796
    12 1.055919 0.000000 0.000000 0.000000 0.000000 0.000000
    13 1.055919 0.000000 -0.000001 0.000000 0.000000 0.000000
    14 1.384163 -0.004728 0.000002 -0.431530 -0.129359 0.271185
    15 5.939814 -0.004730 0.000000 -0.093889 -0.028140 0.213316
    16 5.939809 -0.003975 0.000000 -0.095775 -0.070781 0.105621
    17 4.991439 -0.003975 0.000000 -0.087226 0.060306 0.042841
    18 4.991436 -0.001575 0.000000 0.000000 0.000000 0.000000
    19 0.000005 0.001564 3.638375 -0.000010 -1.283530 3.140806
    20 8.842831 0.000000 -0.000002 0.128561 -0.504746 -0.737120
    21 9.341936 0.000000 0.000003 0.000000 0.000000 -1.311276
    22 9.664094 0.000000 -0.000003 -3.776268 -0.213299 -0.003420
    23 0.000005 0.001585 -3.638375 -0.000010 1.089233 3.140787
    24 8.842831 0.000000 0.000001 -0.040314 -0.222124 -2.106785
    25 9.341935 0.000000 -0.000001 0.000000 0.000000 -0.783239
    26 9.664097 0.000000 -0.000002 2.840654 0.149948 0.479130
    27 1.977383 0.000000 0.000000 0.698682 0.229986 -0.151081
    28 14.749151 -0.637065 0.609129 1.516377 -0.033041 -3.136054
    29 14.827692 0.339927 1.738213 1.712062 0.032858 0.003941
  time 5
    0 2.634706 2.268300 10.157818 0.002301 -0.097783 -1.564612
    1 -1.717484 -0.261726 9.745319 -1.570795 -1.570796 0.000000
    2 -0.000007 0.000010 5.615750 -3.043321 6.259980 1.301513
    3 15.693467 0.000000 0.000000 0.000000 0.000000 -1.895485
    4 22.146627 0.000000 0.000000 0.063343 -0.082774 -0.043538
    5 3.310129 5.734394 0.000000 0.000000 0.000000 1.570796
    6 1.055919 0.000000 0.000000 0.000000 0.000000 0.000000
    7 1.055919 0.000000 -0.000001 0.000000 0.000000 0.000000
    8 0.000008 -0.000006 -5.615750 -0.197697 3.076685 -0.718451
    9 15.693467 0.000000 0.000000 0.000000 0.000000 -2.127923
    10 22.146627 0.000000 0.000000 0.096291 0.188406 1.326584
    11 3.310129 5.734393 0.000000 0.000000 0.000000 1.570796
    12 1.055919 0.000000 0.000000 0.000000 0.000000 0.000000
    13 1.055919 0.000000 -0.000001 0.000000 0.000000 0.000000
    14 1.384163 -0.004728 0.000002 -0.431530 -0.129359 0.271185
    15 5.939814 -0.004730 0.000000 -0.093963 -0.028475 0.209758
    16 5.939809 -0.003975 0.000000 -0.095843 -0.071560 0.097546
    17 4.991439 -0.003975 0.000000 -0.087226 0.060306 0.042841
    18 4.991436 -0.001575 0.000000 0.000000 0.000000 0.000000
    19 0.000005 0.001564 3.638375 -0.000010 -1.283530 3.140806
    20 8.842831 0.000000 -0.000002 0.146373 -0.491839 -0.755039
    21 9.341936 0.000000 0.000003 0.000000 0.000000 -1.281915
    22 9.664094 0.000000 -0.000003 -3.774832 -0.214464 -0.018588
    23 0.000005 0.001585 -3.638375 -0.000010 1.095745 3.140787
    24 8.842831 0.000000 0.000001 -0.030352 -0.228497 -2.104011
    25 9.341935 0.000000 -0.000001 0.000000 0.000000 -0.783239
    26 9.664097 0.000000 -0.000002 2.840654 0.149948 0.479130
    27 1.977383 0.000000 0.000000 0.698682 0.233562 -0.144857
    28 14.749151 -0.637065 0.609129 1.516377 -0.033041 -3.136054
    29 14.827692 0.339927 1.738213 1.712062 0.032858 0.003941
  time 6
    0 2.634706 2.310564 10.157818 0.002205 -0.098260 -1.563173
    1 -1.709671 -0.269538 9.745319 -1.570795 -1.570796 0.000000
    2 -0.000007 0.000010 5.615750 -3.043896 6.260267 1.301991
    3 15.693467 0.000000 0.000000 0.000000 0.000000 -1.893280
    4 22.146627 0.000000 0.000000 0.064315 -0.082109 -0.045695
    5 3.310129 5.734394 0.000000 0.000000 0.000000 1.570796
    6 1.055919 0.000000 0.000000 0.000000 0.000000 0.000000
    7 1.055919 0.000000 -0.000001 0.000000 0.000000 0.000000
    8 0.000008 -0.000006 -5.615750 -0.196738 3.077164 -0.719845
    9 15.693467 0.000000 0.000000 0.000000 0.000000 -2.128965
    10 22.146627 0.000000 0.000000 0.097024 0.187700 1.325574
    11 3.310129 5.734393 0.000000 0.000000 0.000000 1.570796
    12 1.055919 0.000000 0.000000 0.000000 0.000000 0.000000
    13 1.055919 0.000000 -0.000001 0.000000 0.000000 0.000000
    14 1.384163 -0.004728 0.000002 -0.431530 -0.129359 0.271185
    15 5.939814 -0.004730 0.000000 -0.094037 -0.028811 0.206221
    16 5.939809 -0.003975 0.000000 -0.095926 -0.072315 0.089577
    17 4.991439 -0.003975 0.000000 -0.087226 0.060306 0.042841
    18 4.991436 -0.001575 0.000000 0.000000 0.000000 0.000000
    19 0.000005 0.001564 3.638375 -0.000010 -1.283530 3.140806
    20 8.842831 0.000000 -0.000002 0.163262 -0.478749 -0.771812
    21 9.341936 0.000000 0.000003 0.000000 0.000000 -1.253963
    22 9.664094 0.000000 -0.000003 -3.773300 -0.215630 -0.032790
    23 0.000005 0.001585 -3.638375 -0.000010 1.102308 3.140787
    24 8.842831 0.000000 0.000001 -0.020390 -0.234869 -2.101428
    25 9.341935 0.000000 -0.000001 0.000000 0.000000 -0.783239
    26 9.664097 0.000000 -0.000002 2.840654 0.149948 0.479130
    27 1.977383 0.000000 0.000000 0.698261 0.236989 -0.138881
    28 14.749151 -0.637065 0.609129 1.516377 -0.033041 -3.136054
    29 14.827692 0.339927 1.738213 1.712062 0.032858 0.003941
end
