version 1
nodes
  0 "Bip01" -1
  1 "Bip01 Pelvis" 0
  2 "Bip01 L Thigh" 1
  3 "Bip01 L Calf" 2
  4 "Bip01 L Foot" 3
  5 "Bip01 L Toe0" 4
  6 "Bip01 L Toe01" 5
  7 "Bip01 L Toe02" 6
  8 "Bip01 R Thigh" 1
  9 "Bip01 R Calf" 8
  10 "Bip01 R Foot" 9
  11 "Bip01 R Toe0" 10
  12 "Bip01 R Toe01" 11
  13 "Bip01 R Toe02" 12
  14 "Bip01 Spine" 1
  15 "Bip01 Spine1" 14
  16 "Bip01 Spine2" 15
  17 "Bip01 Spine3" 16
  18 "Bip01 Neck" 17
  19 "Bip01 L Clavicle" 18
  20 "Bip01 L UpperArm" 19
  21 "Bip01 L Forearm" 20
  22 "Bip01 L Hand" 21
  23 "Bip01 R Clavicle" 18
  24 "Bip01 R UpperArm" 23
  25 "Bip01 R Forearm" 24
  26 "Bip01 R Hand" 25
  27 "Bip01 Head" 18
  28 "Line01" 26
  29 "Shotgun" 26
end
skeleton
  time 0
    0 2.664153 -25.146916 25.282455 0.002972 -0.095871 -1.571131
    1 -2.416724 -0.101565 9.745319 -1.570795 -1.570796 0.000000
    2 -0.000007 0.000010 5.615750 0.025884 3.207648 -0.805153
    3 15.693467 0.000000 0.000000 0.000000 0.000000 -2.125400
    4 22.146627 0.000000 0.000000 0.024081 0.066740 -1.043006
    5 3.310129 5.734394 0.000000 0.000000 0.000000 1.570796
    6 1.055919 0.000000 0.000000 0.000000 0.000000 0.000000
    7 1.055919 0.000000 -0.000001 0.000000 0.000000 0.000000
    8 0.000008 -0.000006 -5.615750 -0.058675 3.052045 -0.155824
    9 15.693467 0.000000 0.000000 0.000000 0.000000 -1.431661
    10 22.146627 0.000000 0.000000 -0.103906 0.025604 -0.476789
    11 3.310129 5.734393 0.000000 0.000000 0.000000 1.570796
    12 1.055919 0.000000 0.000000 0.000000 0.000000 0.000000
    13 1.055919 0.000000 -0.000001 0.000000 0.000000 0.000000
    14 1.388069 -0.004728 0.000002 0.000044 -0.056873 1.065169
    15 5.939814 -0.004730 0.000000 -0.008242 0.036301 -0.301523
    16 5.939809 -0.003975 0.000000 -0.007989 0.003272 -0.397193
    17 4.991439 -0.003975 0.000000 0.000000 -0.030956 -0.475650
    18 4.991436 -0.001575 0.000000 0.000000 0.000000 0.000000
    19 0.000005 0.001564 3.638375 -0.000010 -1.283530 3.140806
    20 8.842831 0.000000 -0.000002 -0.186981 -0.379615 0.864760
    21 9.341936 0.000000 0.000003 0.000000 0.000000 -1.311425
    22 9.664094 0.000000 -0.000003 -3.820690 -0.067339 -0.376969
    23 0.000005 0.001585 -3.638375 -0.000010 1.082924 3.140787
    24 8.842831 0.000000 0.000001 0.010351 0.409709 0.718555
    25 9.341935 0.000000 -0.000001 0.000000 0.000000 -1.224182
    26 9.664097 0.000000 -0.000002 2.840654 0.149948 0.479130
    27 1.977383 0.000000 0.000000 -0.369788 -0.050512 -0.486255
    28 14.749151 -0.637065 0.609129 1.516377 -0.033041 -3.136054
    29 14.827692 0.339927 1.738213 1.712062 0.032858 0.003941
  time 1
    0 2.597898 -24.618617 22.971123 0.002972 -0.055343 -1.571035
    1 -2.572978 -0.101565 9.745319 -1.570795 -1.570796 0.000000
    2 -0.000007 0.000010 5.615750 0.000960 3.215414 -0.434131
    3 15.693467 0.000000 0.000000 0.000000 0.000000 -2.125400
    4 22.146627 0.000000 0.000000 0.007067 0.073517 -0.933719
    5 3.310129 5.734394 0.000000 0.000000 0.000000 1.570796
    6 1.055919 0.000000 0.000000 0.000000 0.000000 0.000000
    7 1.055919 0.000000 -0.000001 0.000000 0.000000 0.000000
    8 0.000008 -0.000006 -5.615750 0.004603 3.034884 0.469248
    9 15.693467 0.000000 0.000000 0.000000 0.000000 -1.569917
    10 22.146627 0.000000 0.000000 -0.082132 -0.068369 -0.649982
    11 3.310129 5.734393 0.000000 0.000000 0.000000 1.570796
    12 1.055919 0.000000 0.000000 0.000000 0.000000 0.000000
    13 1.055919 0.000000 -0.000001 0.000000 0.000000 0.000000
    14 1.388069 -0.004728 0.000002 0.000020 -0.056873 1.150773
    15 5.939814 -0.004730 0.000000 -0.008242 0.036265 -0.306253
    16 5.939809 -0.003975 0.000000 -0.007975 0.003236 -0.401923
    17 4.991439 -0.003975 0.000000 0.000000 -0.030956 -0.480385
    18 4.991436 -0.001575 0.000000 0.000000 0.000000 0.000000
    19 0.000005 0.001564 3.638375 -0.458764 -1.252509 3.579440
    20 8.842831 0.000000 -0.000002 -0.266351 -0.437924 0.748248
    21 9.341936 0.000000 0.000003 0.000000 0.000000 -0.817030
    22 9.664094 0.000000 -0.000003 -3.820690 -0.067339 -0.376969
    23 0.000005 0.001585 -3.638375 0.417135 1.044919 3.506831
    24 8.842831 0.000000 0.000001 0.100317 0.489233 0.742851
    25 9.341935 0.000000 -0.000001 0.000000 0.000000 -0.879634
    26 9.664097 0.000000 -0.000002 2.840654 0.149948 0.479130
    27 1.977383 0.000000 0.000000 -0.372736 0.113043 -0.168061
    28 14.749151 -0.637065 0.609129 1.516377 -0.033041 -3.136054
    29 14.827692 0.339927 1.738213 1.712062 0.032858 0.003941
  time 2
    0 2.531644 -23.111202 20.278309 0.002876 -0.004206 -1.570844
    1 -2.721420 -0.101565 9.745319 -1.570795 -1.570796 0.000000
    2 -0.000007 0.000010 5.615750 -0.033934 3.203813 0.069263
    3 15.693467 0.000000 0.000000 0.000000 0.000000 -2.125400
    4 22.146627 0.000000 0.000000 0.008451 0.070461 -0.397610
    5 3.310129 5.734394 0.000000 0.000000 0.000000 1.570796
    6 1.055919 0.000000 0.000000 0.000000 0.000000 0.000000
    7 1.055919 0.000000 -0.000001 0.000000 0.000000 0.000000
    8 0.000008 -0.000006 -5.615750 0.048419 3.046197 0.896254
    9 15.693467 0.000000 0.000000 0.000000 0.000000 -1.527599
    10 22.146627 0.000000 0.000000 -0.055112 -0.091763 -0.603240
    11 3.310129 5.734393 0.000000 0.000000 0.000000 1.570796
    12 1.055919 0.000000 0.000000 0.000000 0.000000 0.000000
    13 1.055919 0.000000 -0.000001 0.000000 0.000000 0.000000
    14 1.388069 -0.004728 0.000002 0.000020 -0.056873 1.195643
    15 5.939814 -0.004730 0.000000 -0.008316 0.036505 -0.278065
    16 5.939809 -0.003975 0.000000 -0.008072 0.003464 -0.373733
    17 4.991439 -0.003975 0.000000 0.000000 -0.030956 -0.452197
    18 4.991436 -0.001575 0.000000 0.000000 0.000000 0.000000
    19 0.000005 0.001564 3.638375 -0.909273 -1.122511 3.999091
    20 8.842831 0.000000 -0.000002 -0.210884 -0.315631 0.396093
    21 9.341936 0.000000 0.000003 0.000000 0.000000 0.084789
    22 9.664094 0.000000 -0.000003 -3.820690 -0.067339 -0.376969
    23 0.000005 0.001585 -3.638375 0.782700 0.928259 3.813243
    24 8.842831 0.000000 0.000001 0.069421 0.378981 0.511559
    25 9.341935 0.000000 -0.000001 0.000000 0.000000 -0.438758
    26 9.664097 0.000000 -0.000002 2.840654 0.149948 0.479130
    27 1.977383 0.000000 0.000000 -0.278578 0.259811 0.182151
    28 14.749151 -0.637065 0.609129 1.516377 -0.033041 -3.136054
    29 14.827692 0.339927 1.738213 1.712062 0.032858 0.003941
  time 3
    0 2.502198 -20.850081 17.630376 0.002972 0.058689 -1.570652
    1 -2.846424 -0.101565 9.745319 -1.570795 -1.570796 0.000000
    2 -0.000007 0.000010 5.615750 -0.053490 3.188186 0.424038
    3 15.693467 0.000000 0.000000 0.000000 0.000000 -1.653618
    4 22.146627 0.000000 0.000000 0.008451 0.070461 -0.514806
    5 3.310129 5.734394 0.000000 0.000000 0.000000 1.570796
    6 1.055919 0.000000 0.000000 0.000000 0.000000 0.000000
    7 1.055919 0.000000 -0.000001 0.000000 0.000000 0.000000
    8 0.000008 -0.000006 -5.615750 0.061170 3.053771 1.034732
    9 15.693467 0.000000 0.000000 0.000000 0.000000 -1.353645
    10 22.146627 0.000000 0.000000 -0.066055 -0.084272 -0.515174
    11 3.310129 5.734393 0.000000 0.000000 0.000000 1.570796
    12 1.055919 0.000000 0.000000 0.000000 0.000000 0.000000
    13 1.055919 0.000000 -0.000001 0.000000 0.000000 0.000000
    14 1.388069 -0.004728 0.000002 0.000020 -0.056873 1.221207
    15 5.939814 -0.004730 0.000000 -0.008391 0.036829 -0.238841
    16 5.939809 -0.003975 0.000000 -0.008182 0.003775 -0.334527
    17 4.991439 -0.003975 0.000000 0.000000 -0.030956 -0.412973
    18 4.991436 -0.001575 0.000000 0.000000 0.000000 0.000000
    19 0.000005 0.001564 3.638375 -0.940528 -1.106129 4.027087
    20 8.842831 0.000000 -0.000002 -0.298560 -0.239473 0.312554
    21 9.341936 0.000000 0.000003 0.000000 0.000000 0.508895
    22 9.664094 0.000000 -0.000003 -3.820690 -0.067339 -0.376969
    23 0.000005 0.001585 -3.638375 0.822200 0.908570 3.844689
    24 8.842831 0.000000 0.000001 0.129346 0.277633 0.436279
    25 9.341935 0.000000 -0.000001 0.000000 0.000000 0.182719
    26 9.664097 0.000000 -0.000002 2.840654 0.149948 0.479130
    27 1.977383 0.000000 0.000000 -0.245736 0.295597 0.169304
    28 14.749151 -0.637065 0.609129 1.516377 -0.033041 -3.136054
    29 14.827692 0.339927 1.738213 1.712062 0.032858 0.003941
  time 4
    0 2.494836 -18.004308 15.139524 0.002972 0.134869 -1.570460
    1 -2.963615 -0.105471 9.745319 -1.570795 -1.570796 0.000000
    2 -0.000007 0.000010 5.615750 -0.066048 3.167477 0.766484
    3 15.693467 0.000000 0.000000 0.000000 0.000000 -1.092843
    4 22.146627 0.000000 0.000000 0.008451 0.070461 -0.732792
    5 3.310129 5.734394 0.000000 0.000000 0.000000 1.570796
    6 1.055919 0.000000 0.000000 0.000000 0.000000 0.000000
    7 1.055919 0.000000 -0.000001 0.000000 0.000000 0.000000
    8 0.000008 -0.000006 -5.615750 0.067019 3.058181 1.103937
    9 15.693467 0.000000 0.000000 0.000000 0.000000 -1.134474
    10 22.146627 0.000000 0.000000 -0.085799 -0.064010 -0.399743
    11 3.310129 5.734393 0.000000 0.000000 0.000000 1.570796
    12 1.055919 0.000000 0.000000 0.000000 0.000000 0.000000
    13 1.055919 0.000000 -0.000001 0.000000 0.000000 0.000000
    14 1.388069 -0.004728 0.000002 0.000020 -0.056873 1.237066
    15 5.939814 -0.004730 0.000000 -0.008490 0.037212 -0.194268
    16 5.939809 -0.003975 0.000000 -0.008306 0.004147 -0.289931
    17 4.991439 -0.003975 0.000000 0.000000 -0.030956 -0.368398
    18 4.991436 -0.001575 0.000000 0.000000 0.000000 0.000000
    19 0.000005 0.001564 3.638375 -0.888468 -1.132637 3.980299
    20 8.842831 0.000000 -0.000002 -0.412262 -0.172377 0.267226
    21 9.341936 0.000000 0.000003 0.000000 0.000000 0.586969
    22 9.664094 0.000000 -0.000003 -3.820690 -0.067339 -0.376969
    23 0.000005 0.001585 -3.638375 0.775509 0.931668 3.807490
    24 8.842831 0.000000 0.000001 0.216433 0.175412 0.360043
    25 9.341935 0.000000 -0.000001 0.000000 0.000000 0.434801
    26 9.664097 0.000000 -0.000002 2.840654 0.149948 0.479130
    27 1.977383 0.000000 0.000000 -0.224526 0.316035 0.099640
    28 14.749151 -0.637065 0.609129 1.516377 -0.033041 -3.136054
    29 14.827692 0.339927 1.738213 1.712062 0.032858 0.003941
  time 5
    0 2.509559 -14.778160 12.850632 0.002972 0.225292 -1.570172
    1 -3.069087 -0.105471 9.745319 -1.570795 -1.570796 0.000000
    2 -0.000007 0.000010 5.615750 -0.070649 3.148015 1.048144
    3 15.693467 0.000000 0.000000 0.000000 0.000000 -0.607759
    4 22.146627 0.000000 0.000000 0.008451 0.070461 -0.935549
    5 3.310129 5.734394 0.000000 0.000000 0.000000 1.570796
    6 1.055919 0.000000 0.000000 0.000000 0.000000 0.000000
    7 1.055919 0.000000 -0.000001 0.000000 0.000000 0.000000
    8 0.000008 -0.000006 -5.615750 0.070662 3.061153 1.147634
    9 15.693467 0.000000 0.000000 0.000000 0.000000 -0.946686
    10 22.146627 0.000000 0.000000 -0.099055 -0.040493 -0.291383
    11 3.310129 5.734393 0.000000 0.000000 0.000000 1.570796
    12 1.055919 0.000000 0.000000 0.000000 0.000000 0.000000
    13 1.055919 0.000000 -0.000001 0.000000 0.000000 0.000000
    14 1.388069 -0.004728 0.000002 0.000020 -0.056873 1.247673
    15 5.939814 -0.004730 0.000000 -0.008540 0.037608 -0.147097
    16 5.939809 -0.003975 0.000000 -0.008416 0.004542 -0.242756
    17 4.991439 -0.003975 0.000000 0.000000 -0.030968 -0.321214
    18 4.991436 -0.001575 0.000000 0.000000 0.000000 0.000000
    19 0.000005 0.001564 3.638375 -0.836888 -1.155390 3.933320
    20 8.842831 0.000000 -0.000002 -0.551160 -0.078735 0.210033
    21 9.341936 0.000000 0.000003 0.000000 0.000000 0.361273
    22 9.664094 0.000000 -0.000003 -3.820690 -0.067339 -0.376969
    23 0.000005 0.001585 -3.638375 0.735147 0.949780 3.774893
    24 8.842831 0.000000 0.000001 0.331849 0.039583 0.269745
    25 9.341935 0.000000 -0.000001 0.000000 0.000000 0.130158
    26 9.664097 0.000000 -0.000002 2.840654 0.149948 0.479130
    27 1.977383 0.000000 0.000000 -0.214894 0.326266 -0.013098
    28 14.749151 -0.637065 0.609129 1.516377 -0.033041 -3.136054
    29 14.827692 0.339927 1.738213 1.712062 0.032858 0.003941
  time 6
    0 2.531644 -11.361824 10.786142 0.003068 0.331390 -1.569789
    1 -3.143308 -0.105471 9.745319 -1.570795 -1.570796 0.000000
    2 -0.000007 0.000010 5.615750 -0.070362 3.132867 1.264048
    3 15.693467 0.000000 0.000000 0.000000 0.000000 -0.241900
    4 22.146627 0.000000 0.000000 0.008451 0.070461 -1.084969
    5 3.310129 5.734394 0.000000 0.000000 0.000000 1.570796
    6 1.055919 0.000000 0.000000 0.000000 0.000000 0.000000
    7 1.055919 0.000000 -0.000001 0.000000 0.000000 0.000000
    8 0.000008 -0.000006 -5.615750 0.073730 3.064029 1.187010
    9 15.693467 0.000000 0.000000 0.000000 0.000000 -0.814083
    10 22.146627 0.000000 0.000000 -0.104865 -0.021429 -0.198909
    11 3.310129 5.734393 0.000000 0.000000 0.000000 1.570796
    12 1.055919 0.000000 0.000000 0.000000 0.000000 0.000000
    13 1.055919 0.000000 -0.000001 0.000000 0.000000 0.000000
    14 1.388069 -0.004728 0.000002 -0.000004 -0.056873 1.257061
    15 5.939814 -0.004730 0.000000 -0.008589 0.037931 -0.109641
    16 5.939809 -0.003975 0.000000 -0.008485 0.004854 -0.205319
    17 4.991439 -0.003975 0.000000 0.000000 -0.030968 -0.283760
    18 4.991436 -0.001575 0.000000 0.000000 0.000000 0.000000
    19 0.000005 0.001564 3.638375 -0.775817 -1.178409 3.877136
    20 8.842831 0.000000 -0.000002 -0.678336 -0.007429 0.152431
    21 9.341936 0.000000 0.000003 0.000000 0.000000 0.063213
    22 9.664094 0.000000 -0.000003 -3.820690 -0.067339 -0.376969
    23 0.000005 0.001585 -3.638375 0.689032 0.968503 3.737119
    24 8.842831 0.000000 0.000001 0.447965 -0.067265 0.176004
    25 9.341935 0.000000 -0.000001 0.000000 0.000000 -0.290067
    26 9.664097 0.000000 -0.000002 2.840654 0.149948 0.479130
    27 1.977383 0.000000 0.000000 -0.217052 0.327508 -0.134499
    28 14.749151 -0.637065 0.609129 1.516377 -0.033041 -3.136054
    29 14.827692 0.339927 1.738213 1.712062 0.032858 0.003941
  time 7
    0 2.561090 -7.945488 8.968492 0.003260 0.473523 -1.569310
    1 -3.186278 -0.105471 9.745319 -1.570795 -1.570796 0.000000
    2 -0.000007 0.000010 5.615750 -0.068636 3.123854 1.392214
    3 15.693467 0.000000 0.000000 0.000000 0.000000 -0.063488
    4 22.146627 0.000000 0.000000 0.008451 0.070461 -1.135037
    5 3.310129 5.734394 0.000000 0.000000 0.000000 1.570796
    6 1.055919 0.000000 0.000000 0.000000 0.000000 0.000000
    7 1.055919 0.000000 -0.000001 0.000000 0.000000 0.000000
    8 0.000008 -0.000006 -5.615750 0.077565 3.067768 1.236980
    9 15.693467 0.000000 0.000000 0.000000 0.000000 -0.758602
    10 22.146627 0.000000 0.000000 -0.106219 -0.013201 -0.126822
    11 3.310129 5.734393 0.000000 0.000000 0.000000 1.570796
    12 1.055919 0.000000 0.000000 0.000000 0.000000 0.000000
    13 1.055919 0.000000 -0.000001 0.000000 0.000000 0.000000
    14 1.388069 -0.004728 0.000002 -0.000004 -0.056873 1.261623
    15 5.939814 -0.004730 0.000000 -0.008614 0.038123 -0.087802
    16 5.939809 -0.003975 0.000000 -0.008526 0.005046 -0.183457
    17 4.991439 -0.003975 0.000000 0.000000 -0.030968 -0.261911
    18 4.991436 -0.001575 0.000000 0.000000 0.000000 0.000000
    19 0.000005 0.001564 3.638375 -0.705734 -1.200556 3.812132
    20 8.842831 0.000000 -0.000002 -0.752445 -0.008069 0.111194
    21 9.341936 0.000000 0.000003 0.000000 0.000000 -0.226470
    22 9.664094 0.000000 -0.000003 -3.820690 -0.067339 -0.376969
    23 0.000005 0.001585 -3.638375 0.636781 0.987429 3.693784
    24 8.842831 0.000000 0.000001 0.525168 -0.087692 0.104263
    25 9.341935 0.000000 -0.000001 0.000000 0.000000 -0.702165
    26 9.664097 0.000000 -0.000002 2.840654 0.149948 0.479130
    27 1.977383 0.000000 0.000000 -0.237368 0.314768 -0.264764
    28 14.749151 -0.637065 0.609129 1.516377 -0.033041 -3.136054
    29 14.827692 0.339927 1.738213 1.712062 0.032858 0.003941
  time 8
    0 2.597898 -4.719340 7.465005 0.003739 0.653508 -1.568543
    1 -3.162840 -0.105471 9.745319 -1.570795 -1.570796 0.000000
    2 -0.000007 0.000010 5.615750 -0.068924 3.124717 1.380649
    3 15.693467 0.000000 0.000000 0.000000 0.000000 -0.163933
    4 22.146627 0.000000 0.000000 0.005833 0.070733 -1.082812
    5 3.310129 5.734394 0.000000 0.000000 0.000000 1.570796
    6 1.055919 0.000000 0.000000 0.000000 0.000000 0.000000
    7 1.055919 0.000000 -0.000001 0.000000 0.000000 0.000000
    8 0.000008 -0.000006 -5.615750 0.081208 3.071795 1.287646
    9 15.693467 0.000000 0.000000 0.000000 0.000000 -0.804340
    10 22.146627 0.000000 0.000000 -0.105655 -0.017131 -0.067316
    11 3.310129 5.734393 0.000000 0.000000 0.000000 1.570796
    12 1.055919 0.000000 0.000000 0.000000 0.000000 0.000000
    13 1.055919 0.000000 -0.000001 0.000000 0.000000 0.000000
    14 1.388069 -0.004728 0.000002 0.000020 -0.056873 1.235475
    15 5.939814 -0.004730 0.000000 -0.008614 0.038183 -0.081069
    16 5.939809 -0.003975 0.000000 -0.008526 0.005105 -0.176724
    17 4.991439 -0.003975 0.000000 0.000000 -0.030968 -0.255181
    18 4.991436 -0.001575 0.000000 0.000000 0.000000 0.000000
    19 0.000005 0.001564 3.638375 -0.625104 -1.221413 3.736677
    20 8.842831 0.000000 -0.000002 -0.706116 -0.167068 0.114139
    21 9.341936 0.000000 0.000003 0.000000 0.000000 -0.416724
    22 9.664094 0.000000 -0.000003 -3.820690 -0.067339 -0.376969
    23 0.000005 0.001585 -3.638375 0.572641 1.007627 3.639904
    24 8.842831 0.000000 0.000001 0.494427 0.075635 0.100341
    25 9.341935 0.000000 -0.000001 0.000000 0.000000 -0.972033
    26 9.664097 0.000000 -0.000002 2.840654 0.149948 0.479130
    27 1.977383 0.000000 0.000000 -0.290578 0.266268 -0.446668
    28 14.749151 -0.637065 0.609129 1.516377 -0.033041 -3.136054
    29 14.827692 0.339927 1.738213 1.712062 0.032858 0.003941
  time 9
    0 2.619983 -1.873567 6.410320 0.004410 0.848213 -1.567488
    1 -3.037836 -0.105471 9.745319 -1.570795 -1.570796 0.000000
    2 -0.000007 0.000010 5.615750 -0.070170 3.131524 1.282685
    3 15.693467 0.000000 0.000000 0.000000 0.000000 -0.419672
    4 22.146627 0.000000 0.000000 0.003029 0.070915 -0.965289
    5 3.310129 5.734394 0.000000 0.000000 0.000000 1.570796
    6 1.055919 0.000000 0.000000 0.000000 0.000000 0.000000
    7 1.055919 0.000000 -0.000001 0.000000 0.000000 0.000000
    8 0.000008 -0.000006 -5.615750 0.083797 3.075055 1.326604
    9 15.693467 0.000000 0.000000 0.000000 0.000000 -0.905931
    10 22.146627 0.000000 0.000000 -0.103793 -0.026064 -0.011666
    11 3.310129 5.734393 0.000000 0.000000 0.000000 1.570796
    12 1.055919 0.000000 0.000000 0.000000 0.000000 0.000000
    13 1.055919 0.000000 -0.000001 0.000000 0.000000 0.000000
    14 1.388069 -0.004728 0.000002 0.000020 -0.056873 1.168646
    15 5.939814 -0.004730 0.000000 -0.008589 0.038015 -0.100927
    16 5.939809 -0.003975 0.000000 -0.008499 0.004938 -0.196583
    17 4.991439 -0.003975 0.000000 0.000000 -0.030968 -0.275036
    18 4.991436 -0.001575 0.000000 0.000000 0.000000 0.000000
    19 0.000005 0.001564 3.638375 -2.422250 -1.313034 5.579708
    20 8.842831 0.000000 -0.000002 -0.193164 -0.432890 -0.038128
    21 9.341936 0.000000 0.000003 0.000000 0.000000 -0.102129
    22 9.664094 0.000000 -0.000003 -3.820690 -0.067339 -0.376969
    23 0.000005 0.001585 -3.638375 1.761758 1.315582 4.908787
    24 8.842831 0.000000 0.000001 0.021869 0.387361 0.005165
    25 9.341935 0.000000 -0.000001 0.000000 0.000000 -0.521164
    26 9.664097 0.000000 -0.000002 2.840654 0.149948 0.479130
    27 1.977383 0.000000 0.000000 -0.350367 0.172496 -0.610794
    28 14.749151 -0.637065 0.609129 1.516377 -0.033041 -3.136054
    29 14.827692 0.339927 1.738213 1.712062 0.032858 0.003941
  time 10
    0 2.642068 0.387554 5.826877 0.005753 1.035080 -1.565858
    1 -2.647199 -0.105471 9.745319 -1.570795 -1.570796 0.000000
    2 -0.000007 0.000010 5.615750 -0.070937 3.142646 1.124317
    3 15.693467 0.000000 0.000000 0.000000 0.000000 -0.794138
    4 22.146627 0.000000 0.000000 -0.000710 0.070975 -0.802470
    5 3.310129 5.734394 0.000000 0.000000 0.000000 1.570796
    6 1.055919 0.000000 0.000000 0.000000 0.000000 0.000000
    7 1.055919 0.000000 -0.000001 0.000000 0.000000 0.000000
    8 0.000008 -0.000006 -5.615750 0.086194 3.078219 1.363472
    9 15.693467 0.000000 0.000000 0.000000 0.000000 -1.037345
    10 22.146627 0.000000 0.000000 -0.099957 -0.038283 0.037371
    11 3.310129 5.734393 0.000000 0.000000 0.000000 1.570796
    12 1.055919 0.000000 0.000000 0.000000 0.000000 0.000000
    13 1.055919 0.000000 -0.000001 0.000000 0.000000 0.000000
    14 1.388069 -0.004728 0.000002 0.000044 -0.056873 1.026079
    15 5.939814 -0.004730 0.000000 -0.008515 0.037404 -0.172025
    16 5.939809 -0.003975 0.000000 -0.008361 0.004326 -0.267686
    17 4.991439 -0.003975 0.000000 0.000000 -0.030956 -0.346139
    18 4.991436 -0.001575 0.000000 0.000000 0.000000 0.000000
    19 0.000005 0.001564 3.638375 -2.935269 -0.765813 6.138283
    20 8.842831 0.000000 -0.000002 0.560019 -0.402316 -0.914671
    21 9.341936 0.000000 0.000003 0.000000 0.000000 0.436307
    22 9.664094 0.000000 -0.000003 -3.820690 -0.067339 -0.376969
    23 0.000005 0.001585 -3.638375 2.856919 0.852199 6.065595
    24 8.842831 0.000000 0.000001 -0.780592 0.437119 -0.870932
    25 9.341935 0.000000 -0.000001 0.000000 0.000000 0.245540
    26 9.664097 0.000000 -0.000002 2.840654 0.149948 0.479130
    27 1.977383 0.000000 0.000000 -0.378894 0.038443 -0.613533
    28 14.749151 -0.637065 0.609129 1.516377 -0.033041 -3.136054
    29 14.827692 0.339927 1.738213 1.712062 0.032858 0.003941
  time 11
    0 2.649429 1.887924 5.580035 0.007958 1.188397 -1.563461
    1 -2.033899 -0.101565 9.745319 -1.570795 -1.570796 0.000000
    2 -0.000007 0.000010 5.615750 -0.069019 3.158081 0.904685
    3 15.693467 0.000000 0.000000 0.000000 0.000000 -1.300564
    4 22.146627 0.000000 0.000000 -0.006693 0.070642 -0.600563
    5 3.310129 5.734394 0.000000 0.000000 0.000000 1.570796
    6 1.055919 0.000000 0.000000 0.000000 0.000000 0.000000
    7 1.055919 0.000000 -0.000001 0.000000 0.000000 0.000000
    8 0.000008 -0.000006 -5.615750 0.088879 3.081958 1.406333
    9 15.693467 0.000000 0.000000 0.000000 0.000000 -1.193524
    10 22.146627 0.000000 0.000000 -0.092568 -0.053756 0.076491
    11 3.310129 5.734393 0.000000 0.000000 0.000000 1.570796
    12 1.055919 0.000000 0.000000 0.000000 0.000000 0.000000
    13 1.055919 0.000000 -0.000001 0.000000 0.000000 0.000000
    14 1.384163 -0.004728 0.000002 0.000093 -0.056847 0.849356
    15 5.939814 -0.004730 0.000000 -0.008341 0.036613 -0.265367
    16 5.939809 -0.003975 0.000000 -0.008113 0.003559 -0.361034
    17 4.991439 -0.003975 0.000000 0.000000 -0.030956 -0.439501
    18 4.991436 -0.001575 0.000000 0.000000 0.000000 0.000000
    19 0.000005 0.001564 3.638375 -2.959237 -0.619319 6.175675
    20 8.842831 0.000000 -0.000002 0.627576 -0.098324 -1.271244
    21 9.341936 0.000000 0.000003 0.000000 0.000000 0.436307
    22 9.664094 0.000000 -0.000003 -3.820690 -0.067339 -0.376969
    23 0.000005 0.001585 -3.638375 3.127665 0.797964 6.272394
    24 8.842831 0.000000 0.000001 -1.006598 0.049272 -1.115807
    25 9.341935 0.000000 -0.000001 0.000000 0.000000 0.245540
    26 9.664097 0.000000 -0.000002 2.840654 0.149948 0.479130
    27 1.977383 0.000000 0.000000 -0.364578 -0.054560 -0.404740
    28 14.749151 -0.637065 0.609129 1.516377 -0.033041 -3.136054
    29 14.827692 0.339927 1.738213 1.712062 0.032858 0.003941
  time 12
    0 2.649429 2.423268 4.974152 0.010163 1.275283 -1.561064
    1 -1.721390 -0.101565 9.745319 -1.570795 -1.570796 0.000000
    2 -0.000007 0.000010 5.615750 -0.064035 3.172079 0.696332
    3 15.693467 0.000000 0.000000 0.000000 0.000000 -1.807559
    4 22.146627 0.000000 0.000000 -0.017425 0.068797 -0.456045
    5 3.310129 5.734394 0.000000 0.000000 0.000000 1.570796
    6 1.055919 0.000000 0.000000 0.000000 0.000000 0.000000
    7 1.055919 0.000000 -0.000001 0.000000 0.000000 0.000000
    8 0.000008 -0.000006 -5.615750 0.092330 3.087422 1.466965
    9 15.693467 0.000000 0.000000 0.000000 0.000000 -1.364727
    10 22.146627 0.000000 0.000000 -0.078804 -0.072452 0.091184
    11 3.310129 5.734393 0.000000 0.000000 0.000000 1.570796
    12 1.055919 0.000000 0.000000 0.000000 0.000000 0.000000
    13 1.055919 0.000000 -0.000001 0.000000 0.000000 0.000000
    14 1.384163 -0.004728 0.000002 0.000093 -0.056820 0.759880
    15 5.939814 -0.004730 0.000000 -0.008242 0.036301 -0.301523
    16 5.939809 -0.003975 0.000000 -0.007989 0.003272 -0.397193
    17 4.991439 -0.003975 0.000000 0.000000 -0.030956 -0.475650
    18 4.991436 -0.001575 0.000000 0.000000 0.000000 0.000000
    19 0.000005 0.001564 3.638375 -2.940158 -0.740178 6.145570
    20 8.842831 0.000000 -0.000002 0.803482 -0.005598 -1.428585
    21 9.341936 0.000000 0.000003 0.000000 0.000000 0.436307
    22 9.664094 0.000000 -0.000003 -3.820690 -0.067339 -0.376969
    23 0.000005 0.001585 -3.638375 -3.022129 0.973845 0.098150
    24 8.842831 0.000000 0.000001 -1.245678 -0.061591 -1.184678
    25 9.341935 0.000000 -0.000001 0.000000 0.000000 0.245540
    26 9.664097 0.000000 -0.000002 2.840654 0.149948 0.479130
    27 1.977383 0.000000 0.000000 -0.199210 0.305307 0.913449
    28 14.749151 -0.637065 0.609129 1.516377 -0.033041 -3.136054
    29 14.827692 0.339927 1.738213 1.712062 0.032858 0.003941
  time 13
    0 2.649429 2.282388 3.560425 0.009300 1.248041 -1.561927
    1 -1.885457 -0.101565 9.745319 -1.570795 -1.570796 0.000000
    2 -0.000007 0.000010 5.615750 -0.063268 3.173613 0.672247
    3 15.693467 0.000000 0.000000 0.000000 0.000000 -2.160827
    4 22.146627 0.000000 0.000000 -0.064390 0.029800 -1.016403
    5 3.310129 5.734394 0.000000 0.000000 0.000000 1.570796
    6 1.055919 0.000000 0.000000 0.000000 0.000000 0.000000
    7 1.055919 0.000000 -0.000001 0.000000 0.000000 0.000000
    8 0.000008 -0.000006 -5.615750 0.097316 3.097010 1.567740
    9 15.693467 0.000000 0.000000 0.000000 0.000000 -1.498148
    10 22.146627 0.000000 0.000000 -0.055112 -0.091763 0.038933
    11 3.310129 5.734393 0.000000 0.000000 0.000000 1.570796
    12 1.055919 0.000000 0.000000 0.000000 0.000000 0.000000
    13 1.055919 0.000000 -0.000001 0.000000 0.000000 0.000000
    14 1.384163 -0.004728 0.000002 0.000093 -0.056820 0.782209
    15 5.939814 -0.004730 0.000000 -0.008341 0.036661 -0.259103
    16 5.939809 -0.003975 0.000000 -0.008127 0.003607 -0.354769
    17 4.991439 -0.003975 0.000000 0.000000 -0.030956 -0.433237
    18 4.991436 -0.001575 0.000000 0.000000 0.000000 0.000000
    19 0.000005 0.001564 3.638375 -2.917340 -0.863008 6.110767
    20 8.842831 0.000000 -0.000002 0.669015 -0.156724 -1.298490
    21 9.341936 0.000000 0.000003 0.000000 0.000000 0.381737
    22 9.664094 0.000000 -0.000003 -3.820690 -0.067339 -0.376969
    23 0.000005 0.001585 -3.638375 -3.030949 1.104241 0.098054
    24 8.842831 0.000000 0.000001 -1.026521 0.164238 -1.101841
    25 9.341935 0.000000 -0.000001 0.000000 0.000000 0.201639
    26 9.664097 0.000000 -0.000002 2.840654 0.149948 0.479130
    27 1.977383 0.000000 0.000000 -0.247631 0.272973 0.599438
    28 14.749151 -0.637065 0.609129 1.516377 -0.033041 -3.136054
    29 14.827692 0.339927 1.738213 1.712062 0.032858 0.003941
  time 14
    0 2.656791 1.042645 2.595500 0.006424 1.095107 -1.565091
    1 -2.256563 -0.105471 9.745319 -1.570795 -1.570796 0.000000
    2 -0.000007 0.000010 5.615750 3.089720 0.048609 -1.249768
    3 15.693467 0.000000 0.000000 0.000000 0.000000 -1.726676
    4 22.146627 0.000000 0.000000 -0.070971 -0.000182 -0.664357
    5 3.310129 5.734394 0.000000 0.000000 0.000000 1.570796
    6 1.055919 0.000000 0.000000 0.000000 0.000000 0.000000
    7 1.055919 0.000000 -0.000001 0.000000 0.000000 0.000000
    8 0.000008 -0.000006 -5.615750 -3.034494 6.282127 -1.135630
    9 15.693467 0.000000 0.000000 0.000000 0.000000 -1.506032
    10 22.146627 0.000000 0.000000 0.032323 -0.102047 -0.362735
    11 3.310129 5.734393 0.000000 0.000000 0.000000 1.570796
    12 1.055919 0.000000 0.000000 0.000000 0.000000 0.000000
    13 1.055919 0.000000 -0.000001 0.000000 0.000000 0.000000
    14 1.384163 -0.004728 0.000002 0.000093 -0.056847 0.855031
    15 5.939814 -0.004730 0.000000 -0.008490 0.037320 -0.181485
    16 5.939809 -0.003975 0.000000 -0.008334 0.004255 -0.277146
    17 4.991439 -0.003975 0.000000 0.000000 -0.030956 -0.355609
    18 4.991436 -0.001575 0.000000 0.000000 0.000000 0.000000
    19 0.000005 0.001564 3.638375 -2.877649 -0.997633 6.059089
    20 8.842831 0.000000 -0.000002 0.424168 -0.444881 -1.085593
    21 9.341936 0.000000 0.000003 0.000000 0.000000 0.329984
    22 9.664094 0.000000 -0.000003 -3.820690 -0.067339 -0.376969
    23 0.000005 0.001585 -3.638375 -3.083008 1.243083 0.054720
    24 8.842831 0.000000 0.000001 -0.676695 0.533579 -0.965247
    25 9.341935 0.000000 -0.000001 0.000000 0.000000 0.160735
    26 9.664097 0.000000 -0.000002 2.840654 0.149948 0.479130
    27 1.977383 0.000000 0.000000 -0.302157 0.224324 0.097399
    28 14.749151 -0.637065 0.609129 1.516377 -0.033041 -3.136054
    29 14.827692 0.339927 1.738213 1.712062 0.032858 0.003941
  time 15
    0 2.656791 -0.471813 2.909662 0.004794 0.909196 -1.567008
    1 -2.631574 -0.105471 9.745319 -1.570795 -1.570796 0.000000
    2 -0.000007 0.000010 5.615750 3.131037 0.070276 -0.579118
    3 15.693467 0.000000 0.000000 0.000000 0.000000 -1.384008
    4 22.146627 0.000000 0.000000 -0.070148 -0.010619 -0.484804
    5 3.310129 5.734394 0.000000 0.000000 0.000000 1.570796
    6 1.055919 0.000000 0.000000 0.000000 0.000000 0.000000
    7 1.055919 0.000000 -0.000001 0.000000 0.000000 0.000000
    8 0.000008 -0.000006 -5.615750 -3.039575 6.250488 -0.836231
    9 15.693467 0.000000 0.000000 0.000000 0.000000 -1.344423
    10 22.146627 0.000000 0.000000 0.095896 -0.047616 -1.026764
    11 3.310129 5.734393 0.000000 0.000000 0.000000 1.570796
    12 1.055919 0.000000 0.000000 0.000000 0.000000 0.000000
    13 1.055919 0.000000 -0.000001 0.000000 0.000000 0.000000
    14 1.384163 -0.004728 0.000002 0.000069 -0.056847 0.940741
    15 5.939814 -0.004730 0.000000 -0.008589 0.037991 -0.102674
    16 5.939809 -0.003975 0.000000 -0.008499 0.004914 -0.198330
    17 4.991439 -0.003975 0.000000 0.000000 -0.030968 -0.276788
    18 4.991436 -0.001575 0.000000 0.000000 0.000000 0.000000
    19 0.000005 0.001564 3.638375 -2.818878 -1.118188 5.990250
    20 8.842831 0.000000 -0.000002 0.074479 -0.733678 -0.827205
    21 9.341936 0.000000 0.000003 0.000000 0.000000 0.282977
    22 9.664094 0.000000 -0.000003 -3.820690 -0.067339 -0.376969
    23 0.000005 0.001585 -3.638375 3.079441 1.365390 6.221581
    24 8.842831 0.000000 0.000001 -0.204682 0.879262 -0.746008
    25 9.341935 0.000000 -0.000001 0.000000 0.000000 0.123562
    26 9.664097 0.000000 -0.000002 2.840654 0.149948 0.479130
    27 1.977383 0.000000 0.000000 -0.260315 0.282857 -0.028036
    28 14.749151 -0.637065 0.609129 1.516377 -0.033041 -3.136054
    29 14.827692 0.339927 1.738213 1.712062 0.032858 0.003941
  time 16
    0 2.664153 -1.831303 3.470665 0.004219 0.794877 -1.567776
    1 -2.877675 -0.105471 9.745319 -1.570795 -1.570796 0.000000
    2 -0.000007 0.000010 5.615750 3.108317 0.062798 -0.918027
    3 15.693467 0.000000 0.000000 0.000000 0.000000 -1.384008
    4 22.146627 0.000000 0.000000 -0.070934 -0.002390 -0.706974
    5 3.310129 5.734394 0.000000 0.000000 0.000000 1.570796
    6 1.055919 0.000000 0.000000 0.000000 0.000000 0.000000
    7 1.055919 0.000000 -0.000001 0.000000 0.000000 0.000000
    8 0.000008 -0.000006 -5.615750 -3.034590 0.003357 -1.176400
    9 15.693467 0.000000 0.000000 0.000000 0.000000 -1.197689
    10 22.146627 0.000000 0.000000 0.094260 -0.050717 -1.482887
    11 3.310129 5.734393 0.000000 0.000000 0.000000 1.570796
    12 1.055919 0.000000 0.000000 0.000000 0.000000 0.000000
    13 1.055919 0.000000 -0.000001 0.000000 0.000000 0.000000
    14 1.388069 -0.004728 0.000002 0.000044 -0.056847 1.012820
    15 5.939814 -0.004730 0.000000 -0.008639 0.038459 -0.048599
    16 5.939809 -0.003975 0.000000 -0.008582 0.005381 -0.144252
    17 4.991439 -0.003975 0.000000 0.000000 -0.030968 -0.222706
    18 4.991436 -0.001575 0.000000 0.000000 0.000000 0.000000
    19 0.000005 0.001564 3.638375 -2.730867 -1.222892 5.893799
    20 8.842831 0.000000 -0.000002 -0.320433 -0.929383 -0.564643
    21 9.341936 0.000000 0.000003 0.000000 0.000000 0.239157
    22 9.664094 0.000000 -0.000003 -3.820690 -0.067339 -0.376969
    23 0.000005 0.001585 -3.638375 2.732571 1.464752 5.875478
    24 8.842831 0.000000 0.000001 0.368583 1.093394 -0.437236
    25 9.341935 0.000000 -0.000001 0.000000 0.000000 0.088721
    26 9.664097 0.000000 -0.000002 2.840654 0.149948 0.479130
    27 1.977383 0.000000 0.000000 -0.189473 0.339528 -0.013546
    28 14.749151 -0.637065 0.609129 1.516377 -0.033041 -3.136054
    29 14.827692 0.339927 1.738213 1.712062 0.032858 0.003941
  time 17
    0 2.664153 -2.570923 3.470665 0.004123 0.767540 -1.567967
    1 -3.022211 -0.105471 9.745319 -1.570795 -1.570796 0.000000
    2 -0.000007 0.000010 5.615750 3.077738 0.031256 -1.546911
    3 15.693467 0.000000 0.000000 0.000000 0.000000 -1.384008
    4 22.146627 0.000000 0.000000 -0.069812 0.012737 -1.121769
    5 3.310129 5.734394 0.000000 0.000000 0.000000 1.570796
    6 1.055919 0.000000 0.000000 0.000000 0.000000 0.000000
    7 1.055919 0.000000 -0.000001 0.000000 0.000000 0.000000
    8 0.000008 -0.000006 -5.615750 0.092330 3.087518 1.468219
    9 15.693467 0.000000 0.000000 0.000000 0.000000 -1.038460
    10 22.146627 0.000000 0.000000 0.079763 -0.071408 -1.904941
    11 3.310129 5.734393 0.000000 0.000000 0.000000 1.570796
    12 1.055919 0.000000 0.000000 0.000000 0.000000 0.000000
    13 1.055919 0.000000 -0.000001 0.000000 0.000000 0.000000
    14 1.388069 -0.004728 0.000002 0.000044 -0.056873 1.098265
    15 5.939814 -0.004730 0.000000 -0.008639 0.038459 -0.048599
    16 5.939809 -0.003975 0.000000 -0.008582 0.005381 -0.144252
    17 4.991439 -0.003975 0.000000 0.000000 -0.030968 -0.222706
    18 4.991436 -0.001575 0.000000 0.000000 0.000000 0.000000
    19 0.000005 0.001564 3.638375 -2.579003 -1.317660 5.734260
    20 8.842831 0.000000 -0.000002 -0.589091 -1.032544 -0.449358
    21 9.341936 0.000000 0.000003 0.000000 0.000000 0.194374
    22 9.664094 0.000000 -0.000003 -3.820690 -0.067339 -0.376969
    23 0.000005 0.001585 -3.638375 1.506735 1.499755 4.647341
    24 8.842831 0.000000 0.000001 0.802383 1.186449 -0.264006
    25 9.341935 0.000000 -0.000001 0.000000 0.000000 0.052748
    26 9.664097 0.000000 -0.000002 2.840654 0.149948 0.479130
    27 1.977383 0.000000 0.000000 -0.193736 0.340049 -0.100290
    28 14.749151 -0.637065 0.609129 1.516377 -0.033041 -3.136054
    29 14.827692 0.339927 1.738213 1.712062 0.032858 0.003941
  time 18
    0 2.664153 -2.845638 3.268704 0.004123 0.769643 -1.567967
    1 -3.158934 -0.105471 9.745319 -1.570795 -1.570796 0.000000
    2 -0.000007 0.000010 5.615750 -0.067677 3.162875 0.835871
    3 15.693467 0.000000 0.000000 0.000000 0.000000 -1.384008
    4 22.146627 0.000000 0.000000 -0.060651 0.036849 -1.516889
    5 3.310129 5.734394 0.000000 0.000000 0.000000 1.570796
    6 1.055919 0.000000 0.000000 0.000000 0.000000 0.000000
    7 1.055919 0.000000 -0.000001 0.000000 0.000000 0.000000
    8 0.000008 -0.000006 -5.615750 0.046789 3.045334 0.878552
    9 15.693467 0.000000 0.000000 0.000000 0.000000 -0.855507
    10 22.146627 0.000000 0.000000 0.046481 -0.096429 -2.285488
    11 3.310129 5.734393 0.000000 0.000000 0.000000 1.570796
    12 1.055919 0.000000 0.000000 0.000000 0.000000 0.000000
    13 1.055919 0.000000 -0.000001 0.000000 0.000000 0.000000
    14 1.388069 -0.004728 0.000002 0.000020 -0.056873 1.195272
    15 5.939814 -0.004730 0.000000 -0.008639 0.038459 -0.048599
    16 5.939809 -0.003975 0.000000 -0.008582 0.005381 -0.144252
    17 4.991439 -0.003975 0.000000 0.000000 -0.030968 -0.222706
    18 4.991436 -0.001575 0.000000 0.000000 0.000000 0.000000
    19 0.000005 0.001564 3.638375 -2.238461 -1.403554 5.386133
    20 8.842831 0.000000 -0.000002 -0.935458 -1.124904 -0.281708
    21 9.341936 0.000000 0.000003 0.000000 0.000000 0.142547
    22 9.664094 0.000000 -0.000003 -3.820690 -0.067339 -0.376969
    23 0.000005 0.001585 -3.638375 0.741666 1.420032 3.876807
    24 8.842831 0.000000 0.000001 1.335411 1.246857 -0.022861
    25 9.341935 0.000000 -0.000001 0.000000 0.000000 0.010579
    26 9.664097 0.000000 -0.000002 2.840654 0.149948 0.479130
    27 1.977383 0.000000 0.000000 -0.198631 0.340173 -0.198785
    28 14.749151 -0.637065 0.609129 1.516377 -0.033041 -3.136054
    29 14.827692 0.339927 1.738213 1.712062 0.032858 0.003941
  time 19
    0 2.664153 -3.099222 3.111623 0.004123 0.780253 -1.567871
    1 -3.201904 -0.105471 9.745319 -1.570795 -1.570796 0.000000
    2 -0.000007 0.000010 5.615750 -0.048026 3.193746 0.313745
    3 15.693467 0.000000 0.000000 0.000000 0.000000 -1.384008
    4 22.146627 0.000000 0.000000 0.008451 0.070461 -0.894828
    5 3.310129 5.734394 0.000000 0.000000 0.000000 1.570796
    6 1.055919 0.000000 0.000000 0.000000 0.000000 0.000000
    7 1.055919 0.000000 -0.000001 0.000000 0.000000 0.000000
    8 0.000008 -0.000006 -5.615750 0.004411 3.034692 0.466809
    9 15.693467 0.000000 0.000000 0.000000 0.000000 -0.707732
    10 22.146627 0.000000 0.000000 -0.055112 -0.091763 -1.850486
    11 3.310129 5.734393 0.000000 0.000000 0.000000 1.570796
    12 1.055919 0.000000 0.000000 0.000000 0.000000 0.000000
    13 1.055919 0.000000 -0.000001 0.000000 0.000000 0.000000
    14 1.388069 -0.004728 0.000002 0.000020 -0.056873 1.228261
    15 5.939814 -0.004730 0.000000 -0.008639 0.038459 -0.048599
    16 5.939809 -0.003975 0.000000 -0.008582 0.005381 -0.144252
    17 4.991439 -0.003975 0.000000 0.000000 -0.030968 -0.222706
    18 4.991436 -0.001575 0.000000 0.000000 0.000000 0.000000
    19 0.000005 0.001564 3.638375 -1.405322 -1.441515 4.544723
    20 8.842831 0.000000 -0.000002 -1.181412 -1.196486 -0.239325
    21 9.341936 0.000000 0.000003 0.000000 0.000000 0.075002
    22 9.664094 0.000000 -0.000003 -3.820690 -0.067339 -0.376969
    23 0.000005 0.001585 -3.638375 0.538223 1.302202 3.663105
    24 8.842831 0.000000 0.000001 1.664381 1.293646 -0.018366
    25 9.341935 0.000000 -0.000001 0.000000 0.000000 -0.045247
    26 9.664097 0.000000 -0.000002 2.840654 0.149948 0.479130
    27 1.977383 0.000000 0.000000 -0.200263 0.340124 -0.232298
    28 14.749151 -0.637065 0.609129 1.516377 -0.033041 -3.136054
    29 14.827692 0.339927 1.738213 1.712062 0.032858 0.003941
  time 20
    0 2.664153 -3.331674 2.976982 0.004219 0.796598 -1.567776
    1 -3.170653 -0.105471 9.745319 -1.570795 -1.570796 0.000000
    2 -0.000007 0.000010 5.615750 -0.043520 3.197581 0.230785
    3 15.693467 0.000000 0.000000 0.000000 0.000000 -1.164336
    4 22.146627 0.000000 0.000000 0.045170 0.054729 -0.625989
    5 3.310129 5.734394 0.000000 0.000000 0.000000 1.528658
    6 1.055919 0.000000 0.000000 0.000000 0.000000 -0.042138
    7 1.055919 0.000000 -0.000001 0.000000 0.000000 -0.042138
    8 0.000008 -0.000006 -5.615750 -0.003546 3.034692 0.391750
    9 15.693467 0.000000 0.000000 0.000000 0.000000 -0.582714
    10 22.146627 0.000000 0.000000 -0.096065 -0.047186 -1.476551
    11 3.310129 5.734393 0.000000 0.000000 0.000000 1.570796
    12 1.055919 0.000000 0.000000 0.000000 0.000000 0.000000
    13 1.055919 0.000000 -0.000001 0.000000 0.000000 0.000000
    14 1.388069 -0.004728 0.000002 0.000020 -0.056873 1.204712
    15 5.939814 -0.004730 0.000000 -0.008639 0.038459 -0.048599
    16 5.939809 -0.003975 0.000000 -0.008582 0.005381 -0.144252
    17 4.991439 -0.003975 0.000000 0.000000 -0.030968 -0.222706
    18 4.991436 -0.001575 0.000000 0.000000 0.000000 0.000000
    19 0.000005 0.001564 3.638375 -0.657797 -1.369121 3.788738
    20 8.842831 0.000000 -0.000002 -1.238263 -1.244634 -0.396256
    21 9.341936 0.000000 0.000003 0.000000 0.000000 -0.019977
    22 9.664094 0.000000 -0.000003 -3.820690 -0.067339 -0.376969
    23 0.000005 0.001585 -3.638375 0.457881 1.167684 3.566369
    24 8.842831 0.000000 0.000001 1.603443 1.328476 -0.415331
    25 9.341935 0.000000 -0.000001 0.000000 0.000000 -0.125388
    26 9.664097 0.000000 -0.000002 2.840654 0.149948 0.479130
    27 1.977383 0.000000 0.000000 -0.199105 0.340173 -0.208396
    28 14.749151 -0.637065 0.609129 1.516377 -0.033041 -3.136054
    29 14.827692 0.339927 1.738213 1.712062 0.032858 0.003941
  time 21
    0 2.664153 -3.557081 2.842342 0.004314 0.816957 -1.567680
    1 -3.131589 -0.105471 9.745319 -1.570795 -1.570796 0.000000
    2 -0.000007 0.000010 5.615750 -0.042082 3.198732 0.204789
    3 15.693467 0.000000 0.000000 0.000000 0.000000 -0.959319
    4 22.146627 0.000000 0.000000 0.063343 0.032008 -0.444475
    5 3.310129 5.734394 0.000000 0.000000 0.000000 1.473385
    6 1.055919 0.000000 0.000000 0.000000 0.000000 -0.097411
    7 1.055919 0.000000 -0.000001 0.000000 0.000000 -0.097411
    8 0.000008 -0.000006 -5.615750 -0.006710 3.034788 0.362131
    9 15.693467 0.000000 0.000000 0.000000 0.000000 -0.485139
    10 22.146627 0.000000 0.000000 -0.107009 -0.002303 -1.169928
    11 3.310129 5.734393 0.000000 0.000000 0.000000 1.570796
    12 1.055919 0.000000 0.000000 0.000000 0.000000 0.000000
    13 1.055919 0.000000 -0.000001 0.000000 0.000000 0.000000
    14 1.388069 -0.004728 0.000002 0.000020 -0.056873 1.173950
    15 5.939814 -0.004730 0.000000 -0.008639 0.038459 -0.048599
    16 5.939809 -0.003975 0.000000 -0.008582 0.005381 -0.144252
    17 4.991439 -0.003975 0.000000 0.000000 -0.030968 -0.222706
    18 4.991436 -0.001575 0.000000 0.000000 0.000000 0.000000
    19 0.000005 0.001564 3.638375 -0.391749 -1.261421 3.515682
    20 8.842831 0.000000 -0.000002 -1.195810 -1.231453 -0.626744
    21 9.341936 0.000000 0.000003 0.000000 0.000000 -0.158924
    22 9.664094 0.000000 -0.000003 -3.820690 -0.067339 -0.376969
    23 0.000005 0.001585 -3.638375 0.418285 1.044665 3.507790
    24 8.842831 0.000000 0.000001 1.351988 1.273918 -0.950995
    25 9.341935 0.000000 -0.000001 0.000000 0.000000 -0.246099
    26 9.664097 0.000000 -0.000002 2.840654 0.149948 0.479130
    27 1.977383 0.000000 0.000000 -0.197526 0.340198 -0.177124
    28 14.749151 -0.637065 0.609129 1.516377 -0.033041 -3.136054
    29 14.827692 0.339927 1.738213 1.712062 0.032858 0.003941
  time 22
    0 2.664153 -3.754313 2.730141 0.004410 0.839515 -1.567488
    1 -3.072994 -0.105471 9.745319 -1.570795 -1.570796 0.000000
    2 -0.000007 0.000010 5.615750 -0.040836 3.199595 0.182807
    3 15.693467 0.000000 0.000000 0.000000 0.000000 -0.756009
    4 22.146627 0.000000 0.000000 0.070223 0.010105 -0.345254
    5 3.310129 5.734394 0.000000 0.000000 0.000000 1.431247
    6 1.055919 0.000000 0.000000 0.000000 0.000000 -0.139549
    7 1.055919 0.000000 -0.000001 0.000000 0.000000 -0.139549
    8 0.000008 -0.000006 -5.615750 -0.009587 3.035075 0.335229
    9 15.693467 0.000000 0.000000 0.000000 0.000000 -0.437318
    10 22.146627 0.000000 0.000000 -0.099675 0.038928 -0.851918
    11 3.310129 5.734393 0.000000 0.000000 0.000000 1.570796
    12 1.055919 0.000000 0.000000 0.000000 0.000000 0.000000
    13 1.055919 0.000000 -0.000001 0.000000 0.000000 0.000000
    14 1.388069 -0.004728 0.000002 0.000020 -0.056873 1.132633
    15 5.939814 -0.004730 0.000000 -0.008639 0.038459 -0.048599
    16 5.939809 -0.003975 0.000000 -0.008582 0.005381 -0.144252
    17 4.991439 -0.003975 0.000000 0.000000 -0.030968 -0.222706
    18 4.991436 -0.001575 0.000000 0.000000 0.000000 0.000000
    19 0.000005 0.001564 3.638375 -0.361069 -1.264910 3.486440
    20 8.842831 0.000000 -0.000002 -1.296591 -0.658893 -0.635908
    21 9.341936 0.000000 0.000003 0.000000 0.000000 -0.852916
    22 9.664094 0.000000 -0.000003 -3.820690 -0.067339 -0.376969
    23 0.000005 0.001585 -3.638375 0.438323 1.040696 3.525047
    24 8.842831 0.000000 0.000001 1.344283 0.657099 -1.042536
    25 9.341935 0.000000 -0.000001 0.000000 0.000000 -0.874638
    26 9.664097 0.000000 -0.000002 2.840654 0.149948 0.479130
    27 1.977383 0.000000 0.000000 -0.195473 0.340149 -0.135196
    28 14.749151 -0.637065 0.609129 1.516377 -0.033041 -3.136054
    29 14.827692 0.339927 1.738213 1.712062 0.032858 0.003941
  time 23
    0 2.664153 -3.937457 2.617940 0.004506 0.863507 -1.567392
    1 -2.998773 -0.105471 9.745319 -1.570795 -1.570796 0.000000
    2 -0.000007 0.000010 5.615750 -0.040836 3.199595 0.182807
    3 15.693467 0.000000 0.000000 0.000000 0.000000 -0.895509
    4 22.146627 0.000000 0.000000 0.032045 0.063321 -1.164451
    5 3.310129 5.734394 0.000000 0.000000 0.000000 1.431247
    6 1.055919 0.000000 0.000000 0.000000 0.000000 -0.139549
    7 1.055919 0.000000 -0.000001 0.000000 0.000000 -0.139549
    8 0.000008 -0.000006 -5.615750 -0.009587 3.035075 0.335229
    9 15.693467 0.000000 0.000000 0.000000 0.000000 -0.951967
    10 22.146627 0.000000 0.000000 -0.105373 -0.018727 -0.883875
    11 3.310129 5.734393 0.000000 0.000000 0.000000 1.570796
    12 1.055919 0.000000 0.000000 0.000000 0.000000 0.000000
    13 1.055919 0.000000 -0.000001 0.000000 0.000000 0.000000
    14 1.388069 -0.004728 0.000002 0.000044 -0.056873 1.085429
    15 5.939814 -0.004730 0.000000 -0.008639 0.038459 -0.048599
    16 5.939809 -0.003975 0.000000 -0.008582 0.005381 -0.144252
    17 4.991439 -0.003975 0.000000 0.000000 -0.030968 -0.222706
    18 4.991436 -0.001575 0.000000 0.000000 0.000000 0.000000
    19 0.000005 0.001564 3.638375 -0.242378 -1.275377 3.373114
    20 8.842831 0.000000 -0.000002 -1.263643 -0.206337 -0.514650
    21 9.341936 0.000000 0.000003 0.000000 0.000000 -1.415375
    22 9.664094 0.000000 -0.000003 -3.820690 -0.067339 -0.376969
    23 0.000005 0.001585 -3.638375 0.326055 1.060182 3.427640
    24 8.842831 0.000000 0.000001 1.228090 0.209806 -0.834392
    25 9.341935 0.000000 -0.000001 0.000000 0.000000 -1.389460
    26 9.664097 0.000000 -0.000002 2.840654 0.149948 0.479130
    27 1.977383 0.000000 0.000000 -0.193105 0.339975 -0.087193
    28 14.749151 -0.637065 0.609129 1.516377 -0.033041 -3.136054
    29 14.827692 0.339927 1.738213 1.712062 0.032858 0.003941
  time 24
    0 2.664153 -4.106513 2.550620 0.004698 0.887880 -1.567200
    1 -2.916739 -0.105471 9.745319 -1.570795 -1.570796 0.000000
    2 -0.000007 0.000010 5.615750 -0.040836 3.199595 0.182807
    3 15.693467 0.000000 0.000000 0.000000 0.000000 -0.828426
    4 22.146627 0.000000 0.000000 0.039636 0.064682 -1.194126
    5 3.310129 5.734394 0.000000 0.000000 0.000000 1.431247
    6 1.055919 0.000000 0.000000 0.000000 0.000000 -0.139549
    7 1.055919 0.000000 -0.000001 0.000000 0.000000 -0.139549
    8 0.000008 -0.000006 -5.615750 -0.009587 3.035075 0.335229
    9 15.693467 0.000000 0.000000 0.000000 0.000000 -0.858110
    10 22.146627 0.000000 0.000000 -0.109208 -0.018420 -0.960186
    11 3.310129 5.734393 0.000000 0.000000 0.000000 1.570796
    12 1.055919 0.000000 0.000000 0.000000 0.000000 0.000000
    13 1.055919 0.000000 -0.000001 0.000000 0.000000 0.000000
    14 1.388069 -0.004728 0.000002 0.000044 -0.056873 1.035414
    15 5.939814 -0.004730 0.000000 -0.008639 0.038459 -0.048599
    16 5.939809 -0.003975 0.000000 -0.008582 0.005381 -0.144252
    17 4.991439 -0.003975 0.000000 0.000000 -0.030968 -0.222706
    18 4.991436 -0.001575 0.000000 0.000000 0.000000 0.000000
    19 0.000005 0.001564 3.638375 -0.181211 -1.279017 3.314534
    20 8.842831 0.000000 -0.000002 -1.257367 -0.152422 -0.478650
    21 9.341936 0.000000 0.000003 0.000000 0.000000 -1.415375
    22 9.664094 0.000000 -0.000003 -3.862909 -0.063395 -0.362619
    23 0.000005 0.001585 -3.638375 0.283487 1.065880 3.390441
    24 8.842831 0.000000 0.000001 1.223498 0.156120 -0.781687
    25 9.341935 0.000000 -0.000001 0.000000 0.000000 -1.389460
    26 9.664097 0.000000 -0.000002 2.840654 0.149948 0.479130
    27 1.977383 0.000000 0.000000 -0.190578 0.339702 -0.036452
    28 14.749151 -0.637065 0.609129 1.516377 -0.033041 -3.136054
    29 14.827692 0.339927 1.738213 1.712062 0.032858 0.003941
  time 25
    0 2.664153 -4.261481 2.483300 0.004794 0.912159 -1.567008
    1 -2.826892 -0.105471 9.745319 -1.570795 -1.570796 0.000000
    2 -0.000007 0.000010 5.615750 -0.040836 3.199595 0.182807
    3 15.693467 0.000000 0.000000 0.000000 0.000000 -0.746690
    4 22.146627 0.000000 0.000000 0.051789 0.063230 -1.174844
    5 3.310129 5.734394 0.000000 0.000000 0.000000 1.431247
    6 1.055919 0.000000 0.000000 0.000000 0.000000 -0.139549
    7 1.055919 0.000000 -0.000001 0.000000 0.000000 -0.139549
    8 0.000008 -0.000006 -5.615750 -0.009587 3.035075 0.335229
    9 15.693467 0.000000 0.000000 0.000000 0.000000 -0.723275
    10 22.146627 0.000000 0.000000 -0.114003 -0.014276 -1.041916
    11 3.310129 5.734393 0.000000 0.000000 0.000000 1.570796
    12 1.055919 0.000000 0.000000 0.000000 0.000000 0.000000
    13 1.055919 0.000000 -0.000001 0.000000 0.000000 0.000000
    14 1.388069 -0.004728 0.000002 0.000069 -0.056847 0.984816
    15 5.939814 -0.004730 0.000000 -0.008639 0.038459 -0.048599
    16 5.939809 -0.003975 0.000000 -0.008582 0.005381 -0.144252
    17 4.991439 -0.003975 0.000000 0.000000 -0.030968 -0.222706
    18 4.991436 -0.001575 0.000000 0.000000 0.000000 0.000000
    19 0.000005 0.001564 3.638375 -0.109210 -1.281937 3.245503
    20 8.842831 0.000000 -0.000002 -1.255522 -0.118645 -0.437657
    21 9.341936 0.000000 0.000003 0.000000 0.000000 -1.415375
    22 9.664094 0.000000 -0.000003 -3.914511 -0.057836 -0.345294
    23 0.000005 0.001585 -3.638375 0.232962 1.071528 3.346148
    24 8.842831 0.000000 0.000001 1.226689 0.124520 -0.724390
    25 9.341935 0.000000 -0.000001 0.000000 0.000000 -1.389460
    26 9.664097 0.000000 -0.000002 2.840654 0.149948 0.479130
    27 1.977383 0.000000 0.000000 -0.188105 0.339304 0.014888
    28 14.749151 -0.637065 0.609129 1.516377 -0.033041 -3.136054
    29 14.827692 0.339927 1.738213 1.712062 0.032858 0.003941
  time 26
    0 2.664153 -4.402360 2.438419 0.004986 0.936055 -1.566817
    1 -2.733140 -0.105471 9.745319 -1.570795 -1.570796 0.000000
    2 -0.000007 0.000010 5.615750 -0.040836 3.199595 0.182807
    3 15.693467 0.000000 0.000000 0.000000 0.000000 -0.674699
    4 22.146627 0.000000 0.000000 0.062820 0.060023 -1.143273
    5 3.310129 5.734394 0.000000 0.000000 0.000000 1.431247
    6 1.055919 0.000000 0.000000 0.000000 0.000000 -0.139549
    7 1.055919 0.000000 -0.000001 0.000000 0.000000 -0.139549
    8 0.000008 -0.000006 -5.615750 -0.009587 3.035075 0.335229
    9 15.693467 0.000000 0.000000 0.000000 0.000000 -0.599447
    10 22.146627 0.000000 0.000000 -0.117896 -0.009394 -1.110330
    11 3.310129 5.734393 0.000000 0.000000 0.000000 1.570796
    12 1.055919 0.000000 0.000000 0.000000 0.000000 0.000000
    13 1.055919 0.000000 -0.000001 0.000000 0.000000 0.000000
    14 1.384163 -0.004728 0.000002 0.000069 -0.056847 0.935119
    15 5.939814 -0.004730 0.000000 -0.008639 0.038459 -0.048599
    16 5.939809 -0.003975 0.000000 -0.008582 0.005381 -0.144252
    17 4.991439 -0.003975 0.000000 0.000000 -0.030968 -0.222706
    18 4.991436 -0.001575 0.000000 0.000000 0.000000 0.000000
    19 0.000005 0.001564 3.638375 -0.033470 -1.283378 3.172925
    20 8.842831 0.000000 -0.000002 -1.255522 -0.098233 -0.395520
    21 9.341936 0.000000 0.000003 0.000000 0.000000 -1.415375
    22 9.664094 0.000000 -0.000003 -3.969368 -0.050932 -0.327152
    23 0.000005 0.001585 -3.638375 0.179465 1.076208 3.299074
    24 8.842831 0.000000 0.000001 1.233693 0.107235 -0.666710
    25 9.341935 0.000000 -0.000001 0.000000 0.000000 -1.389460
    26 9.664097 0.000000 -0.000002 2.840654 0.149948 0.479130
    27 1.977383 0.000000 0.000000 -0.185631 0.338783 0.065380
    28 14.749151 -0.637065 0.609129 1.516377 -0.033041 -3.136054
    29 14.827692 0.339927 1.738213 1.712062 0.032858 0.003941
  time 27
    0 2.664153 -4.522108 2.393539 0.005081 0.959282 -1.566625
    1 -2.639387 -0.105471 9.745319 -1.570795 -1.570796 0.000000
    2 -0.000007 0.000010 5.615750 -0.040836 3.199595 0.182807
    3 15.693467 0.000000 0.000000 0.000000 0.000000 -0.612667
    4 22.146627 0.000000 0.000000 0.072168 0.055818 -1.109023
    5 3.310129 5.734394 0.000000 0.000000 0.000000 1.431247
    6 1.055919 0.000000 0.000000 0.000000 0.000000 -0.139549
    7 1.055919 0.000000 -0.000001 0.000000 0.000000 -0.139549
    8 0.000008 -0.000006 -5.615750 -0.009587 3.035075 0.335229
    9 15.693467 0.000000 0.000000 0.000000 0.000000 -0.490940
    10 22.146627 0.000000 0.000000 -0.120885 -0.004482 -1.166989
    11 3.310129 5.734393 0.000000 0.000000 0.000000 1.570796
    12 1.055919 0.000000 0.000000 0.000000 0.000000 0.000000
    13 1.055919 0.000000 -0.000001 0.000000 0.000000 0.000000
    14 1.384163 -0.004728 0.000002 0.000069 -0.056847 0.887066
    15 5.939814 -0.004730 0.000000 -0.008639 0.038459 -0.048599
    16 5.939809 -0.003975 0.000000 -0.008582 0.005381 -0.144252
    17 4.991439 -0.003975 0.000000 0.000000 -0.030968 -0.222706
    18 4.991436 -0.001575 0.000000 0.000000 0.000000 0.000000
    19 0.000005 0.001564 3.638375 0.040736 -1.283340 3.101688
    20 8.842831 0.000000 -0.000002 -1.255614 -0.086608 -0.354528
    21 9.341936 0.000000 0.000003 0.000000 0.000000 -1.415375
    22 9.664094 0.000000 -0.000003 -4.023841 -0.043132 -0.309531
    23 0.000005 0.001585 -3.638375 0.126159 1.079617 3.252192
    24 8.842831 0.000000 0.000001 1.242020 0.098855 -0.611135
    25 9.341935 0.000000 -0.000001 0.000000 0.000000 -1.389460
    26 9.664097 0.000000 -0.000002 2.840654 0.149948 0.479130
    27 1.977383 0.000000 0.000000 -0.183315 0.338162 0.114130
    28 14.749151 -0.637065 0.609129 1.516377 -0.033041 -3.136054
    29 14.827692 0.339927 1.738213 1.712062 0.032858 0.003941
  time 28
    0 2.664153 -4.634812 2.371099 0.005273 0.981744 -1.566433
    1 -2.541727 -0.105471 9.745319 -1.570795 -1.570796 0.000000
    2 -0.000007 0.000010 5.615750 -0.040836 3.199595 0.182807
    3 15.693467 0.000000 0.000000 0.000000 0.000000 -0.554477
    4 22.146627 0.000000 0.000000 0.080469 0.050675 -1.071700
    5 3.310129 5.734394 0.000000 0.000000 0.000000 1.431247
    6 1.055919 0.000000 0.000000 0.000000 0.000000 -0.139549
    7 1.055919 0.000000 -0.000001 0.000000 0.000000 -0.139549
    8 0.000008 -0.000006 -5.615750 -0.009587 3.035075 0.335229
    9 15.693467 0.000000 0.000000 0.000000 0.000000 -0.388233
    10 22.146627 0.000000 0.000000 -0.123198 0.000675 -1.217863
    11 3.310129 5.734393 0.000000 0.000000 0.000000 1.570796
    12 1.055919 0.000000 0.000000 0.000000 0.000000 0.000000
    13 1.055919 0.000000 -0.000001 0.000000 0.000000 0.000000
    14 1.384163 -0.004728 0.000002 0.000093 -0.056847 0.841188
    15 5.939814 -0.004730 0.000000 -0.008639 0.038459 -0.048599
    16 5.939809 -0.003975 0.000000 -0.008582 0.005381 -0.144252
    17 4.991439 -0.003975 0.000000 0.000000 -0.030968 -0.222706
    18 4.991436 -0.001575 0.000000 0.000000 0.000000 0.000000
    19 0.000005 0.001564 3.638375 0.110724 -1.281861 3.034575
    20 8.842831 0.000000 -0.000002 -1.255060 -0.080658 -0.315827
    21 9.341936 0.000000 0.000003 0.000000 0.000000 -1.415375
    22 9.664094 0.000000 -0.000003 -4.075634 -0.034705 -0.293099
    23 0.000005 0.001585 -3.638375 0.075251 1.081754 3.207227
    24 8.842831 0.000000 0.000001 1.250114 0.095800 -0.558812
    25 9.341935 0.000000 -0.000001 0.000000 0.000000 -1.389460
    26 9.664097 0.000000 -0.000002 2.840654 0.149948 0.479130
    27 1.977383 0.000000 0.000000 -0.181157 0.337491 0.160639
    28 14.749151 -0.637065 0.609129 1.516377 -0.033041 -3.136054
    29 14.827692 0.339927 1.738213 1.712062 0.032858 0.003941
  time 29
    0 2.664153 -4.733428 2.371099 0.005465 1.003442 -1.566146
    1 -2.447975 -0.105471 9.745319 -1.570795 -1.570796 0.000000
    2 -0.000007 0.000010 5.615750 -0.040836 3.199595 0.182807
    3 15.693467 0.000000 0.000000 0.000000 0.000000 -0.496429
    4 22.146627 0.000000 0.000000 0.088022 0.044170 -1.027973
    5 3.310129 5.734394 0.000000 0.000000 0.000000 1.431247
    6 1.055919 0.000000 0.000000 0.000000 0.000000 -0.139549
    7 1.055919 0.000000 -0.000001 0.000000 0.000000 -0.139549
    8 0.000008 -0.000006 -5.615750 -0.009587 3.035075 0.335229
    9 15.693467 0.000000 0.000000 0.000000 0.000000 -0.285006
    10 22.146627 0.000000 0.000000 -0.125003 0.006508 -1.265340
    11 3.310129 5.734393 0.000000 0.000000 0.000000 1.570796
    12 1.055919 0.000000 0.000000 0.000000 0.000000 0.000000
    13 1.055919 0.000000 -0.000001 0.000000 0.000000 0.000000
    14 1.384163 -0.004728 0.000002 0.000093 -0.056820 0.797643
    15 5.939814 -0.004730 0.000000 -0.008639 0.038459 -0.048599
    16 5.939809 -0.003975 0.000000 -0.008582 0.005381 -0.144252
    17 4.991439 -0.003975 0.000000 0.000000 -0.030968 -0.222706
    18 4.991436 -0.001575 0.000000 0.000000 0.000000 0.000000
    19 0.000005 0.001564 3.638375 0.174767 -1.279359 2.973310
    20 8.842831 0.000000 -0.000002 -1.253399 -0.078095 -0.279908
    21 9.341936 0.000000 0.000003 0.000000 0.000000 -1.415375
    22 9.664094 0.000000 -0.000003 -4.123885 -0.026187 -0.278154
    23 0.000005 0.001585 -3.638375 0.027602 1.082771 3.165235
    24 8.842831 0.000000 0.000001 1.257197 0.095800 -0.510220
    25 9.341935 0.000000 -0.000001 0.000000 0.000000 -1.389460
    26 9.664097 0.000000 -0.000002 2.840654 0.149948 0.479130
    27 1.977383 0.000000 0.000000 -0.179105 0.336746 0.204808
    28 14.749151 -0.637065 0.609129 1.516377 -0.033041 -3.136054
    29 14.827692 0.339927 1.738213 1.712062 0.032858 0.003941
  time 30
    0 2.664153 -4.817956 2.371099 0.005657 1.024375 -1.565954
    1 -2.354222 -0.105471 9.745319 -1.570795 -1.570796 0.000000
    2 -0.000007 0.000010 5.615750 -0.040836 3.199595 0.182807
    3 15.693467 0.000000 0.000000 0.000000 0.000000 -0.445993
    4 22.146627 0.000000 0.000000 0.093332 0.036849 -0.978689
    5 3.310129 5.734394 0.000000 0.000000 0.000000 1.431247
    6 1.055919 0.000000 0.000000 0.000000 0.000000 -0.139549
    7 1.055919 0.000000 -0.000001 0.000000 0.000000 -0.139549
    8 0.000008 -0.000006 -5.615750 -0.009587 3.035075 0.335229
    9 15.693467 0.000000 0.000000 0.000000 0.000000 -0.195612
    10 22.146627 0.000000 0.000000 -0.125398 0.012679 -1.299134
    11 3.310129 5.734393 0.000000 0.000000 0.000000 1.570796
    12 1.055919 0.000000 0.000000 0.000000 0.000000 0.000000
    13 1.055919 0.000000 -0.000001 0.000000 0.000000 0.000000
    14 1.384163 -0.004728 0.000002 0.000093 -0.056820 0.756433
    15 5.939814 -0.004730 0.000000 -0.008639 0.038459 -0.048599
    16 5.939809 -0.003975 0.000000 -0.008582 0.005381 -0.144252
    17 4.991439 -0.003975 0.000000 0.000000 -0.030968 -0.222706
    18 4.991436 -0.001575 0.000000 0.000000 0.000000 0.000000
    19 0.000005 0.001564 3.638375 0.232291 -1.276059 2.918181
    20 8.842831 0.000000 -0.000002 -1.250538 -0.077637 -0.246934
    21 9.341936 0.000000 0.000003 0.000000 0.000000 -1.415375
    22 9.664094 0.000000 -0.000003 -4.168211 -0.017581 -0.264845
    23 0.000005 0.001585 -3.638375 -0.016021 1.082873 3.126694
    24 8.842831 0.000000 0.000001 1.262878 0.097546 -0.465454
    25 9.341935 0.000000 -0.000001 0.000000 0.000000 -1.389460
    26 9.664097 0.000000 -0.000002 2.840654 0.149948 0.479130
    27 1.977383 0.000000 0.000000 -0.177210 0.335976 0.246636
    28 14.749151 -0.637065 0.609129 1.516377 -0.033041 -3.136054
    29 14.827692 0.339927 1.738213 1.712062 0.032858 0.003941
  time 31
    0 2.664153 -4.895440 2.371099 0.005848 1.044447 -1.565762
    1 -2.260469 -0.105471 9.745319 -1.570795 -1.570796 0.000000
    2 -0.000007 0.000010 5.615750 -0.040836 3.199595 0.182807
    3 15.693467 0.000000 0.000000 0.000000 0.000000 -0.425647
    4 22.146627 0.000000 0.000000 0.100399 0.029437 -0.900514
    5 3.310129 5.734394 0.000000 0.000000 0.000000 1.431247
    6 1.055919 0.000000 0.000000 0.000000 0.000000 -0.139549
    7 1.055919 0.000000 -0.000001 0.000000 0.000000 -0.139549
    8 0.000008 -0.000006 -5.615750 -0.009587 3.035075 0.335229
    9 15.693467 0.000000 0.000000 0.000000 0.000000 -0.154187
    10 22.146627 0.000000 0.000000 -0.127372 0.018144 -1.287471
    11 3.310129 5.734393 0.000000 0.000000 0.000000 1.570796
    12 1.055919 0.000000 0.000000 0.000000 0.000000 0.000000
    13 1.055919 0.000000 -0.000001 0.000000 0.000000 0.000000
    14 1.384163 -0.004728 0.000002 0.000117 -0.056820 0.717397
    15 5.939814 -0.004730 0.000000 -0.008639 0.038459 -0.048599
    16 5.939809 -0.003975 0.000000 -0.008582 0.005381 -0.144252
    17 4.991439 -0.003975 0.000000 0.000000 -0.030968 -0.222706
    18 4.991436 -0.001575 0.000000 0.000000 0.000000 0.000000
    19 0.000005 0.001564 3.638375 0.283775 -1.272267 2.868997
    20 8.842831 0.000000 -0.000002 -1.246569 -0.078461 -0.216660
    21 9.341936 0.000000 0.000003 0.000000 0.000000 -1.415375
    22 9.664094 0.000000 -0.000003 -4.208899 -0.009243 -0.252874
    23 0.000005 0.001585 -3.638375 -0.056000 1.082313 3.091316
    24 8.842831 0.000000 0.000001 1.267158 0.100077 -0.424227
    25 9.341935 0.000000 -0.000001 0.000000 0.000000 -1.389460
    26 9.664097 0.000000 -0.000002 2.840654 0.149948 0.479130
    27 1.977383 0.000000 0.000000 -0.175421 0.335157 0.286224
    28 14.749151 -0.637065 0.609129 1.516377 -0.033041 -3.136054
    29 14.827692 0.339927 1.738213 1.712062 0.032858 0.003941
  time 32
    0 2.664153 -4.958836 2.371099 0.006040 1.063755 -1.565474
    1 -2.170622 -0.105471 9.745319 -1.570795 -1.570796 0.000000
    2 -0.000007 0.000010 5.615750 -0.040836 3.199595 0.182807
    3 15.693467 0.000000 0.000000 0.000000 0.000000 -0.446917
    4 22.146627 0.000000 0.000000 0.109373 0.021389 -0.779331
    5 3.310129 5.734394 0.000000 0.000000 0.000000 1.431247
    6 1.055919 0.000000 0.000000 0.000000 0.000000 -0.139549
    7 1.055919 0.000000 -0.000001 0.000000 0.000000 -0.139549
    8 0.000008 -0.000006 -5.615750 -0.009587 3.035075 0.335229
    9 15.693467 0.000000 0.000000 0.000000 0.000000 -0.175681
    10 22.146627 0.000000 0.000000 -0.130982 0.023179 -1.214190
    11 3.310129 5.734393 0.000000 0.000000 0.000000 1.570796
    12 1.055919 0.000000 0.000000 0.000000 0.000000 0.000000
    13 1.055919 0.000000 -0.000001 0.000000 0.000000 0.000000
    14 1.384163 -0.004728 0.000002 0.000117 -0.056820 0.680270
    15 5.939814 -0.004730 0.000000 -0.008639 0.038459 -0.048599
    16 5.939809 -0.003975 0.000000 -0.008582 0.005381 -0.144252
    17 4.991439 -0.003975 0.000000 0.000000 -0.030968 -0.222706
    18 4.991436 -0.001575 0.000000 0.000000 0.000000 0.000000
    19 0.000005 0.001564 3.638375 0.329794 -1.268133 2.824989
    20 8.842831 0.000000 -0.000002 -1.241770 -0.079925 -0.188760
    21 9.341936 0.000000 0.000003 0.000000 0.000000 -1.415375
    22 9.664094 0.000000 -0.000003 -4.246140 -0.001174 -0.242241
    23 0.000005 0.001585 -3.638375 -0.092624 1.081143 3.059007
    24 8.842831 0.000000 0.000001 1.270038 0.103045 -0.386156
    25 9.341935 0.000000 -0.000001 0.000000 0.000000 -1.389460
    26 9.664097 0.000000 -0.000002 2.840654 0.149948 0.479130
    27 1.977383 0.000000 0.000000 -0.173789 0.334337 0.323819
    28 14.749151 -0.637065 0.609129 1.516377 -0.033041 -3.136054
    29 14.827692 0.339927 1.738213 1.712062 0.032858 0.003941
  time 33
    0 2.664153 -5.015188 2.393539 0.006328 1.082394 -1.565283
    1 -2.084682 -0.105471 9.745319 -1.570795 -1.570796 0.000000
    2 -0.000007 0.000010 5.615750 -0.040836 3.199595 0.182807
    3 15.693467 0.000000 0.000000 0.000000 0.000000 -0.477791
    4 22.146627 0.000000 0.000000 0.102418 0.014189 -0.670567
    5 3.310129 5.734394 0.000000 0.000000 0.000000 1.431247
    6 1.055919 0.000000 0.000000 0.000000 0.000000 -0.139549
    7 1.055919 0.000000 -0.000001 0.000000 0.000000 -0.139549
    8 0.000008 -0.000006 -5.615750 -0.009587 3.035075 0.335229
    9 15.693467 0.000000 0.000000 0.000000 0.000000 -0.217477
    10 22.146627 0.000000 0.000000 -0.124101 0.029963 -1.122268
    11 3.310129 5.734393 0.000000 0.000000 0.000000 1.570796
    12 1.055919 0.000000 0.000000 0.000000 0.000000 0.000000
    13 1.055919 0.000000 -0.000001 0.000000 0.000000 0.000000
    14 1.384163 -0.004728 0.000002 0.000117 -0.056794 0.644999
    15 5.939814 -0.004730 0.000000 -0.008639 0.038459 -0.048599
    16 5.939809 -0.003975 0.000000 -0.008582 0.005381 -0.144252
    17 4.991439 -0.003975 0.000000 0.000000 -0.030968 -0.222706
    18 4.991436 -0.001575 0.000000 0.000000 0.000000 0.000000
    19 0.000005 0.001564 3.638375 0.371212 -1.263810 2.785488
    20 8.842831 0.000000 -0.000002 -1.236233 -0.081848 -0.162904
    21 9.341936 0.000000 0.000003 0.000000 0.000000 -1.415375
    22 9.664094 0.000000 -0.000003 -4.280605 0.006716 -0.232650
    23 0.000005 0.001585 -3.638375 -0.126371 1.079617 3.029286
    24 8.842831 0.000000 0.000001 1.271906 0.106101 -0.350764
    25 9.341935 0.000000 -0.000001 0.000000 0.000000 -1.389460
    26 9.664097 0.000000 -0.000002 2.840654 0.149948 0.479130
    27 1.977383 0.000000 0.000000 -0.172210 0.333518 0.359573
    28 14.749151 -0.637065 0.609129 1.516377 -0.033041 -3.136054
    29 14.827692 0.339927 1.738213 1.712062 0.032858 0.003941
  time 34
    0 2.664153 -5.057452 2.415979 0.006520 1.100268 -1.564995
    1 -1.998742 -0.105471 9.745319 -1.570795 -1.570796 0.000000
    2 -0.000007 0.000010 5.615750 -0.040836 3.199595 0.182807
    3 15.693467 0.000000 0.000000 0.000000 0.000000 -0.476866
    4 22.146627 0.000000 0.000000 0.070223 0.010105 -0.624355
    5 3.310129 5.734394 0.000000 0.000000 0.000000 1.431247
    6 1.055919 0.000000 0.000000 0.000000 0.000000 -0.139549
    7 1.055919 0.000000 -0.000001 0.000000 0.000000 -0.139549
    8 0.000008 -0.000006 -5.615750 -0.009587 3.035075 0.335229
    9 15.693467 0.000000 0.000000 0.000000 0.000000 -0.219262
    10 22.146627 0.000000 0.000000 -0.099675 0.038928 -1.070016
    11 3.310129 5.734393 0.000000 0.000000 0.000000 1.570796
    12 1.055919 0.000000 0.000000 0.000000 0.000000 0.000000
    13 1.055919 0.000000 -0.000001 0.000000 0.000000 0.000000
    14 1.384163 -0.004728 0.000002 0.000117 -0.056794 0.611267
    15 5.939814 -0.004730 0.000000 -0.008639 0.038459 -0.048599
    16 5.939809 -0.003975 0.000000 -0.008582 0.005381 -0.144252
    17 4.991439 -0.003975 0.000000 0.000000 -0.030968 -0.222706
    18 4.991436 -0.001575 0.000000 0.000000 0.000000 0.000000
    19 0.000005 0.001564 3.638375 0.408794 -1.259335 2.749631
    20 8.842831 0.000000 -0.000002 -1.230326 -0.083953 -0.138849
    21 9.341936 0.000000 0.000003 0.000000 0.000000 -1.415375
    22 9.664094 0.000000 -0.000003 -4.312772 0.014337 -0.223876
    23 0.000005 0.001585 -3.638375 -0.157626 1.077734 3.001675
    24 8.842831 0.000000 0.000001 1.272917 0.109243 -0.317572
    25 9.341935 0.000000 -0.000001 0.000000 0.000000 -1.389460
    26 9.664097 0.000000 -0.000002 2.840654 0.149948 0.479130
    27 1.977383 0.000000 0.000000 -0.170789 0.332649 0.393733
    28 14.749151 -0.637065 0.609129 1.516377 -0.033041 -3.136054
    29 14.827692 0.339927 1.738213 1.712062 0.032858 0.003941
  time 35
    0 2.664153 -5.092672 2.438419 0.006711 1.117473 -1.564707
    1 -1.916708 -0.105471 9.745319 -1.570795 -1.570796 0.000000
    2 -0.000007 0.000010 5.615750 -0.040836 3.199595 0.182807
    3 15.693467 0.000000 0.000000 0.000000 0.000000 -0.445352
    4 22.146627 0.000000 0.000000 0.013985 0.009258 -0.635597
    5 3.310129 5.734394 0.000000 0.000000 0.000000 1.431247
    6 1.055919 0.000000 0.000000 0.000000 0.000000 -0.139549
    7 1.055919 0.000000 -0.000001 0.000000 0.000000 -0.139549
    8 0.000008 -0.000006 -5.615750 -0.009587 3.035075 0.335229
    9 15.693467 0.000000 0.000000 0.000000 0.000000 -0.182448
    10 22.146627 0.000000 0.000000 -0.057989 0.048844 -1.053946
    11 3.310129 5.734393 0.000000 0.000000 0.000000 1.570796
    12 1.055919 0.000000 0.000000 0.000000 0.000000 0.000000
    13 1.055919 0.000000 -0.000001 0.000000 0.000000 0.000000
    14 1.384163 -0.004728 0.000002 0.000117 -0.056794 0.579020
    15 5.939814 -0.004730 0.000000 -0.008639 0.038459 -0.048599
    16 5.939809 -0.003975 0.000000 -0.008582 0.005381 -0.144252
    17 4.991439 -0.003975 0.000000 0.000000 -0.030968 -0.222706
    18 4.991436 -0.001575 0.000000 0.000000 0.000000 0.000000
    19 0.000005 0.001564 3.638375 0.443404 -1.254709 2.716841
    20 8.842831 0.000000 -0.000002 -1.224235 -0.086241 -0.116103
    21 9.341936 0.000000 0.000003 0.000000 0.000000 -1.415375
    22 9.664094 0.000000 -0.000003 -4.343121 0.021868 -0.215920
    23 0.000005 0.001585 -3.638375 -0.186963 1.075649 2.975885
    24 8.842831 0.000000 0.000001 1.273462 0.112473 -0.286198
    25 9.341935 0.000000 -0.000001 0.000000 0.000000 -1.389460
    26 9.664097 0.000000 -0.000002 2.840654 0.149948 0.479130
    27 1.977383 0.000000 0.000000 -0.169473 0.331804 0.426398
    28 14.749151 -0.637065 0.609129 1.516377 -0.033041 -3.136054
    29 14.827692 0.339927 1.738213 1.712062 0.032858 0.003941
  time 36
    0 2.664153 -5.120848 2.460860 0.006999 1.133818 -1.564516
    1 -1.834675 -0.105471 9.745319 -1.570795 -1.570796 0.000000
    2 -0.000007 0.000010 5.615750 -0.040836 3.199595 0.182807
    3 15.693467 0.000000 0.000000 0.000000 0.000000 -0.401105
    4 22.146627 0.000000 0.000000 -0.058893 0.009984 -0.675992
    5 3.310129 5.734394 0.000000 0.000000 0.000000 1.431247
    6 1.055919 0.000000 0.000000 0.000000 0.000000 -0.139549
    7 1.055919 0.000000 -0.000001 0.000000 0.000000 -0.139549
    8 0.000008 -0.000006 -5.615750 -0.009587 3.035075 0.335229
    9 15.693467 0.000000 0.000000 0.000000 0.000000 -0.131579
    10 22.146627 0.000000 0.000000 -0.003949 0.057747 -1.048528
    11 3.310129 5.734393 0.000000 0.000000 0.000000 1.570796
    12 1.055919 0.000000 0.000000 0.000000 0.000000 0.000000
    13 1.055919 0.000000 -0.000001 0.000000 0.000000 0.000000
    14 1.384163 -0.004728 0.000002 0.000117 -0.056794 0.548204
    15 5.939814 -0.004730 0.000000 -0.008639 0.038459 -0.048599
    16 5.939809 -0.003975 0.000000 -0.008582 0.005381 -0.144252
    17 4.991439 -0.003975 0.000000 0.000000 -0.030968 -0.222706
    18 4.991436 -0.001575 0.000000 0.000000 0.000000 0.000000
    19 0.000005 0.001564 3.638375 0.475330 -1.250007 2.686448
    20 8.842831 0.000000 -0.000002 -1.218328 -0.088621 -0.094584
    21 9.341936 0.000000 0.000003 0.000000 0.000000 -1.415375
    22 9.664094 0.000000 -0.000003 -4.371937 0.029130 -0.208485
    23 0.000005 0.001585 -3.638375 -0.214670 1.073257 2.951437
    24 8.842831 0.000000 0.000001 1.273851 0.115616 -0.256353
    25 9.341935 0.000000 -0.000001 0.000000 0.000000 -1.389460
    26 9.664097 0.000000 -0.000002 2.840654 0.149948 0.479130
    27 1.977383 0.000000 0.000000 -0.168210 0.330960 0.457570
    28 14.749151 -0.637065 0.609129 1.516377 -0.033041 -3.136054
    29 14.827692 0.339927 1.738213 1.712062 0.032858 0.003941
  time 37
    0 2.664153 -5.141980 2.483300 0.007191 1.149112 -1.564228
    1 -1.760454 -0.105471 9.745319 -1.570795 -1.570796 0.000000
    2 -0.000007 0.000010 5.615750 -0.040836 3.199595 0.182807
    3 15.693467 0.000000 0.000000 0.000000 0.000000 -0.353585
    4 22.146627 0.000000 0.000000 -0.135249 0.010740 -0.728217
    5 3.310129 5.734394 0.000000 0.000000 0.000000 1.431247
    6 1.055919 0.000000 0.000000 0.000000 0.000000 -0.139549
    7 1.055919 0.000000 -0.000001 0.000000 0.000000 -0.139549
    8 0.000008 -0.000006 -5.615750 -0.009587 3.035075 0.335229
    9 15.693467 0.000000 0.000000 0.000000 0.000000 -0.077139
    10 22.146627 0.000000 0.000000 0.052799 0.063641 -1.048436
    11 3.310129 5.734393 0.000000 0.000000 0.000000 1.570796
    12 1.055919 0.000000 0.000000 0.000000 0.000000 0.000000
    13 1.055919 0.000000 -0.000001 0.000000 0.000000 0.000000
    14 1.384163 -0.004728 0.000002 0.000141 -0.056794 0.519033
    15 5.939814 -0.004730 0.000000 -0.008639 0.038459 -0.048599
    16 5.939809 -0.003975 0.000000 -0.008582 0.005381 -0.144252
    17 4.991439 -0.003975 0.000000 0.000000 -0.030968 -0.222706
    18 4.991436 -0.001575 0.000000 0.000000 0.000000 0.000000
    19 0.000005 0.001564 3.638375 0.505051 -1.245228 2.658260
    20 8.842831 0.000000 -0.000002 -1.212883 -0.090818 -0.074129
    21 9.341936 0.000000 0.000003 0.000000 0.000000 -1.415375
    22 9.664094 0.000000 -0.000003 -4.399413 0.036392 -0.201570
    23 0.000005 0.001585 -3.638375 -0.240940 1.070713 2.928427
    24 8.842831 0.000000 0.000001 1.274240 0.118584 -0.227848
    25 9.341935 0.000000 -0.000001 0.000000 0.000000 -1.389460
    26 9.664097 0.000000 -0.000002 2.840654 0.149948 0.479130
    27 1.977383 0.000000 0.000000 -0.167052 0.330116 0.487099
    28 14.749151 -0.637065 0.609129 1.516377 -0.033041 -3.136054
    29 14.827692 0.339927 1.738213 1.712062 0.032858 0.003941
  time 38
    0 2.664153 -5.156068 2.505740 0.007478 1.163258 -1.563940
    1 -1.686233 -0.105471 9.745319 -1.570795 -1.570796 0.000000
    2 -0.000007 0.000010 5.615750 -0.040836 3.199595 0.182807
    3 15.693467 0.000000 0.000000 0.000000 0.000000 -0.308200
    4 22.146627 0.000000 0.000000 -0.207342 0.010891 -0.781749
    5 3.310129 5.734394 0.000000 0.000000 0.000000 1.431247
    6 1.055919 0.000000 0.000000 0.000000 0.000000 -0.139549
    7 1.055919 0.000000 -0.000001 0.000000 0.000000 -0.139549
    8 0.000008 -0.000006 -5.615750 -0.009587 3.035075 0.335229
    9 15.693467 0.000000 0.000000 0.000000 0.000000 -0.025302
    10 22.146627 0.000000 0.000000 0.106501 0.066404 -1.050640
    11 3.310129 5.734393 0.000000 0.000000 0.000000 1.570796
    12 1.055919 0.000000 0.000000 0.000000 0.000000 0.000000
    13 1.055919 0.000000 -0.000001 0.000000 0.000000 0.000000
    14 1.384163 -0.004728 0.000002 0.000141 -0.056767 0.491772
    15 5.939814 -0.004730 0.000000 -0.008639 0.038459 -0.048599
    16 5.939809 -0.003975 0.000000 -0.008582 0.005381 -0.144252
    17 4.991439 -0.003975 0.000000 0.000000 -0.030968 -0.222706
    18 4.991436 -0.001575 0.000000 0.000000 0.000000 0.000000
    19 0.000005 0.001564 3.638375 0.532566 -1.240450 2.632278
    20 8.842831 0.000000 -0.000002 -1.207992 -0.092649 -0.054738
    21 9.341936 0.000000 0.000003 0.000000 0.000000 -1.415375
    22 9.664094 0.000000 -0.000003 -4.425454 0.043385 -0.195250
    23 0.000005 0.001585 -3.638375 -0.265675 1.068017 2.906760
    24 8.842831 0.000000 0.000001 1.274863 0.121202 -0.200970
    25 9.341935 0.000000 -0.000001 0.000000 0.000000 -1.389460
    26 9.664097 0.000000 -0.000002 2.840654 0.149948 0.479130
    27 1.977383 0.000000 0.000000 -0.166000 0.329296 0.514686
    28 14.749151 -0.637065 0.609129 1.516377 -0.033041 -3.136054
    29 14.827692 0.339927 1.738213 1.712062 0.032858 0.003941
  time 39
    0 2.664153 -5.163112 2.528180 0.007670 1.175780 -1.563749
    1 -1.619824 -0.105471 9.745319 -1.570795 -1.570796 0.000000
    2 -0.000007 0.000010 5.615750 -0.040836 3.199595 0.182807
    3 15.693467 0.000000 0.000000 0.000000 0.000000 -0.269074
    4 22.146627 0.000000 0.000000 -0.269227 0.010468 -0.828549
    5 3.310129 5.734394 0.000000 0.000000 0.000000 1.431247
    6 1.055919 0.000000 0.000000 0.000000 0.000000 -0.139549
    7 1.055919 0.000000 -0.000001 0.000000 0.000000 -0.139549
    8 0.000008 -0.000006 -5.615750 -0.009587 3.035075 0.335229
    9 15.693467 0.000000 0.000000 0.000000 0.000000 0.019321
    10 22.146627 0.000000 0.000000 0.152644 0.066681 -1.053027
    11 3.310129 5.734393 0.000000 0.000000 0.000000 1.570796
    12 1.055919 0.000000 0.000000 0.000000 0.000000 0.000000
    13 1.055919 0.000000 -0.000001 0.000000 0.000000 0.000000
    14 1.384163 -0.004728 0.000002 0.000141 -0.056767 0.467056
    15 5.939814 -0.004730 0.000000 -0.008639 0.038459 -0.048599
    16 5.939809 -0.003975 0.000000 -0.008582 0.005381 -0.144252
    17 4.991439 -0.003975 0.000000 0.000000 -0.030968 -0.222706
    18 4.991436 -0.001575 0.000000 0.000000 0.000000 0.000000
    19 0.000005 0.001564 3.638375 0.557302 -1.235824 2.608884
    20 8.842831 0.000000 -0.000002 -1.204023 -0.093656 -0.036656
    21 9.341936 0.000000 0.000003 0.000000 0.000000 -1.415375
    22 9.664094 0.000000 -0.000003 -4.449388 0.050020 -0.189525
    23 0.000005 0.001585 -3.638375 -0.288301 1.065270 2.886914
    24 8.842831 0.000000 0.000001 1.275563 0.122861 -0.176004
    25 9.341935 0.000000 -0.000001 0.000000 0.000000 -1.389460
    26 9.664097 0.000000 -0.000002 2.840654 0.149948 0.479130
    27 1.977383 0.000000 0.000000 -0.165052 0.328526 0.539634
    28 14.749151 -0.637065 0.609129 1.516377 -0.033041 -3.136054
    29 14.827692 0.339927 1.738213 1.712062 0.032858 0.003941
  time 40
    0 2.664153 -5.170156 2.550620 0.007862 1.186198 -1.563461
    1 -1.561229 -0.105471 9.745319 -1.570795 -1.570796 0.000000
    2 -0.000007 0.000010 5.615750 -0.040836 3.199595 0.182807
    3 15.693467 0.000000 0.000000 0.000000 0.000000 -0.241402
    4 22.146627 0.000000 0.000000 -0.313499 0.010105 -0.859858
    5 3.310129 5.734394 0.000000 0.000000 0.000000 1.431247
    6 1.055919 0.000000 0.000000 0.000000 0.000000 -0.139549
    7 1.055919 0.000000 -0.000001 0.000000 0.000000 -0.139549
    8 0.000008 -0.000006 -5.615750 -0.009587 3.035075 0.335229
    9 15.693467 0.000000 0.000000 0.000000 0.000000 0.051003
    10 22.146627 0.000000 0.000000 0.185756 0.065606 -1.053395
    11 3.310129 5.734393 0.000000 0.000000 0.000000 1.570796
    12 1.055919 0.000000 0.000000 0.000000 0.000000 0.000000
    13 1.055919 0.000000 -0.000001 0.000000 0.000000 0.000000
    14 1.384163 -0.004728 0.000002 0.000141 -0.056767 0.445893
    15 5.939814 -0.004730 0.000000 -0.008639 0.038459 -0.048599
    16 5.939809 -0.003975 0.000000 -0.008582 0.005381 -0.144252
    17 4.991439 -0.003975 0.000000 0.000000 -0.030968 -0.222706
    18 4.991436 -0.001575 0.000000 0.000000 0.000000 0.000000
    19 0.000005 0.001564 3.638375 0.578490 -1.231576 2.588750
    20 8.842831 0.000000 -0.000002 -1.200886 -0.093015 -0.020455
    21 9.341936 0.000000 0.000003 0.000000 0.000000 -1.415375
    22 9.664094 0.000000 -0.000003 -4.470258 0.055847 -0.184692
    23 0.000005 0.001585 -3.638375 -0.308051 1.062726 2.869657
    24 8.842831 0.000000 0.000001 1.276186 0.122774 -0.153812
    25 9.341935 0.000000 -0.000001 0.000000 0.000000 -1.389460
    26 9.664097 0.000000 -0.000002 2.840654 0.149948 0.479130
    27 1.977383 0.000000 0.000000 -0.164263 0.327856 0.561046
    28 14.749151 -0.637065 0.609129 1.516377 -0.033041 -3.136054
    29 14.827692 0.339927 1.738213 1.712062 0.032858 0.003941
end
