version 1
nodes
  0 "Bip01" -1
  1 "Bip01 Pelvis" 0
  2 "Bip01 L Thigh" 1
  3 "Bip01 L Calf" 2
  4 "Bip01 L Foot" 3
  5 "Bip01 L Toe0" 4
  6 "Bip01 L Toe01" 5
  7 "Bip01 L Toe02" 6
  8 "Bip01 R Thigh" 1
  9 "Bip01 R Calf" 8
  10 "Bip01 R Foot" 9
  11 "Bip01 R Toe0" 10
  12 "Bip01 R Toe01" 11
  13 "Bip01 R Toe02" 12
  14 "Bip01 Spine" 1
  15 "Bip01 Spine1" 14
  16 "Bip01 Spine2" 15
  17 "Bip01 Spine3" 16
  18 "Bip01 Neck" 17
  19 "Bip01 L Clavicle" 18
  20 "Bip01 L UpperArm" 19
  21 "Bip01 L Forearm" 20
  22 "Bip01 L Hand" 21
  23 "Bip01 R Clavicle" 18
  24 "Bip01 R UpperArm" 23
  25 "Bip01 R Forearm" 24
  26 "Bip01 R Hand" 25
  27 "Bip01 Head" 18
  28 "Line01" 26
  29 "Shotgun" 26
end
skeleton
  time 0
    0 0.072872 0.000134 31.094444 0.000000 0.000000 -1.588293
    1 -0.526041 0.000001 9.745319 -1.570795 -1.570796 0.000000
    2 -0.000007 0.000010 5.615750 0.000001 3.141112 -0.115865
    3 15.693467 0.000000 0.000000 0.000000 0.000000 -0.231514
    4 22.146627 0.000000 0.000000 -0.017425 0.000545 0.115622
    5 3.310129 5.734394 0.000000 0.000000 0.000000 1.570796
    6 1.055919 0.000000 0.000000 0.000000 0.000000 0.000000
    7 1.055919 0.000000 -0.000001 0.000000 0.000000 0.000000
    8 0.000008 -0.000006 -5.615750 0.000001 3.141112 -0.121953
    9 15.693467 0.000000 0.000000 0.000000 0.000000 -0.233095
    10 22.146627 0.000000 0.000000 -0.017430 0.000491 0.111112
    11 3.310129 5.734393 0.000000 0.000000 0.000000 1.570796
    12 1.055919 0.000000 0.000000 0.000000 0.000000 0.000000
    13 1.055919 0.000000 -0.000001 0.000000 0.000000 0.000000
    14 1.384163 -0.004728 0.000002 -0.000004 -0.000001 0.000796
    15 5.939814 -0.004730 0.000000 0.000000 0.000000 0.000000
    16 5.939809 -0.003975 0.000000 0.000000 0.000000 0.000000
    17 4.991439 -0.003975 0.000000 0.000000 0.000000 0.000000
    18 4.991436 -0.001575 0.000000 0.000000 0.000000 0.000000
    19 0.000005 0.001564 3.638375 -0.000010 -1.283530 3.140806
    20 8.842831 0.000000 -0.000002 0.000000 0.747197 0.000000
    21 9.341936 0.000000 0.000003 0.000000 0.000000 -0.200000
    22 9.664094 0.000000 -0.000003 -1.569555 0.349021 0.000000
    23 0.000005 0.001585 -3.638375 -0.000010 1.283530 3.140787
    24 8.842831 0.000000 0.000001 0.000000 -0.747197 0.000000
    25 9.341935 0.000000 -0.000001 0.000000 0.000000 -0.200000
    26 9.664097 0.000000 -0.000002 1.569555 -0.261799 0.000000
    27 1.977383 0.000000 0.000000 0.000000 0.000000 -0.000798
    28 14.749151 -0.637065 0.609129 1.516377 -0.033041 -3.136054
    29 14.827692 0.339927 1.738213 1.712062 0.032858 0.003941
  time 1
    0 0.058149 0.000134 29.860238 -0.029146 -0.000669 -1.586951
    1 -0.526041 0.039065 9.745319 -1.570795 -1.570796 0.000000
    2 -0.000007 0.000010 5.615750 0.023008 3.164888 -0.335879
    3 15.693467 0.000000 0.000000 0.000000 0.000000 -0.605980
    4 22.146627 0.000000 0.000000 -0.028867 0.006142 0.269814
    5 3.310129 5.734394 0.000000 0.000000 0.000000 1.570796
    6 1.055919 0.000000 0.000000 0.000000 0.000000 0.000000
    7 1.055919 0.000000 -0.000001 0.000000 0.000000 0.000000
    8 0.000008 -0.000006 -5.615750 0.019368 3.166614 -0.294581
    9 15.693467 0.000000 0.000000 0.000000 0.000000 -0.528274
    10 22.146627 0.000000 0.000000 -0.026061 0.006140 0.233338
    11 3.310129 5.734393 0.000000 0.000000 0.000000 1.570796
    12 1.055919 0.000000 0.000000 0.000000 0.000000 0.000000
    13 1.055919 0.000000 -0.000001 0.000000 0.000000 0.000000
    14 1.384163 -0.004728 0.000002 -0.056853 0.000025 0.000796
    15 5.939814 -0.004730 0.000000 0.000000 0.022974 0.000000
    16 5.939809 -0.003975 0.000000 -0.039919 0.000024 0.000000
    17 4.991439 -0.003975 0.000000 0.000000 0.000000 0.000000
    18 4.991436 -0.001575 0.000000 0.000000 0.000000 0.000000
    19 0.000005 0.001564 3.638375 -0.000010 -1.283530 3.140806
    20 8.842831 0.000000 -0.000002 -0.084261 0.627651 0.075766
    21 9.341936 0.000000 0.000003 0.000000 0.000000 -0.782701
    22 9.664094 0.000000 -0.000003 -1.454002 -0.020091 -0.085134
    23 0.000005 0.001585 -3.638375 -0.000010 1.321026 3.140787
    24 8.842831 0.000000 0.000001 -0.139775 -0.752784 0.083219
    25 9.341935 0.000000 -0.000001 0.000000 0.000000 -0.371741
    26 9.664097 0.000000 -0.000002 1.569555 -0.178367 0.000000
    27 1.977383 0.000000 0.000000 0.096737 -0.022946 -0.001694
    28 14.749151 -0.637065 0.609129 1.516377 -0.033041 -3.136054
    29 14.827692 0.339927 1.738213 1.712062 0.032858 0.003941
  time 2
    0 -0.044913 0.000134 28.109909 -0.065292 -0.001721 -1.585800
    1 -0.514322 0.093754 9.745319 -1.570795 -1.570796 0.000000
    2 -0.000007 0.000010 5.615750 0.060586 3.197965 -0.518810
    3 15.693467 0.000000 0.000000 0.000000 0.000000 -0.912511
    4 22.146627 0.000000 0.000000 -0.035635 0.009500 0.393677
    5 3.310129 5.734394 0.000000 0.000000 0.000000 1.570796
    6 1.055919 0.000000 0.000000 0.000000 0.000000 0.000000
    7 1.055919 0.000000 -0.000001 0.000000 0.000000 0.000000
    8 0.000008 -0.000006 -5.615750 0.051487 3.203717 -0.443723
    9 15.693467 0.000000 0.000000 0.000000 0.000000 -0.780764
    10 22.146627 0.000000 0.000000 -0.030743 0.010285 0.337107
    11 3.310129 5.734393 0.000000 0.000000 0.000000 1.570796
    12 1.055919 0.000000 0.000000 0.000000 0.000000 0.000000
    13 1.055919 0.000000 -0.000001 0.000000 0.000000 0.000000
    14 1.384163 -0.004728 0.000002 -0.139598 0.000105 0.000796
    15 5.939814 -0.004730 0.000000 0.000025 0.056435 0.000000
    16 5.939809 -0.003975 0.000000 -0.098020 0.000072 0.000000
    17 4.991439 -0.003975 0.000000 0.000000 0.000000 0.000000
    18 4.991436 -0.001575 0.000000 0.000000 0.000000 0.000000
    19 0.000005 0.001564 3.638375 -0.000010 -1.283530 3.140806
    20 8.842831 0.000000 -0.000002 -0.191872 0.482840 0.171332
    21 9.341936 0.000000 0.000003 0.000000 0.000000 -1.490483
    22 9.664094 0.000000 -0.000003 -1.223565 -0.428562 -0.267001
    23 0.000005 0.001585 -3.638375 -0.000010 1.375566 3.140787
    24 8.842831 0.000000 0.000001 -0.331849 -0.731222 0.191882
    25 9.341935 0.000000 -0.000001 0.000000 0.000000 -0.621757
    26 9.664097 0.000000 -0.000002 1.569555 -0.056867 0.000000
    27 1.977383 0.000000 0.000000 0.237736 -0.056149 -0.006325
    28 14.749151 -0.637065 0.609129 1.516377 -0.033041 -3.136054
    29 14.827692 0.339927 1.738213 1.712062 0.032858 0.003941
  time 3
    0 -0.317292 0.035354 26.000538 -0.110258 -0.002868 -1.584075
    1 -0.486977 0.160162 9.745319 -1.570795 -1.570796 0.000000
    2 -0.000007 0.000010 5.615750 0.105449 3.230083 -0.685589
    3 15.693467 0.000000 0.000000 0.000000 0.000000 -1.183899
    4 22.146627 0.000000 0.000000 -0.032382 0.011678 0.500415
    5 3.310129 5.734394 0.000000 0.000000 0.000000 1.570796
    6 1.055919 0.000000 0.000000 0.000000 0.000000 0.000000
    7 1.055919 0.000000 -0.000001 0.000000 0.000000 0.000000
    8 0.000008 -0.000006 -5.615750 0.090125 3.240725 -0.582899
    9 15.693467 0.000000 0.000000 0.000000 0.000000 -1.011389
    10 22.146627 0.000000 0.000000 -0.027359 0.014583 0.430774
    11 3.310129 5.734393 0.000000 0.000000 0.000000 1.570796
    12 1.055919 0.000000 0.000000 0.000000 0.000000 0.000000
    13 1.055919 0.000000 -0.000001 0.000000 0.000000 0.000000
    14 1.384163 -0.004728 0.000002 -0.239585 0.000184 0.000796
    15 5.939814 -0.004730 0.000000 0.000074 0.096847 0.000000
    16 5.939809 -0.003975 0.000000 -0.168215 0.000132 0.000000
    17 4.991439 -0.003975 0.000000 0.000000 0.000000 0.000000
    18 4.991436 -0.001575 0.000000 0.000000 0.000000 0.000000
    19 0.000005 0.001564 3.638375 -0.000010 -1.283530 3.140806
    20 8.842831 0.000000 -0.000002 -0.345351 0.442198 -0.006546
    21 9.341936 0.000000 0.000003 0.000000 0.000000 -1.410630
    22 9.664094 0.000000 -0.000003 -1.032668 -0.235443 -0.267075
    23 0.000005 0.001585 -3.638375 -0.000010 1.441552 3.140787
    24 8.842831 0.000000 0.000001 -0.527425 -0.666188 0.286389
    25 9.341935 0.000000 -0.000001 0.000000 0.000000 -0.923869
    26 9.664097 0.000000 -0.000002 1.569555 0.089904 0.000000
    27 1.977383 0.000000 0.000000 0.408578 -0.095461 -0.017031
    28 14.749151 -0.637065 0.609129 1.516377 -0.033041 -3.136054
    29 14.827692 0.339927 1.738213 1.712062 0.032858 0.003941
  time 4
    0 -0.862050 0.119882 23.756527 -0.168647 -0.003345 -1.580239
    1 -0.444007 0.226570 9.745319 -1.570795 -1.570796 0.000000
    2 -0.000007 0.000010 5.615750 0.148107 3.254147 -0.837266
    3 15.693467 0.000000 0.000000 0.000000 0.000000 -1.421284
    4 22.146627 0.000000 0.000000 -0.018883 0.014582 0.590289
    5 3.310129 5.734394 0.000000 0.000000 0.000000 1.570796
    6 1.055919 0.000000 0.000000 0.000000 0.000000 0.000000
    7 1.055919 0.000000 -0.000001 0.000000 0.000000 0.000000
    8 0.000008 -0.000006 -5.615750 0.126942 3.268816 -0.713433
    9 15.693467 0.000000 0.000000 0.000000 0.000000 -1.221636
    10 22.146627 0.000000 0.000000 -0.015907 0.020600 0.514524
    11 3.310129 5.734393 0.000000 0.000000 0.000000 1.570796
    12 1.055919 0.000000 0.000000 0.000000 0.000000 0.000000
    13 1.055919 0.000000 -0.000001 0.000000 0.000000 0.000000
    14 1.384163 -0.004728 0.000002 -0.347624 0.000264 0.000796
    15 5.939814 -0.004730 0.000000 0.000099 0.140531 0.000000
    16 5.939809 -0.003975 0.000000 -0.244072 0.000192 -0.000021
    17 4.991439 -0.003975 0.000000 0.000000 0.000000 0.000000
    18 4.991436 -0.001575 0.000000 0.000000 0.000000 0.000000
    19 0.000005 0.001564 3.638375 -0.000010 -1.283530 3.140806
    20 8.842831 0.000000 -0.000002 -0.507137 0.359541 -0.267062
    21 9.341936 0.000000 0.000003 0.000000 0.000000 -1.090993
    22 9.664094 0.000000 -0.000003 -0.842728 0.124613 -0.134950
    23 0.000005 0.001585 -3.638375 -0.000010 1.512780 3.140787
    24 8.842831 0.000000 0.000001 -0.684633 -0.563182 0.336799
    25 9.341935 0.000000 -0.000001 0.000000 0.000000 -1.250229
    26 9.664097 0.000000 -0.000002 1.569555 0.248532 0.000000
    27 1.977383 0.000000 0.000000 0.593998 -0.136338 -0.034958
    28 14.749151 -0.637065 0.609129 1.516377 -0.033041 -3.136054
    29 14.827692 0.339927 1.738213 1.712062 0.032858 0.003941
  time 5
    0 -1.745441 0.000134 22.567201 -0.235473 0.000000 -1.570844
    1 -0.416663 0.257821 9.745319 -1.570795 -1.570796 0.000000
    2 -0.000007 0.000010 5.615750 0.174661 3.268336 -0.921086
    3 15.693467 0.000000 0.000000 0.000000 0.000000 -1.546628
    4 22.146627 0.000000 0.000000 -0.006020 0.020058 0.635847
    5 3.310129 5.734394 0.000000 0.000000 0.000000 1.570796
    6 1.055919 0.000000 0.000000 0.000000 0.000000 0.000000
    7 1.055919 0.000000 -0.000001 0.000000 0.000000 0.000000
    8 0.000008 -0.000006 -5.615750 0.148897 3.285785 -0.780965
    9 15.693467 0.000000 0.000000 0.000000 0.000000 -1.326872
    10 22.146627 0.000000 0.000000 -0.005246 0.028612 0.555940
    11 3.310129 5.734393 0.000000 0.000000 0.000000 1.570796
    12 1.055919 0.000000 0.000000 0.000000 0.000000 0.000000
    13 1.055919 0.000000 -0.000001 0.000000 0.000000 0.000000
    14 1.384163 -0.004728 0.000002 -0.409937 0.000290 0.000743
    15 5.939814 -0.004730 0.000000 0.000124 0.165711 0.000000
    16 5.939809 -0.003975 0.000000 -0.287820 0.000216 -0.000021
    17 4.991439 -0.003975 0.000000 0.000000 0.000000 0.000000
    18 4.991436 -0.001575 0.000000 0.000000 0.000000 0.000000
    19 0.000005 0.001564 3.638375 -0.000010 -1.283530 3.140806
    20 8.842831 0.000000 -0.000002 -0.582538 0.264800 -0.434794
    21 9.341936 0.000000 0.000003 0.000000 0.000000 -0.874418
    22 9.664094 0.000000 -0.000003 -0.679977 0.349021 0.000000
    23 0.000005 0.001585 -3.638375 -0.000106 1.553888 3.140691
    24 8.842831 0.000000 0.000001 -0.751018 -0.494132 0.344355
    25 9.341935 0.000000 -0.000001 0.000000 0.000000 -1.438491
    26 9.664097 0.000000 -0.000002 1.569555 0.340011 0.000000
    27 1.977383 0.000000 0.000000 0.701524 -0.158837 -0.048203
    28 14.749151 -0.637065 0.609129 1.516377 -0.033041 -3.136054
    29 14.827692 0.339927 1.738213 1.712062 0.032858 0.003941
  time 6
    0 -4.211575 -1.662248 30.241720 -0.370467 0.047888 -1.504209
    1 -0.416663 0.257821 9.745319 -1.570795 -1.570796 0.000000
    2 -0.000007 0.000010 5.615750 0.238984 3.490859 -0.511451
    3 15.693467 0.000000 0.000000 0.000000 0.000000 -0.854605
    4 22.146627 0.000000 0.000000 0.020641 -0.045653 0.426293
    5 3.310129 5.734394 0.000000 0.000000 0.000000 1.570796
    6 1.055919 0.000000 0.000000 0.000000 0.000000 0.000000
    7 1.055919 0.000000 -0.000001 0.000000 0.000000 0.000000
    8 0.000008 -0.000006 -5.615750 0.143145 2.929806 -0.976592
    9 15.693467 0.000000 0.000000 0.000000 0.000000 -1.456649
    10 22.146627 0.000000 0.000000 0.093752 0.092346 0.482751
    11 3.310129 5.734393 0.000000 0.000000 0.000000 1.570796
    12 1.055919 0.000000 0.000000 0.000000 0.000000 0.000000
    13 1.055919 0.000000 -0.000001 0.000000 0.000000 0.000000
    14 1.384163 -0.004728 0.000002 -0.409937 0.000290 0.000743
    15 5.939814 -0.004730 0.000000 0.000124 0.165711 0.000000
    16 5.939809 -0.003975 0.000000 -0.287820 0.000216 -0.000021
    17 4.991439 -0.003975 0.000000 0.000000 0.000000 0.000000
    18 4.991436 -0.001575 0.000000 0.000000 0.000000 0.000000
    19 0.000005 0.001564 3.638375 -0.000010 -1.283530 3.140806
    20 8.842831 0.000000 -0.000002 -0.457761 0.597169 -0.313127
    21 9.341936 0.000000 0.000003 0.000000 0.000000 -0.968136
    22 9.664094 0.000000 -0.000003 -0.380515 0.232738 -0.134281
    23 0.000005 0.001585 -3.638375 -0.000106 1.553888 3.140691
    24 8.842831 0.000000 0.000001 -0.454191 -0.488807 0.353251
    25 9.341935 0.000000 -0.000001 0.000000 0.000000 -1.438491
    26 9.664097 0.000000 -0.000002 1.569555 0.340011 0.000000
    27 1.977383 0.000000 0.000000 0.584735 -0.158837 -0.048203
    28 14.749151 -0.637065 0.609129 1.516377 -0.033041 -3.136054
    29 14.827692 0.339927 1.738213 1.712062 0.032858 0.003941
  time 7
    0 -7.745139 -4.106513 38.365041 -0.566247 0.148251 -1.404018
    1 -0.416663 0.257821 9.745319 -1.570795 -1.570796 0.000000
    2 -0.000007 0.000010 5.615750 0.393897 3.752594 -0.455061
    3 15.693467 0.000000 0.000000 0.000000 0.000000 -0.307062
    4 22.146627 0.000000 0.000000 0.092360 -0.084741 -0.450816
    5 3.310129 5.734394 0.000000 0.000000 0.000000 1.570796
    6 1.055919 0.000000 0.000000 0.000000 0.000000 0.000000
    7 1.055919 0.000000 -0.000001 0.000000 0.000000 0.000000
    8 0.000008 -0.000006 -5.615750 0.059157 2.587441 -1.193126
    9 15.693467 0.000000 0.000000 0.000000 0.000000 -1.573784
    10 22.146627 0.000000 0.000000 0.152700 0.095447 0.384308
    11 3.310129 5.734393 0.000000 0.000000 0.000000 1.570796
    12 1.055919 0.000000 0.000000 0.000000 0.000000 0.000000
    13 1.055919 0.000000 -0.000001 0.000000 0.000000 0.000000
    14 1.384163 -0.004728 0.000002 -0.409937 0.000290 0.000743
    15 5.939814 -0.004730 0.000000 0.000124 0.165711 0.000000
    16 5.939809 -0.003975 0.000000 -0.287820 0.000216 -0.000021
    17 4.991439 -0.003975 0.000000 0.000000 0.000000 0.000000
    18 4.991436 -0.001575 0.000000 0.000000 0.000000 0.000000
    19 0.000005 0.001564 3.638375 -0.000010 -1.283530 3.140806
    20 8.842831 0.000000 -0.000002 -0.343783 0.775848 -0.170268
    21 9.341936 0.000000 0.000003 0.000000 0.000000 -0.939220
    22 9.664094 0.000000 -0.000003 -0.054055 0.284021 -0.302913
    23 0.000005 0.001585 -3.638375 -0.000106 1.553888 3.140691
    24 8.842831 0.000000 0.000001 -0.157986 -0.491251 0.351051
    25 9.341935 0.000000 -0.000001 0.000000 0.000000 -1.438491
    26 9.664097 0.000000 -0.000002 1.569555 0.340011 0.000000
    27 1.977383 0.000000 0.000000 0.470209 -0.158837 -0.048203
    28 14.749151 -0.637065 0.609129 1.516377 -0.033041 -3.136054
    29 14.827692 0.339927 1.738213 1.712062 0.032858 0.003941
  time 8
    0 -11.573168 -7.043857 45.478556 -0.712363 0.227586 -1.348122
    1 -0.416663 0.257821 9.745319 -1.570795 -1.570796 0.000000
    2 -0.000007 0.000010 5.615750 0.596453 3.744733 -0.683581
    3 15.693467 0.000000 0.000000 0.000000 0.000000 -0.296462
    4 22.146627 0.000000 0.000000 -0.051639 -0.000938 -0.704621
    5 3.310129 5.734394 0.000000 0.000000 0.000000 1.570796
    6 1.055919 0.000000 0.000000 0.000000 0.000000 0.000000
    7 1.055919 0.000000 -0.000001 0.000000 0.000000 0.000000
    8 0.000008 -0.000006 -5.615750 -0.088877 2.361179 -1.423738
    9 15.693467 0.000000 0.000000 0.000000 0.000000 -1.662657
    10 22.146627 0.000000 0.000000 0.195289 0.050839 0.309466
    11 3.310129 5.734393 0.000000 0.000000 0.000000 1.570796
    12 1.055919 0.000000 0.000000 0.000000 0.000000 0.000000
    13 1.055919 0.000000 -0.000001 0.000000 0.000000 0.000000
    14 1.384163 -0.004728 0.000002 -0.409937 0.000290 0.000743
    15 5.939814 -0.004730 0.000000 0.000124 0.165711 0.000000
    16 5.939809 -0.003975 0.000000 -0.287820 0.000216 -0.000021
    17 4.991439 -0.003975 0.000000 0.000000 0.000000 0.000000
    18 4.991436 -0.001575 0.000000 0.000000 0.000000 0.000000
    19 0.000005 0.001564 3.638375 -0.000010 -1.283530 3.140806
    20 8.842831 0.000000 -0.000002 -0.439026 0.712779 -0.256671
    21 9.341936 0.000000 0.000003 0.000000 0.000000 -0.610463
    22 9.664094 0.000000 -0.000003 0.129471 0.394297 -0.489613
    23 0.000005 0.001585 -3.638375 -0.000106 1.553888 3.140691
    24 8.842831 0.000000 0.000001 0.083974 -0.490291 0.335555
    25 9.341935 0.000000 -0.000001 0.000000 0.000000 -1.438491
    26 9.664097 0.000000 -0.000002 1.569555 0.340011 0.000000
    27 1.977383 0.000000 0.000000 0.399104 -0.158862 -0.056071
    28 14.749151 -0.637065 0.609129 1.516377 -0.033041 -3.136054
    29 14.827692 0.339927 1.738213 1.712062 0.032858 0.003941
  time 9
    0 -14.922692 -10.143214 52.075950 -0.843139 0.327758 -1.291555
    1 -0.416663 0.257821 9.745319 -1.570795 -1.570796 0.000000
    2 -0.000007 0.000010 5.615750 0.741779 3.635437 -0.862594
    3 15.693467 0.000000 0.000000 0.000000 0.000000 -0.412771
    4 22.146627 0.000000 0.000000 -0.252699 0.090580 -0.869140
    5 3.310129 5.734394 0.000000 0.000000 0.000000 1.570796
    6 1.055919 0.000000 0.000000 0.000000 0.000000 0.000000
    7 1.055919 0.000000 -0.000001 0.000000 0.000000 0.000000
    8 0.000008 -0.000006 -5.615750 2.817335 0.968230 1.415183
    9 15.693467 0.000000 0.000000 0.000000 0.000000 -1.736805
    10 22.146627 0.000000 0.000000 0.192130 -0.011789 0.250970
    11 3.310129 5.734393 0.000000 0.000000 0.000000 1.570796
    12 1.055919 0.000000 0.000000 0.000000 0.000000 0.000000
    13 1.055919 0.000000 -0.000001 0.000000 0.000000 0.000000
    14 1.384163 -0.004728 0.000002 -0.409937 0.000290 0.000743
    15 5.939814 -0.004730 0.000000 0.000124 0.165711 0.000000
    16 5.939809 -0.003975 0.000000 -0.287820 0.000216 -0.000021
    17 4.991439 -0.003975 0.000000 0.000000 0.000000 0.000000
    18 4.991436 -0.001575 0.000000 0.000000 0.000000 0.000000
    19 0.000005 0.001564 3.638375 -0.000010 -1.283530 3.140806
    20 8.842831 0.000000 -0.000002 -0.539716 0.612455 -0.355019
    21 9.341936 0.000000 0.000003 0.000000 0.000000 -0.307065
    22 9.664094 0.000000 -0.000003 0.299019 0.533711 -0.593187
    23 0.000005 0.001585 -3.638375 -0.000106 1.553888 3.140691
    24 8.842831 0.000000 0.000001 0.260638 -0.494132 0.344355
    25 9.341935 0.000000 -0.000001 0.000000 0.000000 -1.438491
    26 9.664097 0.000000 -0.000002 1.569555 0.340011 0.000000
    27 1.977383 0.000000 0.000000 0.309052 -0.158837 -0.048203
    28 14.749151 -0.637065 0.609129 1.516377 -0.033041 -3.136054
    29 14.827692 0.339927 1.738213 1.712062 0.032858 0.003941
  time 10
    0 -17.698013 -13.024206 58.134780 -0.898747 0.571688 -1.133742
    1 -0.416663 0.257821 9.745319 -1.570795 -1.570796 0.000000
    2 -0.000007 0.000010 5.615750 0.673142 3.335064 -0.631302
    3 15.693467 0.000000 0.000000 0.000000 0.000000 -0.879930
    4 22.146627 0.000000 0.000000 -0.666373 -0.038029 -0.805019
    5 3.310129 5.734394 0.000000 0.000000 0.000000 1.570796
    6 1.055919 0.000000 0.000000 0.000000 0.000000 0.000000
    7 1.055919 0.000000 -0.000001 0.000000 0.000000 0.000000
    8 0.000008 -0.000006 -5.615750 2.545142 1.201586 1.110209
    9 15.693467 0.000000 0.000000 0.000000 0.000000 -1.736805
    10 22.146627 0.000000 0.000000 -0.077168 0.008136 0.226359
    11 3.310129 5.734393 0.000000 0.000000 0.000000 1.570796
    12 1.055919 0.000000 0.000000 0.000000 0.000000 0.000000
    13 1.055919 0.000000 -0.000001 0.000000 0.000000 0.000000
    14 1.384163 -0.004728 0.000002 -0.409937 0.000290 0.000743
    15 5.939814 -0.004730 0.000000 0.000124 0.165711 0.000000
    16 5.939809 -0.003975 0.000000 -0.287820 0.000216 -0.000021
    17 4.991439 -0.003975 0.000000 0.000000 0.000000 0.000000
    18 4.991436 -0.001575 0.000000 0.000000 0.000000 0.000000
    19 0.000005 0.001564 3.638375 -0.000010 -1.283530 3.140806
    20 8.842831 0.000000 -0.000002 -0.587891 0.545451 -0.430375
    21 9.341936 0.000000 0.000003 0.000000 0.000000 -0.481156
    22 9.664094 0.000000 -0.000003 0.655827 0.605077 -0.122236
    23 0.000005 0.001585 -3.638375 -0.000106 1.553888 3.140691
    24 8.842831 0.000000 0.000001 0.027784 -0.535160 0.539968
    25 9.341935 0.000000 -0.000001 0.000000 0.000000 -1.438491
    26 9.664097 0.000000 -0.000002 1.569555 0.340011 0.000000
    27 1.977383 0.000000 0.000000 0.044421 -0.136586 0.074543
    28 14.749151 -0.637065 0.609129 1.516377 -0.033041 -3.136054
    29 14.827692 0.339927 1.738213 1.712062 0.032858 0.003941
  time 11
    0 -20.186231 -16.165827 61.972040 -0.874395 0.834162 -0.929429
    1 -0.416663 0.257821 9.745319 -1.570795 -1.570796 0.000000
    2 -0.000007 0.000010 5.615750 0.654257 2.989152 -0.352987
    3 15.693467 0.000000 0.000000 0.000000 0.000000 -1.414170
    4 22.146627 0.000000 0.000000 -1.033344 -0.453473 -0.449378
    5 3.310129 5.734394 0.000000 0.000000 0.000000 1.570796
    6 1.055919 0.000000 0.000000 0.000000 0.000000 0.000000
    7 1.055919 0.000000 -0.000001 0.000000 0.000000 0.000000
    8 0.000008 -0.000006 -5.615750 1.807946 1.371570 0.352443
    9 15.693467 0.000000 0.000000 0.000000 0.000000 -1.736805
    10 22.146627 0.000000 0.000000 -0.337441 0.029595 0.233063
    11 3.310129 5.734393 0.000000 0.000000 0.000000 1.570796
    12 1.055919 0.000000 0.000000 0.000000 0.000000 0.000000
    13 1.055919 0.000000 -0.000001 0.000000 0.000000 0.000000
    14 1.384163 -0.004728 0.000002 -0.409937 0.000290 0.000743
    15 5.939814 -0.004730 0.000000 0.000124 0.165711 0.000000
    16 5.939809 -0.003975 0.000000 -0.287820 0.000216 -0.000021
    17 4.991439 -0.003975 0.000000 0.000000 0.000000 0.000000
    18 4.991436 -0.001575 0.000000 0.000000 0.000000 0.000000
    19 0.000005 0.001564 3.638375 -0.000010 -1.283530 3.140806
    20 8.842831 0.000000 -0.000002 -0.766474 0.249697 -0.918516
    21 9.341936 0.000000 0.000003 0.000000 0.000000 -0.002479
    22 9.664094 0.000000 -0.000003 1.034367 0.433297 0.125582
    23 0.000005 0.001585 -3.638375 -0.000106 1.553888 3.140691
    24 8.842831 0.000000 0.000001 -0.303209 -0.520582 0.777095
    25 9.341935 0.000000 -0.000001 0.000000 0.000000 -1.438491
    26 9.664097 0.000000 -0.000002 1.569555 0.340011 0.000000
    27 1.977383 0.000000 0.000000 -0.238368 -0.074129 0.205704
    28 14.749151 -0.637065 0.609129 1.516377 -0.033041 -3.136054
    29 14.827692 0.339927 1.738213 1.712062 0.032858 0.003941
  time 12
    0 -21.261024 -20.448574 60.535872 -0.785709 1.015007 -0.724828
    1 -0.416663 0.257821 9.745319 -1.570795 -1.570796 0.000000
    2 -0.000007 0.000010 5.615750 0.701421 2.743619 -0.136319
    3 15.693467 0.000000 0.000000 0.000000 0.000000 -1.799592
    4 22.146627 0.000000 0.000000 -0.296561 0.134720 -0.560037
    5 3.310129 5.734394 0.000000 0.000000 0.000000 1.570796
    6 1.055919 0.000000 0.000000 0.000000 0.000000 0.000000
    7 1.055919 0.000000 -0.000001 0.000000 0.000000 0.000000
    8 0.000008 -0.000006 -5.615750 0.930004 1.343671 -0.538644
    9 15.693467 0.000000 0.000000 0.000000 0.000000 -1.736805
    10 22.146627 0.000000 0.000000 -0.520884 0.046726 0.237930
    11 3.310129 5.734393 0.000000 0.000000 0.000000 1.570796
    12 1.055919 0.000000 0.000000 0.000000 0.000000 0.000000
    13 1.055919 0.000000 -0.000001 0.000000 0.000000 0.000000
    14 1.384163 -0.004728 0.000002 -0.409937 0.000290 0.000743
    15 5.939814 -0.004730 0.000000 0.000124 0.165711 0.000000
    16 5.939809 -0.003975 0.000000 -0.287820 0.000216 -0.000021
    17 4.991439 -0.003975 0.000000 0.000000 0.000000 0.000000
    18 4.991436 -0.001575 0.000000 0.000000 0.000000 0.000000
    19 0.000005 0.001564 3.638375 -0.000010 -1.283530 3.140806
    20 8.842831 0.000000 -0.000002 -0.797668 0.165300 -1.147122
    21 9.341936 0.000000 0.000003 0.000000 0.000000 -0.037253
    22 9.664094 0.000000 -0.000003 0.785262 0.611622 -0.299716
    23 0.000005 0.001585 -3.638375 -0.000106 1.553888 3.140691
    24 8.842831 0.000000 0.000001 -0.535519 -0.468293 0.935212
    25 9.341935 0.000000 -0.000001 0.000000 0.000000 -1.438491
    26 9.664097 0.000000 -0.000002 1.569555 0.340011 0.000000
    27 1.977383 0.000000 0.000000 -0.434420 -0.007922 0.287021
    28 14.749151 -0.637065 0.609129 1.516377 -0.033041 -3.136054
    29 14.827692 0.339927 1.738213 1.712062 0.032858 0.003941
  time 13
    0 -19.104077 -25.259620 52.390111 -0.501147 0.817817 -0.568357
    1 -0.416663 0.257821 9.745319 -1.570795 -1.570796 0.000000
    2 -0.000007 0.000010 5.615750 0.652723 2.632118 -0.196244
    3 15.693467 0.000000 0.000000 0.000000 0.000000 -1.379882
    4 22.146627 0.000000 0.000000 -0.112552 0.365919 -0.617100
    5 3.310129 5.734394 0.000000 0.000000 0.000000 1.570796
    6 1.055919 0.000000 0.000000 0.000000 0.000000 0.000000
    7 1.055919 0.000000 -0.000001 0.000000 0.000000 0.000000
    8 0.000008 -0.000006 -5.615750 0.930004 1.343671 -0.538644
    9 15.693467 0.000000 0.000000 0.000000 0.000000 -1.736805
    10 22.146627 0.000000 0.000000 -0.520884 0.046726 0.237930
    11 3.310129 5.734393 0.000000 0.000000 0.000000 1.570796
    12 1.055919 0.000000 0.000000 0.000000 0.000000 0.000000
    13 1.055919 0.000000 -0.000001 0.000000 0.000000 0.000000
    14 1.384163 -0.004728 0.000002 -0.409937 0.000290 0.000743
    15 5.939814 -0.004730 0.000000 0.000124 0.165711 0.000000
    16 5.939809 -0.003975 0.000000 -0.287820 0.000216 -0.000021
    17 4.991439 -0.003975 0.000000 0.000000 0.000000 0.000000
    18 4.991436 -0.001575 0.000000 0.000000 0.000000 0.000000
    19 0.000005 0.001564 3.638375 -0.000010 -1.283530 3.140806
    20 8.842831 0.000000 -0.000002 -0.283240 0.708202 -0.045410
    21 9.341936 0.000000 0.000003 0.000000 0.000000 -1.307421
    22 9.664094 0.000000 -0.000003 0.510500 0.474897 -0.171755
    23 0.000005 0.001585 -3.638375 -0.000106 1.553888 3.140691
    24 8.842831 0.000000 0.000001 -0.417146 -0.462095 0.950899
    25 9.341935 0.000000 -0.000001 0.000000 0.000000 -1.438491
    26 9.664097 0.000000 -0.000002 1.573818 0.248485 -0.001432
    27 1.977383 0.000000 0.000000 -0.384894 -0.000596 0.294789
    28 14.749151 -0.637065 0.609129 1.516377 -0.033041 -3.136054
    29 14.827692 0.339927 1.738213 1.712062 0.032858 0.003941
  time 14
    0 -15.769275 -29.901610 42.583782 -0.288876 0.551711 -0.537964
    1 -0.416663 0.257821 9.745319 -1.570795 -1.570796 0.000000
    2 -0.000007 0.000010 5.615750 0.569707 2.544394 -0.313228
    3 15.693467 0.000000 0.000000 0.000000 0.000000 -0.850123
    4 22.146627 0.000000 0.000000 0.085517 0.441614 -0.652396
    5 3.310129 5.734394 0.000000 0.000000 0.000000 1.570796
    6 1.055919 0.000000 0.000000 0.000000 0.000000 0.000000
    7 1.055919 0.000000 -0.000001 0.000000 0.000000 0.000000
    8 0.000008 -0.000006 -5.615750 0.930004 1.343671 -0.538644
    9 15.693467 0.000000 0.000000 0.000000 0.000000 -1.736805
    10 22.146627 0.000000 0.000000 -0.520884 0.046726 0.237930
    11 3.310129 5.734393 0.000000 0.000000 0.000000 1.570796
    12 1.055919 0.000000 0.000000 0.000000 0.000000 0.000000
    13 1.055919 0.000000 -0.000001 0.000000 0.000000 0.000000
    14 1.384163 -0.004728 0.000002 -0.409937 0.000290 0.000743
    15 5.939814 -0.004730 0.000000 0.000124 0.165711 0.000000
    16 5.939809 -0.003975 0.000000 -0.287820 0.000216 -0.000021
    17 4.991439 -0.003975 0.000000 0.000000 0.000000 0.000000
    18 4.991436 -0.001575 0.000000 0.000000 0.000000 0.000000
    19 0.000005 0.001564 3.638375 -0.000010 -1.283530 3.140806
    20 8.842831 0.000000 -0.000002 0.294961 0.532636 0.934144
    21 9.341936 0.000000 0.000003 0.000000 0.000000 -1.515470
    22 9.664094 0.000000 -0.000003 0.474024 0.275055 -0.367972
    23 0.000005 0.001585 -3.638375 -0.000106 1.553888 3.140691
    24 8.842831 0.000000 0.000001 -0.247641 -0.464627 0.947264
    25 9.341935 0.000000 -0.000001 0.000000 0.000000 -1.438491
    26 9.664097 0.000000 -0.000002 1.578870 0.142607 -0.003532
    27 1.977383 0.000000 0.000000 -0.299683 -0.002806 0.292946
    28 14.749151 -0.637065 0.609129 1.516377 -0.033041 -3.136054
    29 14.827692 0.339927 1.738213 1.712062 0.032858 0.003941
  time 15
    0 -12.117926 -34.395677 33.158934 -0.093959 0.263430 -0.574589
    1 -0.416663 0.257821 9.745319 -1.570795 -1.570796 0.000000
    2 -0.000007 0.000010 5.615750 0.455823 2.460888 -0.465861
    3 15.693467 0.000000 0.000000 0.000000 0.000000 -0.355150
    4 22.146627 0.000000 0.000000 0.255803 0.375903 -0.648343
    5 3.310129 5.734394 0.000000 0.000000 0.000000 1.570796
    6 1.055919 0.000000 0.000000 0.000000 0.000000 0.000000
    7 1.055919 0.000000 -0.000001 0.000000 0.000000 0.000000
    8 0.000008 -0.000006 -5.615750 0.930004 1.343671 -0.538644
    9 15.693467 0.000000 0.000000 0.000000 0.000000 -1.736805
    10 22.146627 0.000000 0.000000 -0.520884 0.046726 0.237930
    11 3.310129 5.734393 0.000000 0.000000 0.000000 1.570796
    12 1.055919 0.000000 0.000000 0.000000 0.000000 0.000000
    13 1.055919 0.000000 -0.000001 0.000000 0.000000 0.000000
    14 1.384163 -0.004728 0.000002 -0.409937 0.000290 0.000743
    15 5.939814 -0.004730 0.000000 0.000124 0.165711 0.000000
    16 5.939809 -0.003975 0.000000 -0.287820 0.000216 -0.000021
    17 4.991439 -0.003975 0.000000 0.000000 0.000000 0.000000
    18 4.991436 -0.001575 0.000000 0.000000 0.000000 0.000000
    19 0.000005 0.001564 3.638375 -0.000010 -1.283530 3.140806
    20 8.842831 0.000000 -0.000002 0.301144 0.337755 0.961881
    21 9.341936 0.000000 0.000003 0.000000 0.000000 -0.750819
    22 9.664094 0.000000 -0.000003 -0.313404 0.339518 -1.217676
    23 0.000005 0.001585 -3.638375 -0.000106 1.553888 3.140691
    24 8.842831 0.000000 0.000001 -0.063117 -0.466722 0.942577
    25 9.341935 0.000000 -0.000001 0.000000 0.000000 -1.438491
    26 9.664097 0.000000 -0.000002 1.584554 0.027553 -0.006491
    27 1.977383 0.000000 0.000000 -0.206999 -0.005091 0.290656
    28 14.749151 -0.637065 0.609129 1.516377 -0.033041 -3.136054
    29 14.827692 0.339927 1.738213 1.712062 0.032858 0.003941
  time 16
    0 -8.827294 -38.840436 24.743892 0.111696 -0.022367 -0.668740
    1 -0.416663 0.257821 9.745319 -1.570795 -1.570796 0.000000
    2 -0.000007 0.000010 5.615750 0.282410 2.402884 -0.705850
    3 15.693467 0.000000 0.000000 0.000000 0.000000 -0.532780
    4 22.146627 0.000000 0.000000 -0.069962 0.206240 -0.315841
    5 3.310129 5.734394 0.000000 0.000000 0.000000 1.570796
    6 1.055919 0.000000 0.000000 0.000000 0.000000 0.000000
    7 1.055919 0.000000 -0.000001 0.000000 0.000000 0.000000
    8 0.000008 -0.000006 -5.615750 0.930004 1.343671 -0.538644
    9 15.693467 0.000000 0.000000 0.000000 0.000000 -1.736805
    10 22.146627 0.000000 0.000000 -0.520884 0.046726 0.237930
    11 3.310129 5.734393 0.000000 0.000000 0.000000 1.570796
    12 1.055919 0.000000 0.000000 0.000000 0.000000 0.000000
    13 1.055919 0.000000 -0.000001 0.000000 0.000000 0.000000
    14 1.384163 -0.004728 0.000002 -0.409937 0.000290 0.000743
    15 5.939814 -0.004730 0.000000 0.000124 0.165711 0.000000
    16 5.939809 -0.003975 0.000000 -0.287820 0.000216 -0.000021
    17 4.991439 -0.003975 0.000000 0.000000 0.000000 0.000000
    18 4.991436 -0.001575 0.000000 0.000000 0.000000 0.000000
    19 0.000005 0.001564 3.638375 -0.000010 -1.283530 3.140806
    20 8.842831 0.000000 -0.000002 0.267274 0.302605 0.664709
    21 9.341936 0.000000 0.000003 0.000000 0.000000 -0.002479
    22 9.664094 0.000000 -0.000003 -0.382717 0.261607 -0.606644
    23 0.000005 0.001585 -3.638375 -0.000106 1.553888 3.140691
    24 8.842831 0.000000 0.000001 0.127945 -0.468031 0.937507
    25 9.341935 0.000000 -0.000001 0.000000 0.000000 -1.438491
    26 9.664097 0.000000 -0.000002 1.590817 -0.091642 -0.010215
    27 1.977383 0.000000 0.000000 -0.111210 -0.007127 0.288166
    28 14.749151 -0.637065 0.609129 1.516377 -0.033041 -3.136054
    29 14.827692 0.339927 1.738213 1.712062 0.032858 0.003941
  time 17
    0 -6.530477 -43.200667 17.989418 0.237582 -0.168324 -0.744962
    1 -0.416663 0.257821 9.745319 -1.570795 -1.570796 0.000000
    2 -0.000007 0.000010 5.615750 -0.215688 2.276139 -1.311510
    3 15.693467 0.000000 0.000000 0.000000 0.000000 -1.186531
    4 22.146627 0.000000 0.000000 -0.213624 0.115751 -0.118901
    5 3.310129 5.734394 0.000000 0.000000 0.000000 1.570796
    6 1.055919 0.000000 0.000000 0.000000 0.000000 0.000000
    7 1.055919 0.000000 -0.000001 0.000000 0.000000 0.000000
    8 0.000008 -0.000006 -5.615750 0.930004 1.343671 -0.538644
    9 15.693467 0.000000 0.000000 0.000000 0.000000 -1.736805
    10 22.146627 0.000000 0.000000 -0.520884 0.046726 0.237930
    11 3.310129 5.734393 0.000000 0.000000 0.000000 1.570796
    12 1.055919 0.000000 0.000000 0.000000 0.000000 0.000000
    13 1.055919 0.000000 -0.000001 0.000000 0.000000 0.000000
    14 1.384163 -0.004728 0.000002 -0.409937 0.000290 0.000743
    15 5.939814 -0.004730 0.000000 0.000124 0.165711 0.000000
    16 5.939809 -0.003975 0.000000 -0.287820 0.000216 -0.000021
    17 4.991439 -0.003975 0.000000 0.000000 0.000000 0.000000
    18 4.991436 -0.001575 0.000000 0.000000 0.000000 0.000000
    19 0.000005 0.001564 3.638375 -0.000010 -1.283530 3.140806
    20 8.842831 0.000000 -0.000002 0.174983 0.365399 0.492559
    21 9.341936 0.000000 0.000003 0.000000 0.000000 0.031998
    22 9.664094 0.000000 -0.000003 -0.989108 0.370987 -1.573008
    23 0.000005 0.001585 -3.638375 -0.000106 1.553888 3.140691
    24 8.842831 0.000000 0.000001 0.231998 -0.468293 0.935212
    25 9.341935 0.000000 -0.000001 0.000000 0.000000 -1.438491
    26 9.664097 0.000000 -0.000002 1.594501 -0.157003 -0.012601
    27 1.977383 0.000000 0.000000 -0.059368 -0.007922 0.287021
    28 14.749151 -0.637065 0.609129 1.516377 -0.033041 -3.136054
    29 14.827692 0.339927 1.738213 1.712062 0.032858 0.003941
  time 18
    0 -7.089958 -46.948070 12.671111 0.236815 -0.158956 -0.836236
    1 -0.822925 0.378919 9.745319 -1.570795 -1.570796 0.000000
    2 -0.000007 0.000010 5.615750 2.624024 0.680513 1.363159
    3 15.693467 0.000000 0.000000 0.000000 0.000000 -1.717784
    4 22.146627 0.000000 0.000000 -0.257149 0.093424 0.048494
    5 3.310129 5.734394 0.000000 0.000000 0.000000 1.570796
    6 1.055919 0.000000 0.000000 0.000000 0.000000 0.000000
    7 1.055919 0.000000 -0.000001 0.000000 0.000000 0.000000
    8 0.000008 -0.000006 -5.615750 1.529617 1.095358 0.164343
    9 15.693467 0.000000 0.000000 0.000000 0.000000 -2.144359
    10 22.146627 0.000000 0.000000 -0.471808 0.136124 0.348035
    11 3.310129 5.734393 0.000000 0.000000 0.000000 1.570796
    12 1.055919 0.000000 0.000000 0.000000 0.000000 0.000000
    13 1.055919 0.000000 -0.000001 0.000000 0.000000 0.000000
    14 1.384163 -0.004728 0.000002 -0.350429 0.000264 0.000796
    15 5.939814 -0.004730 0.000000 0.000099 0.141658 0.216278
    16 5.939809 -0.003975 0.000000 -0.246041 0.000192 -0.000021
    17 4.991439 -0.003975 0.000000 0.000000 0.000000 0.189223
    18 4.991436 -0.001575 0.000000 0.000000 0.000000 0.000000
    19 0.000005 0.001564 3.638375 -0.000010 -1.283530 3.140806
    20 8.842831 0.000000 -0.000002 -0.381437 0.395423 -0.047374
    21 9.341936 0.000000 0.000003 0.000000 0.000000 -0.031173
    22 9.664094 0.000000 -0.000003 -1.408431 -0.045912 -2.436392
    23 0.000005 0.001585 -3.638375 -0.000010 1.514662 3.140787
    24 8.842831 0.000000 0.000001 0.806430 -0.632755 0.166630
    25 9.341935 0.000000 -0.000001 0.000000 0.000000 -1.258756
    26 9.664097 0.000000 -0.000002 1.591396 -0.179214 -0.011169
    27 1.977383 0.000000 0.000000 -0.034210 0.063922 -0.136740
    28 14.749151 -0.637065 0.609129 1.516377 -0.033041 -3.136054
    29 14.827692 0.339927 1.738213 1.712062 0.032858 0.003941
  time 19
    0 -8.532830 -49.427555 10.157818 0.214092 -0.129421 -0.929524
    1 -1.272157 0.437514 9.745319 -1.570795 -1.570796 0.000000
    2 -0.000007 0.000010 5.615750 2.631693 0.506214 1.229545
    3 15.693467 0.000000 0.000000 0.000000 0.000000 -1.961998
    4 22.146627 0.000000 0.000000 -0.241220 0.068615 0.128956
    5 3.310129 5.734394 0.000000 0.000000 0.000000 1.570796
    6 1.055919 0.000000 0.000000 0.000000 0.000000 0.000000
    7 1.055919 0.000000 -0.000001 0.000000 0.000000 0.000000
    8 0.000008 -0.000006 -5.615750 1.893468 0.969284 0.529183
    9 15.693467 0.000000 0.000000 0.000000 0.000000 -2.338096
    10 22.146627 0.000000 0.000000 -0.359440 0.177692 0.449783
    11 3.310129 5.734393 0.000000 0.000000 0.000000 1.570796
    12 1.055919 0.000000 0.000000 0.000000 0.000000 0.000000
    13 1.055919 0.000000 -0.000001 0.000000 0.000000 0.000000
    14 1.384163 -0.004728 0.000002 -0.281998 0.000211 0.000796
    15 5.939814 -0.004730 0.000000 0.000074 0.113997 0.462043
    16 5.939809 -0.003975 0.000000 -0.198009 0.000156 0.000000
    17 4.991439 -0.003975 0.000000 0.000000 0.000000 0.404285
    18 4.991436 -0.001575 0.000000 0.000000 0.000000 0.000000
    19 0.000005 0.001564 3.638375 -0.000010 -1.283530 3.140806
    20 8.842831 0.000000 -0.000002 -1.021011 -0.031045 -0.739738
    21 9.341936 0.000000 0.000003 0.000000 0.000000 -0.064167
    22 9.664094 0.000000 -0.000003 -1.516805 -0.026367 -1.961203
    23 0.000005 0.001585 -3.638375 -0.000010 1.469535 3.140787
    24 8.842831 0.000000 0.000001 1.364518 -0.192270 -0.508307
    25 9.341935 0.000000 -0.000001 0.000000 0.000000 -1.052041
    26 9.664097 0.000000 -0.000002 1.587238 -0.195308 -0.009164
    27 1.977383 0.000000 0.000000 -0.044895 0.131172 -0.625982
    28 14.749151 -0.637065 0.609129 1.516377 -0.033041 -3.136054
    29 14.827692 0.339927 1.738213 1.712062 0.032858 0.003941
  time 20
    0 -9.651792 -51.357609 10.965662 0.186097 -0.099694 -1.031825
    1 -1.647169 0.406263 9.745319 -1.570795 -1.570796 0.000000
    2 -0.000007 0.000010 5.615750 2.764653 0.426447 1.332288
    3 15.693467 0.000000 0.000000 0.000000 0.000000 -1.994437
    4 22.146627 0.000000 0.000000 -0.216279 0.051976 0.229550
    5 3.310129 5.734394 0.000000 0.000000 0.000000 1.570796
    6 1.055919 0.000000 0.000000 0.000000 0.000000 0.000000
    7 1.055919 0.000000 -0.000001 0.000000 0.000000 0.000000
    8 0.000008 -0.000006 -5.615750 2.379946 0.967271 1.004068
    9 15.693467 0.000000 0.000000 0.000000 0.000000 -2.307083
    10 22.146627 0.000000 0.000000 -0.220335 0.182420 0.579816
    11 3.310129 5.734393 0.000000 0.000000 0.000000 1.570796
    12 1.055919 0.000000 0.000000 0.000000 0.000000 0.000000
    13 1.055919 0.000000 -0.000001 0.000000 0.000000 0.000000
    14 1.384163 -0.004728 0.000002 -0.210641 0.000158 0.000796
    15 5.939814 -0.004730 0.000000 0.000050 0.085151 0.698135
    16 5.939809 -0.003975 0.000000 -0.147898 0.000108 0.000000
    17 4.991439 -0.003975 0.000000 0.000000 0.000000 0.610846
    18 4.991436 -0.001575 0.000000 0.000000 0.000000 0.000000
    19 0.000005 0.001564 3.638375 -0.000010 -1.283530 3.140806
    20 8.842831 0.000000 -0.000002 -1.215837 -0.738346 -1.209470
    21 9.341936 0.000000 0.000003 0.000000 0.000000 -0.098570
    22 9.664094 0.000000 -0.000003 -1.606413 0.044461 -1.470252
    23 0.000005 0.001585 -3.638375 -0.000010 1.422423 3.140787
    24 8.842831 0.000000 0.000001 1.570756 0.529039 -0.722955
    25 9.341935 0.000000 -0.000001 0.000000 0.000000 -0.836400
    26 9.664097 0.000000 -0.000002 1.582818 -0.212154 -0.006969
    27 1.977383 0.000000 0.000000 -0.080210 0.168696 -1.108949
    28 14.749151 -0.637065 0.609129 1.516377 -0.033041 -3.136054
    29 14.827692 0.339927 1.738213 1.712062 0.032858 0.003941
  time 21
    0 -10.689777 -53.118607 14.152159 0.152444 -0.070732 -1.144288
    1 -1.651075 0.308604 9.745319 -1.570795 -1.570796 0.000000
    2 -0.000007 0.000010 5.615750 -0.199775 2.773244 -1.537736
    3 15.693467 0.000000 0.000000 0.000000 0.000000 -1.872792
    4 22.146627 0.000000 0.000000 -0.198555 0.036274 0.351125
    5 3.310129 5.734394 0.000000 0.000000 0.000000 1.570796
    6 1.055919 0.000000 0.000000 0.000000 0.000000 0.000000
    7 1.055919 0.000000 -0.000001 0.000000 0.000000 0.000000
    8 0.000008 -0.000006 -5.615750 -0.200861 2.271921 -1.519287
    9 15.693467 0.000000 0.000000 0.000000 0.000000 -2.105240
    10 22.146627 0.000000 0.000000 -0.078014 0.168482 0.689829
    11 3.310129 5.734393 0.000000 0.000000 0.000000 1.570796
    12 1.055919 0.000000 0.000000 0.000000 0.000000 0.000000
    13 1.055919 0.000000 -0.000001 0.000000 0.000000 0.000000
    14 1.384163 -0.004728 0.000002 -0.161845 0.000105 0.000796
    15 5.939814 -0.004730 0.000000 0.000050 0.065424 0.679194
    16 5.939809 -0.003975 0.000000 -0.113640 0.000084 0.000000
    17 4.991439 -0.003975 0.000000 0.000000 0.000000 0.594292
    18 4.991436 -0.001575 0.000000 0.000000 0.000000 0.000000
    19 0.000005 0.001564 3.638375 -0.000010 -1.283530 3.140806
    20 8.842831 0.000000 -0.000002 -1.150956 -0.691571 -1.357565
    21 9.341936 0.000000 0.000003 0.000000 0.000000 -0.122074
    22 9.664094 0.000000 -0.000003 -1.645186 0.113765 -1.136482
    23 0.000005 0.001585 -3.638375 -0.000010 1.390269 3.140787
    24 8.842831 0.000000 0.000001 1.389734 0.580455 -0.833531
    25 9.341935 0.000000 -0.000001 0.000000 0.000000 -0.688974
    26 9.664097 0.000000 -0.000002 1.579818 -0.224530 -0.005441
    27 1.977383 0.000000 0.000000 -0.076526 0.137654 -1.118410
    28 14.749151 -0.637065 0.609129 1.516377 -0.033041 -3.136054
    29 14.827692 0.339927 1.738213 1.712062 0.032858 0.003941
  time 22
    0 -11.808739 -54.717593 18.887022 0.113326 -0.044351 -1.265860
    1 -1.432319 0.203132 9.745319 -1.570795 -1.570796 0.000000
    2 -0.000007 0.000010 5.615750 -0.046684 2.871323 -1.191945
    3 15.693467 0.000000 0.000000 0.000000 0.000000 -1.607948
    4 22.146627 0.000000 0.000000 -0.196498 0.014159 0.418842
    5 3.310129 5.734394 0.000000 0.000000 0.000000 1.570796
    6 1.055919 0.000000 0.000000 0.000000 0.000000 0.000000
    7 1.055919 0.000000 -0.000001 0.000000 0.000000 0.000000
    8 0.000008 -0.000006 -5.615750 0.107862 2.532218 -1.066565
    9 15.693467 0.000000 0.000000 0.000000 0.000000 -1.773024
    10 22.146627 0.000000 0.000000 0.057538 0.136922 0.705624
    11 3.310129 5.734393 0.000000 0.000000 0.000000 1.570796
    12 1.055919 0.000000 0.000000 0.000000 0.000000 0.000000
    13 1.055919 0.000000 -0.000001 0.000000 0.000000 0.000000
    14 1.384163 -0.004728 0.000002 -0.121052 0.000078 0.000796
    15 5.939814 -0.004730 0.000000 0.000025 0.048933 0.511153
    16 5.939809 -0.003975 0.000000 -0.084989 0.000060 0.000000
    17 4.991439 -0.003975 0.000000 0.000000 0.000000 0.447257
    18 4.991436 -0.001575 0.000000 0.000000 0.000000 0.000000
    19 0.000005 0.001564 3.638375 -0.000010 -1.283530 3.140806
    20 8.842831 0.000000 -0.000002 -1.099089 -0.196360 -1.223788
    21 9.341936 0.000000 0.000003 0.000000 0.000000 -0.141722
    22 9.664094 0.000000 -0.000003 -1.653515 0.178496 -0.857065
    23 0.000005 0.001585 -3.638375 -0.000010 1.363355 3.140787
    24 8.842831 0.000000 0.000001 1.097576 0.188331 -0.864906
    25 9.341935 0.000000 -0.000001 0.000000 0.000000 -0.565732
    26 9.664097 0.000000 -0.000002 1.577292 -0.233941 -0.004105
    27 1.977383 0.000000 0.000000 -0.050947 0.086446 -0.848717
    28 14.749151 -0.637065 0.609129 1.516377 -0.033041 -3.136054
    29 14.827692 0.339927 1.738213 1.712062 0.032858 0.003941
  time 23
    0 -12.795192 -56.048908 23.734087 0.069319 -0.021984 -1.394622
    1 -1.115903 0.097660 9.745319 -1.570795 -1.570796 0.000000
    2 -0.000007 0.000010 5.615750 0.021953 2.997109 -0.863071
    3 15.693467 0.000000 0.000000 0.000000 0.000000 -1.257170
    4 22.146627 0.000000 0.000000 -0.216054 -0.001815 0.404723
    5 3.310129 5.734394 0.000000 0.000000 0.000000 1.570796
    6 1.055919 0.000000 0.000000 0.000000 0.000000 0.000000
    7 1.055919 0.000000 -0.000001 0.000000 0.000000 0.000000
    8 0.000008 -0.000006 -5.615750 0.155129 2.823194 -0.772184
    9 15.693467 0.000000 0.000000 0.000000 0.000000 -1.371048
    10 22.146627 0.000000 0.000000 0.181807 0.107143 0.627476
    11 3.310129 5.734393 0.000000 0.000000 0.000000 1.570796
    12 1.055919 0.000000 0.000000 0.000000 0.000000 0.000000
    13 1.055919 0.000000 -0.000001 0.000000 0.000000 0.000000
    14 1.384163 -0.004728 0.000002 -0.075326 0.000052 0.000796
    15 5.939814 -0.004730 0.000000 0.000000 0.030453 0.314584
    16 5.939809 -0.003975 0.000000 -0.052881 0.000036 0.000000
    17 4.991439 -0.003975 0.000000 0.000000 0.000000 0.275259
    18 4.991436 -0.001575 0.000000 0.000000 0.000000 0.000000
    19 0.000005 0.001564 3.638375 -0.000010 -1.283530 3.140806
    20 8.842831 0.000000 -0.000002 -0.905463 0.332446 -0.966708
    21 9.341936 0.000000 0.000003 0.000000 0.000000 -0.163743
    22 9.664094 0.000000 -0.000003 -1.640495 0.250490 -0.539653
    23 0.000005 0.001585 -3.638375 -0.000010 1.333185 3.140787
    24 8.842831 0.000000 0.000001 0.789464 -0.261756 -0.721807
    25 9.341935 0.000000 -0.000001 0.000000 0.000000 -0.427566
    26 9.664097 0.000000 -0.000002 1.574344 -0.244482 -0.002578
    27 1.977383 0.000000 0.000000 -0.028421 0.041895 -0.525942
    28 14.749151 -0.637065 0.609129 1.516377 -0.033041 -3.136054
    29 14.827692 0.339927 1.738213 1.712062 0.032858 0.003941
  time 24
    0 -13.457735 -56.978715 28.042589 0.023010 -0.005544 -1.524152
    1 -0.740891 0.023439 9.745319 -1.570795 -1.570796 0.000000
    2 -0.000007 0.000010 5.615750 0.016873 3.105351 -0.541366
    3 15.693467 0.000000 0.000000 0.000000 0.000000 -0.831414
    4 22.146627 0.000000 0.000000 -0.254831 -0.006837 0.315045
    5 3.310129 5.734394 0.000000 0.000000 0.000000 1.570796
    6 1.055919 0.000000 0.000000 0.000000 0.000000 0.000000
    7 1.055919 0.000000 -0.000001 0.000000 0.000000 0.000000
    8 0.000008 -0.000006 -5.615750 0.061554 3.047731 -0.493205
    9 15.693467 0.000000 0.000000 0.000000 0.000000 -0.900799
    10 22.146627 0.000000 0.000000 0.286616 0.087925 0.476139
    11 3.310129 5.734393 0.000000 0.000000 0.000000 1.570796
    12 1.055919 0.000000 0.000000 0.000000 0.000000 0.000000
    13 1.055919 0.000000 -0.000001 0.000000 0.000000 0.000000
    14 1.384163 -0.004728 0.000002 -0.027401 -0.000001 0.000796
    15 5.939814 -0.004730 0.000000 0.000000 0.011074 0.111068
    16 5.939809 -0.003975 0.000000 -0.019243 0.000012 0.000000
    17 4.991439 -0.003975 0.000000 0.000000 0.000000 0.097184
    18 4.991436 -0.001575 0.000000 0.000000 0.000000 0.000000
    19 0.000005 0.001564 3.638375 -0.000010 -1.283530 3.140806
    20 8.842831 0.000000 -0.000002 -0.410509 0.708202 -0.427512
    21 9.341936 0.000000 0.000003 0.000000 0.000000 -0.186802
    22 9.664094 0.000000 -0.000003 -1.601914 0.317552 -0.199117
    23 0.000005 0.001585 -3.638375 -0.000010 1.301591 3.140787
    24 8.842831 0.000000 0.000001 0.344690 -0.635286 -0.339477
    25 9.341935 0.000000 -0.000001 0.000000 0.000000 -0.282806
    26 9.664097 0.000000 -0.000002 1.571292 -0.255493 -0.000955
    27 1.977383 0.000000 0.000000 -0.006474 0.009760 -0.188079
    28 14.749151 -0.637065 0.609129 1.516377 -0.033041 -3.136054
    29 14.827692 0.339927 1.738213 1.712062 0.032858 0.003941
  time 25
    0 -13.700668 -57.330914 31.094444 0.000000 0.000000 -1.588293
    1 -0.526041 0.000001 9.745319 -1.570795 -1.570796 0.000000
    2 -0.000007 0.000010 5.615750 0.000193 3.143221 -0.161742
    3 15.693467 0.000000 0.000000 0.000000 0.000000 -0.232154
    4 22.146627 0.000000 0.000000 -0.285642 -0.006716 0.101046
    5 3.310129 5.734394 0.000000 0.000000 0.000000 1.570796
    6 1.055919 0.000000 0.000000 0.000000 0.000000 0.000000
    7 1.055919 0.000000 -0.000001 0.000000 0.000000 0.000000
    8 0.000008 -0.000006 -5.615750 -0.004889 3.115801 -0.152827
    9 15.693467 0.000000 0.000000 0.000000 0.000000 -0.321597
    10 22.146627 0.000000 0.000000 0.322097 0.081570 0.248215
    11 3.310129 5.734393 0.000000 0.000000 0.000000 1.570796
    12 1.055919 0.000000 0.000000 0.000000 0.000000 0.000000
    13 1.055919 0.000000 -0.000001 0.000000 0.000000 0.000000
    14 1.384163 -0.004728 0.000002 -0.000004 -0.000001 0.000796
    15 5.939814 -0.004730 0.000000 0.000000 0.000000 0.000000
    16 5.939809 -0.003975 0.000000 0.000000 0.000000 0.000000
    17 4.991439 -0.003975 0.000000 0.000000 0.000000 0.000000
    18 4.991436 -0.001575 0.000000 0.000000 0.000000 0.000000
    19 0.000005 0.001564 3.638375 -0.000010 -1.283530 3.140806
    20 8.842831 0.000000 -0.000002 0.000000 0.747197 0.000000
    21 9.341936 0.000000 0.000003 0.000000 0.000000 -0.200000
    22 9.664094 0.000000 -0.000003 -1.569555 0.349021 0.000000
    23 0.000005 0.001585 -3.638375 -0.000010 1.283530 3.140787
    24 8.842831 0.000000 0.000001 0.000000 -0.747197 0.000000
    25 9.341935 0.000000 -0.000001 0.000000 0.000000 -0.200000
    26 9.664097 0.000000 -0.000002 1.569555 -0.261799 0.000000
    27 1.977383 0.000000 0.000000 0.000000 0.000000 -0.000798
    28 14.749151 -0.637065 0.609129 1.516377 -0.033041 -3.136054
    29 14.827692 0.339927 1.738213 1.712062 0.032858 0.003941
end
