version 1
nodes
  0 "Bip01" -1
  1 "Bip01 Pelvis" 0
  2 "Bip01 L Thigh" 1
  3 "Bip01 L Calf" 2
  4 "Bip01 L Foot" 3
  5 "Bip01 L Toe0" 4
  6 "Bip01 L Toe01" 5
  7 "Bip01 L Toe02" 6
  8 "Bip01 R Thigh" 1
  9 "Bip01 R Calf" 8
  10 "Bip01 R Foot" 9
  11 "Bip01 R Toe0" 10
  12 "Bip01 R Toe01" 11
  13 "Bip01 R Toe02" 12
  14 "Bip01 Spine" 1
  15 "Bip01 Spine1" 14
  16 "Bip01 Spine2" 15
  17 "Bip01 Spine3" 16
  18 "Bip01 Neck" 17
  19 "Bip01 L Clavicle" 18
  20 "Bip01 L UpperArm" 19
  21 "Bip01 L Forearm" 20
  22 "Bip01 L Hand" 21
  23 "Bip01 R Clavicle" 18
  24 "Bip01 R UpperArm" 23
  25 "Bip01 R Forearm" 24
  26 "Bip01 R Hand" 25
  27 "Bip01 Head" 18
  28 "Line01" 26
  29 "Shotgun" 26
end
skeleton
  time 0
    0 -0.059637 -0.190053 24.900973 0.018792 -0.094055 -1.737573
    1 -1.760454 -0.230475 9.745319 -1.570795 -1.570796 0.000000
    2 -0.000007 0.000010 5.615750 0.042084 3.227110 -0.820254
    3 15.693467 0.000000 0.000000 0.000000 0.000000 -1.055141
    4 22.146627 0.000000 0.000000 -0.122722 -0.101350 0.139545
    5 3.310129 5.734394 0.000000 0.000000 0.000000 1.570796
    6 1.055919 0.000000 0.000000 0.000000 0.000000 0.000000
    7 1.055919 0.000000 -0.000001 0.000000 0.000000 0.000000
    8 0.000008 -0.000006 -5.615750 0.719555 2.460600 -0.171295
    9 15.693467 0.000000 0.000000 0.000000 0.000000 -1.124285
    10 22.146627 0.000000 0.000000 0.015400 0.286892 0.781752
    11 3.310129 5.734393 0.000000 0.000000 0.000000 1.570796
    12 1.055919 0.000000 0.000000 0.000000 0.000000 0.000000
    13 1.055919 0.000000 -0.000001 0.000000 0.000000 0.000000
    14 1.384163 -0.004728 0.000002 -0.431530 -0.129359 0.271185
    15 5.939814 -0.004730 0.000000 -0.093615 -0.026965 0.225908
    16 5.939809 -0.003975 0.000000 -0.095444 -0.068108 0.133534
    17 4.991439 -0.003975 0.000000 -0.087226 0.060306 0.042841
    18 4.991436 -0.001575 0.000000 0.000000 0.000000 0.000000
    19 0.000005 0.001564 3.638375 -0.000010 -1.283530 3.140806
    20 8.842831 0.000000 -0.000002 0.481296 -0.765441 -1.588380
    21 9.341936 0.000000 0.000003 0.000000 0.000000 -0.446975
    22 9.664094 0.000000 -0.000003 -3.820690 -0.067339 -0.376969
    23 0.000005 0.001585 -3.638375 -0.000010 1.082924 3.140787
    24 8.842831 0.000000 0.000001 -0.059692 0.069612 -2.136055
    25 9.341935 0.000000 -0.000001 0.000000 0.000000 -0.783239
    26 9.664097 0.000000 -0.000002 2.840654 0.149948 0.479130
    27 1.977383 0.000000 0.000000 0.487209 0.362921 -0.096804
    28 14.749151 -0.637065 0.609129 1.516377 -0.033041 -3.136054
    29 14.827692 0.339927 1.738213 1.712062 0.032858 0.003941
  time 1
    0 -0.059637 5.600108 21.714477 0.017162 -0.094437 -1.720028
    1 -1.522165 0.371106 9.745319 -1.570795 -1.570796 0.000000
    2 -0.000007 0.000010 5.615750 0.060106 3.225864 -1.071234
    3 15.693467 0.000000 0.000000 0.000000 0.000000 -1.138869
    4 22.146627 0.000000 0.000000 -0.093594 -0.102590 -0.027916
    5 3.310129 5.734394 0.000000 0.000000 0.000000 1.570796
    6 1.055919 0.000000 0.000000 0.000000 0.000000 0.000000
    7 1.055919 0.000000 -0.000001 0.000000 0.000000 0.000000
    8 0.000008 -0.000006 -5.615750 0.550812 2.316694 -0.580669
    9 15.693467 0.000000 0.000000 0.000000 0.000000 -1.480374
    10 22.146627 0.000000 0.000000 -0.000338 0.153439 0.487526
    11 3.310129 5.734393 0.000000 0.000000 0.000000 1.570796
    12 1.055919 0.000000 0.000000 0.000000 0.000000 0.000000
    13 1.055919 0.000000 -0.000001 0.000000 0.000000 0.000000
    14 1.384163 -0.004728 0.000002 -0.611434 0.018154 0.223080
    15 5.939814 -0.004730 0.000000 -0.093615 0.044738 0.219175
    16 5.939809 -0.003975 0.000000 -0.095444 -0.068108 0.133534
    17 4.991439 -0.003975 0.000000 -0.087226 0.060306 0.042841
    18 4.991436 -0.001575 0.000000 0.000000 0.000000 0.000000
    19 0.000005 0.001564 3.638375 -0.000010 -1.283530 3.140806
    20 8.842831 0.000000 -0.000002 0.554390 -0.673722 -1.567761
    21 9.341936 0.000000 0.000003 0.000000 0.000000 -0.446975
    22 9.664094 0.000000 -0.000003 -3.820690 -0.067339 -0.376969
    23 0.000005 0.001585 -3.638375 -0.000010 1.082924 3.140787
    24 8.842831 0.000000 0.000001 -0.120319 0.060359 -1.959477
    25 9.341935 0.000000 -0.000001 0.000000 0.000000 -0.783239
    26 9.664097 0.000000 -0.000002 2.840654 0.149948 0.479130
    27 1.977383 0.000000 0.000000 0.622840 0.113888 -0.163928
    28 14.749151 -0.637065 0.609129 1.516377 -0.033041 -3.136054
    29 14.827692 0.339927 1.738213 1.712062 0.032858 0.003941
  time 2
    0 -0.059637 4.501245 21.893998 0.013902 -0.094915 -1.686279
    1 -1.295596 0.667990 9.745319 -1.570795 -1.570796 0.000000
    2 -0.000007 0.000010 5.615750 0.045535 3.207360 -1.063301
    3 15.693467 0.000000 0.000000 0.000000 0.000000 -1.177212
    4 22.146627 0.000000 0.000000 -0.072056 -0.079053 0.018165
    5 3.310129 5.734394 0.000000 0.000000 0.000000 1.570796
    6 1.055919 0.000000 0.000000 0.000000 0.000000 0.000000
    7 1.055919 0.000000 -0.000001 0.000000 0.000000 0.000000
    8 0.000008 -0.000006 -5.615750 0.465578 2.390420 -0.550980
    9 15.693467 0.000000 0.000000 0.000000 0.000000 -1.446163
    10 22.146627 0.000000 0.000000 0.104921 0.210879 0.524166
    11 3.310129 5.734393 0.000000 0.000000 0.000000 1.570796
    12 1.055919 0.000000 0.000000 0.000000 0.000000 0.000000
    13 1.055919 0.000000 -0.000001 0.000000 0.000000 0.000000
    14 1.384163 -0.004728 0.000002 -0.719908 0.092254 0.175822
    15 5.939814 -0.004730 0.000000 -0.093839 0.085918 0.215298
    16 5.939809 -0.003975 0.000000 -0.095444 -0.068108 0.133534
    17 4.991439 -0.003975 0.000000 -0.087226 0.060306 0.042841
    18 4.991436 -0.001575 0.000000 0.000000 0.000000 0.000000
    19 0.000005 0.001564 3.638375 -0.000010 -1.283530 3.140806
    20 8.842831 0.000000 -0.000002 0.581431 -0.599394 -1.549270
    21 9.341936 0.000000 0.000003 0.000000 0.000000 -0.446975
    22 9.664094 0.000000 -0.000003 -3.820690 -0.067339 -0.376969
    23 0.000005 0.001585 -3.638375 -0.000010 1.082924 3.140787
    24 8.842831 0.000000 0.000001 -0.159698 0.071619 -1.856458
    25 9.341935 0.000000 -0.000001 0.000000 0.000000 -0.783239
    26 9.664097 0.000000 -0.000002 2.840654 0.149948 0.479130
    27 1.977383 0.000000 0.000000 0.708682 -0.028658 -0.203267
    28 14.749151 -0.637065 0.609129 1.516377 -0.033041 -3.136054
    29 14.827692 0.339927 1.738213 1.712062 0.032858 0.003941
  time 3
    0 -0.059637 3.508042 22.297920 0.010834 -0.095297 -1.653298
    1 -1.420600 0.515642 9.745319 -1.570795 -1.570796 0.000000
    2 -0.000007 0.000010 5.615750 0.039113 3.201800 -1.037783
    3 15.693467 0.000000 0.000000 0.000000 0.000000 -1.171308
    4 22.146627 0.000000 0.000000 -0.043375 -0.068736 0.037578
    5 3.310129 5.734394 0.000000 0.000000 0.000000 1.570796
    6 1.055919 0.000000 0.000000 0.000000 0.000000 0.000000
    7 1.055919 0.000000 -0.000001 0.000000 0.000000 0.000000
    8 0.000008 -0.000006 -5.615750 0.400190 2.487445 -0.514322
    9 15.693467 0.000000 0.000000 0.000000 0.000000 -1.401987
    10 22.146627 0.000000 0.000000 0.107347 0.232492 0.569806
    11 3.310129 5.734393 0.000000 0.000000 0.000000 1.570796
    12 1.055919 0.000000 0.000000 0.000000 0.000000 0.000000
    13 1.055919 0.000000 -0.000001 0.000000 0.000000 0.000000
    14 1.384163 -0.004728 0.000002 -0.662189 0.054410 0.202448
    15 5.939814 -0.004730 0.000000 -0.093715 0.064237 0.217343
    16 5.939809 -0.003975 0.000000 -0.095444 -0.068108 0.133534
    17 4.991439 -0.003975 0.000000 -0.087226 0.060306 0.042841
    18 4.991436 -0.001575 0.000000 0.000000 0.000000 0.000000
    19 0.000005 0.001564 3.638375 -0.000010 -1.283530 3.140806
    20 8.842831 0.000000 -0.000002 0.568326 -0.640494 -1.559088
    21 9.341936 0.000000 0.000003 0.000000 0.000000 -0.446975
    22 9.664094 0.000000 -0.000003 -3.820690 -0.067339 -0.376969
    23 0.000005 0.001585 -3.638375 -0.000010 1.082924 3.140787
    24 8.842831 0.000000 0.000001 -0.138685 0.064112 -1.910789
    25 9.341935 0.000000 -0.000001 0.000000 0.000000 -0.783239
    26 9.664097 0.000000 -0.000002 2.840654 0.149948 0.479130
    27 1.977383 0.000000 0.000000 0.662735 0.046290 -0.182353
    28 14.749151 -0.637065 0.609129 1.516377 -0.033041 -3.136054
    29 14.827692 0.339927 1.738213 1.712062 0.032858 0.003941
  time 4
    0 -0.059637 2.613455 22.746722 0.007862 -0.095584 -1.622905
    1 -1.549510 0.320323 9.745319 -1.570795 -1.570796 0.000000
    2 -0.000007 0.000010 5.615750 0.034799 3.199307 -1.007677
    3 15.693467 0.000000 0.000000 0.000000 0.000000 -1.155658
    4 22.146627 0.000000 0.000000 -0.015368 -0.062081 0.052023
    5 3.310129 5.734394 0.000000 0.000000 0.000000 1.570796
    6 1.055919 0.000000 0.000000 0.000000 0.000000 0.000000
    7 1.055919 0.000000 -0.000001 0.000000 0.000000 0.000000
    8 0.000008 -0.000006 -5.615750 0.342089 2.586099 -0.471809
    9 15.693467 0.000000 0.000000 0.000000 0.000000 -1.352232
    10 22.146627 0.000000 0.000000 0.018841 0.236728 0.613885
    11 3.310129 5.734393 0.000000 0.000000 0.000000 1.570796
    12 1.055919 0.000000 0.000000 0.000000 0.000000 0.000000
    13 1.055919 0.000000 -0.000001 0.000000 0.000000 0.000000
    14 1.384163 -0.004728 0.000002 -0.595306 0.006059 0.229073
    15 5.939814 -0.004730 0.000000 -0.093591 0.038459 0.219750
    16 5.939809 -0.003975 0.000000 -0.095444 -0.068108 0.133534
    17 4.991439 -0.003975 0.000000 -0.087226 0.060306 0.042841
    18 4.991436 -0.001575 0.000000 0.000000 0.000000 0.000000
    19 0.000005 0.001564 3.638375 -0.000010 -1.283530 3.140806
    20 8.842831 0.000000 -0.000002 0.549406 -0.683608 -1.570461
    21 9.341936 0.000000 0.000003 0.000000 0.000000 -0.446975
    22 9.664094 0.000000 -0.000003 -3.820690 -0.067339 -0.376969
    23 0.000005 0.001585 -3.638375 -0.000010 1.082924 3.140787
    24 8.842831 0.000000 0.000001 -0.114482 0.059835 -1.975165
    25 9.341935 0.000000 -0.000001 0.000000 0.000000 -0.783239
    26 9.664097 0.000000 -0.000002 2.840654 0.149948 0.479130
    27 1.977383 0.000000 0.000000 0.610314 0.135667 -0.158052
    28 14.749151 -0.637065 0.609129 1.516377 -0.033041 -3.136054
    29 14.827692 0.339927 1.738213 1.712062 0.032858 0.003941
  time 5
    0 -0.059637 1.803396 23.173084 0.005273 -0.095775 -1.595100
    1 -1.647169 0.125005 9.745319 -1.570795 -1.570796 0.000000
    2 -0.000007 0.000010 5.615750 0.032019 3.198636 -0.977857
    3 15.693467 0.000000 0.000000 0.000000 0.000000 -1.138656
    4 22.146627 0.000000 0.000000 0.011068 -0.057664 0.064769
    5 3.310129 5.734394 0.000000 0.000000 0.000000 1.570796
    6 1.055919 0.000000 0.000000 0.000000 0.000000 0.000000
    7 1.055919 0.000000 -0.000001 0.000000 0.000000 0.000000
    8 0.000008 -0.000006 -5.615750 0.286097 2.681397 -0.427485
    9 15.693467 0.000000 0.000000 0.000000 0.000000 -1.301437
    10 22.146627 0.000000 0.000000 -0.102609 0.227948 0.654015
    11 3.310129 5.734393 0.000000 0.000000 0.000000 1.570796
    12 1.055919 0.000000 0.000000 0.000000 0.000000 0.000000
    13 1.055919 0.000000 -0.000001 0.000000 0.000000 0.000000
    14 1.384163 -0.004728 0.000002 -0.534056 -0.042053 0.248962
    15 5.939814 -0.004730 0.000000 -0.093566 0.014310 0.222030
    16 5.939809 -0.003975 0.000000 -0.095444 -0.068108 0.133534
    17 4.991439 -0.003975 0.000000 -0.087226 0.060306 0.042841
    18 4.991436 -0.001575 0.000000 0.000000 0.000000 0.000000
    19 0.000005 0.001564 3.638375 -0.000010 -1.283530 3.140806
    20 8.842831 0.000000 -0.000002 0.527718 -0.718483 -1.579625
    21 9.341936 0.000000 0.000003 0.000000 0.000000 -0.446975
    22 9.664094 0.000000 -0.000003 -3.820690 -0.067339 -0.376969
    23 0.000005 0.001585 -3.638375 -0.000010 1.082924 3.140787
    24 8.842831 0.000000 0.000001 -0.093002 0.060184 -2.035044
    25 9.341935 0.000000 -0.000001 0.000000 0.000000 -0.783239
    26 9.664097 0.000000 -0.000002 2.840654 0.149948 0.479130
    27 1.977383 0.000000 0.000000 0.563209 0.219531 -0.135595
    28 14.749151 -0.637065 0.609129 1.516377 -0.033041 -3.136054
    29 14.827692 0.339927 1.738213 1.712062 0.032858 0.003941
  time 6
    0 -0.059637 1.063777 23.554566 0.002972 -0.095871 -1.571131
    1 -1.717484 -0.062501 9.745319 -1.570795 -1.570796 0.000000
    2 -0.000007 0.000010 5.615750 0.030581 3.199307 -0.950045
    3 15.693467 0.000000 0.000000 0.000000 0.000000 -1.123148
    4 22.146627 0.000000 0.000000 0.034626 -0.055395 0.077123
    5 3.310129 5.734394 0.000000 0.000000 0.000000 1.570796
    6 1.055919 0.000000 0.000000 0.000000 0.000000 0.000000
    7 1.055919 0.000000 -0.000001 0.000000 0.000000 0.000000
    8 0.000008 -0.000006 -5.615750 0.230009 2.770847 -0.383718
    9 15.693467 0.000000 0.000000 0.000000 0.000000 -1.252054
    10 22.146627 0.000000 0.000000 -0.103398 0.209252 0.688360
    11 3.310129 5.734393 0.000000 0.000000 0.000000 1.570796
    12 1.055919 0.000000 0.000000 0.000000 0.000000 0.000000
    13 1.055919 0.000000 -0.000001 0.000000 0.000000 0.000000
    14 1.384163 -0.004728 0.000002 -0.478804 -0.088207 0.262752
    15 5.939814 -0.004730 0.000000 -0.093566 -0.007826 0.224097
    16 5.939809 -0.003975 0.000000 -0.095444 -0.068108 0.133534
    17 4.991439 -0.003975 0.000000 -0.087226 0.060306 0.042841
    18 4.991436 -0.001575 0.000000 0.000000 0.000000 0.000000
    19 0.000005 0.001564 3.638375 -0.000010 -1.283530 3.140806
    20 8.842831 0.000000 -0.000002 0.504368 -0.745669 -1.585680
    21 9.341936 0.000000 0.000003 0.000000 0.000000 -0.446975
    22 9.664094 0.000000 -0.000003 -3.820690 -0.067339 -0.376969
    23 0.000005 0.001585 -3.638375 -0.000010 1.082924 3.140787
    24 8.842831 0.000000 0.000001 -0.074479 0.063938 -2.089567
    25 9.341935 0.000000 -0.000001 0.000000 0.000000 -0.783239
    26 9.664097 0.000000 -0.000002 2.840654 0.149948 0.479130
    27 1.977383 0.000000 0.000000 0.521735 0.296491 -0.114880
    28 14.749151 -0.637065 0.609129 1.516377 -0.033041 -3.136054
    29 14.827692 0.339927 1.738213 1.712062 0.032858 0.003941
  time 7
    0 -0.059637 0.387554 23.891168 0.002972 -0.095871 -1.571131
    1 -1.760454 -0.230475 9.745319 -1.570795 -1.570796 0.000000
    2 -0.000007 0.000010 5.615750 0.032306 3.204197 -0.921946
    3 15.693467 0.000000 0.000000 0.000000 0.000000 -1.113046
    4 22.146627 0.000000 0.000000 0.036271 -0.060417 0.095098
    5 3.310129 5.734394 0.000000 0.000000 0.000000 1.570796
    6 1.055919 0.000000 0.000000 0.000000 0.000000 0.000000
    7 1.055919 0.000000 -0.000001 0.000000 0.000000 0.000000
    8 0.000008 -0.000006 -5.615750 0.166826 2.846396 -0.350266
    9 15.693467 0.000000 0.000000 0.000000 0.000000 -1.208027
    10 22.146627 0.000000 0.000000 -0.055507 0.188253 0.710032
    11 3.310129 5.734393 0.000000 0.000000 0.000000 1.570796
    12 1.055919 0.000000 0.000000 0.000000 0.000000 0.000000
    13 1.055919 0.000000 -0.000001 0.000000 0.000000 0.000000
    14 1.384163 -0.004728 0.000002 -0.431530 -0.129359 0.271185
    15 5.939814 -0.004730 0.000000 -0.093615 -0.026965 0.225908
    16 5.939809 -0.003975 0.000000 -0.095444 -0.068108 0.133534
    17 4.991439 -0.003975 0.000000 -0.087226 0.060306 0.042841
    18 4.991436 -0.001575 0.000000 0.000000 0.000000 0.000000
    19 0.000005 0.001564 3.638375 -0.000010 -1.283530 3.140806
    20 8.842831 0.000000 -0.000002 0.481296 -0.765441 -1.588380
    21 9.341936 0.000000 0.000003 0.000000 0.000000 -0.446975
    22 9.664094 0.000000 -0.000003 -3.820690 -0.067339 -0.376969
    23 0.000005 0.001585 -3.638375 -0.000010 1.082924 3.140787
    24 8.842831 0.000000 0.000001 -0.059692 0.069612 -2.136055
    25 9.341935 0.000000 -0.000001 0.000000 0.000000 -0.783239
    26 9.664097 0.000000 -0.000002 2.840654 0.149948 0.479130
    27 1.977383 0.000000 0.000000 0.487209 0.362921 -0.096804
    28 14.749151 -0.637065 0.609129 1.516377 -0.033041 -3.136054
    29 14.827692 0.339927 1.738213 1.712062 0.032858 0.003941
  time 8
    0 -0.059637 -0.225273 24.205329 0.002972 -0.095871 -1.571131
    1 -1.760454 -0.230475 9.745319 -1.570795 -1.570796 0.000000
    2 -0.000007 0.000010 5.615750 0.031060 3.204868 -0.895949
    3 15.693467 0.000000 0.000000 0.000000 0.000000 -1.105577
    4 22.146627 0.000000 0.000000 0.036009 -0.060628 0.113465
    5 3.310129 5.734394 0.000000 0.000000 0.000000 1.570796
    6 1.055919 0.000000 0.000000 0.000000 0.000000 0.000000
    7 1.055919 0.000000 -0.000001 0.000000 0.000000 0.000000
    8 0.000008 -0.000006 -5.615750 0.103356 2.910440 -0.313259
    9 15.693467 0.000000 0.000000 0.000000 0.000000 -1.163255
    10 22.146627 0.000000 0.000000 -0.189141 0.168820 0.725919
    11 3.310129 5.734393 0.000000 0.000000 0.000000 1.570796
    12 1.055919 0.000000 0.000000 0.000000 0.000000 0.000000
    13 1.055919 0.000000 -0.000001 0.000000 0.000000 0.000000
    14 1.384163 -0.004728 0.000002 -0.431530 -0.129359 0.271185
    15 5.939814 -0.004730 0.000000 -0.093615 -0.026965 0.225908
    16 5.939809 -0.003975 0.000000 -0.095444 -0.068108 0.133534
    17 4.991439 -0.003975 0.000000 -0.087226 0.060306 0.042841
    18 4.991436 -0.001575 0.000000 0.000000 0.000000 0.000000
    19 0.000005 0.001564 3.638375 -0.000010 -1.283530 3.140806
    20 8.842831 0.000000 -0.000002 0.481296 -0.765441 -1.588380
    21 9.341936 0.000000 0.000003 0.000000 0.000000 -0.446975
    22 9.664094 0.000000 -0.000003 -3.820690 -0.067339 -0.376969
    23 0.000005 0.001585 -3.638375 -0.000010 1.082924 3.140787
    24 8.842831 0.000000 0.000001 -0.059692 0.069612 -2.136055
    25 9.341935 0.000000 -0.000001 0.000000 0.000000 -0.783239
    26 9.664097 0.000000 -0.000002 2.840654 0.149948 0.479130
    27 1.977383 0.000000 0.000000 0.487209 0.362921 -0.096804
    28 14.749151 -0.637065 0.609129 1.516377 -0.033041 -3.136054
    29 14.827692 0.339927 1.738213 1.712062 0.032858 0.003941
  time 9
    0 -0.059637 -0.809925 24.474611 0.002972 -0.095871 -1.571131
    1 -1.760454 -0.230475 9.745319 -1.570795 -1.570796 0.000000
    2 -0.000007 0.000010 5.615750 0.029718 3.205539 -0.871387
    3 15.693467 0.000000 0.000000 0.000000 0.000000 -1.097823
    4 22.146627 0.000000 0.000000 0.035822 -0.060810 0.130329
    5 3.310129 5.734394 0.000000 0.000000 0.000000 1.570796
    6 1.055919 0.000000 0.000000 0.000000 0.000000 0.000000
    7 1.055919 0.000000 -0.000001 0.000000 0.000000 0.000000
    8 0.000008 -0.000006 -5.615750 0.043625 2.966238 -0.274580
    9 15.693467 0.000000 0.000000 0.000000 0.000000 -1.119822
    10 22.146627 0.000000 0.000000 -0.105091 0.147176 0.737673
    11 3.310129 5.734393 0.000000 0.000000 0.000000 1.570796
    12 1.055919 0.000000 0.000000 0.000000 0.000000 0.000000
    13 1.055919 0.000000 -0.000001 0.000000 0.000000 0.000000
    14 1.384163 -0.004728 0.000002 -0.431530 -0.129359 0.271185
    15 5.939814 -0.004730 0.000000 -0.093615 -0.026965 0.225908
    16 5.939809 -0.003975 0.000000 -0.095444 -0.068108 0.133534
    17 4.991439 -0.003975 0.000000 -0.087226 0.060306 0.042841
    18 4.991436 -0.001575 0.000000 0.000000 0.000000 0.000000
    19 0.000005 0.001564 3.638375 -0.000010 -1.283530 3.140806
    20 8.842831 0.000000 -0.000002 0.481296 -0.765441 -1.588380
    21 9.341936 0.000000 0.000003 0.000000 0.000000 -0.446975
    22 9.664094 0.000000 -0.000003 -3.820690 -0.067339 -0.376969
    23 0.000005 0.001585 -3.638375 -0.000010 1.082924 3.140787
    24 8.842831 0.000000 0.000001 -0.059692 0.069612 -2.136055
    25 9.341935 0.000000 -0.000001 0.000000 0.000000 -0.783239
    26 9.664097 0.000000 -0.000002 2.840654 0.149948 0.479130
    27 1.977383 0.000000 0.000000 0.487209 0.362921 -0.096804
    28 14.749151 -0.637065 0.609129 1.516377 -0.033041 -3.136054
    29 14.827692 0.339927 1.738213 1.712062 0.032858 0.003941
  time 10
    0 -0.059637 -1.366400 24.721452 0.002972 -0.095871 -1.571131
    1 -1.760454 -0.230475 9.745319 -1.570795 -1.570796 0.000000
    2 -0.000007 0.000010 5.615750 0.028376 3.206210 -0.847684
    3 15.693467 0.000000 0.000000 0.000000 0.000000 -1.089856
    4 22.146627 0.000000 0.000000 0.035673 -0.060992 0.146016
    5 3.310129 5.734394 0.000000 0.000000 0.000000 1.570796
    6 1.055919 0.000000 0.000000 0.000000 0.000000 0.000000
    7 1.055919 0.000000 -0.000001 0.000000 0.000000 0.000000
    8 0.000008 -0.000006 -5.615750 -0.012655 3.014558 -0.234437
    9 15.693467 0.000000 0.000000 0.000000 0.000000 -1.076985
    10 22.146627 0.000000 0.000000 -0.029333 0.124335 0.745570
    11 3.310129 5.734393 0.000000 0.000000 0.000000 1.570796
    12 1.055919 0.000000 0.000000 0.000000 0.000000 0.000000
    13 1.055919 0.000000 -0.000001 0.000000 0.000000 0.000000
    14 1.384163 -0.004728 0.000002 -0.431530 -0.129359 0.271185
    15 5.939814 -0.004730 0.000000 -0.093615 -0.026965 0.225908
    16 5.939809 -0.003975 0.000000 -0.095444 -0.068108 0.133534
    17 4.991439 -0.003975 0.000000 -0.087226 0.060306 0.042841
    18 4.991436 -0.001575 0.000000 0.000000 0.000000 0.000000
    19 0.000005 0.001564 3.638375 -0.000010 -1.283530 3.140806
    20 8.842831 0.000000 -0.000002 0.481296 -0.765441 -1.588380
    21 9.341936 0.000000 0.000003 0.000000 0.000000 -0.446975
    22 9.664094 0.000000 -0.000003 -3.820690 -0.067339 -0.376969
    23 0.000005 0.001585 -3.638375 -0.000010 1.082924 3.140787
    24 8.842831 0.000000 0.000001 -0.059692 0.069612 -2.136055
    25 9.341935 0.000000 -0.000001 0.000000 0.000000 -0.783239
    26 9.664097 0.000000 -0.000002 2.840654 0.149948 0.479130
    27 1.977383 0.000000 0.000000 0.487209 0.362921 -0.096804
    28 14.749151 -0.637065 0.609129 1.516377 -0.033041 -3.136054
    29 14.827692 0.339927 1.738213 1.712062 0.032858 0.003941
  time 11
    0 -0.059637 -1.908787 24.945853 0.002972 -0.095871 -1.571131
    1 -1.760454 -0.230475 9.745319 -1.570795 -1.570796 0.000000
    2 -0.000007 0.000010 5.615750 0.027130 3.206881 -0.825224
    3 15.693467 0.000000 0.000000 0.000000 0.000000 -1.082457
    4 22.146627 0.000000 0.000000 0.035635 -0.061113 0.161049
    5 3.310129 5.734394 0.000000 0.000000 0.000000 1.570796
    6 1.055919 0.000000 0.000000 0.000000 0.000000 0.000000
    7 1.055919 0.000000 -0.000001 0.000000 0.000000 0.000000
    8 0.000008 -0.000006 -5.615750 -0.062606 3.053387 -0.193458
    9 15.693467 0.000000 0.000000 0.000000 0.000000 -1.034891
    10 22.146627 0.000000 0.000000 0.035087 0.102293 0.750070
    11 3.310129 5.734393 0.000000 0.000000 0.000000 1.570796
    12 1.055919 0.000000 0.000000 0.000000 0.000000 0.000000
    13 1.055919 0.000000 -0.000001 0.000000 0.000000 0.000000
    14 1.384163 -0.004728 0.000002 -0.431530 -0.129359 0.271185
    15 5.939814 -0.004730 0.000000 -0.093615 -0.026965 0.225908
    16 5.939809 -0.003975 0.000000 -0.095444 -0.068108 0.133534
    17 4.991439 -0.003975 0.000000 -0.087226 0.060306 0.042841
    18 4.991436 -0.001575 0.000000 0.000000 0.000000 0.000000
    19 0.000005 0.001564 3.638375 -0.000010 -1.283530 3.140806
    20 8.842831 0.000000 -0.000002 0.481296 -0.765441 -1.588380
    21 9.341936 0.000000 0.000003 0.000000 0.000000 -0.446975
    22 9.664094 0.000000 -0.000003 -3.820690 -0.067339 -0.376969
    23 0.000005 0.001585 -3.638375 -0.000010 1.082924 3.140787
    24 8.842831 0.000000 0.000001 -0.059692 0.069612 -2.136055
    25 9.341935 0.000000 -0.000001 0.000000 0.000000 -0.783239
    26 9.664097 0.000000 -0.000002 2.840654 0.149948 0.479130
    27 1.977383 0.000000 0.000000 0.487209 0.362921 -0.096804
    28 14.749151 -0.637065 0.609129 1.516377 -0.033041 -3.136054
    29 14.827692 0.339927 1.738213 1.712062 0.032858 0.003941
  time 12
    0 -0.059637 -2.444131 25.147814 0.002972 -0.095871 -1.571131
    1 -1.760454 -0.230475 9.745319 -1.570795 -1.570796 0.000000
    2 -0.000007 0.000010 5.615750 0.025884 3.207648 -0.805153
    3 15.693467 0.000000 0.000000 0.000000 0.000000 -1.078189
    4 22.146627 0.000000 0.000000 0.035710 -0.061324 0.176736
    5 3.310129 5.734394 0.000000 0.000000 0.000000 1.570796
    6 1.055919 0.000000 0.000000 0.000000 0.000000 0.000000
    7 1.055919 0.000000 -0.000001 0.000000 0.000000 0.000000
    8 0.000008 -0.000006 -5.615750 -0.058675 3.052045 -0.155824
    9 15.693467 0.000000 0.000000 0.000000 0.000000 -0.995325
    10 22.146627 0.000000 0.000000 0.034748 0.101249 0.747958
    11 3.310129 5.734393 0.000000 0.000000 0.000000 1.570796
    12 1.055919 0.000000 0.000000 0.000000 0.000000 0.000000
    13 1.055919 0.000000 -0.000001 0.000000 0.000000 0.000000
    14 1.384163 -0.004728 0.000002 -0.431530 -0.129359 0.271185
    15 5.939814 -0.004730 0.000000 -0.093615 -0.026965 0.225908
    16 5.939809 -0.003975 0.000000 -0.095444 -0.068108 0.133534
    17 4.991439 -0.003975 0.000000 -0.087226 0.060306 0.042841
    18 4.991436 -0.001575 0.000000 0.000000 0.000000 0.000000
    19 0.000005 0.001564 3.638375 -0.000010 -1.283530 3.140806
    20 8.842831 0.000000 -0.000002 0.481296 -0.765441 -1.588380
    21 9.341936 0.000000 0.000003 0.000000 0.000000 -0.446975
    22 9.664094 0.000000 -0.000003 -3.820690 -0.067339 -0.376969
    23 0.000005 0.001585 -3.638375 -0.000010 1.082924 3.140787
    24 8.842831 0.000000 0.000001 -0.059692 0.069612 -2.136055
    25 9.341935 0.000000 -0.000001 0.000000 0.000000 -0.783239
    26 9.664097 0.000000 -0.000002 2.840654 0.149948 0.479130
    27 1.977383 0.000000 0.000000 0.487209 0.362921 -0.096804
    28 14.749151 -0.637065 0.609129 1.516377 -0.033041 -3.136054
    29 14.827692 0.339927 1.738213 1.712062 0.032858 0.003941
end
