version 1
nodes
  0 "Bip01" -1
  1 "Bip01 Pelvis" 0
  2 "Bip01 Spine" 1
  3 "Bip01 Spine1" 2
  4 "Bip01 Spine2" 3
  5 "Bip01 Spine3" 4
  6 "Bip01 Neck" 5
  7 "Bip01 R Clavicle" 6
  8 "Bip01 R UpperArm" 7
  9 "Bip01 R Forearm" 8
  10 "Bip01 R Hand" 9
  11 "koc_weapon_9mmhandgun" 10
end
skeleton
  time 0
    0 0.233849 0.368164 39.526119 0.000000 0.000000 -1.570795
    1 0.000000 0.000000 0.000000 -1.570795 -1.570796 0.000000
    2 1.293670 0.684478 -0.000001 -0.000004 -0.000001 0.114185
    3 5.309685 -0.003834 0.000000 0.000000 0.000000 -0.069778
    4 4.826790 -0.004591 0.000000 0.000000 0.000000 -0.095944
    5 5.792767 -0.005304 0.000000 0.000000 0.000000 0.017444
    6 6.662317 -0.001453 0.000000 0.000000 -0.000001 0.471000
    7 -2.869898 1.399663 -4.140396 -0.000013 1.370795 2.669783
    8 4.972048 0.000000 0.000001 -0.115194 -1.268795 0.116957
    9 11.585355 0.000000 0.000000 0.000000 0.000000 -0.200000
    10 10.127057 0.000000 0.000001 1.569752 0.000000 -0.069778
    11 5.781898 0.735678 1.586900 0.027741 -0.080641 0.094173
end
triangles
glockside.bmp
  11 -9.987428 -6.958817 37.047818 0.998991 -0.042200 0.015400 0.030303 1.000000
  11 -9.917432 -6.598486 33.447448 0.992802 0.117400 -0.023700 0.434343 0.703125
  11 -9.917430 -5.697037 36.684343 0.981790 0.182998 -0.050999 0.020202 0.750000
glockside.bmp
  11 -9.917430 -5.697037 36.684343 0.981790 0.182998 -0.050999 0.020202 0.750000
  11 -9.917432 -6.598486 33.447448 0.992802 0.117400 -0.023700 0.434343 0.703125
  11 -10.247432 -5.180380 35.910997 0.981790 0.182998 -0.050999 0.090909 0.609375
glockside.bmp
  11 -9.917432 -6.598486 33.447448 0.992802 0.117400 -0.023700 0.434343 0.703125
  11 -10.247433 -5.544165 33.595795 0.999338 0.036201 -0.003500 0.373737 0.515625
  11 -10.247432 -5.180380 35.910997 0.981790 0.182998 -0.050999 0.090909 0.609375
glockside.bmp
  11 -10.247432 -5.180380 35.910997 0.981790 0.182998 -0.050999 0.090909 0.609375
  11 -10.247433 -5.544165 33.595795 0.999338 0.036201 -0.003500 0.373737 0.515625
  11 -10.007436 -2.636127 35.825664 0.998991 -0.042200 0.015400 0.000000 0.140625
glockside.bmp
  11 -10.247433 -5.544165 33.595795 0.999338 0.036201 -0.003500 0.373737 0.515625
  11 -10.007437 -3.235838 33.096169 0.997345 0.068503 -0.024701 0.333333 0.078125
  11 -10.007436 -2.636127 35.825664 0.998991 -0.042200 0.015400 0.000000 0.140625
glockside.bmp
  11 -10.007436 -2.636127 35.825664 0.998991 -0.042200 0.015400 0.000000 0.140625
  11 -10.007437 -3.235838 33.096169 0.997345 0.068503 -0.024701 0.333333 0.078125
  11 -10.097437 -1.899782 35.451238 0.981790 0.182998 -0.050999 0.010101 0.000000
glockside.bmp
  11 -10.007437 -3.235838 33.096169 0.997345 0.068503 -0.024701 0.333333 0.078125
  11 -10.097438 -2.692405 33.302763 0.981790 0.182998 -0.050999 0.282828 0.000000
  11 -10.097437 -1.899782 35.451238 0.981790 0.182998 -0.050999 0.010101 0.000000
glockside.bmp
  11 -10.447434 -5.824795 32.240013 1.000000 0.000000 0.000000 0.535354 0.484375
  11 -10.447434 -5.069172 33.497404 1.000000 0.000000 0.000000 0.363636 0.421875
  11 -10.447433 -5.424562 33.573547 1.000000 0.000000 0.000000 0.363636 0.500000
glockside.bmp
  11 -10.447434 -5.824795 32.240013 1.000000 0.000000 0.000000 0.535354 0.484375
  11 -10.447435 -5.467712 32.110045 1.000000 0.000000 0.000000 0.535354 0.406250
  11 -10.447434 -5.069172 33.497404 1.000000 0.000000 0.000000 0.363636 0.421875
glockside.bmp
  11 -10.447434 -5.824795 32.240013 1.000000 0.000000 0.000000 0.535354 0.484375
  11 -10.447435 -5.696866 31.480451 1.000000 0.000000 0.000000 0.616162 0.406250
  11 -10.447435 -5.467712 32.110045 1.000000 0.000000 0.000000 0.535354 0.406250
glockside.bmp
  11 -10.447434 -5.824795 32.240013 1.000000 0.000000 0.000000 0.535354 0.484375
  11 -10.447434 -5.965024 31.854739 1.000000 0.000000 0.000000 0.585859 0.484375
  11 -10.447435 -5.696866 31.480451 1.000000 0.000000 0.000000 0.616162 0.406250
glockside.bmp
  11 -10.447434 -5.824795 32.240013 1.000000 0.000000 0.000000 0.535354 0.484375
  11 -10.447432 -6.957608 32.460771 1.000000 0.000000 0.000000 0.555556 0.703125
  11 -10.447434 -5.965024 31.854739 1.000000 0.000000 0.000000 0.585859 0.484375
glockside.bmp
  11 -11.497430 -5.697040 36.684345 -0.984135 0.174306 -0.033101 0.020202 0.750000
  11 -11.427430 -9.664201 29.614852 -0.998991 -0.042199 0.015400 1.000000 1.000000
  11 -11.427428 -6.958819 37.047819 -0.998991 -0.042199 0.015400 0.030303 1.000000
glockside.bmp
  11 -11.497430 -5.697040 36.684345 -0.984135 0.174306 -0.033101 0.020202 0.750000
  11 -11.497432 -6.598488 33.447449 -0.996751 0.077896 -0.020499 0.434343 0.703125
  11 -11.427430 -9.664201 29.614852 -0.998991 -0.042199 0.015400 1.000000 1.000000
glockside.bmp
  11 -11.497430 -5.697040 36.684345 -0.984135 0.174306 -0.033101 0.020202 0.750000
  11 -11.167433 -5.544167 33.595796 -0.920170 0.383488 -0.078897 0.373737 0.515625
  11 -11.497432 -6.598488 33.447449 -0.996751 0.077896 -0.020499 0.434343 0.703125
glockside.bmp
  11 -11.497430 -5.697040 36.684345 -0.984135 0.174306 -0.033101 0.020202 0.750000
  11 -11.167432 -5.180381 35.910998 -0.886591 0.456995 -0.071499 0.090909 0.609375
  11 -11.167433 -5.544167 33.595796 -0.920170 0.383488 -0.078897 0.373737 0.515625
glockside.bmp
  11 -10.947434 -5.965024 31.854739 -0.999984 -0.005500 -0.001000 0.585859 0.484375
  11 -10.947435 -5.467713 32.110045 -0.999984 -0.005500 -0.001000 0.535354 0.406250
  11 -10.947435 -5.696867 31.480451 -0.999984 -0.005500 -0.001000 0.616162 0.406250
glockside.bmp
  11 -10.947434 -5.965024 31.854739 -0.999984 -0.005500 -0.001000 0.585859 0.484375
  11 -10.947434 -5.824796 32.240013 -0.999984 -0.005500 -0.001000 0.535354 0.484375
  11 -10.947435 -5.467713 32.110045 -0.999984 -0.005500 -0.001000 0.535354 0.406250
glockside.bmp
  11 -10.947434 -5.965024 31.854739 -0.999984 -0.005500 -0.001000 0.585859 0.484375
  11 -10.947432 -6.957609 32.460772 -0.999984 -0.005500 -0.001000 0.555556 0.703125
  11 -10.947434 -5.824796 32.240013 -0.999984 -0.005500 -0.001000 0.535354 0.484375
glockside.bmp
  11 -10.947434 -5.965024 31.854739 -0.999984 -0.005500 -0.001000 0.585859 0.484375
  11 -10.947432 -7.097837 32.075498 -0.999984 -0.005500 -0.001000 0.606061 0.703125
  11 -10.947432 -6.957609 32.460772 -0.999984 -0.005500 -0.001000 0.555556 0.703125
glockside.bmp
  11 -11.167432 -5.180381 35.910998 -0.994604 -0.102500 0.016000 0.090909 0.609375
  11 -11.407436 -2.636129 35.825666 -0.996751 0.077896 -0.020499 0.000000 0.140625
  11 -11.407437 -3.235840 33.096170 -0.999984 -0.005500 -0.001000 0.333333 0.078125
glockside.bmp
  11 -11.407437 -3.235840 33.096170 -0.999984 -0.005500 -0.001000 0.333333 0.078125
  11 -11.407436 -2.636129 35.825666 -0.996751 0.077896 -0.020499 0.000000 0.140625
  11 -11.317438 -2.692407 33.302764 -0.984135 0.174306 -0.033101 0.282828 0.000000
glockside.bmp
  11 -11.407436 -2.636129 35.825666 -0.996751 0.077896 -0.020499 0.000000 0.140625
  11 -11.317437 -1.899783 35.451239 -0.996751 0.077896 -0.020499 0.010101 0.000000
  11 -11.317438 -2.692407 33.302764 -0.984135 0.174306 -0.033101 0.282828 0.000000
glockside.bmp
  11 -9.917433 -8.188881 29.077878 0.998991 -0.042200 0.015400 1.000000 0.703125
  11 -9.917432 -6.598486 33.447448 0.992802 0.117400 -0.023700 0.434343 0.703125
  11 -9.987430 -9.664199 29.614850 0.998991 -0.042200 0.015400 1.000000 1.000000
glockside.bmp
  11 -9.987430 -9.664199 29.614850 0.998991 -0.042200 0.015400 1.000000 1.000000
  11 -9.917432 -6.598486 33.447448 0.992802 0.117400 -0.023700 0.434343 0.703125
  11 -9.987428 -6.958817 37.047818 0.998991 -0.042200 0.015400 0.030303 1.000000
glockside.bmp
  11 -10.947435 -5.467713 32.110045 -0.999984 -0.005500 -0.001000 0.535354 0.406250
  11 -10.947434 -5.824796 32.240013 -0.999984 -0.005500 -0.001000 0.535354 0.484375
  11 -10.947434 -5.069172 33.497404 -0.999984 -0.005500 -0.001000 0.363636 0.421875
glockside.bmp
  11 -10.947434 -5.069172 33.497404 -0.999984 -0.005500 -0.001000 0.363636 0.421875
  11 -10.947434 -5.824796 32.240013 -0.999984 -0.005500 -0.001000 0.535354 0.484375
  11 -10.947433 -5.424563 33.573547 -0.999984 -0.005500 -0.001000 0.363636 0.500000
glockside.bmp
  11 -11.427430 -9.664201 29.614852 -0.998991 -0.042199 0.015400 1.000000 1.000000
  11 -11.497432 -6.598488 33.447449 -0.996751 0.077896 -0.020499 0.434343 0.703125
  11 -11.497433 -8.188884 29.077879 -0.998991 -0.042199 0.015400 1.000000 0.703125
glockside.bmp
  11 -11.167432 -5.180381 35.910998 -0.994604 -0.102500 0.016000 0.090909 0.609375
  11 -11.407437 -3.235840 33.096170 -0.999984 -0.005500 -0.001000 0.333333 0.078125
  11 -11.167433 -5.544167 33.595796 -0.994604 -0.102500 0.016000 0.373737 0.515625
glockside.bmp
  11 -10.447432 -6.957608 32.460771 1.000000 0.000000 0.000000 0.555556 0.703125
  11 -10.447432 -7.097837 32.075497 1.000000 0.000000 0.000000 0.606061 0.703125
  11 -10.447434 -5.965024 31.854739 1.000000 0.000000 0.000000 0.585859 0.484375
glockside.bmp
  11 -10.817432 -6.407958 33.473878 -0.999984 -0.005500 -0.001000 0.424242 0.671875
  11 -10.817432 -6.058510 33.527599 -0.999984 -0.005500 -0.001000 0.404040 0.609375
  11 -10.817433 -5.790455 32.802170 -0.999984 -0.005500 -0.001000 0.474747 0.515625
glockside.bmp
  11 -10.557433 -5.790455 32.802170 1.000000 0.000000 0.000000 0.474747 0.515625
  11 -10.557432 -6.058509 33.527599 1.000000 0.000000 0.000000 0.404040 0.609375
  11 -10.557432 -6.407957 33.473877 1.000000 0.000000 0.000000 0.424242 0.671875
glockside.bmp
  11 -10.947432 -7.097837 32.075498 0.000000 0.939700 -0.342000 0.606061 0.703125
  11 -11.497432 -6.598488 33.447449 0.000000 0.939700 -0.342000 0.434343 0.703125
  11 -10.947432 -6.957609 32.460772 0.000000 0.939700 -0.342000 0.555556 0.703125
glockside.bmp
  11 -10.947433 -5.424563 33.573547 0.000000 -0.215501 -0.976504 0.363636 0.500000
  11 -11.167433 -5.544167 33.595796 0.000000 -0.127000 -0.991903 0.373737 0.515625
  11 -10.947434 -5.069172 33.497404 0.000000 -0.215501 -0.976504 0.363636 0.421875
glockside.bmp
  11 -10.447433 -5.424562 33.573547 0.000000 -0.215501 -0.976504 0.363636 0.500000
  11 -10.447434 -5.069172 33.497404 0.000000 -0.215501 -0.976504 0.363636 0.421875
  11 -10.247433 -5.544165 33.595795 0.000000 -0.015600 -0.999878 0.373737 0.515625
glockback.bmp
  11 -10.247432 -5.180380 35.910997 0.000000 0.032699 0.999465 0.157895 0.610169
  11 -10.007436 -2.636127 35.825664 0.000000 0.318297 0.947991 0.000000 0.152542
  11 -11.407436 -2.636129 35.825666 0.000000 0.175804 0.984425 0.789474 0.152542
glockback.bmp
  11 -11.407436 -2.636129 35.825666 0.000000 0.175804 0.984425 0.789474 0.152542
  11 -10.007436 -2.636127 35.825664 0.000000 0.318297 0.947991 0.000000 0.152542
  11 -11.317437 -1.899783 35.451239 0.000000 0.451010 0.892519 0.736842 0.000000
glockback.bmp
  11 -10.007436 -2.636127 35.825664 0.000000 0.318297 0.947991 0.000000 0.152542
  11 -10.097437 -1.899782 35.451238 0.000000 0.451010 0.892519 0.052632 0.000000
  11 -11.317437 -1.899783 35.451239 0.000000 0.451010 0.892519 0.736842 0.000000
glockback.bmp
  11 -9.987428 -6.958817 37.047818 0.000000 0.278998 0.960292 0.000000 1.000000
  11 -9.917430 -5.697037 36.684343 0.000000 0.278998 0.960292 0.000000 0.745763
  11 -11.427428 -6.958819 37.047819 0.000000 0.278998 0.960292 0.789474 1.000000
glockback.bmp
  11 -11.427428 -6.958819 37.047819 0.000000 0.278998 0.960292 0.789474 1.000000
  11 -9.917430 -5.697037 36.684343 0.000000 0.278998 0.960292 0.000000 0.745763
  11 -11.497430 -5.697040 36.684345 0.000000 0.278998 0.960292 0.842105 0.745763
glockback.bmp
  11 -11.497430 -5.697040 36.684345 0.000000 0.831912 0.554908 0.842105 0.745763
  11 -9.917430 -5.697037 36.684343 0.000000 0.831912 0.554908 0.000000 0.745763
  11 -11.167432 -5.180381 35.910998 0.000000 0.831912 0.554908 0.631579 0.610169
glockback.bmp
  11 -11.167432 -5.180381 35.910998 0.000000 0.831912 0.554908 0.631579 0.610169
  11 -9.917430 -5.697037 36.684343 0.000000 0.831912 0.554908 0.000000 0.745763
  11 -10.247432 -5.180380 35.910997 0.000000 0.831912 0.554908 0.157895 0.610169
glockback.bmp
  11 -10.247432 -5.180380 35.910997 0.000000 0.032699 0.999465 0.157895 0.610169
  11 -11.407436 -2.636129 35.825666 0.000000 0.175804 0.984425 0.789474 0.152542
  11 -11.167432 -5.180381 35.910998 0.000000 0.032699 0.999465 0.631579 0.610169
glocktop1.bmp
  11 -9.917433 -8.188881 29.077878 0.000000 0.939700 -0.342000 1.000000 0.000000
  11 -10.447432 -6.957608 32.460771 0.000000 0.939700 -0.342000 0.542373 0.300000
  11 -9.917432 -6.598486 33.447448 0.000000 0.939700 -0.342000 0.423729 0.000000
glocktop1.bmp
  11 -9.917433 -8.188881 29.077878 0.000000 0.939700 -0.342000 1.000000 0.000000
  11 -10.447432 -7.097837 32.075497 0.000000 0.939700 -0.342000 0.593220 0.300000
  11 -10.447432 -6.957608 32.460771 0.000000 0.939700 -0.342000 0.542373 0.300000
glocktop1.bmp
  11 -9.917433 -8.188881 29.077878 0.000000 0.939700 -0.342000 1.000000 0.000000
  11 -10.947432 -7.097837 32.075498 0.000000 0.939700 -0.342000 0.593220 0.600000
  11 -10.447432 -7.097837 32.075497 0.000000 0.939700 -0.342000 0.593220 0.300000
glocktop1.bmp
  11 -9.917433 -8.188881 29.077878 0.000000 0.939700 -0.342000 1.000000 0.000000
  11 -11.497432 -6.598488 33.447449 0.000000 0.939700 -0.342000 0.423729 1.000000
  11 -10.947432 -7.097837 32.075498 0.000000 0.939700 -0.342000 0.593220 0.600000
glocktop1.bmp
  11 -9.917433 -8.188881 29.077878 0.000000 0.939700 -0.342000 1.000000 0.000000
  11 -11.497433 -8.188884 29.077879 0.000000 0.939700 -0.342000 1.000000 1.000000
  11 -11.497432 -6.598488 33.447449 0.000000 0.939700 -0.342000 0.423729 1.000000
glocktop1.bmp
  11 -10.947435 -5.696867 31.480451 0.000000 0.939700 -0.342000 0.610169 0.600000
  11 -10.947435 -5.467713 32.110045 0.000000 0.954125 -0.299408 0.525424 0.600000
  11 -10.447435 -5.467712 32.110045 0.000000 0.939700 -0.342000 0.525424 0.300000
glocktop1.bmp
  11 -10.447435 -5.467712 32.110045 0.000000 0.939700 -0.342000 0.525424 0.300000
  11 -10.947435 -5.467713 32.110045 0.000000 0.954125 -0.299408 0.525424 0.600000
  11 -10.447434 -5.069172 33.497404 0.000000 0.954125 -0.299408 0.355932 0.300000
glocktop1.bmp
  11 -10.947435 -5.467713 32.110045 0.000000 0.954125 -0.299408 0.525424 0.600000
  11 -10.947434 -5.069172 33.497404 0.000000 0.954125 -0.299408 0.355932 0.600000
  11 -10.447434 -5.069172 33.497404 0.000000 0.954125 -0.299408 0.355932 0.300000
glocktop1.bmp
  11 -10.097438 -2.692405 33.302763 0.000000 0.939700 -0.342000 0.271186 0.100000
  11 -11.317438 -2.692407 33.302764 0.000000 0.939700 -0.342000 0.271186 0.800000
  11 -10.097437 -1.899782 35.451238 0.000000 0.939700 -0.342000 0.000000 0.100000
glocktop1.bmp
  11 -10.097437 -1.899782 35.451238 0.000000 0.939700 -0.342000 0.000000 0.100000
  11 -11.317438 -2.692407 33.302764 0.000000 0.939700 -0.342000 0.271186 0.800000
  11 -11.317437 -1.899783 35.451239 0.000000 0.939700 -0.342000 0.000000 0.800000
glocktop1.bmp
  11 -9.917432 -6.598486 33.447448 0.000000 0.939700 -0.342000 0.423729 0.000000
  11 -10.447432 -6.957608 32.460771 0.000000 0.939700 -0.342000 0.542373 0.300000
  11 -11.497432 -6.598488 33.447449 0.000000 0.939700 -0.342000 0.423729 1.000000
glocktop1.bmp
  11 -11.497432 -6.598488 33.447449 0.000000 0.939700 -0.342000 0.423729 1.000000
  11 -10.447432 -6.957608 32.460771 0.000000 0.939700 -0.342000 0.542373 0.300000
  11 -10.947432 -6.957609 32.460772 0.000000 0.939700 -0.342000 0.542373 0.600000
glocktop1.bmp
  11 -10.447435 -5.696866 31.480451 0.000000 -0.815816 -0.578311 0.627119 0.400000
  11 -10.447434 -5.965024 31.854739 0.000000 -0.815816 -0.578311 0.627119 0.400000
  11 -10.947435 -5.696867 31.480451 0.000000 -0.815816 -0.578311 0.372881 0.400000
glocktop1.bmp
  11 -10.947435 -5.696867 31.480451 0.000000 -0.815816 -0.578311 0.372881 0.400000
  11 -10.447434 -5.965024 31.854739 0.000000 -0.815816 -0.578311 0.627119 0.400000
  11 -10.947434 -5.965024 31.854739 0.000000 -0.815816 -0.578311 0.372881 0.400000
glocktop1.bmp
  11 -10.447434 -5.824795 32.240013 0.000000 0.197597 0.980283 0.525424 0.400000
  11 -10.947434 -5.824796 32.240013 0.000000 0.197597 0.980283 0.525424 0.400000
  11 -10.447432 -6.957608 32.460771 0.000000 0.197597 0.980283 0.559322 0.700000
glocktop1.bmp
  11 -10.447432 -6.957608 32.460771 0.000000 0.197597 0.980283 0.559322 0.700000
  11 -10.947434 -5.824796 32.240013 0.000000 0.197597 0.980283 0.525424 0.400000
  11 -10.947432 -6.957609 32.460772 0.000000 0.197597 0.980283 0.559322 0.700000
glocktop1.bmp
  11 -10.947434 -5.965024 31.854739 0.000000 -0.215501 -0.976504 0.372881 0.400000
  11 -10.447434 -5.965024 31.854739 0.000000 -0.215501 -0.976504 0.627119 0.400000
  11 -10.947432 -7.097837 32.075498 0.000000 -0.215501 -0.976504 0.372881 0.700000
glocktop1.bmp
  11 -10.947432 -7.097837 32.075498 0.000000 -0.215501 -0.976504 0.372881 0.700000
  11 -10.447434 -5.965024 31.854739 0.000000 -0.215501 -0.976504 0.627119 0.400000
  11 -10.447432 -7.097837 32.075497 0.000000 -0.215501 -0.976504 0.627119 0.700000
glocktop1.bmp
  11 -10.447434 -5.824795 32.240013 0.000000 -0.960636 0.277810 0.525424 0.400000
  11 -10.447433 -5.424562 33.573547 0.000000 -0.960636 0.277810 0.355932 0.500000
  11 -10.947434 -5.824796 32.240013 0.000000 -0.960636 0.277810 0.525424 0.400000
glocktop1.bmp
  11 -10.947434 -5.824796 32.240013 0.000000 -0.960636 0.277810 0.525424 0.400000
  11 -10.447433 -5.424562 33.573547 0.000000 -0.960636 0.277810 0.355932 0.500000
  11 -10.947433 -5.424563 33.573547 0.000000 -0.960636 0.277810 0.355932 0.500000
glocktop1.bmp
  11 -10.817433 -5.790455 32.802170 0.000000 0.936567 0.350488 0.457627 0.500000
  11 -10.817432 -6.058510 33.527599 0.000000 0.936567 0.350488 0.389831 0.500000
  11 -10.557433 -5.790455 32.802170 0.000000 0.936567 0.350488 0.457627 0.400000
glocktop1.bmp
  11 -10.557433 -5.790455 32.802170 0.000000 0.936567 0.350488 0.457627 0.400000
  11 -10.817432 -6.058510 33.527599 0.000000 0.936567 0.350488 0.389831 0.500000
  11 -10.557432 -6.058509 33.527599 0.000000 0.936567 0.350488 0.389831 0.400000
glocktop1.bmp
  11 -10.557433 -5.790455 32.802170 0.000000 -0.732772 -0.680474 0.576271 0.500000
  11 -10.557432 -6.407957 33.473877 0.000000 -0.732772 -0.680474 0.576271 0.600000
  11 -10.817433 -5.790455 32.802170 0.000000 -0.732772 -0.680474 0.440678 0.500000
glocktop1.bmp
  11 -10.817433 -5.790455 32.802170 0.000000 -0.732772 -0.680474 0.440678 0.500000
  11 -10.557432 -6.407957 33.473877 0.000000 -0.732772 -0.680474 0.576271 0.600000
  11 -10.817432 -6.407958 33.473878 0.000000 -0.732772 -0.680474 0.440678 0.600000
glocktop1.bmp
  11 -11.427430 -9.664201 29.614852 0.000000 -0.939700 0.342000 1.000000 1.000000
  11 -9.987430 -9.664199 29.614850 0.000000 -0.939700 0.342000 1.000000 0.000000
  11 -11.427428 -6.958819 37.047819 0.000000 -0.939700 0.342000 0.000000 1.000000
glocktop1.bmp
  11 -11.427428 -6.958819 37.047819 0.000000 -0.939700 0.342000 0.000000 1.000000
  11 -9.987430 -9.664199 29.614850 0.000000 -0.939700 0.342000 1.000000 0.000000
  11 -9.987428 -6.958817 37.047818 0.000000 -0.939700 0.342000 0.000000 0.000000
glocktop1.bmp
  11 -10.247433 -5.544165 33.595795 0.000000 -0.015600 -0.999878 0.728814 0.500000
  11 -10.947433 -5.424563 33.573547 0.000000 -0.215501 -0.976504 0.389831 0.500000
  11 -10.447433 -5.424562 33.573547 0.000000 -0.215501 -0.976504 0.627119 0.500000
glocktop1.bmp
  11 -10.947435 -5.696867 31.480451 0.000000 0.939700 -0.342000 0.610169 0.600000
  11 -10.447435 -5.467712 32.110045 0.000000 0.939700 -0.342000 0.525424 0.300000
  11 -10.447435 -5.696866 31.480451 0.000000 0.939700 -0.342000 0.610169 0.300000
glocktop1.bmp
  11 -10.817432 -6.058510 33.527599 0.000000 0.144795 -0.989462 0.440678 0.600000
  11 -11.497432 -6.598488 33.447449 0.000000 0.144795 -0.989462 0.101695 0.700000
  11 -10.247433 -5.544165 33.595795 0.000000 -0.015600 -0.999878 0.728814 0.500000
glocktop1.bmp
  11 -9.917432 -6.598486 33.447448 0.000000 0.144795 -0.989462 0.898305 0.700000
  11 -10.817432 -6.407958 33.473878 0.000000 0.144795 -0.989462 0.440678 0.600000
  11 -10.557432 -6.407957 33.473877 0.000000 0.144795 -0.989462 0.576271 0.600000
glockfront.bmp
  11 -11.407437 -3.235840 33.096170 0.000000 -0.215501 -0.976504 0.000000 0.067797
  11 -10.007437 -3.235838 33.096169 0.000000 -0.215501 -0.976504 0.842105 0.067797
  11 -10.947434 -5.069172 33.497404 0.000000 -0.215501 -0.976504 0.263158 0.423729
glockfront.bmp
  11 -10.947434 -5.069172 33.497404 0.000000 -0.215501 -0.976504 0.263158 0.423729
  11 -10.007437 -3.235838 33.096169 0.000000 -0.215501 -0.976504 0.842105 0.067797
  11 -10.447434 -5.069172 33.497404 0.000000 -0.215501 -0.976504 0.578947 0.423729
glockfront.bmp
  11 -10.007437 -3.235838 33.096169 0.000000 -0.215501 -0.976504 0.842105 0.067797
  11 -10.247433 -5.544165 33.595795 0.000000 -0.015600 -0.999878 0.684211 0.525424
  11 -10.447434 -5.069172 33.497404 0.000000 -0.215501 -0.976504 0.578947 0.423729
glockfront.bmp
  11 -10.817432 -6.058510 33.527599 0.000000 0.144795 -0.989462 0.368421 0.610169
  11 -10.247433 -5.544165 33.595795 0.000000 -0.015600 -0.999878 0.684211 0.525424
  11 -10.557432 -6.058509 33.527599 0.000000 0.144795 -0.989462 0.526316 0.610169
glockfront.bmp
  11 -10.557432 -6.058509 33.527599 0.000000 0.144795 -0.989462 0.526316 0.610169
  11 -10.247433 -5.544165 33.595795 0.000000 -0.015600 -0.999878 0.684211 0.525424
  11 -10.557432 -6.407957 33.473877 0.000000 0.144795 -0.989462 0.526316 0.661017
glockfront.bmp
  11 -10.247433 -5.544165 33.595795 0.000000 -0.015600 -0.999878 0.684211 0.525424
  11 -9.917432 -6.598486 33.447448 0.000000 0.144795 -0.989462 0.894737 0.694915
  11 -10.557432 -6.407957 33.473877 0.000000 0.144795 -0.989462 0.526316 0.661017
glockfront.bmp
  11 -9.917433 -8.188881 29.077878 0.000000 -0.342000 -0.939700 0.894737 0.694915
  11 -9.987430 -9.664199 29.614850 0.000000 -0.342000 -0.939700 0.842105 1.000000
  11 -11.497433 -8.188884 29.077879 0.000000 -0.342000 -0.939700 0.000000 0.694915
glockfront.bmp
  11 -11.497433 -8.188884 29.077879 0.000000 -0.342000 -0.939700 0.000000 0.694915
  11 -9.987430 -9.664199 29.614850 0.000000 -0.342000 -0.939700 0.842105 1.000000
  11 -11.427430 -9.664201 29.614852 0.000000 -0.342000 -0.939700 0.000000 1.000000
glockfront.bmp
  11 -11.497432 -6.598488 33.447449 0.000000 0.144795 -0.989462 0.000000 0.694915
  11 -11.167433 -5.544167 33.595796 0.000000 -0.127000 -0.991903 0.157895 0.525424
  11 -10.247433 -5.544165 33.595795 0.000000 -0.015600 -0.999878 0.684211 0.525424
glockfront.bmp
  11 -10.247433 -5.544165 33.595795 0.000000 -0.015600 -0.999878 0.684211 0.525424
  11 -11.167433 -5.544167 33.595796 0.000000 -0.127000 -0.991903 0.157895 0.525424
  11 -10.947433 -5.424563 33.573547 0.000000 -0.215501 -0.976504 0.263158 0.491525
glockfront.bmp
  11 -10.007437 -3.235838 33.096169 0.000000 0.364000 -0.931399 0.842105 0.067797
  11 -11.407437 -3.235840 33.096170 0.000000 0.364000 -0.931399 0.000000 0.067797
  11 -10.097438 -2.692405 33.302763 0.000000 0.364000 -0.931399 0.789474 0.000000
glockfront.bmp
  11 -10.097438 -2.692405 33.302763 0.000000 0.364000 -0.931399 0.789474 0.000000
  11 -11.407437 -3.235840 33.096170 0.000000 0.364000 -0.931399 0.000000 0.067797
  11 -11.317438 -2.692407 33.302764 0.000000 0.364000 -0.931399 0.052632 0.000000
glockfront.bmp
  11 -9.917432 -6.598486 33.447448 0.000000 0.144795 -0.989462 0.894737 0.694915
  11 -11.497432 -6.598488 33.447449 0.000000 0.144795 -0.989462 0.000000 0.694915
  11 -10.817432 -6.407958 33.473878 0.000000 0.144795 -0.989462 0.368421 0.661017
glockfront.bmp
  11 -10.817432 -6.407958 33.473878 0.000000 0.144795 -0.989462 0.368421 0.661017
  11 -11.497432 -6.598488 33.447449 0.000000 0.144795 -0.989462 0.000000 0.694915
  11 -10.817432 -6.058510 33.527599 0.000000 0.144795 -0.989462 0.368421 0.610169
glockfront.bmp
  11 -11.407437 -3.235840 33.096170 0.000000 -0.215501 -0.976504 0.000000 0.067797
  11 -10.947434 -5.069172 33.497404 0.000000 -0.215501 -0.976504 0.263158 0.423729
  11 -11.167433 -5.544167 33.595796 0.000000 -0.127000 -0.991903 0.157895 0.525424
end
