version 1
nodes
0 "Origin" -1
1 "bouncer" 0
2 "Border" 1
3 "Cylinder01" 1
end
skeleton
time 0
0  0.000000 0.000000 0.000000  1.570796 -0.000000 -0.349066
1  -0.000000 0.033088 0.000000  -0.000000 -0.000000 0.000000
2  0.000002 29.811850 0.000002  -0.000000 -0.000000 0.000000
3  -0.102435 29.961842 -0.049703  -1.390781 0.300710 0.550943
end
triangles
bullet.BMP
3  0.653706 1.261749 31.965403  0.751359 0.497273 0.433797  0.875000 0.682540
3  0.982796 0.081750 32.155403  0.860991 -0.107672 0.497093  0.937500 0.682540
3  7.642795 0.081748 20.619944  0.860991 0.107673 0.497093  0.937500 0.285714
bullet.BMP
3  7.642795 0.081748 20.619944  0.860991 0.107673 0.497093  0.937500 0.285714
3  0.982796 0.081750 32.155403  0.860991 -0.107672 0.497093  0.937500 0.682540
3  7.313706 -1.098253 20.429943  0.751359 -0.497273 0.433797  0.875000 0.285714
bullet.BMP
3  0.982796 0.081750 32.155403  0.860991 -0.107672 0.497093  0.937500 0.682540
3  0.653707 -1.098250 31.965403  0.641725 -0.671504 0.370501  0.875000 0.682540
3  7.313706 -1.098253 20.429943  0.751359 -0.497273 0.433797  0.875000 0.285714
bullet.BMP
3  7.313706 -1.098253 20.429943  0.751359 -0.497273 0.433797  0.875000 0.285714
3  0.653707 -1.098250 31.965403  0.641725 -0.671504 0.370501  0.875000 0.682540
3  6.447680 -1.828253 19.929943  0.354686 -0.912285 0.204778  0.625000 0.285714
bullet.BMP
3  0.653707 -1.098250 31.965403  0.641725 -0.671504 0.370501  0.875000 0.682540
3  -0.212319 -1.828251 31.465403  0.177379 -0.978800 0.102410  0.625000 0.682540
3  6.447680 -1.828253 19.929943  0.354686 -0.912285 0.204778  0.625000 0.285714
bullet.BMP
3  6.447680 -1.828253 19.929943  0.354686 -0.912285 0.204778  0.625000 0.285714
3  -0.212319 -1.828251 31.465403  0.177379 -0.978800 0.102410  0.625000 0.682540
3  5.373809 -1.828253 19.309944  -0.177378 -0.978800 -0.102409  0.312500 0.285714
bullet.BMP
3  -0.212319 -1.828251 31.465403  0.177379 -0.978800 0.102410  0.625000 0.682540
3  -1.286190 -1.828251 30.845404  -0.354686 -0.912285 -0.204778  0.312500 0.682540
3  5.373809 -1.828253 19.309944  -0.177378 -0.978800 -0.102409  0.312500 0.285714
bullet.BMP
3  5.373809 -1.828253 19.309944  -0.177378 -0.978800 -0.102409  0.312500 0.285714
3  -1.286190 -1.828251 30.845404  -0.354686 -0.912285 -0.204778  0.312500 0.682540
3  4.507783 -1.098254 18.809944  -0.641725 -0.671505 -0.370500  0.062500 0.285714
bullet.BMP
3  -1.286190 -1.828251 30.845404  -0.354686 -0.912285 -0.204778  0.312500 0.682540
3  -2.152216 -1.098252 30.345404  -0.751358 -0.497274 -0.433797  0.062500 0.682540
3  4.507783 -1.098254 18.809944  -0.641725 -0.671505 -0.370500  0.062500 0.285714
bullet.BMP
3  4.507783 -1.098254 18.809944  -0.641725 -0.671505 -0.370500  0.062500 0.285714
3  -2.152216 -1.098252 30.345404  -0.751358 -0.497274 -0.433797  0.062500 0.682540
3  4.178693 0.081746 18.619944  -0.860991 -0.107673 -0.497093  0.000000 0.285714
bullet.BMP
3  -2.152216 -1.098252 30.345404  -0.751358 -0.497274 -0.433797  0.062500 0.682540
3  -2.481306 0.081748 30.155401  -0.860991 0.107672 -0.497093  0.000000 0.682540
3  4.178693 0.081746 18.619944  -0.860991 -0.107673 -0.497093  0.000000 0.285714
bullet.BMP
3  4.178693 0.081746 18.619944  -0.860991 -0.107673 -0.497093  0.000000 0.285714
3  -2.481306 0.081748 30.155401  -0.860991 0.107672 -0.497093  0.000000 0.682540
3  4.507783 1.261746 18.809944  -0.751359 0.497272 -0.433797  0.062500 0.285714
bullet.BMP
3  -2.481306 0.081748 30.155401  -0.860991 0.107672 -0.497093  0.000000 0.682540
3  -2.152216 1.261748 30.345402  -0.641725 0.671504 -0.370500  0.062500 0.682540
3  4.507783 1.261746 18.809944  -0.751359 0.497272 -0.433797  0.062500 0.285714
bullet.BMP
3  4.507783 1.261746 18.809944  -0.751359 0.497272 -0.433797  0.062500 0.285714
3  -2.152216 1.261748 30.345402  -0.641725 0.671504 -0.370500  0.062500 0.682540
3  5.373808 1.991747 19.309942  -0.354686 0.912285 -0.204778  0.312500 0.285714
bullet.BMP
3  -2.152216 1.261748 30.345402  -0.641725 0.671504 -0.370500  0.062500 0.682540
3  -1.286191 1.991749 30.845402  -0.177379 0.978800 -0.102410  0.312500 0.682540
3  5.373808 1.991747 19.309942  -0.354686 0.912285 -0.204778  0.312500 0.285714
bullet.BMP
3  5.373808 1.991747 19.309942  -0.354686 0.912285 -0.204778  0.312500 0.285714
3  -1.286191 1.991749 30.845402  -0.177379 0.978800 -0.102410  0.312500 0.682540
3  6.447680 1.991747 19.929943  0.177379 0.978800 0.102410  0.625000 0.285714
bullet.BMP
3  -1.286191 1.991749 30.845402  -0.177379 0.978800 -0.102410  0.312500 0.682540
3  -0.212319 1.991749 31.465403  0.354686 0.912285 0.204778  0.625000 0.682540
3  6.447680 1.991747 19.929943  0.177379 0.978800 0.102410  0.625000 0.285714
bullet.BMP
3  6.447680 1.991747 19.929943  0.177379 0.978800 0.102410  0.625000 0.285714
3  -0.212319 1.991749 31.465403  0.354686 0.912285 0.204778  0.625000 0.682540
3  7.313705 1.261747 20.429943  0.641725 0.671505 0.370500  0.875000 0.285714
bullet.BMP
3  -0.212319 1.991749 31.465403  0.354686 0.912285 0.204778  0.625000 0.682540
3  0.653706 1.261749 31.965403  0.751359 0.497273 0.433797  0.875000 0.682540
3  7.313705 1.261747 20.429943  0.641725 0.671505 0.370500  0.875000 0.285714
bullet.BMP
3  7.313705 1.261747 20.429943  0.641725 0.671505 0.370500  0.875000 0.285714
3  0.653706 1.261749 31.965403  0.751359 0.497273 0.433797  0.875000 0.682540
3  7.642795 0.081748 20.619944  0.860991 0.107673 0.497093  0.937500 0.285714
bullet.BMP
3  0.982796 0.081750 32.155403  0.676401 0.102924 0.729307  0.937500 0.682540
3  0.653706 1.261749 31.965403  0.466800 0.641924 0.608302  0.875000 0.682540
3  -0.984928 0.841750 33.663601  0.571587 0.475403 0.668790  0.718750 0.746032
bullet.BMP
3  -0.984928 0.841750 33.663601  0.571587 0.475403 0.668790  0.718750 0.746032
3  0.653706 1.261749 31.965403  0.466800 0.641924 0.608302  0.875000 0.682540
3  -1.547845 1.321749 33.338600  0.192407 0.872101 0.449911  0.562500 0.746032
bullet.BMP
3  0.653706 1.261749 31.965403  0.466800 0.641924 0.608302  0.875000 0.682540
3  -0.212319 1.991749 31.465403  0.022895 0.935718 0.352005  0.625000 0.682540
3  -1.547845 1.321749 33.338600  0.192407 0.872101 0.449911  0.562500 0.746032
bullet.BMP
3  -1.547845 1.321749 33.338600  0.192407 0.872101 0.449911  0.562500 0.746032
3  -0.212319 1.991749 31.465403  0.022895 0.935718 0.352005  0.625000 0.682540
3  -2.240665 1.321749 32.938599  -0.316309 0.935708 0.156202  0.375000 0.746032
bullet.BMP
3  -0.212319 1.991749 31.465403  0.022895 0.935718 0.352005  0.625000 0.682540
3  -1.286191 1.991749 30.845402  -0.485806 0.872120 0.058301  0.312500 0.682540
3  -2.240665 1.321749 32.938599  -0.316309 0.935708 0.156202  0.375000 0.746032
bullet.BMP
3  -2.240665 1.321749 32.938599  -0.316309 0.935708 0.156202  0.375000 0.746032
3  -1.286191 1.991749 30.845402  -0.485806 0.872120 0.058301  0.312500 0.682540
3  -2.803582 0.841749 32.613602  -0.760206 0.641924 -0.100102  0.218750 0.746032
bullet.BMP
3  -1.286191 1.991749 30.845402  -0.485806 0.872120 0.058301  0.312500 0.682540
3  -2.152216 1.261748 30.345402  -0.864990 0.475395 -0.160601  0.062500 0.682540
3  -2.803582 0.841749 32.613602  -0.760206 0.641924 -0.100102  0.218750 0.746032
bullet.BMP
3  -2.803582 0.841749 32.613602  -0.760206 0.641924 -0.100102  0.218750 0.746032
3  -2.152216 1.261748 30.345402  -0.864990 0.475395 -0.160601  0.062500 0.682540
3  -3.020088 0.081749 32.488602  -0.969807 0.102904 -0.221101  0.156250 0.746032
bullet.BMP
3  -2.152216 1.261748 30.345402  -0.864990 0.475395 -0.160601  0.062500 0.682540
3  -2.481306 0.081748 30.155401  -0.969804 -0.102924 -0.221105  0.000000 0.682540
3  -3.020088 0.081749 32.488602  -0.969807 0.102904 -0.221101  0.156250 0.746032
bullet.BMP
3  -3.020088 0.081749 32.488602  -0.969807 0.102904 -0.221101  0.156250 0.746032
3  -2.481306 0.081748 30.155401  -0.969804 -0.102924 -0.221105  0.000000 0.682540
3  -2.803581 -0.678251 32.613602  -0.864988 -0.475400 -0.160595  0.218750 0.746032
bullet.BMP
3  -2.481306 0.081748 30.155401  -0.969804 -0.102924 -0.221105  0.000000 0.682540
3  -2.152216 -1.098252 30.345404  -0.760208 -0.641922 -0.100099  0.062500 0.682540
3  -2.803581 -0.678251 32.613602  -0.864988 -0.475400 -0.160595  0.218750 0.746032
bullet.BMP
3  -2.803581 -0.678251 32.613602  -0.864988 -0.475400 -0.160595  0.218750 0.746032
3  -2.152216 -1.098252 30.345404  -0.760208 -0.641922 -0.100099  0.062500 0.682540
3  -2.240665 -1.158251 32.938602  -0.485822 -0.872112 0.058289  0.375000 0.746032
bullet.BMP
3  -2.152216 -1.098252 30.345404  -0.760208 -0.641922 -0.100099  0.062500 0.682540
3  -1.286190 -1.828251 30.845404  -0.316305 -0.935709 0.156203  0.312500 0.682540
3  -2.240665 -1.158251 32.938602  -0.485822 -0.872112 0.058289  0.375000 0.746032
bullet.BMP
3  -2.240665 -1.158251 32.938602  -0.485822 -0.872112 0.058289  0.375000 0.746032
3  -1.286190 -1.828251 30.845404  -0.316305 -0.935709 0.156203  0.312500 0.682540
3  -1.547844 -1.158251 33.338600  0.022896 -0.935717 0.352008  0.562500 0.746032
bullet.BMP
3  -1.286190 -1.828251 30.845404  -0.316305 -0.935709 0.156203  0.312500 0.682540
3  -0.212319 -1.828251 31.465403  0.192396 -0.872111 0.449895  0.625000 0.682540
3  -1.547844 -1.158251 33.338600  0.022896 -0.935717 0.352008  0.562500 0.746032
bullet.BMP
3  -1.547844 -1.158251 33.338600  0.022896 -0.935717 0.352008  0.562500 0.746032
3  -0.212319 -1.828251 31.465403  0.192396 -0.872111 0.449895  0.625000 0.682540
3  -0.984928 -0.678250 33.663601  0.466800 -0.641925 0.608301  0.718750 0.746032
bullet.BMP
3  -0.212319 -1.828251 31.465403  0.192396 -0.872111 0.449895  0.625000 0.682540
3  0.653707 -1.098250 31.965403  0.571593 -0.475399 0.668788  0.875000 0.682540
3  -0.984928 -0.678250 33.663601  0.466800 -0.641925 0.608301  0.718750 0.746032
bullet.BMP
3  -0.984928 -0.678250 33.663601  0.466800 -0.641925 0.608301  0.718750 0.746032
3  0.653707 -1.098250 31.965403  0.571593 -0.475399 0.668788  0.875000 0.682540
3  -0.768422 0.081750 33.788601  0.676406 -0.102905 0.729305  0.781250 0.746032
bullet.BMP
3  0.653707 -1.098250 31.965403  0.571593 -0.475399 0.668788  0.875000 0.682540
3  0.982796 0.081750 32.155403  0.676401 0.102924 0.729307  0.937500 0.682540
3  -0.768422 0.081750 33.788601  0.676406 -0.102905 0.729305  0.781250 0.746032
bullet.BMP
3  -0.768422 0.081750 33.788601  0.676406 -0.102905 0.729305  0.781250 0.746032
3  0.982796 0.081750 32.155403  0.676401 0.102924 0.729307  0.937500 0.682540
3  -0.984928 0.841750 33.663601  0.571587 0.475403 0.668790  0.718750 0.746032
bullet.BMP
3  -0.768422 0.081750 33.788601  0.860986 0.107712 0.497093  0.781250 0.746032
3  -0.984928 0.841750 33.663601  0.641712 0.671512 0.370510  0.718750 0.746032
3  -2.877607 0.861750 36.981815  0.660204 0.585439 0.470523  0.718750 0.865079
bullet.BMP
3  -2.877607 0.861750 36.981815  0.660204 0.585439 0.470523  0.718750 0.865079
3  -0.984928 0.841750 33.663601  0.641712 0.671512 0.370510  0.718750 0.746032
3  -3.449184 1.341750 36.651817  0.229027 0.948024 0.220899  0.562500 0.865079
bullet.BMP
3  -0.984928 0.841750 33.663601  0.641712 0.671512 0.370510  0.718750 0.746032
3  -1.547845 1.321749 33.338600  0.177420 0.978792 0.102409  0.562500 0.746032
3  -3.449184 1.341750 36.651817  0.229027 0.948024 0.220899  0.562500 0.865079
bullet.BMP
3  -3.449184 1.341750 36.651817  0.229027 0.948024 0.220899  0.562500 0.865079
3  -1.547845 1.321749 33.338600  0.177420 0.978792 0.102409  0.562500 0.746032
3  -4.159325 1.341750 36.241817  -0.305243 0.948269 -0.087251  0.375000 0.865079
bullet.BMP
3  -1.547845 1.321749 33.338600  0.177420 0.978792 0.102409  0.562500 0.746032
3  -2.240665 1.321749 32.938599  -0.354708 0.912270 -0.204805  0.375000 0.746032
3  -4.159325 1.341750 36.241817  -0.305243 0.948269 -0.087251  0.375000 0.865079
bullet.BMP
3  -4.159325 1.341750 36.241817  -0.305243 0.948269 -0.087251  0.375000 0.865079
3  -2.240665 1.321749 32.938599  -0.354708 0.912270 -0.204805  0.375000 0.746032
3  -4.730902 0.861750 35.911816  -0.736777 0.586676 -0.336111  0.218750 0.865079
bullet.BMP
3  -2.240665 1.321749 32.938599  -0.354708 0.912270 -0.204805  0.375000 0.746032
3  -2.803582 0.841749 32.613602  -0.751361 0.497290 -0.433773  0.218750 0.746032
3  -4.730902 0.861750 35.911816  -0.736777 0.586676 -0.336111  0.218750 0.865079
bullet.BMP
3  -4.730902 0.861750 35.911816  -0.736777 0.586676 -0.336111  0.218750 0.865079
3  -2.803582 0.841749 32.613602  -0.751361 0.497290 -0.433773  0.218750 0.746032
3  -4.956068 0.081750 35.781818  -0.902129 0.000630 -0.431465  0.156250 0.865079
bullet.BMP
3  -2.803582 0.841749 32.613602  -0.751361 0.497290 -0.433773  0.218750 0.746032
3  -3.020088 0.081749 32.488602  -0.860988 -0.107713 -0.497089  0.156250 0.746032
3  -4.956068 0.081750 35.781818  -0.902129 0.000630 -0.431465  0.156250 0.865079
bullet.BMP
3  -4.956068 0.081750 35.781818  -0.902129 0.000630 -0.431465  0.156250 0.865079
3  -3.020088 0.081749 32.488602  -0.860988 -0.107713 -0.497089  0.156250 0.746032
3  -4.730902 -0.698250 35.911819  -0.737482 -0.585561 -0.336509  0.218750 0.865079
bullet.BMP
3  -3.020088 0.081749 32.488602  -0.860988 -0.107713 -0.497089  0.156250 0.746032
3  -2.803581 -0.678251 32.613602  -0.641711 -0.671513 -0.370510  0.218750 0.746032
3  -4.730902 -0.698250 35.911819  -0.737482 -0.585561 -0.336509  0.218750 0.865079
bullet.BMP
3  -4.730902 -0.698250 35.911819  -0.737482 -0.585561 -0.336509  0.218750 0.865079
3  -2.803581 -0.678251 32.613602  -0.641711 -0.671513 -0.370510  0.218750 0.746032
3  -4.159325 -1.178250 36.241817  -0.306006 -0.948010 -0.087393  0.375000 0.865079
bullet.BMP
3  -2.803581 -0.678251 32.613602  -0.641711 -0.671513 -0.370510  0.218750 0.746032
3  -2.240665 -1.158251 32.938602  -0.177380 -0.978803 -0.102382  0.375000 0.746032
3  -4.159325 -1.178250 36.241817  -0.306006 -0.948010 -0.087393  0.375000 0.865079
bullet.BMP
3  -4.159325 -1.178250 36.241817  -0.306006 -0.948010 -0.087393  0.375000 0.865079
3  -2.240665 -1.158251 32.938602  -0.177380 -0.978803 -0.102382  0.375000 0.746032
3  -3.449184 -1.178250 36.651817  0.227871 -0.948348 0.220703  0.562500 0.865079
bullet.BMP
3  -2.240665 -1.158251 32.938602  -0.177380 -0.978803 -0.102382  0.375000 0.746032
3  -1.547844 -1.158251 33.338600  0.354709 -0.912271 0.204801  0.562500 0.746032
3  -3.449184 -1.178250 36.651817  0.227871 -0.948348 0.220703  0.562500 0.865079
bullet.BMP
3  -3.449184 -1.178250 36.651817  0.227871 -0.948348 0.220703  0.562500 0.865079
3  -1.547844 -1.158251 33.338600  0.354709 -0.912271 0.204801  0.562500 0.746032
3  -2.877607 -0.698250 36.981819  0.659486 -0.586635 0.470040  0.718750 0.865079
bullet.BMP
3  -1.547844 -1.158251 33.338600  0.354709 -0.912271 0.204801  0.562500 0.746032
3  -0.984928 -0.678250 33.663601  0.751360 -0.497288 0.433777  0.718750 0.746032
3  -2.877607 -0.698250 36.981819  0.659486 -0.586635 0.470040  0.718750 0.865079
bullet.BMP
3  -2.877607 -0.698250 36.981819  0.659486 -0.586635 0.470040  0.718750 0.865079
3  -0.984928 -0.678250 33.663601  0.751360 -0.497288 0.433777  0.718750 0.746032
3  -2.652441 0.081750 37.111816  0.824879 -0.000460 0.565309  0.781250 0.865079
bullet.BMP
3  -0.984928 -0.678250 33.663601  0.751360 -0.497288 0.433777  0.718750 0.746032
3  -0.768422 0.081750 33.788601  0.860986 0.107712 0.497093  0.781250 0.746032
3  -2.652441 0.081750 37.111816  0.824879 -0.000460 0.565309  0.781250 0.865079
bullet.BMP
3  -2.652441 0.081750 37.111816  0.824879 -0.000460 0.565309  0.781250 0.865079
3  -0.768422 0.081750 33.788601  0.860986 0.107712 0.497093  0.781250 0.746032
3  -2.877607 0.861750 36.981815  0.660204 0.585439 0.470523  0.718750 0.865079
bullet.BMP
3  -2.652441 0.081750 37.111816  0.824879 -0.000460 0.565309  0.781250 0.865079
3  -2.877607 0.861750 36.981815  0.660204 0.585439 0.470523  0.718750 0.865079
3  -4.272415 0.641751 38.797695  0.581295 0.515102 0.629893  0.656250 0.928571
bullet.BMP
3  -4.272415 0.641751 38.797695  0.581295 0.515102 0.629893  0.656250 0.928571
3  -2.877607 0.861750 36.981815  0.660204 0.585439 0.470523  0.718750 0.865079
3  -4.688107 0.991750 38.557693  0.183704 0.897734 0.400408  0.531250 0.928571
bullet.BMP
3  -2.877607 0.861750 36.981815  0.660204 0.585439 0.470523  0.718750 0.865079
3  -3.449184 1.341750 36.651817  0.229027 0.948024 0.220899  0.562500 0.865079
3  -4.688107 0.991750 38.557693  0.183704 0.897734 0.400408  0.531250 0.928571
bullet.BMP
3  -4.688107 0.991750 38.557693  0.183704 0.897734 0.400408  0.531250 0.928571
3  -3.449184 1.341750 36.651817  0.229027 0.948024 0.220899  0.562500 0.865079
3  -5.190402 0.991750 38.267696  -0.332663 0.937480 0.102310  0.406250 0.928571
bullet.BMP
3  -3.449184 1.341750 36.651817  0.229027 0.948024 0.220899  0.562500 0.865079
3  -4.159325 1.341750 36.241817  -0.305243 0.948269 -0.087251  0.375000 0.865079
3  -5.190402 0.991750 38.267696  -0.332663 0.937480 0.102310  0.406250 0.928571
bullet.BMP
3  -5.190402 0.991750 38.267696  -0.332663 0.937480 0.102310  0.406250 0.928571
3  -4.159325 1.341750 36.241817  -0.305243 0.948269 -0.087251  0.375000 0.865079
3  -5.606094 0.641750 38.027695  -0.770722 0.619118 -0.150603  0.281250 0.928571
bullet.BMP
3  -4.159325 1.341750 36.241817  -0.305243 0.948269 -0.087251  0.375000 0.865079
3  -4.730902 0.861750 35.911816  -0.736777 0.586676 -0.336111  0.218750 0.865079
3  -5.606094 0.641750 38.027695  -0.770722 0.619118 -0.150603  0.281250 0.928571
bullet.BMP
3  -5.606094 0.641750 38.027695  -0.770722 0.619118 -0.150603  0.281250 0.928571
3  -4.730902 0.861750 35.911816  -0.736777 0.586676 -0.336111  0.218750 0.865079
3  -5.770639 0.081750 37.932697  -0.963008 0.064272 -0.261696  0.250000 0.928571
bullet.BMP
3  -4.730902 0.861750 35.911816  -0.736777 0.586676 -0.336111  0.218750 0.865079
3  -4.956068 0.081750 35.781818  -0.902129 0.000630 -0.431465  0.156250 0.865079
3  -5.770639 0.081750 37.932697  -0.963008 0.064272 -0.261696  0.250000 0.928571
bullet.BMP
3  -5.770639 0.081750 37.932697  -0.963008 0.064272 -0.261696  0.250000 0.928571
3  -4.956068 0.081750 35.781818  -0.902129 0.000630 -0.431465  0.156250 0.865079
3  -5.606094 -0.478250 38.027695  -0.836182 -0.515076 -0.188405  0.281250 0.928571
bullet.BMP
3  -4.956068 0.081750 35.781818  -0.902129 0.000630 -0.431465  0.156250 0.865079
3  -4.730902 -0.698250 35.911819  -0.737482 -0.585561 -0.336509  0.218750 0.865079
3  -5.606094 -0.478250 38.027695  -0.836182 -0.515076 -0.188405  0.281250 0.928571
bullet.BMP
3  -5.606094 -0.478250 38.027695  -0.836182 -0.515076 -0.188405  0.281250 0.928571
3  -4.730902 -0.698250 35.911819  -0.737482 -0.585561 -0.336509  0.218750 0.865079
3  -5.190402 -0.828250 38.267696  -0.438609 -0.897738 0.041102  0.406250 0.928571
bullet.BMP
3  -4.730902 -0.698250 35.911819  -0.737482 -0.585561 -0.336509  0.218750 0.865079
3  -4.159325 -1.178250 36.241817  -0.306006 -0.948010 -0.087393  0.375000 0.865079
3  -5.190402 -0.828250 38.267696  -0.438609 -0.897738 0.041102  0.406250 0.928571
bullet.BMP
3  -5.190402 -0.828250 38.267696  -0.438609 -0.897738 0.041102  0.406250 0.928571
3  -4.159325 -1.178250 36.241817  -0.306006 -0.948010 -0.087393  0.375000 0.865079
3  -4.688107 -0.828250 38.557697  0.077785 -0.937467 0.339271  0.531250 0.928571
bullet.BMP
3  -4.159325 -1.178250 36.241817  -0.306006 -0.948010 -0.087393  0.375000 0.865079
3  -3.449184 -1.178250 36.651817  0.227871 -0.948348 0.220703  0.562500 0.865079
3  -4.688107 -0.828250 38.557697  0.077785 -0.937467 0.339271  0.531250 0.928571
bullet.BMP
3  -4.688107 -0.828250 38.557697  0.077785 -0.937467 0.339271  0.531250 0.928571
3  -3.449184 -1.178250 36.651817  0.227871 -0.948348 0.220703  0.562500 0.865079
3  -4.272415 -0.478249 38.797695  0.515824 -0.619114 0.592135  0.656250 0.928571
bullet.BMP
3  -3.449184 -1.178250 36.651817  0.227871 -0.948348 0.220703  0.562500 0.865079
3  -2.877607 -0.698250 36.981819  0.659486 -0.586635 0.470040  0.718750 0.865079
3  -4.272415 -0.478249 38.797695  0.515824 -0.619114 0.592135  0.656250 0.928571
bullet.BMP
3  -4.272415 -0.478249 38.797695  0.515824 -0.619114 0.592135  0.656250 0.928571
3  -2.877607 -0.698250 36.981819  0.659486 -0.586635 0.470040  0.718750 0.865079
3  -4.107870 0.081751 38.892696  0.708085 -0.064291 0.703194  0.687500 0.928571
bullet.BMP
3  -2.877607 -0.698250 36.981819  0.659486 -0.586635 0.470040  0.718750 0.865079
3  -2.652441 0.081750 37.111816  0.824879 -0.000460 0.565309  0.781250 0.865079
3  -4.107870 0.081751 38.892696  0.708085 -0.064291 0.703194  0.687500 0.928571
bullet.BMP
3  -4.107870 0.081751 38.892696  0.708085 -0.064291 0.703194  0.687500 0.928571
3  -2.652441 0.081750 37.111816  0.824879 -0.000460 0.565309  0.781250 0.865079
3  -4.272415 0.641751 38.797695  0.581295 0.515102 0.629893  0.656250 0.928571
bullet.BMP
3  -6.069254 0.081751 40.369911  -0.500000 0.000002 0.866025  0.468750 1.000000
3  -4.107870 0.081751 38.892696  0.708085 -0.064291 0.703194  0.687500 0.928571
3  -4.272415 0.641751 38.797695  0.581295 0.515102 0.629893  0.656250 0.928571
bullet.BMP
3  -6.069254 0.081751 40.369911  -0.500000 0.000002 0.866025  0.468750 1.000000
3  -4.272415 -0.478249 38.797695  0.515824 -0.619114 0.592135  0.656250 0.928571
3  -4.107870 0.081751 38.892696  0.708085 -0.064291 0.703194  0.687500 0.928571
bullet.BMP
3  -6.069254 0.081751 40.369911  -0.500000 0.000002 0.866025  0.468750 1.000000
3  -4.688107 -0.828250 38.557697  0.077785 -0.937467 0.339271  0.531250 0.928571
3  -4.272415 -0.478249 38.797695  0.515824 -0.619114 0.592135  0.656250 0.928571
bullet.BMP
3  -6.069254 0.081751 40.369911  -0.500000 0.000002 0.866025  0.468750 1.000000
3  -5.190402 -0.828250 38.267696  -0.438609 -0.897738 0.041102  0.406250 0.928571
3  -4.688107 -0.828250 38.557697  0.077785 -0.937467 0.339271  0.531250 0.928571
bullet.BMP
3  -6.069254 0.081751 40.369911  -0.500000 0.000002 0.866025  0.468750 1.000000
3  -5.606094 -0.478250 38.027695  -0.836182 -0.515076 -0.188405  0.281250 0.928571
3  -5.190402 -0.828250 38.267696  -0.438609 -0.897738 0.041102  0.406250 0.928571
bullet.BMP
3  -6.069254 0.081751 40.369911  -0.500000 0.000002 0.866025  0.468750 1.000000
3  -5.770639 0.081750 37.932697  -0.963008 0.064272 -0.261696  0.250000 0.928571
3  -5.606094 -0.478250 38.027695  -0.836182 -0.515076 -0.188405  0.281250 0.928571
bullet.BMP
3  -6.069254 0.081751 40.369911  -0.500000 0.000002 0.866025  0.468750 1.000000
3  -5.606094 0.641750 38.027695  -0.770722 0.619118 -0.150603  0.281250 0.928571
3  -5.770639 0.081750 37.932697  -0.963008 0.064272 -0.261696  0.250000 0.928571
bullet.BMP
3  -6.069254 0.081751 40.369911  -0.500000 0.000002 0.866025  0.468750 1.000000
3  -5.190402 0.991750 38.267696  -0.332663 0.937480 0.102310  0.406250 0.928571
3  -5.606094 0.641750 38.027695  -0.770722 0.619118 -0.150603  0.281250 0.928571
bullet.BMP
3  -6.069254 0.081751 40.369911  -0.500000 0.000002 0.866025  0.468750 1.000000
3  -4.688107 0.991750 38.557693  0.183704 0.897734 0.400408  0.531250 0.928571
3  -5.190402 0.991750 38.267696  -0.332663 0.937480 0.102310  0.406250 0.928571
bullet.BMP
3  -6.069254 0.081751 40.369911  -0.500000 0.000002 0.866025  0.468750 1.000000
3  -4.272415 0.641751 38.797695  0.581295 0.515102 0.629893  0.656250 0.928571
3  -4.688107 0.991750 38.557693  0.183704 0.897734 0.400408  0.531250 0.928571
bullet.BMP
3  4.178693 0.081746 18.619944  0.500000 -0.000000 -0.866025  0.000000 0.126984
3  5.373809 -1.828253 19.309944  0.500001 -0.000001 -0.866025  0.312500 0.007937
3  4.507783 -1.098254 18.809944  0.499999 -0.000001 -0.866026  0.062500 0.047619
bullet.BMP
3  4.178693 0.081746 18.619944  0.500000 -0.000000 -0.866025  0.000000 0.126984
3  6.447680 -1.828253 19.929943  0.500000 -0.000000 -0.866025  0.625000 0.007937
3  5.373809 -1.828253 19.309944  0.500001 -0.000001 -0.866025  0.312500 0.007937
bullet.BMP
3  4.178693 0.081746 18.619944  0.500000 -0.000000 -0.866025  0.000000 0.126984
3  7.313706 -1.098253 20.429943  0.500000 0.000001 -0.866026  0.875000 0.047619
3  6.447680 -1.828253 19.929943  0.500000 -0.000000 -0.866025  0.625000 0.007937
bullet.BMP
3  4.178693 0.081746 18.619944  0.500000 -0.000000 -0.866025  0.000000 0.126984
3  7.642795 0.081748 20.619944  0.500000 0.000000 -0.866025  0.937500 0.126984
3  7.313706 -1.098253 20.429943  0.500000 0.000001 -0.866026  0.875000 0.047619
bullet.BMP
3  4.178693 0.081746 18.619944  0.500000 -0.000000 -0.866025  0.000000 0.126984
3  7.313705 1.261747 20.429943  0.500000 -0.000000 -0.866025  0.875000 0.198413
3  7.642795 0.081748 20.619944  0.500000 0.000000 -0.866025  0.937500 0.126984
bullet.BMP
3  4.178693 0.081746 18.619944  0.500000 -0.000000 -0.866025  0.000000 0.126984
3  6.447680 1.991747 19.929943  0.500000 -0.000001 -0.866025  0.625000 0.246032
3  7.313705 1.261747 20.429943  0.500000 -0.000000 -0.866025  0.875000 0.198413
bullet.BMP
3  4.178693 0.081746 18.619944  0.500000 -0.000000 -0.866025  0.000000 0.126984
3  5.373808 1.991747 19.309942  0.500001 -0.000000 -0.866025  0.312500 0.246032
3  6.447680 1.991747 19.929943  0.500000 -0.000001 -0.866025  0.625000 0.246032
bullet.BMP
3  4.178693 0.081746 18.619944  0.500000 -0.000000 -0.866025  0.000000 0.126984
3  4.507783 1.261746 18.809944  0.500000 0.000001 -0.866025  0.062500 0.198413
3  5.373808 1.991747 19.309942  0.500001 -0.000000 -0.866025  0.312500 0.246032
end
