version 1
nodes
0 "Origin" -1
1 "bouncer" 0
2 "Border" 1
3 "Cylinder01" 1
end
skeleton
time 0
0  0.000000 0.000000 0.000000  1.570796 -0.000000 -0.349066
1  -0.000000 0.033088 0.000000  -0.000000 -0.000000 0.000000
2  0.000002 29.811850 0.000002  -0.000000 -0.000000 0.000000
3  -0.102435 29.961842 -0.049703  -1.390781 0.300710 0.550943
end
triangles
PLAYER_Chrome1.bmp
2  -0.273610 -0.751742 46.784939  -0.134712 -0.409107 0.902488  0.000000 0.015625
2  6.452515 -1.539736 45.454937  0.462313 0.280108 0.841312  0.000000 0.015625
2  0.259941 0.714178 46.784935  0.132217 0.400309 0.906792  0.000000 0.015625
PLAYER_Chrome1.bmp
2  0.259941 0.714178 46.784935  0.132217 0.400309 0.906792  0.000000 0.015625
2  6.452515 -1.539736 45.454937  0.462313 0.280108 0.841312  0.000000 0.015625
2  6.290487 -0.523003 44.264935  0.292390 0.955871 0.028591  0.000000 0.015625
PLAYER_Chrome1.bmp
2  6.452515 -1.539736 45.454937  0.462313 0.280108 0.841312  0.000000 0.015625
2  10.960759 -2.222845 40.904938  0.292417 0.955863 0.028595  0.000000 0.015625
2  6.290487 -0.523003 44.264935  0.292390 0.955871 0.028591  0.000000 0.015625
PLAYER_Chrome1.bmp
2  6.290487 -0.523003 44.264935  0.292390 0.955871 0.028591  0.000000 0.015625
2  10.960759 -2.222845 40.904938  0.292417 0.955863 0.028595  0.000000 0.015625
2  9.815751 -2.795781 40.024937  -0.450507 0.612106 -0.649900  0.000000 0.015625
PLAYER_Chrome1.bmp
2  10.960759 -2.222845 40.904938  0.292417 0.955863 0.028595  0.000000 0.015625
2  12.719400 -3.852625 35.444935  -0.637473 0.680304 -0.361682  0.000000 0.015625
2  9.815751 -2.795781 40.024937  -0.450507 0.612106 -0.649900  0.000000 0.015625
PLAYER_Chrome1.bmp
2  9.815751 -2.795781 40.024937  -0.450507 0.612106 -0.649900  0.000000 0.015625
2  12.719400 -3.852625 35.444935  -0.637473 0.680304 -0.361682  0.000000 0.015625
2  12.206370 -5.262164 35.444935  -0.934287 -0.118090 -0.336397  0.000000 0.015625
PLAYER_Chrome1.bmp
2  12.719400 -3.852625 35.444935  -0.637473 0.680304 -0.361682  0.000000 0.015625
2  13.277618 -5.652068 29.844936  -0.995302 -0.095899 0.013301  0.000000 0.015625
2  12.206370 -5.262164 35.444935  -0.934287 -0.118090 -0.336397  0.000000 0.015625
PLAYER_Chrome1.bmp
2  12.206370 -5.262164 35.444935  -0.934287 -0.118090 -0.336397  0.000000 0.015625
2  13.277618 -5.652068 29.844936  -0.995302 -0.095899 0.013301  0.000000 0.015625
2  14.138439 -6.912500 29.844936  -0.335497 -0.940231 -0.058375  0.000000 0.015625
PLAYER_Chrome1.bmp
2  13.277618 -5.652068 29.844936  -0.995302 -0.095899 0.013301  0.000000 0.015625
2  12.982617 -6.491817 23.754936  -0.376574 -0.925274 -0.045386  0.000000 0.015625
2  14.138439 -6.912500 29.844936  -0.335497 -0.940231 -0.058375  0.000000 0.015625
PLAYER_Chrome1.bmp
2  14.138439 -6.912500 29.844936  -0.335497 -0.940231 -0.058375  0.000000 0.015625
2  12.982617 -6.491817 23.754936  -0.376574 -0.925274 -0.045386  0.000000 0.015625
2  14.394988 -6.090685 23.254936  0.630365 -0.687477 -0.360577  0.000000 0.015625
PLAYER_Chrome1.bmp
2  12.982617 -6.491817 23.754936  -0.376574 -0.925274 -0.045386  0.000000 0.015625
2  10.974507 -4.845733 17.874935  0.444105 -0.619481 -0.647312  0.000000 0.015625
2  14.394988 -6.090685 23.254936  0.630365 -0.687477 -0.360577  0.000000 0.015625
PLAYER_Chrome1.bmp
2  14.394988 -6.090685 23.254936  0.630365 -0.687477 -0.360577  0.000000 0.015625
2  10.974507 -4.845733 17.874935  0.444105 -0.619481 -0.647312  0.000000 0.015625
2  11.508059 -3.379813 17.874935  0.754766 0.173385 -0.632666  0.000000 0.015625
PLAYER_Chrome1.bmp
2  10.974507 -4.845733 17.874935  0.444105 -0.619481 -0.647312  0.000000 0.015625
2  6.452512 -1.539745 14.234936  0.484000 0.272075 -0.831696  0.000000 0.015625
2  11.508059 -3.379813 17.874935  0.754766 0.173385 -0.632666  0.000000 0.015625
PLAYER_Chrome1.bmp
2  11.508059 -3.379813 17.874935  0.754766 0.173385 -0.632666  0.000000 0.015625
2  6.452512 -1.539745 14.234936  0.484000 0.272075 -0.831696  0.000000 0.015625
2  6.290484 -0.523011 15.424936  0.397196 0.917584 0.016594  0.000000 0.015625
PLAYER_Chrome1.bmp
2  6.452512 -1.539745 14.234936  0.484000 0.272075 -0.831696  0.000000 0.015625
2  0.567756 1.559892 14.194936  0.397207 0.917578 0.016619  0.000000 0.015625
2  6.290484 -0.523011 15.424936  0.397196 0.917584 0.016594  0.000000 0.015625
PLAYER_Chrome1.bmp
2  6.290484 -0.523011 15.424936  0.397196 0.917584 0.016594  0.000000 0.015625
2  0.567756 1.559892 14.194936  0.397207 0.917578 0.016619  0.000000 0.015625
2  0.249677 0.685978 15.434936  0.132217 0.400317 0.906788  0.000000 0.015625
PLAYER_Chrome1.bmp
2  0.567756 1.559892 14.194936  0.397207 0.917578 0.016619  0.000000 0.015625
2  -5.012601 2.601292 16.574936  0.462310 0.280112 0.841312  0.000000 0.015625
2  0.249677 0.685978 15.434936  0.132217 0.400317 0.906788  0.000000 0.015625
PLAYER_Chrome1.bmp
2  0.249677 0.685978 15.434936  0.132217 0.400317 0.906788  0.000000 0.015625
2  -5.012601 2.601292 16.574936  0.462310 0.280112 0.841312  0.000000 0.015625
2  -5.525631 1.191753 16.574936  0.191694 -0.527778 0.827468  0.000000 0.015625
PLAYER_Chrome1.bmp
2  -5.012601 2.601292 16.574936  0.462310 0.280112 0.841312  0.000000 0.015625
2  -9.829423 2.758207 19.664936  0.461093 -0.625708 0.629192  0.000000 0.015625
2  -5.525631 1.191753 16.574936  0.191694 -0.527778 0.827468  0.000000 0.015625
PLAYER_Chrome1.bmp
2  -5.525631 1.191753 16.574936  0.191694 -0.527778 0.827468  0.000000 0.015625
2  -9.829423 2.758207 19.664936  0.461093 -0.625708 0.629192  0.000000 0.015625
2  -10.960751 2.222858 18.784937  -0.347311 -0.935929 0.058411  0.000000 0.015625
PLAYER_Chrome1.bmp
2  -9.829423 2.758207 19.664936  0.461093 -0.625708 0.629192  0.000000 0.015625
2  -14.118117 3.372048 23.754936  -0.347314 -0.935928 0.058405  0.000000 0.015625
2  -10.960751 2.222858 18.784937  -0.347311 -0.935929 0.058411  0.000000 0.015625
PLAYER_Chrome1.bmp
2  -10.960751 2.222858 18.784937  -0.347311 -0.935929 0.058411  0.000000 0.015625
2  -14.118117 3.372048 23.754936  -0.347314 -0.935928 0.058405  0.000000 0.015625
2  -14.942214 4.587187 23.254936  -0.934292 -0.118075 -0.336387  0.000000 0.015625
PLAYER_Chrome1.bmp
2  -14.118117 3.372048 23.754936  -0.347314 -0.935928 0.058405  0.000000 0.015625
2  -16.192005 5.042076 29.844936  -0.995301 -0.095917 0.013290  0.000000 0.015625
2  -14.942214 4.587187 23.254936  -0.934292 -0.118075 -0.336387  0.000000 0.015625
PLAYER_Chrome1.bmp
2  -14.942214 4.587187 23.254936  -0.934292 -0.118075 -0.336387  0.000000 0.015625
2  -16.192005 5.042076 29.844936  -0.995301 -0.095917 0.013290  0.000000 0.015625
2  -15.658453 6.507997 29.844936  -0.708012 0.706086 -0.012711  0.000000 0.015625
PLAYER_Chrome1.bmp
2  -16.192005 5.042076 29.844936  -0.995301 -0.095917 0.013290  0.000000 0.015625
2  -14.408661 6.053112 36.434937  -0.646512 0.683658 0.338576  0.000000 0.015625
2  -15.658453 6.507997 29.844936  -0.708012 0.706086 -0.012711  0.000000 0.015625
PLAYER_Chrome1.bmp
2  -15.658453 6.507997 29.844936  -0.708012 0.706086 -0.012711  0.000000 0.015625
2  -14.408661 6.053112 36.434937  -0.646512 0.683658 0.338576  0.000000 0.015625
2  -12.982609 6.491831 35.934937  0.314517 0.947820 -0.052121  0.000000 0.015625
PLAYER_Chrome1.bmp
2  -14.408661 6.053112 36.434937  -0.646512 0.683658 0.338576  0.000000 0.015625
2  -9.825241 5.342644 40.904938  0.314506 0.947825 -0.052091  0.000000 0.015625
2  -12.982609 6.491831 35.934937  0.314517 0.947820 -0.052121  0.000000 0.015625
PLAYER_Chrome1.bmp
2  -12.982609 6.491831 35.934937  0.314517 0.947820 -0.052121  0.000000 0.015625
2  -9.825241 5.342644 40.904938  0.314506 0.947825 -0.052091  0.000000 0.015625
2  -9.316391 4.167752 40.024937  0.754761 0.173384 -0.632672  0.000000 0.015625
PLAYER_Chrome1.bmp
2  -9.825241 5.342644 40.904938  0.314506 0.947825 -0.052091  0.000000 0.015625
2  -5.012598 2.601300 43.114937  0.483995 0.272086 -0.831696  0.000000 0.015625
2  -9.316391 4.167752 40.024937  0.754761 0.173384 -0.632672  0.000000 0.015625
PLAYER_Chrome1.bmp
2  -9.316391 4.167752 40.024937  0.754761 0.173384 -0.632672  0.000000 0.015625
2  -5.012598 2.601300 43.114937  0.483995 0.272086 -0.831696  0.000000 0.015625
2  -5.525628 1.191761 43.114937  0.168789 -0.519593 -0.837576  0.000000 0.015625
PLAYER_Chrome1.bmp
2  -5.012598 2.601300 43.114937  0.483995 0.272086 -0.831696  0.000000 0.015625
2  -0.263350 -0.723552 44.254936  -0.159699 -0.399977 -0.902505  0.000000 0.015625
2  -5.525628 1.191761 43.114937  0.168789 -0.519593 -0.837576  0.000000 0.015625
PLAYER_Chrome1.bmp
2  -5.525628 1.191761 43.114937  0.168789 -0.519593 -0.837576  0.000000 0.015625
2  -0.263350 -0.723552 44.254936  -0.159699 -0.399977 -0.902505  0.000000 0.015625
2  -0.567748 -1.559878 45.494938  -0.298798 -0.953583 -0.037401  0.000000 0.015625
PLAYER_Chrome1.bmp
2  0.259941 0.714178 46.784935  0.132217 0.400309 0.906792  0.000000 0.015625
2  -6.466185 1.502171 45.454937  -0.463280 -0.289482 0.837599  0.000000 0.015625
2  -0.273610 -0.751742 46.784939  -0.134712 -0.409107 0.902488  0.000000 0.015625
PLAYER_Chrome1.bmp
2  -0.273610 -0.751742 46.784939  -0.134712 -0.409107 0.902488  0.000000 0.015625
2  -6.466185 1.502171 45.454937  -0.463280 -0.289482 0.837599  0.000000 0.015625
2  -6.290476 0.523025 44.264938  -0.286470 -0.958069 0.006293  0.000000 0.015625
PLAYER_Chrome1.bmp
2  -6.466185 1.502171 45.454937  -0.463280 -0.289482 0.837599  0.000000 0.015625
2  -10.960749 2.222865 40.904938  -0.286472 -0.958068 0.006304  0.000000 0.015625
2  -6.290476 0.523025 44.264938  -0.286470 -0.958069 0.006293  0.000000 0.015625
PLAYER_Chrome1.bmp
2  -6.290476 0.523025 44.264938  -0.286470 -0.958069 0.006293  0.000000 0.015625
2  -10.960749 2.222865 40.904938  -0.286472 -0.958068 0.006304  0.000000 0.015625
2  -9.829421 2.758213 40.024937  0.444108 -0.619478 -0.647313  0.000000 0.015625
PLAYER_Chrome1.bmp
2  -10.960749 2.222865 40.904938  -0.286472 -0.958068 0.006304  0.000000 0.015625
2  -12.733072 3.815054 35.444935  0.630363 -0.687478 -0.360578  0.000000 0.015625
2  -9.829421 2.758213 40.024937  0.444108 -0.619478 -0.647313  0.000000 0.015625
PLAYER_Chrome1.bmp
2  -9.829421 2.758213 40.024937  0.444108 -0.619478 -0.647313  0.000000 0.015625
2  -12.733072 3.815054 35.444935  0.630363 -0.687478 -0.360578  0.000000 0.015625
2  -12.220041 5.224593 35.444935  0.934692 0.108186 -0.338595  0.000000 0.015625
PLAYER_Chrome1.bmp
2  -12.733072 3.815054 35.444935  0.630363 -0.687478 -0.360578  0.000000 0.015625
2  -13.291291 5.614495 29.844936  0.996232 0.085797 0.012697  0.000000 0.015625
2  -12.220041 5.224593 35.444935  0.934692 0.108186 -0.338595  0.000000 0.015625
PLAYER_Chrome1.bmp
2  -12.220041 5.224593 35.444935  0.934692 0.108186 -0.338595  0.000000 0.015625
2  -13.291291 5.614495 29.844936  0.996232 0.085797 0.012697  0.000000 0.015625
2  -14.138431 6.912514 29.844936  0.356998 0.932214 -0.059407  0.000000 0.015625
PLAYER_Chrome1.bmp
2  -13.291291 5.614495 29.844936  0.996232 0.085797 0.012697  0.000000 0.015625
2  -12.982610 6.491827 23.754936  0.357023 0.932204 -0.059406  0.000000 0.015625
2  -14.138431 6.912514 29.844936  0.356998 0.932214 -0.059407  0.000000 0.015625
PLAYER_Chrome1.bmp
2  -14.138431 6.912514 29.844936  0.356998 0.932214 -0.059407  0.000000 0.015625
2  -12.982610 6.491827 23.754936  0.357023 0.932204 -0.059406  0.000000 0.015625
2  -14.408662 6.053108 23.254936  -0.637485 0.680289 -0.361689  0.000000 0.015625
PLAYER_Chrome1.bmp
2  -12.982610 6.491827 23.754936  0.357023 0.932204 -0.059406  0.000000 0.015625
2  -10.988182 4.808152 17.874935  -0.450502 0.612107 -0.649903  0.000000 0.015625
2  -14.408662 6.053108 23.254936  -0.637485 0.680289 -0.361689  0.000000 0.015625
PLAYER_Chrome1.bmp
2  -14.408662 6.053108 23.254936  -0.637485 0.680289 -0.361689  0.000000 0.015625
2  -10.988182 4.808152 17.874935  -0.450502 0.612107 -0.649903  0.000000 0.015625
2  -11.521734 3.342232 17.874935  -0.755415 -0.182885 -0.629207  0.000000 0.015625
PLAYER_Chrome1.bmp
2  -10.988182 4.808152 17.874935  -0.450502 0.612107 -0.649903  0.000000 0.015625
2  -6.466188 1.502162 14.234937  -0.486083 -0.281089 -0.827473  0.000000 0.015625
2  -11.521734 3.342232 17.874935  -0.755415 -0.182885 -0.629207  0.000000 0.015625
PLAYER_Chrome1.bmp
2  -11.521734 3.342232 17.874935  -0.755415 -0.182885 -0.629207  0.000000 0.015625
2  -6.466188 1.502162 14.234937  -0.486083 -0.281089 -0.827473  0.000000 0.015625
2  -6.290479 0.523017 15.424937  -0.384102 -0.922533 0.037394  0.000000 0.015625
PLAYER_Chrome1.bmp
2  -6.466188 1.502162 14.234937  -0.486083 -0.281089 -0.827473  0.000000 0.015625
2  -0.567751 -1.559887 14.194937  -0.384097 -0.922536 0.037380  0.000000 0.015625
2  -6.290479 0.523017 15.424937  -0.384102 -0.922533 0.037394  0.000000 0.015625
PLAYER_Chrome1.bmp
2  -6.290479 0.523017 15.424937  -0.384102 -0.922533 0.037394  0.000000 0.015625
2  -0.567751 -1.559887 14.194937  -0.384097 -0.922536 0.037380  0.000000 0.015625
2  -0.263353 -0.723561 15.434937  -0.134692 -0.409096 0.902496  0.000000 0.015625
PLAYER_Chrome1.bmp
2  -0.567751 -1.559887 14.194937  -0.384097 -0.922536 0.037380  0.000000 0.015625
2  4.998925 -2.638874 16.574936  -0.463290 -0.289482 0.837593  0.000000 0.015625
2  -0.263353 -0.723561 15.434937  -0.134692 -0.409096 0.902496  0.000000 0.015625
PLAYER_Chrome1.bmp
2  -0.263353 -0.723561 15.434937  -0.134692 -0.409096 0.902496  0.000000 0.015625
2  4.998925 -2.638874 16.574936  -0.463290 -0.289482 0.837593  0.000000 0.015625
2  5.511956 -1.229335 16.574936  -0.195787 0.519598 0.831677  0.000000 0.015625
PLAYER_Chrome1.bmp
2  4.998925 -2.638874 16.574936  -0.463290 -0.289482 0.837593  0.000000 0.015625
2  9.815748 -2.795787 19.664936  -0.466680 0.617993 0.632688  0.000000 0.015625
2  5.511956 -1.229335 16.574936  -0.195787 0.519598 0.831677  0.000000 0.015625
PLAYER_Chrome1.bmp
2  5.511956 -1.229335 16.574936  -0.195787 0.519598 0.831677  0.000000 0.015625
2  9.815748 -2.795787 19.664936  -0.466680 0.617993 0.632688  0.000000 0.015625
2  10.960757 -2.222851 18.784935  0.368323 0.928238 0.052090  0.000000 0.015625
PLAYER_Chrome1.bmp
2  9.815748 -2.795787 19.664936  -0.466680 0.617993 0.632688  0.000000 0.015625
2  14.118124 -3.372038 23.754936  0.325785 0.943576 0.059396  0.000000 0.015625
2  10.960757 -2.222851 18.784935  0.368323 0.928238 0.052090  0.000000 0.015625
PLAYER_Chrome1.bmp
2  10.960757 -2.222851 18.784935  0.368323 0.928238 0.052090  0.000000 0.015625
2  14.118124 -3.372038 23.754936  0.325785 0.943576 0.059396  0.000000 0.015625
2  14.928540 -4.624765 23.254936  0.934690 0.108195 -0.338596  0.000000 0.015625
PLAYER_Chrome1.bmp
2  14.118124 -3.372038 23.754936  0.325785 0.943576 0.059396  0.000000 0.015625
2  16.178331 -5.079650 29.844936  0.996232 0.085791 0.012708  0.000000 0.015625
2  14.928540 -4.624765 23.254936  0.934690 0.108195 -0.338596  0.000000 0.015625
PLAYER_Chrome1.bmp
2  14.928540 -4.624765 23.254936  0.934690 0.108195 -0.338596  0.000000 0.015625
2  16.178331 -5.079650 29.844936  0.996232 0.085791 0.012708  0.000000 0.015625
2  15.644781 -6.545571 29.844936  0.700829 -0.713205 -0.013312  0.000000 0.015625
PLAYER_Chrome1.bmp
2  16.178331 -5.079650 29.844936  0.996232 0.085791 0.012708  0.000000 0.015625
2  14.394989 -6.090682 36.434937  0.639814 -0.690995 0.336399  0.000000 0.015625
2  15.644781 -6.545571 29.844936  0.700829 -0.713205 -0.013312  0.000000 0.015625
PLAYER_Chrome1.bmp
2  15.644781 -6.545571 29.844936  0.700829 -0.713205 -0.013312  0.000000 0.015625
2  14.394989 -6.090682 36.434937  0.639814 -0.690995 0.336399  0.000000 0.015625
2  12.982618 -6.491813 35.934937  -0.335520 -0.940220 -0.058420  0.000000 0.015625
PLAYER_Chrome1.bmp
2  14.394989 -6.090682 36.434937  0.639814 -0.690995 0.336399  0.000000 0.015625
2  9.825252 -5.342624 40.904938  -0.335507 -0.940224 -0.058424  0.000000 0.015625
2  12.982618 -6.491813 35.934937  -0.335520 -0.940220 -0.058420  0.000000 0.015625
PLAYER_Chrome1.bmp
2  12.982618 -6.491813 35.934937  -0.335520 -0.940220 -0.058420  0.000000 0.015625
2  9.825252 -5.342624 40.904938  -0.335507 -0.940224 -0.058424  0.000000 0.015625
2  9.302720 -4.205320 40.024937  -0.755414 -0.182885 -0.629208  0.000000 0.015625
PLAYER_Chrome1.bmp
2  9.825252 -5.342624 40.904938  -0.335507 -0.940224 -0.058424  0.000000 0.015625
2  4.998928 -2.638866 43.114937  -0.486087 -0.281085 -0.827472  0.000000 0.015625
2  9.302720 -4.205320 40.024937  -0.755414 -0.182885 -0.629208  0.000000 0.015625
PLAYER_Chrome1.bmp
2  9.302720 -4.205320 40.024937  -0.755414 -0.182885 -0.629208  0.000000 0.015625
2  4.998928 -2.638866 43.114937  -0.486087 -0.281085 -0.827472  0.000000 0.015625
2  5.511959 -1.229327 43.114937  -0.174112 0.511703 -0.841335  0.000000 0.015625
PLAYER_Chrome1.bmp
2  4.998928 -2.638866 43.114937  -0.486087 -0.281085 -0.827472  0.000000 0.015625
2  0.249680 0.685987 44.254936  0.156000 0.391607 -0.906812  0.000000 0.015625
2  5.511959 -1.229327 43.114937  -0.174112 0.511703 -0.841335  0.000000 0.015625
PLAYER_Chrome1.bmp
2  5.511959 -1.229327 43.114937  -0.174112 0.511703 -0.841335  0.000000 0.015625
2  0.249680 0.685987 44.254936  0.156000 0.391607 -0.906812  0.000000 0.015625
2  0.567759 1.559901 45.494934  0.285593 0.958207 -0.016600  0.000000 0.015625
PLAYER_Chrome1.bmp
2  -0.263350 -0.723552 44.254936  -0.159699 -0.399977 -0.902505  0.000000 0.015625
2  -5.012598 2.601300 43.114937  0.483995 0.272086 -0.831696  0.000000 0.015625
2  0.249680 0.685987 44.254936  0.156000 0.391607 -0.906812  0.000000 0.015625
PLAYER_Chrome1.bmp
2  0.249680 0.685987 44.254936  0.156000 0.391607 -0.906812  0.000000 0.015625
2  -5.012598 2.601300 43.114937  0.483995 0.272086 -0.831696  0.000000 0.015625
2  -5.154969 3.642804 44.264935  0.285588 0.958208 -0.016620  0.000000 0.015625
PLAYER_Chrome1.bmp
2  -5.012598 2.601300 43.114937  0.483995 0.272086 -0.831696  0.000000 0.015625
2  -9.825241 5.342644 40.904938  0.314506 0.947825 -0.052091  0.000000 0.015625
2  -5.154969 3.642804 44.264935  0.285588 0.958208 -0.016620  0.000000 0.015625
PLAYER_Chrome1.bmp
2  -5.154969 3.642804 44.264935  0.285588 0.958208 -0.016620  0.000000 0.015625
2  -9.825241 5.342644 40.904938  0.314506 0.947825 -0.052091  0.000000 0.015625
2  -10.988180 4.808160 41.814938  -0.466680 0.617994 0.632687  0.000000 0.015625
PLAYER_Chrome1.bmp
2  -9.825241 5.342644 40.904938  0.314506 0.947825 -0.052091  0.000000 0.015625
2  -14.408661 6.053112 36.434937  -0.646512 0.683658 0.338576  0.000000 0.015625
2  -10.988180 4.808160 41.814938  -0.466680 0.617994 0.632687  0.000000 0.015625
PLAYER_Chrome1.bmp
2  -10.988180 4.808160 41.814938  -0.466680 0.617994 0.632687  0.000000 0.015625
2  -14.408661 6.053112 36.434937  -0.646512 0.683658 0.338576  0.000000 0.015625
2  -14.942212 4.587191 36.434937  -0.924787 -0.121391 0.360601  0.000000 0.015625
PLAYER_Chrome1.bmp
2  -14.408661 6.053112 36.434937  -0.646512 0.683658 0.338576  0.000000 0.015625
2  -16.192005 5.042076 29.844936  -0.995301 -0.095917 0.013290  0.000000 0.015625
2  -14.942212 4.587191 36.434937  -0.924787 -0.121391 0.360601  0.000000 0.015625
PLAYER_Chrome1.bmp
2  -14.942212 4.587191 36.434937  -0.924787 -0.121391 0.360601  0.000000 0.015625
2  -16.192005 5.042076 29.844936  -0.995301 -0.095917 0.013290  0.000000 0.015625
2  -15.273938 3.792734 29.844936  -0.306298 -0.950853 0.045399  0.000000 0.015625
PLAYER_Chrome1.bmp
2  -16.192005 5.042076 29.844936  -0.995301 -0.095917 0.013290  0.000000 0.015625
2  -14.118117 3.372048 23.754936  -0.347314 -0.935928 0.058405  0.000000 0.015625
2  -15.273938 3.792734 29.844936  -0.306298 -0.950853 0.045399  0.000000 0.015625
PLAYER_Chrome1.bmp
2  -15.273938 3.792734 29.844936  -0.306298 -0.950853 0.045399  0.000000 0.015625
2  -14.118117 3.372048 23.754936  -0.347314 -0.935928 0.058405  0.000000 0.015625
2  -12.733073 3.815051 24.244938  0.639798 -0.691008 0.336402  0.000000 0.015625
PLAYER_Chrome1.bmp
2  -14.118117 3.372048 23.754936  -0.347314 -0.935928 0.058405  0.000000 0.015625
2  -9.829423 2.758207 19.664936  0.461093 -0.625708 0.629192  0.000000 0.015625
2  -12.733073 3.815051 24.244938  0.639798 -0.691008 0.336402  0.000000 0.015625
PLAYER_Chrome1.bmp
2  -12.733073 3.815051 24.244938  0.639798 -0.691008 0.336402  0.000000 0.015625
2  -9.829423 2.758207 19.664936  0.461093 -0.625708 0.629192  0.000000 0.015625
2  -9.316393 4.167746 19.664936  0.738536 0.179288 0.649939  0.000000 0.015625
PLAYER_Chrome1.bmp
2  -9.829423 2.758207 19.664936  0.461093 -0.625708 0.629192  0.000000 0.015625
2  -5.012601 2.601292 16.574936  0.462310 0.280112 0.841312  0.000000 0.015625
2  -9.316393 4.167746 19.664936  0.738536 0.179288 0.649939  0.000000 0.015625
PLAYER_Chrome1.bmp
2  -9.316393 4.167746 19.664936  0.738536 0.179288 0.649939  0.000000 0.015625
2  -5.012601 2.601292 16.574936  0.462310 0.280112 0.841312  0.000000 0.015625
2  -5.154972 3.642796 15.424936  0.390388 0.920206 -0.028608  0.000000 0.015625
PLAYER_Chrome1.bmp
2  -5.012601 2.601292 16.574936  0.462310 0.280112 0.841312  0.000000 0.015625
2  0.567756 1.559892 14.194936  0.397207 0.917578 0.016619  0.000000 0.015625
2  -5.154972 3.642796 15.424936  0.390388 0.920206 -0.028608  0.000000 0.015625
PLAYER_Chrome1.bmp
2  -5.154972 3.642796 15.424936  0.390388 0.920206 -0.028608  0.000000 0.015625
2  0.567756 1.559892 14.194936  0.397207 0.917578 0.016619  0.000000 0.015625
2  0.259938 0.714168 12.904935  0.156008 0.391584 -0.906821  0.000000 0.015625
PLAYER_Chrome1.bmp
2  0.567756 1.559892 14.194936  0.397207 0.917578 0.016619  0.000000 0.015625
2  6.452512 -1.539745 14.234936  0.484000 0.272075 -0.831696  0.000000 0.015625
2  0.259938 0.714168 12.904935  0.156008 0.391584 -0.906821  0.000000 0.015625
PLAYER_Chrome1.bmp
2  0.259938 0.714168 12.904935  0.156008 0.391584 -0.906821  0.000000 0.015625
2  6.452512 -1.539745 14.234936  0.484000 0.272075 -0.831696  0.000000 0.015625
2  5.918960 -3.005665 14.234937  0.168798 -0.519600 -0.837570  0.000000 0.015625
PLAYER_Chrome1.bmp
2  6.452512 -1.539745 14.234936  0.484000 0.272075 -0.831696  0.000000 0.015625
2  10.974507 -4.845733 17.874935  0.444105 -0.619481 -0.647312  0.000000 0.015625
2  5.918960 -3.005665 14.234937  0.168798 -0.519600 -0.837570  0.000000 0.015625
PLAYER_Chrome1.bmp
2  5.918960 -3.005665 14.234937  0.168798 -0.519600 -0.837570  0.000000 0.015625
2  10.974507 -4.845733 17.874935  0.444105 -0.619481 -0.647312  0.000000 0.015625
2  9.825250 -5.342630 18.784937  -0.396281 -0.918108 -0.006317  0.000000 0.015625
PLAYER_Chrome1.bmp
2  10.974507 -4.845733 17.874935  0.444105 -0.619481 -0.647312  0.000000 0.015625
2  12.982617 -6.491817 23.754936  -0.376574 -0.925274 -0.045386  0.000000 0.015625
2  9.825250 -5.342630 18.784937  -0.396281 -0.918108 -0.006317  0.000000 0.015625
PLAYER_Chrome1.bmp
2  9.825250 -5.342630 18.784937  -0.396281 -0.918108 -0.006317  0.000000 0.015625
2  12.982617 -6.491817 23.754936  -0.376574 -0.925274 -0.045386  0.000000 0.015625
2  12.206369 -5.262167 24.244938  -0.924791 -0.121399 0.360590  0.000000 0.015625
PLAYER_Chrome1.bmp
2  12.982617 -6.491817 23.754936  -0.376574 -0.925274 -0.045386  0.000000 0.015625
2  13.277618 -5.652068 29.844936  -0.995302 -0.095899 0.013301  0.000000 0.015625
2  12.206369 -5.262167 24.244938  -0.924791 -0.121399 0.360590  0.000000 0.015625
PLAYER_Chrome1.bmp
2  12.206369 -5.262167 24.244938  -0.924791 -0.121399 0.360590  0.000000 0.015625
2  13.277618 -5.652068 29.844936  -0.995302 -0.095899 0.013301  0.000000 0.015625
2  13.790649 -4.242530 29.844936  -0.708007 0.706091 -0.012704  0.000000 0.015625
PLAYER_Chrome1.bmp
2  13.277618 -5.652068 29.844936  -0.995302 -0.095899 0.013301  0.000000 0.015625
2  12.719400 -3.852625 35.444935  -0.637473 0.680304 -0.361682  0.000000 0.015625
2  13.790649 -4.242530 29.844936  -0.708007 0.706091 -0.012704  0.000000 0.015625
PLAYER_Chrome1.bmp
2  13.790649 -4.242530 29.844936  -0.708007 0.706091 -0.012704  0.000000 0.015625
2  12.719400 -3.852625 35.444935  -0.637473 0.680304 -0.361682  0.000000 0.015625
2  14.118125 -3.372034 35.934937  0.325773 0.943580 0.059402  0.000000 0.015625
PLAYER_Chrome1.bmp
2  12.719400 -3.852625 35.444935  -0.637473 0.680304 -0.361682  0.000000 0.015625
2  10.960759 -2.222845 40.904938  0.292417 0.955863 0.028595  0.000000 0.015625
2  14.118125 -3.372034 35.934937  0.325773 0.943580 0.059402  0.000000 0.015625
PLAYER_Chrome1.bmp
2  14.118125 -3.372034 35.934937  0.325773 0.943580 0.059402  0.000000 0.015625
2  10.960759 -2.222845 40.904938  0.292417 0.955863 0.028595  0.000000 0.015625
2  11.508061 -3.379806 41.814938  0.738528 0.179295 0.649946  0.000000 0.015625
PLAYER_Chrome1.bmp
2  10.960759 -2.222845 40.904938  0.292417 0.955863 0.028595  0.000000 0.015625
2  6.452515 -1.539736 45.454937  0.462313 0.280108 0.841312  0.000000 0.015625
2  11.508061 -3.379806 41.814938  0.738528 0.179295 0.649946  0.000000 0.015625
PLAYER_Chrome1.bmp
2  11.508061 -3.379806 41.814938  0.738528 0.179295 0.649946  0.000000 0.015625
2  6.452515 -1.539736 45.454937  0.462313 0.280108 0.841312  0.000000 0.015625
2  5.918964 -3.005656 45.454937  0.191687 -0.527782 0.827467  0.000000 0.015625
PLAYER_Chrome1.bmp
2  6.452515 -1.539736 45.454937  0.462313 0.280108 0.841312  0.000000 0.015625
2  -0.273610 -0.751742 46.784939  -0.134712 -0.409107 0.902488  0.000000 0.015625
2  5.918964 -3.005656 45.454937  0.191687 -0.527782 0.827467  0.000000 0.015625
PLAYER_Chrome1.bmp
2  5.918964 -3.005656 45.454937  0.191687 -0.527782 0.827467  0.000000 0.015625
2  -0.273610 -0.751742 46.784939  -0.134712 -0.409107 0.902488  0.000000 0.015625
2  -0.567748 -1.559878 45.494938  -0.298798 -0.953583 -0.037401  0.000000 0.015625
PLAYER_Chrome1.bmp
2  0.249680 0.685987 44.254936  0.156000 0.391607 -0.906812  0.000000 0.015625
2  4.998928 -2.638866 43.114937  -0.486087 -0.281085 -0.827472  0.000000 0.015625
2  -0.263350 -0.723552 44.254936  -0.159699 -0.399977 -0.902505  0.000000 0.015625
PLAYER_Chrome1.bmp
2  -0.263350 -0.723552 44.254936  -0.159699 -0.399977 -0.902505  0.000000 0.015625
2  4.998928 -2.638866 43.114937  -0.486087 -0.281085 -0.827472  0.000000 0.015625
2  5.154980 -3.642782 44.264938  -0.298791 -0.953585 -0.037404  0.000000 0.015625
PLAYER_Chrome1.bmp
2  4.998928 -2.638866 43.114937  -0.486087 -0.281085 -0.827472  0.000000 0.015625
2  9.825252 -5.342624 40.904938  -0.335507 -0.940224 -0.058424  0.000000 0.015625
2  5.154980 -3.642782 44.264938  -0.298791 -0.953585 -0.037404  0.000000 0.015625
PLAYER_Chrome1.bmp
2  5.154980 -3.642782 44.264938  -0.298791 -0.953585 -0.037404  0.000000 0.015625
2  9.825252 -5.342624 40.904938  -0.335507 -0.940224 -0.058424  0.000000 0.015625
2  10.974510 -4.845726 41.814938  0.461080 -0.625710 0.629199  0.000000 0.015625
PLAYER_Chrome1.bmp
2  9.825252 -5.342624 40.904938  -0.335507 -0.940224 -0.058424  0.000000 0.015625
2  14.394989 -6.090682 36.434937  0.639814 -0.690995 0.336399  0.000000 0.015625
2  10.974510 -4.845726 41.814938  0.461080 -0.625710 0.629199  0.000000 0.015625
PLAYER_Chrome1.bmp
2  10.974510 -4.845726 41.814938  0.461080 -0.625710 0.629199  0.000000 0.015625
2  14.394989 -6.090682 36.434937  0.639814 -0.690995 0.336399  0.000000 0.015625
2  14.928541 -4.624761 36.434937  0.925610 0.111387 0.361716  0.000000 0.015625
PLAYER_Chrome1.bmp
2  14.394989 -6.090682 36.434937  0.639814 -0.690995 0.336399  0.000000 0.015625
2  16.178331 -5.079650 29.844936  0.996232 0.085791 0.012708  0.000000 0.015625
2  14.928541 -4.624761 36.434937  0.925610 0.111387 0.361716  0.000000 0.015625
PLAYER_Chrome1.bmp
2  14.928541 -4.624761 36.434937  0.925610 0.111387 0.361716  0.000000 0.015625
2  16.178331 -5.079650 29.844936  0.996232 0.085791 0.012708  0.000000 0.015625
2  15.273946 -3.792721 29.844936  0.325801 0.943570 0.059398  0.000000 0.015625
PLAYER_Chrome1.bmp
2  16.178331 -5.079650 29.844936  0.996232 0.085791 0.012708  0.000000 0.015625
2  14.118124 -3.372038 23.754936  0.325785 0.943576 0.059396  0.000000 0.015625
2  15.273946 -3.792721 29.844936  0.325801 0.943570 0.059398  0.000000 0.015625
PLAYER_Chrome1.bmp
2  15.273946 -3.792721 29.844936  0.325801 0.943570 0.059398  0.000000 0.015625
2  14.118124 -3.372038 23.754936  0.325785 0.943576 0.059396  0.000000 0.015625
2  12.719399 -3.852628 24.244936  -0.646476 0.683686 0.338588  0.000000 0.015625
PLAYER_Chrome1.bmp
2  14.118124 -3.372038 23.754936  0.325785 0.943576 0.059396  0.000000 0.015625
2  9.815748 -2.795787 19.664936  -0.466680 0.617993 0.632688  0.000000 0.015625
2  12.719399 -3.852628 24.244936  -0.646476 0.683686 0.338588  0.000000 0.015625
PLAYER_Chrome1.bmp
2  12.719399 -3.852628 24.244936  -0.646476 0.683686 0.338588  0.000000 0.015625
2  9.815748 -2.795787 19.664936  -0.466680 0.617993 0.632688  0.000000 0.015625
2  9.302718 -4.205326 19.664936  -0.738397 -0.189082 0.647316  0.000000 0.015625
PLAYER_Chrome1.bmp
2  9.815748 -2.795787 19.664936  -0.466680 0.617993 0.632688  0.000000 0.015625
2  4.998925 -2.638874 16.574936  -0.463290 -0.289482 0.837593  0.000000 0.015625
2  9.302718 -4.205326 19.664936  -0.738397 -0.189082 0.647316  0.000000 0.015625
PLAYER_Chrome1.bmp
2  9.302718 -4.205326 19.664936  -0.738397 -0.189082 0.647316  0.000000 0.015625
2  4.998925 -2.638874 16.574936  -0.463290 -0.289482 0.837593  0.000000 0.015625
2  5.154977 -3.642791 15.424937  -0.396282 -0.918107 -0.006317  0.000000 0.015625
PLAYER_Chrome1.bmp
2  4.998925 -2.638874 16.574936  -0.463290 -0.289482 0.837593  0.000000 0.015625
2  -0.567751 -1.559887 14.194937  -0.384097 -0.922536 0.037380  0.000000 0.015625
2  5.154977 -3.642791 15.424937  -0.396282 -0.918107 -0.006317  0.000000 0.015625
PLAYER_Chrome1.bmp
2  5.154977 -3.642791 15.424937  -0.396282 -0.918107 -0.006317  0.000000 0.015625
2  -0.567751 -1.559887 14.194937  -0.384097 -0.922536 0.037380  0.000000 0.015625
2  -0.273614 -0.751752 12.904936  -0.159707 -0.399974 -0.902505  0.000000 0.015625
PLAYER_Chrome1.bmp
2  -0.567751 -1.559887 14.194937  -0.384097 -0.922536 0.037380  0.000000 0.015625
2  -6.466188 1.502162 14.234937  -0.486083 -0.281089 -0.827473  0.000000 0.015625
2  -0.273614 -0.751752 12.904936  -0.159707 -0.399974 -0.902505  0.000000 0.015625
PLAYER_Chrome1.bmp
2  -0.273614 -0.751752 12.904936  -0.159707 -0.399974 -0.902505  0.000000 0.015625
2  -6.466188 1.502162 14.234937  -0.486083 -0.281089 -0.827473  0.000000 0.015625
2  -5.932636 2.968082 14.234936  -0.174110 0.511743 -0.841312  0.000000 0.015625
PLAYER_Chrome1.bmp
2  -6.466188 1.502162 14.234937  -0.486083 -0.281089 -0.827473  0.000000 0.015625
2  -10.988182 4.808152 17.874935  -0.450502 0.612107 -0.649903  0.000000 0.015625
2  -5.932636 2.968082 14.234936  -0.174110 0.511743 -0.841312  0.000000 0.015625
PLAYER_Chrome1.bmp
2  -5.932636 2.968082 14.234936  -0.174110 0.511743 -0.841312  0.000000 0.015625
2  -10.988182 4.808152 17.874935  -0.450502 0.612107 -0.649903  0.000000 0.015625
2  -9.825244 5.342638 18.784935  0.390412 0.920196 -0.028597  0.000000 0.015625
PLAYER_Chrome1.bmp
2  -10.988182 4.808152 17.874935  -0.450502 0.612107 -0.649903  0.000000 0.015625
2  -12.982610 6.491827 23.754936  0.357023 0.932204 -0.059406  0.000000 0.015625
2  -9.825244 5.342638 18.784935  0.390412 0.920196 -0.028597  0.000000 0.015625
PLAYER_Chrome1.bmp
2  -9.825244 5.342638 18.784935  0.390412 0.920196 -0.028597  0.000000 0.015625
2  -12.982610 6.491827 23.754936  0.357023 0.932204 -0.059406  0.000000 0.015625
2  -12.220043 5.224590 24.244936  0.925613 0.111393 0.361708  0.000000 0.015625
PLAYER_Chrome1.bmp
2  -12.982610 6.491827 23.754936  0.357023 0.932204 -0.059406  0.000000 0.015625
2  -13.291291 5.614495 29.844936  0.996232 0.085797 0.012697  0.000000 0.015625
2  -12.220043 5.224590 24.244936  0.925613 0.111393 0.361708  0.000000 0.015625
PLAYER_Chrome1.bmp
2  -12.220043 5.224590 24.244936  0.925613 0.111393 0.361708  0.000000 0.015625
2  -13.291291 5.614495 29.844936  0.996232 0.085797 0.012697  0.000000 0.015625
2  -13.804321 4.204956 29.844936  0.700804 -0.713230 -0.013297  0.000000 0.015625
PLAYER_Chrome1.bmp
2  -13.291291 5.614495 29.844936  0.996232 0.085797 0.012697  0.000000 0.015625
2  -12.733072 3.815054 35.444935  0.630363 -0.687478 -0.360578  0.000000 0.015625
2  -13.804321 4.204956 29.844936  0.700804 -0.713230 -0.013297  0.000000 0.015625
PLAYER_Chrome1.bmp
2  -13.804321 4.204956 29.844936  0.700804 -0.713230 -0.013297  0.000000 0.015625
2  -12.733072 3.815054 35.444935  0.630363 -0.687478 -0.360578  0.000000 0.015625
2  -14.118116 3.372051 35.934937  -0.306284 -0.950857 0.045391  0.000000 0.015625
PLAYER_Chrome1.bmp
2  -12.733072 3.815054 35.444935  0.630363 -0.687478 -0.360578  0.000000 0.015625
2  -10.960749 2.222865 40.904938  -0.286472 -0.958068 0.006304  0.000000 0.015625
2  -14.118116 3.372051 35.934937  -0.306284 -0.950857 0.045391  0.000000 0.015625
PLAYER_Chrome1.bmp
2  -14.118116 3.372051 35.934937  -0.306284 -0.950857 0.045391  0.000000 0.015625
2  -10.960749 2.222865 40.904938  -0.286472 -0.958068 0.006304  0.000000 0.015625
2  -11.521731 3.342239 41.814938  -0.738396 -0.189090 0.647315  0.000000 0.015625
PLAYER_Chrome1.bmp
2  -10.960749 2.222865 40.904938  -0.286472 -0.958068 0.006304  0.000000 0.015625
2  -6.466185 1.502171 45.454937  -0.463280 -0.289482 0.837599  0.000000 0.015625
2  -11.521731 3.342239 41.814938  -0.738396 -0.189090 0.647315  0.000000 0.015625
PLAYER_Chrome1.bmp
2  -11.521731 3.342239 41.814938  -0.738396 -0.189090 0.647315  0.000000 0.015625
2  -6.466185 1.502171 45.454937  -0.463280 -0.289482 0.837599  0.000000 0.015625
2  -5.932633 2.968091 45.454937  -0.195784 0.519594 0.831679  0.000000 0.015625
PLAYER_Chrome1.bmp
2  -6.466185 1.502171 45.454937  -0.463280 -0.289482 0.837599  0.000000 0.015625
2  0.259941 0.714178 46.784935  0.132217 0.400309 0.906792  0.000000 0.015625
2  -5.932633 2.968091 45.454937  -0.195784 0.519594 0.831679  0.000000 0.015625
PLAYER_Chrome1.bmp
2  -5.932633 2.968091 45.454937  -0.195784 0.519594 0.831679  0.000000 0.015625
2  0.259941 0.714178 46.784935  0.132217 0.400309 0.906792  0.000000 0.015625
2  0.567759 1.559901 45.494934  0.285593 0.958207 -0.016600  0.000000 0.015625
PLAYER_Chrome1.bmp
2  -0.273610 -0.751742 46.784939  -0.134712 -0.409107 0.902488  0.000000 0.015625
2  -6.290476 0.523025 44.264938  -0.286470 -0.958069 0.006293  0.000000 0.015625
2  -0.567748 -1.559878 45.494938  -0.298798 -0.953583 -0.037401  0.000000 0.015625
PLAYER_Chrome1.bmp
2  -0.567748 -1.559878 45.494938  -0.298798 -0.953583 -0.037401  0.000000 0.015625
2  -6.290476 0.523025 44.264938  -0.286470 -0.958069 0.006293  0.000000 0.015625
2  -5.525628 1.191761 43.114937  0.168789 -0.519593 -0.837576  0.000000 0.015625
PLAYER_Chrome1.bmp
2  -6.290476 0.523025 44.264938  -0.286470 -0.958069 0.006293  0.000000 0.015625
2  -9.829421 2.758213 40.024937  0.444108 -0.619478 -0.647313  0.000000 0.015625
2  -5.525628 1.191761 43.114937  0.168789 -0.519593 -0.837576  0.000000 0.015625
PLAYER_Chrome1.bmp
2  -5.525628 1.191761 43.114937  0.168789 -0.519593 -0.837576  0.000000 0.015625
2  -9.829421 2.758213 40.024937  0.444108 -0.619478 -0.647313  0.000000 0.015625
2  -9.316391 4.167752 40.024937  0.754761 0.173384 -0.632672  0.000000 0.015625
PLAYER_Chrome1.bmp
2  -9.829421 2.758213 40.024937  0.444108 -0.619478 -0.647313  0.000000 0.015625
2  -12.220041 5.224593 35.444935  0.934692 0.108186 -0.338595  0.000000 0.015625
2  -9.316391 4.167752 40.024937  0.754761 0.173384 -0.632672  0.000000 0.015625
PLAYER_Chrome1.bmp
2  -9.316391 4.167752 40.024937  0.754761 0.173384 -0.632672  0.000000 0.015625
2  -12.220041 5.224593 35.444935  0.934692 0.108186 -0.338595  0.000000 0.015625
2  -12.982609 6.491831 35.934937  0.314517 0.947820 -0.052121  0.000000 0.015625
PLAYER_Chrome1.bmp
2  -12.220041 5.224593 35.444935  0.934692 0.108186 -0.338595  0.000000 0.015625
2  -14.138431 6.912514 29.844936  0.356998 0.932214 -0.059407  0.000000 0.015625
2  -12.982609 6.491831 35.934937  0.314517 0.947820 -0.052121  0.000000 0.015625
PLAYER_Chrome1.bmp
2  -12.982609 6.491831 35.934937  0.314517 0.947820 -0.052121  0.000000 0.015625
2  -14.138431 6.912514 29.844936  0.356998 0.932214 -0.059407  0.000000 0.015625
2  -15.658453 6.507997 29.844936  -0.708012 0.706086 -0.012711  0.000000 0.015625
PLAYER_Chrome1.bmp
2  -14.138431 6.912514 29.844936  0.356998 0.932214 -0.059407  0.000000 0.015625
2  -14.408662 6.053108 23.254936  -0.637485 0.680289 -0.361689  0.000000 0.015625
2  -15.658453 6.507997 29.844936  -0.708012 0.706086 -0.012711  0.000000 0.015625
PLAYER_Chrome1.bmp
2  -15.658453 6.507997 29.844936  -0.708012 0.706086 -0.012711  0.000000 0.015625
2  -14.408662 6.053108 23.254936  -0.637485 0.680289 -0.361689  0.000000 0.015625
2  -14.942214 4.587187 23.254936  -0.934292 -0.118075 -0.336387  0.000000 0.015625
PLAYER_Chrome1.bmp
2  -14.408662 6.053108 23.254936  -0.637485 0.680289 -0.361689  0.000000 0.015625
2  -11.521734 3.342232 17.874935  -0.755415 -0.182885 -0.629207  0.000000 0.015625
2  -14.942214 4.587187 23.254936  -0.934292 -0.118075 -0.336387  0.000000 0.015625
PLAYER_Chrome1.bmp
2  -14.942214 4.587187 23.254936  -0.934292 -0.118075 -0.336387  0.000000 0.015625
2  -11.521734 3.342232 17.874935  -0.755415 -0.182885 -0.629207  0.000000 0.015625
2  -10.960751 2.222858 18.784937  -0.347311 -0.935929 0.058411  0.000000 0.015625
PLAYER_Chrome1.bmp
2  -11.521734 3.342232 17.874935  -0.755415 -0.182885 -0.629207  0.000000 0.015625
2  -6.290479 0.523017 15.424937  -0.384102 -0.922533 0.037394  0.000000 0.015625
2  -10.960751 2.222858 18.784937  -0.347311 -0.935929 0.058411  0.000000 0.015625
PLAYER_Chrome1.bmp
2  -10.960751 2.222858 18.784937  -0.347311 -0.935929 0.058411  0.000000 0.015625
2  -6.290479 0.523017 15.424937  -0.384102 -0.922533 0.037394  0.000000 0.015625
2  -5.525631 1.191753 16.574936  0.191694 -0.527778 0.827468  0.000000 0.015625
PLAYER_Chrome1.bmp
2  -6.290479 0.523017 15.424937  -0.384102 -0.922533 0.037394  0.000000 0.015625
2  -0.263353 -0.723561 15.434937  -0.134692 -0.409096 0.902496  0.000000 0.015625
2  -5.525631 1.191753 16.574936  0.191694 -0.527778 0.827468  0.000000 0.015625
PLAYER_Chrome1.bmp
2  -5.525631 1.191753 16.574936  0.191694 -0.527778 0.827468  0.000000 0.015625
2  -0.263353 -0.723561 15.434937  -0.134692 -0.409096 0.902496  0.000000 0.015625
2  0.249677 0.685978 15.434936  0.132217 0.400317 0.906788  0.000000 0.015625
PLAYER_Chrome1.bmp
2  -0.263353 -0.723561 15.434937  -0.134692 -0.409096 0.902496  0.000000 0.015625
2  5.511956 -1.229335 16.574936  -0.195787 0.519598 0.831677  0.000000 0.015625
2  0.249677 0.685978 15.434936  0.132217 0.400317 0.906788  0.000000 0.015625
PLAYER_Chrome1.bmp
2  0.249677 0.685978 15.434936  0.132217 0.400317 0.906788  0.000000 0.015625
2  5.511956 -1.229335 16.574936  -0.195787 0.519598 0.831677  0.000000 0.015625
2  6.290484 -0.523011 15.424936  0.397196 0.917584 0.016594  0.000000 0.015625
PLAYER_Chrome1.bmp
2  5.511956 -1.229335 16.574936  -0.195787 0.519598 0.831677  0.000000 0.015625
2  10.960757 -2.222851 18.784935  0.368323 0.928238 0.052090  0.000000 0.015625
2  6.290484 -0.523011 15.424936  0.397196 0.917584 0.016594  0.000000 0.015625
PLAYER_Chrome1.bmp
2  6.290484 -0.523011 15.424936  0.397196 0.917584 0.016594  0.000000 0.015625
2  10.960757 -2.222851 18.784935  0.368323 0.928238 0.052090  0.000000 0.015625
2  11.508059 -3.379813 17.874935  0.754766 0.173385 -0.632666  0.000000 0.015625
PLAYER_Chrome1.bmp
2  10.960757 -2.222851 18.784935  0.368323 0.928238 0.052090  0.000000 0.015625
2  14.928540 -4.624765 23.254936  0.934690 0.108195 -0.338596  0.000000 0.015625
2  11.508059 -3.379813 17.874935  0.754766 0.173385 -0.632666  0.000000 0.015625
PLAYER_Chrome1.bmp
2  11.508059 -3.379813 17.874935  0.754766 0.173385 -0.632666  0.000000 0.015625
2  14.928540 -4.624765 23.254936  0.934690 0.108195 -0.338596  0.000000 0.015625
2  14.394988 -6.090685 23.254936  0.630365 -0.687477 -0.360577  0.000000 0.015625
PLAYER_Chrome1.bmp
2  14.928540 -4.624765 23.254936  0.934690 0.108195 -0.338596  0.000000 0.015625
2  15.644781 -6.545571 29.844936  0.700829 -0.713205 -0.013312  0.000000 0.015625
2  14.394988 -6.090685 23.254936  0.630365 -0.687477 -0.360577  0.000000 0.015625
PLAYER_Chrome1.bmp
2  14.394988 -6.090685 23.254936  0.630365 -0.687477 -0.360577  0.000000 0.015625
2  15.644781 -6.545571 29.844936  0.700829 -0.713205 -0.013312  0.000000 0.015625
2  14.138439 -6.912500 29.844936  -0.335497 -0.940231 -0.058375  0.000000 0.015625
PLAYER_Chrome1.bmp
2  15.644781 -6.545571 29.844936  0.700829 -0.713205 -0.013312  0.000000 0.015625
2  12.982618 -6.491813 35.934937  -0.335520 -0.940220 -0.058420  0.000000 0.015625
2  14.138439 -6.912500 29.844936  -0.335497 -0.940231 -0.058375  0.000000 0.015625
PLAYER_Chrome1.bmp
2  14.138439 -6.912500 29.844936  -0.335497 -0.940231 -0.058375  0.000000 0.015625
2  12.982618 -6.491813 35.934937  -0.335520 -0.940220 -0.058420  0.000000 0.015625
2  12.206370 -5.262164 35.444935  -0.934287 -0.118090 -0.336397  0.000000 0.015625
PLAYER_Chrome1.bmp
2  12.982618 -6.491813 35.934937  -0.335520 -0.940220 -0.058420  0.000000 0.015625
2  9.302720 -4.205320 40.024937  -0.755414 -0.182885 -0.629208  0.000000 0.015625
2  12.206370 -5.262164 35.444935  -0.934287 -0.118090 -0.336397  0.000000 0.015625
PLAYER_Chrome1.bmp
2  12.206370 -5.262164 35.444935  -0.934287 -0.118090 -0.336397  0.000000 0.015625
2  9.302720 -4.205320 40.024937  -0.755414 -0.182885 -0.629208  0.000000 0.015625
2  9.815751 -2.795781 40.024937  -0.450507 0.612106 -0.649900  0.000000 0.015625
PLAYER_Chrome1.bmp
2  9.302720 -4.205320 40.024937  -0.755414 -0.182885 -0.629208  0.000000 0.015625
2  5.511959 -1.229327 43.114937  -0.174112 0.511703 -0.841335  0.000000 0.015625
2  9.815751 -2.795781 40.024937  -0.450507 0.612106 -0.649900  0.000000 0.015625
PLAYER_Chrome1.bmp
2  9.815751 -2.795781 40.024937  -0.450507 0.612106 -0.649900  0.000000 0.015625
2  5.511959 -1.229327 43.114937  -0.174112 0.511703 -0.841335  0.000000 0.015625
2  6.290487 -0.523003 44.264935  0.292390 0.955871 0.028591  0.000000 0.015625
PLAYER_Chrome1.bmp
2  5.511959 -1.229327 43.114937  -0.174112 0.511703 -0.841335  0.000000 0.015625
2  0.567759 1.559901 45.494934  0.285593 0.958207 -0.016600  0.000000 0.015625
2  6.290487 -0.523003 44.264935  0.292390 0.955871 0.028591  0.000000 0.015625
PLAYER_Chrome1.bmp
2  6.290487 -0.523003 44.264935  0.292390 0.955871 0.028591  0.000000 0.015625
2  0.567759 1.559901 45.494934  0.285593 0.958207 -0.016600  0.000000 0.015625
2  0.259941 0.714178 46.784935  0.132217 0.400309 0.906792  0.000000 0.015625
PLAYER_Chrome1.bmp
2  -0.263350 -0.723552 44.254936  -0.159699 -0.399977 -0.902505  0.000000 0.015625
2  5.154980 -3.642782 44.264938  -0.298791 -0.953585 -0.037404  0.000000 0.015625
2  -0.567748 -1.559878 45.494938  -0.298798 -0.953583 -0.037401  0.000000 0.015625
PLAYER_Chrome1.bmp
2  -0.567748 -1.559878 45.494938  -0.298798 -0.953583 -0.037401  0.000000 0.015625
2  5.154980 -3.642782 44.264938  -0.298791 -0.953585 -0.037404  0.000000 0.015625
2  5.918964 -3.005656 45.454937  0.191687 -0.527782 0.827467  0.000000 0.015625
PLAYER_Chrome1.bmp
2  5.154980 -3.642782 44.264938  -0.298791 -0.953585 -0.037404  0.000000 0.015625
2  10.974510 -4.845726 41.814938  0.461080 -0.625710 0.629199  0.000000 0.015625
2  5.918964 -3.005656 45.454937  0.191687 -0.527782 0.827467  0.000000 0.015625
PLAYER_Chrome1.bmp
2  5.918964 -3.005656 45.454937  0.191687 -0.527782 0.827467  0.000000 0.015625
2  10.974510 -4.845726 41.814938  0.461080 -0.625710 0.629199  0.000000 0.015625
2  11.508061 -3.379806 41.814938  0.738528 0.179295 0.649946  0.000000 0.015625
PLAYER_Chrome1.bmp
2  10.974510 -4.845726 41.814938  0.461080 -0.625710 0.629199  0.000000 0.015625
2  14.928541 -4.624761 36.434937  0.925610 0.111387 0.361716  0.000000 0.015625
2  11.508061 -3.379806 41.814938  0.738528 0.179295 0.649946  0.000000 0.015625
PLAYER_Chrome1.bmp
2  11.508061 -3.379806 41.814938  0.738528 0.179295 0.649946  0.000000 0.015625
2  14.928541 -4.624761 36.434937  0.925610 0.111387 0.361716  0.000000 0.015625
2  14.118125 -3.372034 35.934937  0.325773 0.943580 0.059402  0.000000 0.015625
PLAYER_Chrome1.bmp
2  14.928541 -4.624761 36.434937  0.925610 0.111387 0.361716  0.000000 0.015625
2  15.273946 -3.792721 29.844936  0.325801 0.943570 0.059398  0.000000 0.015625
2  14.118125 -3.372034 35.934937  0.325773 0.943580 0.059402  0.000000 0.015625
PLAYER_Chrome1.bmp
2  14.118125 -3.372034 35.934937  0.325773 0.943580 0.059402  0.000000 0.015625
2  15.273946 -3.792721 29.844936  0.325801 0.943570 0.059398  0.000000 0.015625
2  13.790649 -4.242530 29.844936  -0.708007 0.706091 -0.012704  0.000000 0.015625
PLAYER_Chrome1.bmp
2  15.273946 -3.792721 29.844936  0.325801 0.943570 0.059398  0.000000 0.015625
2  12.719399 -3.852628 24.244936  -0.646476 0.683686 0.338588  0.000000 0.015625
2  13.790649 -4.242530 29.844936  -0.708007 0.706091 -0.012704  0.000000 0.015625
PLAYER_Chrome1.bmp
2  13.790649 -4.242530 29.844936  -0.708007 0.706091 -0.012704  0.000000 0.015625
2  12.719399 -3.852628 24.244936  -0.646476 0.683686 0.338588  0.000000 0.015625
2  12.206369 -5.262167 24.244938  -0.924791 -0.121399 0.360590  0.000000 0.015625
PLAYER_Chrome1.bmp
2  12.719399 -3.852628 24.244936  -0.646476 0.683686 0.338588  0.000000 0.015625
2  9.302718 -4.205326 19.664936  -0.738397 -0.189082 0.647316  0.000000 0.015625
2  12.206369 -5.262167 24.244938  -0.924791 -0.121399 0.360590  0.000000 0.015625
PLAYER_Chrome1.bmp
2  12.206369 -5.262167 24.244938  -0.924791 -0.121399 0.360590  0.000000 0.015625
2  9.302718 -4.205326 19.664936  -0.738397 -0.189082 0.647316  0.000000 0.015625
2  9.825250 -5.342630 18.784937  -0.396281 -0.918108 -0.006317  0.000000 0.015625
PLAYER_Chrome1.bmp
2  9.302718 -4.205326 19.664936  -0.738397 -0.189082 0.647316  0.000000 0.015625
2  5.154977 -3.642791 15.424937  -0.396282 -0.918107 -0.006317  0.000000 0.015625
2  9.825250 -5.342630 18.784937  -0.396281 -0.918108 -0.006317  0.000000 0.015625
PLAYER_Chrome1.bmp
2  9.825250 -5.342630 18.784937  -0.396281 -0.918108 -0.006317  0.000000 0.015625
2  5.154977 -3.642791 15.424937  -0.396282 -0.918107 -0.006317  0.000000 0.015625
2  5.918960 -3.005665 14.234937  0.168798 -0.519600 -0.837570  0.000000 0.015625
PLAYER_Chrome1.bmp
2  5.154977 -3.642791 15.424937  -0.396282 -0.918107 -0.006317  0.000000 0.015625
2  -0.273614 -0.751752 12.904936  -0.159707 -0.399974 -0.902505  0.000000 0.015625
2  5.918960 -3.005665 14.234937  0.168798 -0.519600 -0.837570  0.000000 0.015625
PLAYER_Chrome1.bmp
2  5.918960 -3.005665 14.234937  0.168798 -0.519600 -0.837570  0.000000 0.015625
2  -0.273614 -0.751752 12.904936  -0.159707 -0.399974 -0.902505  0.000000 0.015625
2  0.259938 0.714168 12.904935  0.156008 0.391584 -0.906821  0.000000 0.015625
PLAYER_Chrome1.bmp
2  -0.273614 -0.751752 12.904936  -0.159707 -0.399974 -0.902505  0.000000 0.015625
2  -5.932636 2.968082 14.234936  -0.174110 0.511743 -0.841312  0.000000 0.015625
2  0.259938 0.714168 12.904935  0.156008 0.391584 -0.906821  0.000000 0.015625
PLAYER_Chrome1.bmp
2  0.259938 0.714168 12.904935  0.156008 0.391584 -0.906821  0.000000 0.015625
2  -5.932636 2.968082 14.234936  -0.174110 0.511743 -0.841312  0.000000 0.015625
2  -5.154972 3.642796 15.424936  0.390388 0.920206 -0.028608  0.000000 0.015625
PLAYER_Chrome1.bmp
2  -5.932636 2.968082 14.234936  -0.174110 0.511743 -0.841312  0.000000 0.015625
2  -9.825244 5.342638 18.784935  0.390412 0.920196 -0.028597  0.000000 0.015625
2  -5.154972 3.642796 15.424936  0.390388 0.920206 -0.028608  0.000000 0.015625
PLAYER_Chrome1.bmp
2  -5.154972 3.642796 15.424936  0.390388 0.920206 -0.028608  0.000000 0.015625
2  -9.825244 5.342638 18.784935  0.390412 0.920196 -0.028597  0.000000 0.015625
2  -9.316393 4.167746 19.664936  0.738536 0.179288 0.649939  0.000000 0.015625
PLAYER_Chrome1.bmp
2  -9.825244 5.342638 18.784935  0.390412 0.920196 -0.028597  0.000000 0.015625
2  -12.220043 5.224590 24.244936  0.925613 0.111393 0.361708  0.000000 0.015625
2  -9.316393 4.167746 19.664936  0.738536 0.179288 0.649939  0.000000 0.015625
PLAYER_Chrome1.bmp
2  -9.316393 4.167746 19.664936  0.738536 0.179288 0.649939  0.000000 0.015625
2  -12.220043 5.224590 24.244936  0.925613 0.111393 0.361708  0.000000 0.015625
2  -12.733073 3.815051 24.244938  0.639798 -0.691008 0.336402  0.000000 0.015625
PLAYER_Chrome1.bmp
2  -12.220043 5.224590 24.244936  0.925613 0.111393 0.361708  0.000000 0.015625
2  -13.804321 4.204956 29.844936  0.700804 -0.713230 -0.013297  0.000000 0.015625
2  -12.733073 3.815051 24.244938  0.639798 -0.691008 0.336402  0.000000 0.015625
PLAYER_Chrome1.bmp
2  -12.733073 3.815051 24.244938  0.639798 -0.691008 0.336402  0.000000 0.015625
2  -13.804321 4.204956 29.844936  0.700804 -0.713230 -0.013297  0.000000 0.015625
2  -15.273938 3.792734 29.844936  -0.306298 -0.950853 0.045399  0.000000 0.015625
PLAYER_Chrome1.bmp
2  -13.804321 4.204956 29.844936  0.700804 -0.713230 -0.013297  0.000000 0.015625
2  -14.118116 3.372051 35.934937  -0.306284 -0.950857 0.045391  0.000000 0.015625
2  -15.273938 3.792734 29.844936  -0.306298 -0.950853 0.045399  0.000000 0.015625
PLAYER_Chrome1.bmp
2  -15.273938 3.792734 29.844936  -0.306298 -0.950853 0.045399  0.000000 0.015625
2  -14.118116 3.372051 35.934937  -0.306284 -0.950857 0.045391  0.000000 0.015625
2  -14.942212 4.587191 36.434937  -0.924787 -0.121391 0.360601  0.000000 0.015625
PLAYER_Chrome1.bmp
2  -14.118116 3.372051 35.934937  -0.306284 -0.950857 0.045391  0.000000 0.015625
2  -11.521731 3.342239 41.814938  -0.738396 -0.189090 0.647315  0.000000 0.015625
2  -14.942212 4.587191 36.434937  -0.924787 -0.121391 0.360601  0.000000 0.015625
PLAYER_Chrome1.bmp
2  -14.942212 4.587191 36.434937  -0.924787 -0.121391 0.360601  0.000000 0.015625
2  -11.521731 3.342239 41.814938  -0.738396 -0.189090 0.647315  0.000000 0.015625
2  -10.988180 4.808160 41.814938  -0.466680 0.617994 0.632687  0.000000 0.015625
PLAYER_Chrome1.bmp
2  -11.521731 3.342239 41.814938  -0.738396 -0.189090 0.647315  0.000000 0.015625
2  -5.932633 2.968091 45.454937  -0.195784 0.519594 0.831679  0.000000 0.015625
2  -10.988180 4.808160 41.814938  -0.466680 0.617994 0.632687  0.000000 0.015625
PLAYER_Chrome1.bmp
2  -10.988180 4.808160 41.814938  -0.466680 0.617994 0.632687  0.000000 0.015625
2  -5.932633 2.968091 45.454937  -0.195784 0.519594 0.831679  0.000000 0.015625
2  -5.154969 3.642804 44.264935  0.285588 0.958208 -0.016620  0.000000 0.015625
PLAYER_Chrome1.bmp
2  -5.932633 2.968091 45.454937  -0.195784 0.519594 0.831679  0.000000 0.015625
2  0.567759 1.559901 45.494934  0.285593 0.958207 -0.016600  0.000000 0.015625
2  -5.154969 3.642804 44.264935  0.285588 0.958208 -0.016620  0.000000 0.015625
PLAYER_Chrome1.bmp
2  -5.154969 3.642804 44.264935  0.285588 0.958208 -0.016620  0.000000 0.015625
2  0.567759 1.559901 45.494934  0.285593 0.958207 -0.016600  0.000000 0.015625
2  0.249680 0.685987 44.254936  0.156000 0.391607 -0.906812  0.000000 0.015625
end
