version 1
nodes
  0 "Bip01" -1
  1 "Bip01 Pelvis" 0
  2 "Bip01 L Thigh" 1
  3 "Bip01 L Calf" 2
  4 "Bip01 L Foot" 3
  5 "Bip01 R Thigh" 1
  6 "Bip01 R Calf" 5
  7 "Bip01 R Foot" 6
  8 "Bip01 Spine" 1
  9 "Bip01 Spine1" 8
  10 "Bip01 Spine2" 9
  11 "Bip01 Spine3" 10
  12 "Bip01 Neck" 11
  13 "Bip01 L Clavicle" 12
  14 "Bip01 R Clavicle" 12
  15 "Bip01 Head" 12
  16 "Bone05" 15
  17 "Bone06" 16
  18 "Bip01 L UpperArm" 13
  19 "Bip01 L Forearm" 18
  20 "Bip01 L Hand" 19
  21 "Bip01 R UpperArm" 14
  22 "Bip01 R Forearm" 21
  23 "Bip01 R Hand" 22
  24 "Bip01 R Finger0" 23
  25 "p_desert_eagle" 24
  26 "GLOCK_model" 24
  27 "Cylinder02" 24
end
skeleton
  time 0
    0 -0.010494 0.000000 30.252578 0.000000 0.000000 -1.570834
    1 -0.248689 1.043002 9.745319 -1.570795 -1.570451 0.000000
    2 -0.000008 0.000010 5.615750 0.111308 3.144180 -0.080488
    3 15.693467 0.000000 0.000000 0.000000 0.000000 -0.217574
    4 22.146629 -0.000001 0.000000 -0.076159 -0.081291 -0.574810
    5 0.000008 -0.000006 -5.615750 0.077351 3.104876 0.013482
    6 15.693467 0.000000 0.000000 0.000000 0.000000 -0.208695
    7 22.146629 0.000000 0.000000 -0.074318 -0.042583 -0.754454
    8 1.384163 -0.004728 0.000002 -0.000004 -0.000001 -0.060233
    9 5.939814 -0.004730 0.000000 0.000144 0.183161 0.052337
    10 5.939809 -0.003975 0.000000 0.000000 0.000000 0.008718
    11 4.991439 -0.003975 0.000000 0.000000 0.000000 0.000000
    12 4.991436 -0.001575 0.000000 0.000000 0.000000 0.000000
    13 0.000005 0.001564 3.638375 -0.000010 -1.283530 3.140806
    14 0.000005 0.001585 -3.638375 -0.000010 1.283530 3.140787
    15 1.977383 0.000000 0.000000 0.003216 -0.183121 -0.027244
    16 3.723980 2.768055 -0.395205 0.000000 -3.141591 -1.570795
    17 2.863741 -0.721077 0.000003 0.000000 0.000000 0.000000
    18 8.842831 0.000000 -0.000001 -0.397352 1.226859 -0.255607
    19 9.341934 0.000000 -0.000002 0.000000 0.000000 -0.016875
    20 9.664096 0.000000 0.000003 -1.569555 0.000011 0.000000
    21 8.842831 0.000000 0.000001 0.549470 -0.897291 -0.238923
    22 9.341934 0.000000 -0.000001 0.000000 0.000000 -0.077937
    23 9.664095 0.000000 -0.000002 1.569555 0.165706 0.000000
    24 6.829857 -0.000001 0.000000 0.001241 0.000000 0.000000
    25 0.021231 -0.065060 1.351066 0.024842 0.006382 -0.003186
    26 1.089796 -0.106998 1.928624 -1.335374 -0.038786 1.563732
    27 -2.120019 0.552893 1.060325 0.522049 -2.764527 -1.418481
  time 1
    0 -0.010494 0.000000 30.725249 0.000000 0.000000 -1.570834
    1 -0.248689 1.043002 9.745319 -1.570795 -1.570451 0.000000
    2 -0.000008 0.000010 5.615750 0.111308 3.144180 -0.080488
    3 15.693467 0.000000 0.000000 0.000000 0.000000 -0.217574
    4 22.146629 -0.000001 0.000000 -0.076159 -0.081291 -0.574810
    5 0.000008 -0.000006 -5.615750 0.077351 3.104876 0.013482
    6 15.693467 0.000000 0.000000 0.000000 0.000000 -0.208695
    7 22.146629 0.000000 0.000000 -0.074318 -0.042583 -0.754454
    8 1.384163 -0.004728 0.000002 -0.000004 -0.000001 -0.060233
    9 5.939814 -0.004730 0.000000 0.000144 0.183161 0.052337
    10 5.939809 -0.003975 0.000000 0.000000 0.000000 0.008718
    11 4.991439 -0.003975 0.000000 0.000000 0.000000 0.000000
    12 4.991436 -0.001575 0.000000 0.000000 0.000000 0.000000
    13 0.000005 0.001564 3.638375 -0.000010 -1.283530 3.140806
    14 0.000005 0.001585 -3.638375 -0.000010 1.283530 3.140787
    15 1.977383 0.000000 0.000000 0.003216 -0.183121 -0.027244
    16 3.723980 2.768055 -0.395205 0.000000 -3.141591 -1.570795
    17 2.863741 -0.721077 0.000003 0.000000 0.000000 0.000000
    18 8.842831 0.000000 -0.000001 -0.397352 1.226859 -0.255607
    19 9.341934 0.000000 -0.000002 0.000000 0.000000 -0.016875
    20 9.664096 0.000000 0.000003 -1.569555 0.000011 0.000000
    21 8.842831 0.000000 0.000001 0.549470 -0.897291 -0.238923
    22 9.341934 0.000000 -0.000001 0.000000 0.000000 -0.077937
    23 9.664095 0.000000 -0.000002 1.569555 0.165706 0.000000
    24 6.829857 -0.000001 0.000000 0.001241 0.000000 0.000000
    25 0.021231 -0.065060 1.351066 0.024842 0.006382 -0.003186
    26 1.089796 -0.106998 1.928624 -1.335374 -0.038786 1.563732
    27 -2.120019 0.552893 1.060325 0.522049 -2.764527 -1.418481
  time 2
    0 -0.010494 0.000000 31.209639 0.000000 0.000000 -1.570834
    1 -0.248689 1.043002 9.745319 -1.570795 -1.570451 0.000000
    2 -0.000008 0.000010 5.615750 0.111308 3.144180 -0.080488
    3 15.693467 0.000000 0.000000 0.000000 0.000000 -0.217574
    4 22.146629 -0.000001 0.000000 -0.076159 -0.081291 -0.574810
    5 0.000008 -0.000006 -5.615750 0.077351 3.104876 0.013482
    6 15.693467 0.000000 0.000000 0.000000 0.000000 -0.208695
    7 22.146629 0.000000 0.000000 -0.074318 -0.042583 -0.754454
    8 1.384163 -0.004728 0.000002 -0.000004 -0.000001 -0.060233
    9 5.939814 -0.004730 0.000000 0.000144 0.183161 0.052337
    10 5.939809 -0.003975 0.000000 0.000000 0.000000 0.008718
    11 4.991439 -0.003975 0.000000 0.000000 0.000000 0.000000
    12 4.991436 -0.001575 0.000000 0.000000 0.000000 0.000000
    13 0.000005 0.001564 3.638375 -0.000010 -1.283530 3.140806
    14 0.000005 0.001585 -3.638375 -0.000010 1.283530 3.140787
    15 1.977383 0.000000 0.000000 0.003216 -0.183121 -0.027244
    16 3.723980 2.768055 -0.395205 0.000000 -3.141591 -1.570795
    17 2.863741 -0.721077 0.000003 0.000000 0.000000 0.000000
    18 8.842831 0.000000 -0.000001 -0.397352 1.226859 -0.255607
    19 9.341934 0.000000 -0.000002 0.000000 0.000000 -0.016875
    20 9.664096 0.000000 0.000003 -1.569555 0.000011 0.000000
    21 8.842831 0.000000 0.000001 0.549470 -0.897291 -0.238923
    22 9.341934 0.000000 -0.000001 0.000000 0.000000 -0.077937
    23 9.664095 0.000000 -0.000002 1.569555 0.165706 0.000000
    24 6.829857 -0.000001 0.000000 0.001241 0.000000 0.000000
    25 0.021231 -0.065060 1.351066 0.024842 0.006382 -0.003186
    26 1.089796 -0.106998 1.928624 -1.335374 -0.038786 1.563732
    27 -2.120019 0.552893 1.060325 0.522049 -2.764527 -1.418481
  time 3
    0 -0.010494 0.000000 31.666684 0.000000 0.000000 -1.570834
    1 -0.248689 1.043002 9.745319 -1.570795 -1.570451 0.000000
    2 -0.000008 0.000010 5.615750 0.111212 3.137565 -0.140793
    3 15.693467 0.000000 0.000000 0.000000 0.000000 -0.217574
    4 22.146629 -0.000001 0.000000 -0.076159 -0.081291 -0.635532
    5 0.000008 -0.000006 -5.615750 0.074092 3.098645 -0.069097
    6 15.693467 0.000000 0.000000 0.000000 0.000000 -0.208695
    7 22.146629 0.000000 0.000000 -0.074318 -0.042583 -0.837227
    8 1.384163 -0.004728 0.000002 -0.000004 -0.000001 -0.060233
    9 5.939814 -0.004730 0.000000 0.000144 0.183161 0.052337
    10 5.939809 -0.003975 0.000000 0.000000 0.000000 0.008718
    11 4.991439 -0.003975 0.000000 0.000000 0.000000 0.000000
    12 4.991436 -0.001575 0.000000 0.000000 0.000000 0.000000
    13 0.000005 0.001564 3.638375 -0.000010 -1.283530 3.140806
    14 0.000005 0.001585 -3.638375 -0.000010 1.283530 3.140787
    15 1.977383 0.000000 0.000000 0.003216 -0.183121 -0.027244
    16 3.723980 2.768055 -0.395205 0.000000 -3.141591 -1.570795
    17 2.863741 -0.721077 0.000003 0.000000 0.000000 0.000000
    18 8.842831 0.000000 -0.000001 -0.397352 1.226859 -0.255607
    19 9.341934 0.000000 -0.000002 0.000000 0.000000 -0.016875
    20 9.664096 0.000000 0.000003 -1.569555 0.000011 0.000000
    21 8.842831 0.000000 0.000001 0.549470 -0.897291 -0.238923
    22 9.341934 0.000000 -0.000001 0.000000 0.000000 -0.077937
    23 9.664095 0.000000 -0.000002 1.569555 0.165706 0.000000
    24 6.829857 -0.000001 0.000000 0.001241 0.000000 0.000000
    25 0.021231 -0.065060 1.351066 0.024842 0.006382 -0.003186
    26 1.089796 -0.106998 1.928624 -1.335374 -0.038786 1.563732
    27 -2.120019 0.552893 1.060325 0.522049 -2.764527 -1.418481
  time 4
    0 -0.010494 0.000000 32.057321 0.000000 0.000000 -1.570834
    1 -0.248689 1.043002 9.745319 -1.570795 -1.570451 0.000000
    2 -0.000008 0.000010 5.615750 0.110733 3.129895 -0.209591
    3 15.693467 0.000000 0.000000 0.000000 0.000000 -0.217574
    4 22.146629 -0.000001 0.000000 -0.076159 -0.081291 -0.704752
    5 0.000008 -0.000006 -5.615750 0.069779 3.092030 -0.160330
    6 15.693467 0.000000 0.000000 0.000000 0.000000 -0.208695
    7 22.146629 0.000000 0.000000 -0.074318 -0.042583 -0.928664
    8 1.384163 -0.004728 0.000002 -0.000004 -0.000001 -0.060233
    9 5.939814 -0.004730 0.000000 0.000144 0.183161 0.052337
    10 5.939809 -0.003975 0.000000 0.000000 0.000000 0.008718
    11 4.991439 -0.003975 0.000000 0.000000 0.000000 0.000000
    12 4.991436 -0.001575 0.000000 0.000000 0.000000 0.000000
    13 0.000005 0.001564 3.638375 -0.000010 -1.283530 3.140806
    14 0.000005 0.001585 -3.638375 -0.000010 1.283530 3.140787
    15 1.977383 0.000000 0.000000 0.003216 -0.183121 -0.027244
    16 3.723980 2.768055 -0.395205 0.000000 -3.141591 -1.570795
    17 2.863741 -0.721077 0.000003 0.000000 0.000000 0.000000
    18 8.842831 0.000000 -0.000001 -0.397352 1.226859 -0.255607
    19 9.341934 0.000000 -0.000002 0.000000 0.000000 -0.016875
    20 9.664096 0.000000 0.000003 -1.569555 0.000011 0.000000
    21 8.842831 0.000000 0.000001 0.549470 -0.897291 -0.238923
    22 9.341934 0.000000 -0.000001 0.000000 0.000000 -0.077937
    23 9.664095 0.000000 -0.000002 1.569555 0.165706 0.000000
    24 6.829857 -0.000001 0.000000 0.001241 0.000000 0.000000
    25 0.021231 -0.065060 1.351066 0.024842 0.006382 -0.003186
    26 1.089796 -0.106998 1.928624 -1.335374 -0.038786 1.563732
    27 -2.120019 0.552893 1.060325 0.522049 -2.764527 -1.418481
  time 5
    0 -0.010494 0.000000 32.338580 0.000000 0.000000 -1.570834
    1 -0.248689 1.043002 9.745319 -1.570795 -1.570451 0.000000
    2 -0.000008 0.000010 5.615750 0.109966 3.124143 -0.261505
    3 15.693467 0.000000 0.000000 0.000000 0.000000 -0.217574
    4 22.146629 -0.000001 0.000000 -0.076159 -0.081291 -0.756977
    5 0.000008 -0.000006 -5.615750 0.065945 3.087046 -0.234355
    6 15.693467 0.000000 0.000000 0.000000 0.000000 -0.208695
    7 22.146629 0.000000 0.000000 -0.074318 -0.042583 -1.002702
    8 1.384163 -0.004728 0.000002 -0.000004 -0.000001 -0.060233
    9 5.939814 -0.004730 0.000000 0.000144 0.183161 0.052337
    10 5.939809 -0.003975 0.000000 0.000000 0.000000 0.008718
    11 4.991439 -0.003975 0.000000 0.000000 0.000000 0.000000
    12 4.991436 -0.001575 0.000000 0.000000 0.000000 0.000000
    13 0.000005 0.001564 3.638375 -0.000010 -1.283530 3.140806
    14 0.000005 0.001585 -3.638375 -0.000010 1.283530 3.140787
    15 1.977383 0.000000 0.000000 0.003216 -0.183121 -0.027244
    16 3.723980 2.768055 -0.395205 0.000000 -3.141591 -1.570795
    17 2.863741 -0.721077 0.000003 0.000000 0.000000 0.000000
    18 8.842831 0.000000 -0.000001 -0.397352 1.226859 -0.255607
    19 9.341934 0.000000 -0.000002 0.000000 0.000000 -0.016875
    20 9.664096 0.000000 0.000003 -1.569555 0.000011 0.000000
    21 8.842831 0.000000 0.000001 0.549470 -0.897291 -0.238923
    22 9.341934 0.000000 -0.000001 0.000000 0.000000 -0.077937
    23 9.664095 0.000000 -0.000002 1.569555 0.165706 0.000000
    24 6.829857 -0.000001 0.000000 0.001241 0.000000 0.000000
    25 0.021231 -0.065060 1.351066 0.024842 0.006382 -0.003186
    26 1.089796 -0.106998 1.928624 -1.335374 -0.038786 1.563732
    27 -2.120019 0.552893 1.060325 0.522049 -2.764527 -1.418481
  time 6
    0 -0.010494 0.000000 32.299516 0.000000 0.000000 -1.570834
    1 -0.248689 1.043002 9.745319 -1.570795 -1.570451 0.000000
    2 -0.000008 0.000010 5.615750 0.109774 3.123089 -0.271160
    3 15.693467 0.000000 0.000000 0.000000 0.000000 -0.217574
    4 22.146629 -0.000001 0.000000 -0.076159 -0.081291 -0.766716
    5 0.000008 -0.000006 -5.615750 0.064220 3.085033 -0.265157
    6 15.693467 0.000000 0.000000 0.000000 0.000000 -0.208695
    7 22.146629 0.000000 0.000000 -0.074318 -0.042583 -1.033569
    8 1.384163 -0.004728 0.000002 -0.000004 -0.000001 -0.060233
    9 5.939814 -0.004730 0.000000 0.000144 0.183161 0.052337
    10 5.939809 -0.003975 0.000000 0.000000 0.000000 0.008718
    11 4.991439 -0.003975 0.000000 0.000000 0.000000 0.000000
    12 4.991436 -0.001575 0.000000 0.000000 0.000000 0.000000
    13 0.000005 0.001564 3.638375 -0.000010 -1.283530 3.140806
    14 0.000005 0.001585 -3.638375 -0.000010 1.283530 3.140787
    15 1.977383 0.000000 0.000000 0.003216 -0.183121 -0.027244
    16 3.723980 2.768055 -0.395205 0.000000 -3.141591 -1.570795
    17 2.863741 -0.721077 0.000003 0.000000 0.000000 0.000000
    18 8.842831 0.000000 -0.000001 -0.397352 1.226859 -0.255607
    19 9.341934 0.000000 -0.000002 0.000000 0.000000 -0.016875
    20 9.664096 0.000000 0.000003 -1.569555 0.000011 0.000000
    21 8.842831 0.000000 0.000001 0.549470 -0.897291 -0.238923
    22 9.341934 0.000000 -0.000001 0.000000 0.000000 -0.077937
    23 9.664095 0.000000 -0.000002 1.569555 0.165706 0.000000
    24 6.829857 -0.000001 0.000000 0.001241 0.000000 0.000000
    25 0.021231 -0.065060 1.351066 0.024842 0.006382 -0.003186
    26 1.089796 -0.106998 1.928624 -1.335374 -0.038786 1.563732
    27 -2.120019 0.552893 1.060325 0.522049 -2.764527 -1.418481
  time 7
    0 -0.010494 0.000000 31.834658 0.000000 0.000000 -1.570834
    1 -0.225251 1.043002 9.745319 -1.570795 -1.570451 0.000000
    2 -0.000008 0.000010 5.615750 0.111020 3.133059 -0.180727
    3 15.693467 0.000000 0.000000 0.000000 0.000000 -0.217574
    4 22.146629 -0.000001 0.000000 -0.076185 -0.081291 -0.675730
    5 0.000008 -0.000006 -5.615750 0.068054 3.089634 -0.195917
    6 15.693467 0.000000 0.000000 0.000000 0.000000 -0.208695
    7 22.146629 0.000000 0.000000 -0.074345 -0.042583 -0.964263
    8 1.384163 -0.004728 0.000002 -0.000004 -0.000001 -0.060233
    9 5.939814 -0.004730 0.000000 0.000144 0.183232 0.052337
    10 5.939809 -0.003975 0.000000 0.000000 0.000000 0.000578
    11 4.991439 -0.003975 0.000000 0.000000 0.000000 0.000000
    12 4.991436 -0.001575 0.000000 0.000000 0.000000 0.000000
    13 0.000005 0.001564 3.638375 -0.000010 -1.283530 3.140806
    14 0.000005 0.001585 -3.638375 -0.000010 1.283530 3.140787
    15 1.977383 0.000000 0.000000 0.003216 -0.183188 -0.019107
    16 3.723980 2.768055 -0.395205 0.000000 -3.141591 -1.570795
    17 2.863741 -0.721077 0.000003 0.000000 0.000000 0.000000
    18 8.842831 0.000000 -0.000001 -0.374904 1.228771 -0.232206
    19 9.341934 0.000000 -0.000002 0.000000 0.000000 -0.016875
    20 9.664096 0.000000 0.000003 -1.569555 0.000011 0.000000
    21 8.842831 0.000000 0.000001 0.537254 -0.899014 -0.227065
    22 9.341934 0.000000 -0.000001 0.000000 0.000000 -0.077937
    23 9.664095 0.000000 -0.000002 1.569555 0.165706 0.000000
    24 6.829857 -0.000001 0.000000 0.001241 0.000000 0.000000
    25 0.021231 -0.065060 1.351066 0.024842 0.006382 -0.003186
    26 1.089796 -0.106998 1.928624 -1.335374 -0.038786 1.563732
    27 -2.120019 0.552893 1.060325 0.522049 -2.764527 -1.418481
  time 8
    0 -0.010494 0.000000 31.194013 0.000000 0.000000 -1.570834
    1 -0.205719 1.043002 9.745319 -1.570795 -1.570451 0.000000
    2 -0.000008 0.000010 5.615750 0.111020 3.149740 -0.030343
    3 15.693467 0.000000 0.000000 0.000000 0.000000 -0.217574
    4 22.146629 -0.000001 0.000000 -0.076211 -0.081291 -0.524349
    5 0.000008 -0.000006 -5.615750 0.074188 3.098837 -0.065278
    6 15.693467 0.000000 0.000000 0.000000 0.000000 -0.208695
    7 22.146629 0.000000 0.000000 -0.074372 -0.042583 -0.833369
    8 1.384163 -0.004728 0.000002 -0.000004 -0.000001 -0.060233
    9 5.939814 -0.004730 0.000000 0.000144 0.183424 0.052337
    10 5.939809 -0.003975 0.000000 0.000000 0.000000 -0.007600
    11 4.991439 -0.003975 0.000000 0.000000 0.000000 0.000000
    12 4.991436 -0.001575 0.000000 0.000000 0.000000 0.000000
    13 0.000005 0.001564 3.638375 -0.000010 -1.283530 3.140806
    14 0.000005 0.001585 -3.638375 -0.000010 1.283530 3.140787
    15 1.977383 0.000000 0.000000 0.003216 -0.183388 -0.010924
    16 3.723980 2.768055 -0.395205 0.000000 -3.141591 -1.570795
    17 2.863741 -0.721077 0.000003 0.000000 0.000000 0.000000
    18 8.842831 0.000000 -0.000001 -0.352061 1.230683 -0.208397
    19 9.341934 0.000000 -0.000002 0.000000 0.000000 -0.016875
    20 9.664096 0.000000 0.000003 -1.569555 0.000011 0.000000
    21 8.842831 0.000000 0.000001 0.524871 -0.900545 -0.214996
    22 9.341934 0.000000 -0.000001 0.000000 0.000000 -0.077937
    23 9.664095 0.000000 -0.000002 1.569555 0.165706 0.000000
    24 6.829857 -0.000001 0.000000 0.001241 0.000000 0.000000
    25 0.021231 -0.065060 1.351066 0.024842 0.006382 -0.003186
    26 1.089796 -0.106998 1.928624 -1.335374 -0.038786 1.563732
    27 -2.120019 0.552893 1.060325 0.522049 -2.764527 -1.418481
  time 9
    0 -0.010494 0.000000 30.592432 0.000000 0.000000 -1.570834
    1 -0.182280 1.046908 9.745319 -1.570795 -1.570451 0.000000
    2 -0.000008 0.000010 5.615750 0.109870 3.159614 0.058725
    3 15.693467 0.000000 0.000000 0.000000 0.000000 -0.217574
    4 22.146629 -0.000001 0.000000 -0.076237 -0.081267 -0.434736
    5 0.000008 -0.000006 -5.615750 0.077255 3.104493 0.009612
    6 15.693467 0.000000 0.000000 0.000000 0.000000 -0.208695
    7 22.146629 0.000000 0.000000 -0.074399 -0.042560 -0.758385
    8 1.384163 -0.004728 0.000002 -0.000004 -0.000001 -0.060233
    9 5.939814 -0.004730 0.000000 0.000144 0.183700 0.052337
    10 5.939809 -0.003975 0.000000 0.000000 0.000000 -0.015841
    11 4.991439 -0.003975 0.000000 0.000000 0.000000 0.000000
    12 4.991436 -0.001575 0.000000 0.000000 0.000000 0.000000
    13 0.000005 0.001564 3.638375 -0.000010 -1.283530 3.140806
    14 0.000005 0.001585 -3.638375 -0.000010 1.283530 3.140787
    15 1.977383 0.000000 0.000000 0.003216 -0.183677 -0.002651
    16 3.723980 2.768055 -0.395205 0.000000 -3.141591 -1.570795
    17 2.863741 -0.721077 0.000003 0.000000 0.000000 0.000000
    18 8.842831 0.000000 -0.000001 -0.328936 1.232504 -0.184178
    19 9.341934 0.000000 -0.000002 0.000000 0.000000 -0.016875
    20 9.664096 0.000000 0.000003 -1.569555 0.000011 0.000000
    21 8.842831 0.000000 0.000001 0.512323 -0.901885 -0.202857
    22 9.341934 0.000000 -0.000001 0.000000 0.000000 -0.077937
    23 9.664095 0.000000 -0.000002 1.569555 0.165706 0.000000
    24 6.829857 -0.000001 0.000000 0.001241 0.000000 0.000000
    25 0.021231 -0.065060 1.351066 0.024842 0.006382 -0.003186
    26 1.089796 -0.106998 1.928624 -1.335374 -0.038786 1.563732
    27 -2.120019 0.552893 1.060325 0.522049 -2.764527 -1.418481
  time 10
    0 -0.010494 0.000000 30.244766 0.000000 0.000000 -1.570834
    1 -0.162749 1.046908 9.745319 -1.570795 -1.570451 0.000000
    2 -0.000008 0.000010 5.615750 0.110253 3.157601 0.040729
    3 15.693467 0.000000 0.000000 0.000000 0.000000 -0.217574
    4 22.146629 -0.000001 0.000000 -0.076290 -0.081244 -0.452842
    5 0.000008 -0.000006 -5.615750 0.076105 3.102288 -0.018847
    6 15.693467 0.000000 0.000000 0.000000 0.000000 -0.208695
    7 22.146629 0.000000 0.000000 -0.074453 -0.042514 -0.786850
    8 1.384163 -0.004728 0.000002 -0.000004 -0.000001 -0.060233
    9 5.939814 -0.004730 0.000000 0.000144 0.184035 0.052337
    10 5.939809 -0.003975 0.000000 0.000000 0.000000 -0.024107
    11 4.991439 -0.003975 0.000000 0.000000 0.000000 0.000000
    12 4.991436 -0.001575 0.000000 0.000000 0.000000 0.000000
    13 0.000005 0.001564 3.638375 -0.000010 -1.283530 3.140806
    14 0.000005 0.001585 -3.638375 -0.000010 1.283530 3.140787
    15 1.977383 0.000000 0.000000 0.003216 -0.184010 0.005531
    16 3.723980 2.768055 -0.395205 0.000000 -3.141591 -1.570795
    17 2.863741 -0.721077 0.000003 0.000000 0.000000 0.000000
    18 8.842831 0.000000 -0.000001 -0.305529 1.234143 -0.159795
    19 9.341934 0.000000 -0.000002 0.000000 0.000000 -0.016875
    20 9.664096 0.000000 0.000003 -1.569555 0.000011 0.000000
    21 8.842831 0.000000 0.000001 0.499664 -0.903098 -0.190577
    22 9.341934 0.000000 -0.000001 0.000000 0.000000 -0.077937
    23 9.664095 0.000000 -0.000002 1.569555 0.165706 0.000000
    24 6.829857 -0.000001 0.000000 0.001241 0.000000 0.000000
    25 0.021231 -0.065060 1.351066 0.024842 0.006382 -0.003186
    26 1.089796 -0.106998 1.928624 -1.335374 -0.038786 1.563732
    27 -2.120019 0.552893 1.060325 0.522049 -2.764527 -1.418481
  time 11
    0 -0.010494 0.000000 30.119762 0.000000 0.000000 -1.570834
    1 -0.139310 1.050814 9.745319 -1.570795 -1.570451 0.000000
    2 -0.000008 0.000010 5.615750 0.111020 3.150315 -0.024125
    3 15.693467 0.000000 0.000000 0.000000 0.000000 -0.217574
    4 22.146629 -0.000001 0.000000 -0.076368 -0.081220 -0.518074
    5 0.000008 -0.000006 -5.615750 0.073038 3.096728 -0.092465
    6 15.693467 0.000000 0.000000 0.000000 0.000000 -0.208695
    7 22.146629 0.000000 0.000000 -0.074507 -0.042467 -0.860596
    8 1.384163 -0.004728 0.000002 -0.000004 -0.000001 -0.060233
    9 5.939814 -0.004730 0.000000 0.000144 0.184395 0.052337
    10 5.939809 -0.003975 0.000000 0.000000 0.000000 -0.032385
    11 4.991439 -0.003975 0.000000 0.000000 0.000000 0.000000
    12 4.991436 -0.001575 0.000000 0.000000 0.000000 0.000000
    13 0.000005 0.001564 3.638375 -0.000010 -1.283530 3.140806
    14 0.000005 0.001585 -3.638375 -0.000010 1.283530 3.140787
    15 1.977383 0.000000 0.000000 0.003251 -0.184366 0.013849
    16 3.723980 2.768055 -0.395205 0.000000 -3.141591 -1.570795
    17 2.863741 -0.721077 0.000003 0.000000 0.000000 0.000000
    18 8.842831 0.000000 -0.000001 -0.281897 1.235691 -0.135086
    19 9.341934 0.000000 -0.000002 0.000000 0.000000 -0.016875
    20 9.664096 0.000000 0.000003 -1.569555 0.000011 0.000000
    21 8.842831 0.000000 0.000001 0.486950 -0.904247 -0.178228
    22 9.341934 0.000000 -0.000001 0.000000 0.000000 -0.077937
    23 9.664095 0.000000 -0.000002 1.569555 0.165706 0.000000
    24 6.829857 -0.000001 0.000000 0.001241 0.000000 0.000000
    25 0.021231 -0.065060 1.351066 0.024842 0.006382 -0.003186
    26 1.089796 -0.106998 1.928624 -1.335374 -0.038786 1.563732
    27 -2.120019 0.552893 1.060325 0.522049 -2.764527 -1.418481
  time 12
    0 -0.010494 0.000000 30.026009 0.000000 0.000000 -1.570834
    1 -0.119779 1.050814 9.745319 -1.570795 -1.570451 0.000000
    2 -0.000008 0.000010 5.615750 0.111404 3.141879 -0.098888
    3 15.693467 0.000000 0.000000 0.000000 0.000000 -0.217574
    4 22.146629 -0.000001 0.000000 -0.076421 -0.081196 -0.593307
    5 0.000008 -0.000006 -5.615750 0.069300 3.091072 -0.169749
    6 15.693467 0.000000 0.000000 0.000000 0.000000 -0.208695
    7 22.146629 0.000000 0.000000 -0.074587 -0.042420 -0.938055
    8 1.384163 -0.004728 0.000002 -0.000004 -0.000001 -0.060233
    9 5.939814 -0.004730 0.000000 0.000144 0.184742 0.052337
    10 5.939809 -0.003975 0.000000 0.000000 0.000000 -0.040664
    11 4.991439 -0.003975 0.000000 0.000000 0.000000 0.000000
    12 4.991436 -0.001575 0.000000 0.000000 0.000000 0.000000
    13 0.000005 0.001564 3.638375 -0.000010 -1.283530 3.140806
    14 0.000005 0.001585 -3.638375 -0.000010 1.283530 3.140787
    15 1.977383 0.000000 0.000000 0.003251 -0.184699 0.022122
    16 3.723980 2.768055 -0.395205 0.000000 -3.141591 -1.570795
    17 2.863741 -0.721077 0.000003 0.000000 0.000000 0.000000
    18 8.842831 0.000000 -0.000001 -0.258039 1.237057 -0.110212
    19 9.341934 0.000000 -0.000002 0.000000 0.000000 -0.016875
    20 9.664096 0.000000 0.000003 -1.569555 0.000011 0.000000
    21 8.842831 0.000000 0.000001 0.474181 -0.905268 -0.165878
    22 9.341934 0.000000 -0.000001 0.000000 0.000000 -0.077937
    23 9.664095 0.000000 -0.000002 1.569555 0.165706 0.000000
    24 6.829857 -0.000001 0.000000 0.001241 0.000000 0.000000
    25 0.021231 -0.065060 1.351066 0.024842 0.006382 -0.003186
    26 1.089796 -0.106998 1.928624 -1.335374 -0.038786 1.563732
    27 -2.120019 0.552893 1.060325 0.522049 -2.764527 -1.418481
  time 13
    0 -0.010494 0.000000 29.971320 0.000000 0.000000 -1.570834
    1 -0.096340 1.054721 9.745319 -1.570795 -1.570451 0.000000
    2 -0.000008 0.000010 5.615750 0.111308 3.136606 -0.146404
    3 15.693467 0.000000 0.000000 0.000000 0.000000 -0.217574
    4 22.146629 -0.000001 0.000000 -0.076473 -0.081173 -0.641153
    5 0.000008 -0.000006 -5.615750 0.067287 3.088292 -0.209307
    6 15.693467 0.000000 0.000000 0.000000 0.000000 -0.208695
    7 22.146629 0.000000 0.000000 -0.074668 -0.042397 -0.977659
    8 1.384163 -0.004728 0.000002 -0.000004 -0.000001 -0.060233
    9 5.939814 -0.004730 0.000000 0.000144 0.185042 0.052337
    10 5.939809 -0.003975 0.000000 0.000000 0.000000 -0.048917
    11 4.991439 -0.003975 0.000000 0.000000 0.000000 0.000000
    12 4.991436 -0.001575 0.000000 0.000000 0.000000 0.000000
    13 0.000005 0.001564 3.638375 -0.000010 -1.283530 3.140806
    14 0.000005 0.001585 -3.638375 -0.000010 1.283530 3.140787
    15 1.977383 0.000000 0.000000 0.003251 -0.185010 0.030349
    16 3.723980 2.768055 -0.395205 0.000000 -3.141591 -1.570795
    17 2.863741 -0.721077 0.000003 0.000000 0.000000 0.000000
    18 8.842831 0.000000 -0.000001 -0.234068 1.238058 -0.085175
    19 9.341934 0.000000 -0.000002 0.000000 0.000000 -0.016875
    20 9.664096 0.000000 0.000003 -1.569555 0.000011 0.000000
    21 8.842831 0.000000 0.000001 0.461467 -0.906225 -0.153528
    22 9.341934 0.000000 -0.000001 0.000000 0.000000 -0.077937
    23 9.664095 0.000000 -0.000002 1.569555 0.165706 0.000000
    24 6.829857 -0.000001 0.000000 0.001241 0.000000 0.000000
    25 0.021231 -0.065060 1.351066 0.024842 0.006382 -0.003186
    26 1.089796 -0.106998 1.928624 -1.335374 -0.038786 1.563732
    27 -2.120019 0.552893 1.060325 0.522049 -2.764527 -1.418481
  time 14
    0 -0.010494 0.000000 29.943975 0.000000 0.000000 -1.570834
    1 -0.076809 1.054721 9.745319 -1.570795 -1.570451 0.000000
    2 -0.000008 0.000010 5.615750 0.111404 3.136702 -0.144483
    3 15.693467 0.000000 0.000000 0.000000 0.000000 -0.217574
    4 22.146629 -0.000001 0.000000 -0.076578 -0.081149 -0.639258
    5 0.000008 -0.000006 -5.615750 0.069204 3.090784 -0.171480
    6 15.693467 0.000000 0.000000 0.000000 0.000000 -0.208695
    7 22.146629 0.000000 0.000000 -0.074748 -0.042374 -0.939803
    8 1.384163 -0.004728 0.000002 -0.000004 -0.000001 -0.060233
    9 5.939814 -0.004730 0.000000 0.000144 0.185270 0.052337
    10 5.939809 -0.003975 0.000000 0.000000 0.000000 -0.057120
    11 4.991439 -0.003975 0.000000 0.000000 0.000000 0.000000
    12 4.991436 -0.001575 0.000000 0.000000 0.000000 0.000000
    13 0.000005 0.001564 3.638375 -0.000010 -1.283530 3.140806
    14 0.000005 0.001585 -3.638375 -0.000010 1.283530 3.140787
    15 1.977383 0.000000 0.000000 0.003251 -0.185233 0.038577
    16 3.723980 2.768055 -0.395205 0.000000 -3.141591 -1.570795
    17 2.863741 -0.721077 0.000003 0.000000 0.000000 0.000000
    18 8.842831 0.000000 -0.000001 -0.210041 1.238878 -0.060138
    19 9.341934 0.000000 -0.000002 0.000000 0.000000 -0.016875
    20 9.664096 0.000000 0.000003 -1.569555 0.000011 0.000000
    21 8.842831 0.000000 0.000001 0.448752 -0.907118 -0.141249
    22 9.341934 0.000000 -0.000001 0.000000 0.000000 -0.077937
    23 9.664095 0.000000 -0.000002 1.569555 0.165706 0.000000
    24 6.829857 -0.000001 0.000000 0.001241 0.000000 0.000000
    25 0.021231 -0.065060 1.351066 0.024842 0.006382 -0.003186
    26 1.089796 -0.106998 1.928624 -1.335374 -0.038786 1.563732
    27 -2.120019 0.552893 1.060325 0.522049 -2.764527 -1.418481
  time 15
    0 -0.010494 0.000000 29.943975 0.000000 0.000000 -1.570834
    1 -0.053370 1.054721 9.745319 -1.570795 -1.570451 0.000000
    2 -0.000008 0.000010 5.615750 0.111500 3.139865 -0.116226
    3 15.693467 0.000000 0.000000 0.000000 0.000000 -0.217574
    4 22.146629 -0.000001 0.000000 -0.076657 -0.081126 -0.610825
    5 0.000008 -0.000006 -5.615750 0.073134 3.096440 -0.091091
    6 15.693467 0.000000 0.000000 0.000000 0.000000 -0.208695
    7 22.146629 0.000000 0.000000 -0.074829 -0.042327 -0.859286
    8 1.384163 -0.004728 0.000002 -0.000004 -0.000001 -0.060233
    9 5.939814 -0.004730 0.000000 0.000144 0.185378 0.052337
    10 5.939809 -0.003975 0.000000 0.000000 0.000000 -0.065285
    11 4.991439 -0.003975 0.000000 0.000000 0.000000 0.000000
    12 4.991436 -0.001575 0.000000 0.000000 0.000000 0.000000
    13 0.000005 0.001564 3.638375 -0.000010 -1.283530 3.140806
    14 0.000005 0.001585 -3.638375 -0.000010 1.283530 3.140787
    15 1.977383 0.000000 0.000000 0.003251 -0.185344 0.046714
    16 3.723980 2.768055 -0.395205 0.000000 -3.141591 -1.570795
    17 2.863741 -0.721077 0.000003 0.000000 0.000000 0.000000
    18 8.842831 0.000000 -0.000001 -0.186014 1.239333 -0.035101
    19 9.341934 0.000000 -0.000002 0.000000 0.000000 -0.016875
    20 9.664096 0.000000 0.000003 -1.569555 0.000011 0.000000
    21 8.842831 0.000000 0.000001 0.436149 -0.908076 -0.128969
    22 9.341934 0.000000 -0.000001 0.000000 0.000000 -0.077937
    23 9.664095 0.000000 -0.000002 1.569555 0.165706 0.000000
    24 6.829857 -0.000001 0.000000 0.001241 0.000000 0.000000
    25 0.021231 -0.065060 1.351066 0.024842 0.006382 -0.003186
    26 1.089796 -0.106998 1.928624 -1.335374 -0.038786 1.563732
    27 -2.120019 0.552893 1.060325 0.522049 -2.764527 -1.418481
  time 16
    0 -0.010494 0.000000 29.967413 0.000000 0.000000 -1.570834
    1 -0.033838 1.054721 9.745319 -1.570795 -1.570451 0.000000
    2 -0.000008 0.000010 5.615750 0.111500 3.142358 -0.092822
    3 15.693467 0.000000 0.000000 0.000000 0.000000 -0.217574
    4 22.146629 -0.000001 0.000000 -0.076657 -0.081126 -0.587229
    5 0.000008 -0.000006 -5.615750 0.075434 3.100370 -0.038244
    6 15.693467 0.000000 0.000000 0.000000 0.000000 -0.208695
    7 22.146629 0.000000 0.000000 -0.074856 -0.042304 -0.806360
    8 1.384163 -0.004728 0.000002 -0.000004 -0.000001 -0.060233
    9 5.939814 -0.004730 0.000000 0.000144 0.185354 0.052337
    10 5.939809 -0.003975 0.000000 0.000000 0.000000 -0.073363
    11 4.991439 -0.003975 0.000000 0.000000 0.000000 0.000000
    12 4.991436 -0.001575 0.000000 0.000000 0.000000 0.000000
    13 0.000005 0.001564 3.638375 -0.000010 -1.283530 3.140806
    14 0.000005 0.001585 -3.638375 -0.000010 1.283530 3.140787
    15 1.977383 0.000000 0.000000 0.003251 -0.185322 0.054806
    16 3.723980 2.768055 -0.395205 0.000000 -3.141591 -1.570795
    17 2.863741 -0.721077 0.000003 0.000000 0.000000 0.000000
    18 8.842831 0.000000 -0.000001 -0.162212 1.239515 -0.010309
    19 9.341934 0.000000 -0.000002 0.000000 0.000000 -0.016875
    20 9.664096 0.000000 0.000003 -1.569555 0.000011 0.000000
    21 8.842831 0.000000 0.000001 0.423601 -0.909033 -0.116830
    22 9.341934 0.000000 -0.000001 0.000000 0.000000 -0.077937
    23 9.664095 0.000000 -0.000002 1.569555 0.165706 0.000000
    24 6.829857 -0.000001 0.000000 0.001241 0.000000 0.000000
    25 0.021231 -0.065060 1.351066 0.024842 0.006382 -0.003186
    26 1.089796 -0.106998 1.928624 -1.335374 -0.038786 1.563732
    27 -2.120019 0.552893 1.060325 0.522049 -2.764527 -1.418481
  time 17
    0 -0.010494 0.000000 30.014290 0.000000 0.000000 -1.570834
    1 -0.010400 1.054721 9.745319 -1.570795 -1.570451 0.000000
    2 -0.000008 0.000010 5.615750 0.111596 3.143029 -0.085796
    3 15.693467 0.000000 0.000000 0.000000 0.000000 -0.215083
    4 22.146629 -0.000001 0.000000 -0.076814 -0.081055 -0.582653
    5 0.000008 -0.000006 -5.615750 0.075434 3.100275 -0.037277
    6 15.693467 0.000000 0.000000 0.000000 0.000000 -0.206596
    7 22.146629 0.000000 0.000000 -0.074990 -0.042234 -0.807452
    8 1.384163 -0.004728 0.000002 -0.000004 -0.000001 -0.060233
    9 5.939814 -0.004730 0.000000 0.000144 0.185150 0.052337
    10 5.939809 -0.003975 0.000000 0.000000 0.000000 -0.081365
    11 4.991439 -0.003975 0.000000 0.000000 0.000000 0.000000
    12 4.991436 -0.001575 0.000000 0.000000 0.000000 0.000000
    13 0.000005 0.001564 3.638375 -0.000010 -1.283530 3.140806
    14 0.000005 0.001585 -3.638375 -0.000010 1.283530 3.140787
    15 1.977383 0.000000 0.000000 0.003251 -0.185122 0.062808
    16 3.723980 2.768055 -0.395205 0.000000 -3.141591 -1.570795
    17 2.863741 -0.721077 0.000003 0.000000 0.000000 0.000000
    18 8.842831 0.000000 -0.000001 -0.138636 1.239333 0.014155
    19 9.341934 0.000000 -0.000002 0.000000 0.000000 -0.016875
    20 9.664096 0.000000 0.000003 -1.569555 0.000011 0.000000
    21 8.842831 0.000000 0.000001 0.411218 -0.910118 -0.104761
    22 9.341934 0.000000 -0.000001 0.000000 0.000000 -0.077937
    23 9.664095 0.000000 -0.000002 1.569555 0.165706 0.000000
    24 6.829857 -0.000001 0.000000 0.001241 0.000000 0.000000
    25 0.021231 -0.065060 1.351066 0.024842 0.006382 -0.003186
    26 1.089796 -0.106998 1.928624 -1.335374 -0.038786 1.563732
    27 -2.120019 0.552893 1.060325 0.522049 -2.764527 -1.418481
  time 18
    0 -0.010494 0.000000 30.076792 0.000000 0.000000 -1.570834
    1 0.009132 1.050814 9.745319 -1.570795 -1.570451 0.000000
    2 -0.000008 0.000010 5.615750 0.111691 3.143125 -0.082965
    3 15.693467 0.000000 0.000000 0.000000 0.000000 -0.210841
    4 22.146629 -0.000001 0.000000 -0.077050 -0.080985 -0.584026
    5 0.000008 -0.000006 -5.615750 0.074667 3.098549 -0.056420
    6 15.693467 0.000000 0.000000 0.000000 0.000000 -0.203073
    7 22.146629 0.000000 0.000000 -0.075232 -0.042094 -0.830166
    8 1.384163 -0.004728 0.000002 -0.000004 -0.000001 -0.060233
    9 5.939814 -0.004730 0.000000 0.000144 0.184742 0.052337
    10 5.939809 -0.003975 0.000000 0.000000 0.000000 -0.089254
    11 4.991439 -0.003975 0.000000 0.000000 0.000000 0.000000
    12 4.991436 -0.001575 0.000000 0.000000 0.000000 0.000000
    13 0.000005 0.001564 3.638375 -0.000010 -1.283530 3.140806
    14 0.000005 0.001585 -3.638375 -0.000010 1.283530 3.140787
    15 1.977383 0.000000 0.000000 0.003251 -0.184699 0.070674
    16 3.723980 2.768055 -0.395205 0.000000 -3.141591 -1.570795
    17 2.863741 -0.721077 0.000003 0.000000 0.000000 0.000000
    18 8.842831 0.000000 -0.000001 -0.115398 1.238696 0.038374
    19 9.341934 0.000000 -0.000002 0.000000 0.000000 -0.016875
    20 9.664096 0.000000 0.000003 -1.569555 0.000011 0.000000
    21 8.842831 0.000000 0.000001 0.399057 -0.911266 -0.092833
    22 9.341934 0.000000 -0.000001 0.000000 0.000000 -0.077937
    23 9.664095 0.000000 -0.000002 1.569555 0.165706 0.000000
    24 6.829857 -0.000001 0.000000 0.001241 0.000000 0.000000
    25 0.021231 -0.065060 1.351066 0.024842 0.006382 -0.003186
    26 1.089796 -0.106998 1.928624 -1.335374 -0.038786 1.563732
    27 -2.120019 0.552893 1.060325 0.522049 -2.764527 -1.418481
  time 19
    0 -0.010494 0.000000 30.151013 0.000000 0.000000 -1.570834
    1 0.028663 1.046908 9.745319 -1.570795 -1.570451 0.000000
    2 -0.000008 0.000010 5.615750 0.111596 3.143508 -0.079831
    3 15.693467 0.000000 0.000000 0.000000 0.000000 -0.209965
    4 22.146629 -0.000001 0.000000 -0.076971 -0.081008 -0.581738
    5 0.000008 -0.000006 -5.615750 0.073517 3.096728 -0.081876
    6 15.693467 0.000000 0.000000 0.000000 0.000000 -0.202324
    7 22.146629 0.000000 0.000000 -0.075151 -0.042140 -0.856374
    8 1.384163 -0.004728 0.000002 -0.000004 -0.000001 -0.060233
    9 5.939814 -0.004730 0.000000 0.000144 0.184083 0.052337
    10 5.939809 -0.003975 0.000000 0.000000 0.000000 -0.097030
    11 4.991439 -0.003975 0.000000 0.000000 0.000000 0.000000
    12 4.991436 -0.001575 0.000000 0.000000 0.000000 0.000000
    13 0.000005 0.001564 3.638375 -0.000010 -1.283530 3.140806
    14 0.000005 0.001585 -3.638375 -0.000010 1.283530 3.140787
    15 1.977383 0.000000 0.000000 0.003216 -0.184055 0.078449
    16 3.723980 2.768055 -0.395205 0.000000 -3.141591 -1.570795
    17 2.863741 -0.721077 0.000003 0.000000 0.000000 0.000000
    18 8.842831 0.000000 -0.000001 -0.092612 1.237694 0.062020
    19 9.341934 0.000000 -0.000002 0.000000 0.000000 -0.016875
    20 9.664096 0.000000 0.000003 -1.569555 0.000011 0.000000
    21 8.842831 0.000000 0.000001 0.387061 -0.912543 -0.081115
    22 9.341934 0.000000 -0.000001 0.000000 0.000000 -0.077937
    23 9.664095 0.000000 -0.000002 1.569555 0.165706 0.000000
    24 6.829857 -0.000001 0.000000 0.001241 0.000000 0.000000
    25 0.021231 -0.065060 1.351066 0.024842 0.006382 -0.003186
    26 1.089796 -0.106998 1.928624 -1.335374 -0.038786 1.563732
    27 -2.120019 0.552893 1.060325 0.522049 -2.764527 -1.418481
  time 20
    0 -0.006587 0.000000 30.240859 0.000000 0.000000 -1.570834
    1 0.048195 1.039095 9.745319 -1.570795 -1.570451 0.000000
    2 -0.000008 0.000010 5.615750 0.111212 3.145138 -0.071844
    3 15.693467 0.000000 0.000000 0.000000 0.000000 -0.217574
    4 22.146629 -0.000001 0.000000 -0.076159 -0.081291 -0.566051
    5 0.000008 -0.000006 -5.615750 0.072750 3.096440 -0.099695
    6 15.693467 0.000000 0.000000 0.000000 0.000000 -0.208695
    7 22.146629 0.000000 0.000000 -0.074318 -0.042583 -0.867876
    8 1.384163 -0.004728 0.000002 -0.000004 -0.000001 -0.060233
    9 5.939814 -0.004730 0.000000 0.000144 0.183161 0.052337
    10 5.939809 -0.003975 0.000000 0.000000 0.000000 -0.104655
    11 4.991439 -0.003975 0.000000 0.000000 0.000000 0.000000
    12 4.991436 -0.001575 0.000000 0.000000 0.000000 0.000000
    13 0.000005 0.001564 3.638375 -0.000010 -1.283530 3.140806
    14 0.000005 0.001585 -3.638375 -0.000010 1.283530 3.140787
    15 1.977383 0.000000 0.000000 0.003216 -0.183121 0.086089
    16 3.723980 2.768055 -0.395205 0.000000 -3.141591 -1.570795
    17 2.863741 -0.721077 0.000003 0.000000 0.000000 0.000000
    18 8.842831 0.000000 -0.000001 -0.070502 1.236237 0.085011
    19 9.341934 0.000000 -0.000002 0.000000 0.000000 -0.016875
    20 9.664096 0.000000 0.000003 -1.569555 0.000011 0.000000
    21 8.842831 0.000000 0.000001 0.375232 -0.914010 -0.069537
    22 9.341934 0.000000 -0.000001 0.000000 0.000000 -0.077937
    23 9.664095 0.000000 -0.000002 1.569555 0.165706 0.000000
    24 6.829857 -0.000001 0.000000 0.001241 0.000000 0.000000
    25 0.021231 -0.065060 1.351066 0.024842 0.006382 -0.003186
    26 1.089796 -0.106998 1.928624 -1.335374 -0.038786 1.563732
    27 -2.120019 0.552893 1.060325 0.522049 -2.764527 -1.418481
  time 21
    0 -0.006587 0.000000 30.369769 0.000000 0.000000 -1.570834
    1 0.048195 0.949249 9.745319 -1.570795 -1.570451 0.000000
    2 -0.000008 0.000010 5.615750 0.108144 3.155204 -0.033325
    3 15.693467 0.000000 0.000000 0.000000 0.000000 -0.284974
    4 22.146629 -0.000001 0.000000 -0.070131 -0.083550 -0.459836
    5 0.000008 -0.000006 -5.615750 0.073229 3.104684 -0.085338
    6 15.693467 0.000000 0.000000 0.000000 0.000000 -0.264990
    7 22.146629 0.000000 0.000000 -0.067977 -0.045988 -0.796896
    8 1.384163 -0.004728 0.000002 -0.000004 -0.000001 -0.060233
    9 5.939814 -0.004730 0.000000 0.000132 0.167053 0.052337
    10 5.939809 -0.003975 0.000000 0.000000 0.000000 -0.104655
    11 4.991439 -0.003975 0.000000 0.000000 0.000000 0.000000
    12 4.991436 -0.001575 0.000000 0.000000 0.000000 0.000000
    13 0.000005 0.001564 3.638375 -0.000010 -1.283530 3.140806
    14 0.000005 0.001585 -3.638375 -0.000010 1.283530 3.140787
    15 1.977383 0.000000 0.000000 0.002936 -0.167029 0.086134
    16 3.723980 2.768055 -0.395205 0.000000 -3.141591 -1.570795
    17 2.863741 -0.721077 0.000003 0.000000 0.000000 0.000000
    18 8.842831 0.000000 -0.000001 -0.073041 1.220212 0.081002
    19 9.341934 0.000000 -0.000002 0.000000 0.000000 -0.016875
    20 9.664096 0.000000 0.000003 -1.569555 0.000011 0.000000
    21 8.842831 0.000000 0.000001 0.377885 -0.929964 -0.070028
    22 9.341934 0.000000 -0.000001 0.000000 0.000000 -0.077937
    23 9.664095 0.000000 -0.000002 1.569555 0.165706 0.000000
    24 6.829857 -0.000001 0.000000 0.001241 0.000000 0.000000
    25 0.021231 -0.065060 1.351066 0.024842 0.006382 -0.003186
    26 1.089796 -0.106998 1.928624 -1.335374 -0.038786 1.563732
    27 -2.120019 0.552893 1.060325 0.522049 -2.764527 -1.418481
  time 22
    0 -0.006587 0.000000 30.568994 0.000000 0.000000 -1.570834
    1 0.048195 0.726586 9.745319 -1.570795 -1.570451 0.000000
    2 -0.000008 0.000010 5.615750 0.103159 3.169201 0.022481
    3 15.693467 0.000000 0.000000 0.000000 0.000000 -0.378298
    4 22.146629 -0.000001 0.000000 -0.061954 -0.087033 -0.310219
    5 0.000008 -0.000006 -5.615750 0.073805 3.116188 -0.064260
    6 15.693467 0.000000 0.000000 0.000000 0.000000 -0.343023
    7 22.146629 0.000000 0.000000 -0.059272 -0.050839 -0.697451
    8 1.384163 -0.004728 0.000002 -0.000004 -0.000001 -0.060233
    9 5.939814 -0.004730 0.000000 0.000096 0.127348 0.052337
    10 5.939809 -0.003975 0.000000 0.000000 0.000000 -0.104655
    11 4.991439 -0.003975 0.000000 0.000000 0.000000 0.000000
    12 4.991436 -0.001575 0.000000 0.000000 0.000000 0.000000
    13 0.000005 0.001564 3.638375 -0.000010 -1.283530 3.140806
    14 0.000005 0.001585 -3.638375 -0.000010 1.283530 3.140787
    15 1.977383 0.000000 0.000000 0.002202 -0.127334 0.086270
    16 3.723980 2.768055 -0.395205 0.000000 -3.141591 -1.570795
    17 2.863741 -0.721077 0.000003 0.000000 0.000000 0.000000
    18 8.842831 0.000000 -0.000001 -0.078117 1.180787 0.072247
    19 9.341934 0.000000 -0.000002 0.000000 0.000000 -0.016875
    20 9.664096 0.000000 0.000003 -1.569555 0.000011 0.000000
    21 8.842831 0.000000 0.000001 0.384684 -0.969275 -0.071572
    22 9.341934 0.000000 -0.000001 0.000000 0.000000 -0.077937
    23 9.664095 0.000000 -0.000002 1.569555 0.165706 0.000000
    24 6.829857 -0.000001 0.000000 0.001241 0.000000 0.000000
    25 0.021231 -0.065060 1.351066 0.024842 0.006382 -0.003186
    26 1.089796 -0.106998 1.928624 -1.335374 -0.038786 1.563732
    27 -2.120019 0.552893 1.060325 0.522049 -2.764527 -1.418481
  time 23
    0 -0.002681 0.000000 30.811189 0.000000 0.000000 -1.570834
    1 0.048195 0.496110 9.745319 -1.570795 -1.570451 0.000000
    2 -0.000008 0.000010 5.615750 0.097502 3.182431 0.077428
    3 15.693467 0.000000 0.000000 0.000000 0.000000 -0.467986
    4 22.146629 -0.000001 0.000000 -0.054276 -0.090799 -0.165244
    5 0.000008 -0.000006 -5.615750 0.074092 3.127308 -0.043387
    6 15.693467 0.000000 0.000000 0.000000 0.000000 -0.417983
    7 22.146629 0.000000 0.000000 -0.051023 -0.055666 -0.601283
    8 1.384163 -0.004728 0.000002 -0.000004 -0.000001 -0.060233
    9 5.939814 -0.004730 0.000000 0.000060 0.086864 0.052318
    10 5.939809 -0.003975 0.000000 0.000000 0.000000 -0.104655
    11 4.991439 -0.003975 0.000000 0.000000 0.000000 0.000000
    12 4.991436 -0.001575 0.000000 0.000000 0.000000 0.000000
    13 0.000005 0.001564 3.638375 -0.000010 -1.283530 3.140806
    14 0.000005 0.001585 -3.638375 -0.000010 1.283530 3.140787
    15 1.977383 0.000000 0.000000 0.001503 -0.086838 0.086315
    16 3.723980 2.768055 -0.395205 0.000000 -3.141591 -1.570795
    17 2.863741 -0.721077 0.000003 0.000000 0.000000 0.000000
    18 8.842831 0.000000 -0.000001 -0.082065 1.140451 0.064556
    19 9.341934 0.000000 -0.000002 0.000000 0.000000 -0.016875
    20 9.664096 0.000000 0.000003 -1.569555 0.000011 0.000000
    21 8.842831 0.000000 0.000001 0.392202 -1.009351 -0.073817
    22 9.341934 0.000000 -0.000001 0.000000 0.000000 -0.077937
    23 9.664095 0.000000 -0.000002 1.569555 0.165706 0.000000
    24 6.829857 -0.000001 0.000000 0.001241 0.000000 0.000000
    25 0.021231 -0.065060 1.351066 0.024842 0.006382 -0.003186
    26 1.089796 -0.106998 1.928624 -1.335374 -0.038786 1.563732
    27 -2.120019 0.552893 1.060325 0.522049 -2.764527 -1.418481
  time 24
    0 0.001225 0.000000 31.076822 0.000000 0.000000 -1.570834
    1 0.048195 0.269540 9.745319 -1.570795 -1.570451 0.000000
    2 -0.000008 0.000010 5.615750 0.091750 3.194319 0.128483
    3 15.693467 0.000000 0.000000 0.000000 0.000000 -0.549661
    4 22.146629 -0.000001 0.000000 -0.047488 -0.094588 -0.032360
    5 0.000008 -0.000006 -5.615750 0.074188 3.137469 -0.023938
    6 15.693467 0.000000 0.000000 0.000000 0.000000 -0.486271
    7 22.146629 0.000000 0.000000 -0.043608 -0.060191 -0.513267
    8 1.384163 -0.004728 0.000002 -0.000004 -0.000001 -0.060233
    9 5.939814 -0.004730 0.000000 0.000036 0.047543 0.052318
    10 5.939809 -0.003975 0.000000 0.000000 0.000000 -0.104655
    11 4.991439 -0.003975 0.000000 0.000000 0.000000 0.000000
    12 4.991436 -0.001575 0.000000 0.000000 0.000000 0.000000
    13 0.000005 0.001564 3.638375 -0.000010 -1.283530 3.140806
    14 0.000005 0.001585 -3.638375 -0.000010 1.283530 3.140787
    15 1.977383 0.000000 0.000000 0.000804 -0.047542 0.086360
    16 3.723980 2.768055 -0.395205 0.000000 -3.141591 -1.570795
    17 2.863741 -0.721077 0.000003 0.000000 0.000000 0.000000
    18 8.842831 0.000000 -0.000001 -0.084885 1.101389 0.058093
    19 9.341934 0.000000 -0.000002 0.000000 0.000000 -0.016875
    20 9.664096 0.000000 0.000003 -1.569555 0.000011 0.000000
    21 8.842831 0.000000 0.000001 0.400162 -1.048278 -0.076694
    22 9.341934 0.000000 -0.000001 0.000000 0.000000 -0.077937
    23 9.664095 0.000000 -0.000002 1.569555 0.165706 0.000000
    24 6.829857 -0.000001 0.000000 0.001241 0.000000 0.000000
    25 0.021231 -0.065060 1.351066 0.024842 0.006382 -0.003186
    26 1.089796 -0.106998 1.928624 -1.335374 -0.038786 1.563732
    27 -2.120019 0.552893 1.060325 0.522049 -2.764527 -1.418481
  time 25
    0 0.001225 0.000000 31.338549 0.000000 0.000000 -1.570834
    1 0.048195 0.054690 9.745319 -1.570795 -1.570451 0.000000
    2 -0.000008 0.000010 5.615750 0.086381 3.204193 0.170035
    3 15.693467 0.000000 0.000000 0.000000 0.000000 -0.621304
    4 22.146629 -0.000001 0.000000 -0.041644 -0.098212 0.080979
    5 0.000008 -0.000006 -5.615750 0.074092 3.146192 -0.008563
    6 15.693467 0.000000 0.000000 0.000000 0.000000 -0.546164
    7 22.146629 0.000000 0.000000 -0.037132 -0.064318 -0.437774
    8 1.384163 -0.004728 0.000002 -0.000004 -0.000001 -0.060233
    9 5.939814 -0.004730 0.000000 0.000000 0.009911 0.052318
    10 5.939809 -0.003975 0.000000 0.000000 0.000000 -0.104655
    11 4.991439 -0.003975 0.000000 0.000000 0.000000 0.000000
    12 4.991436 -0.001575 0.000000 0.000000 0.000000 0.000000
    13 0.000005 0.001564 3.638375 -0.000010 -1.283530 3.140806
    14 0.000005 0.001585 -3.638375 -0.000010 1.283530 3.140787
    15 1.977383 0.000000 0.000000 0.000140 -0.009913 0.086406
    16 3.723980 2.768055 -0.395205 0.000000 -3.141591 -1.570795
    17 2.863741 -0.721077 0.000003 0.000000 0.000000 0.000000
    18 8.842831 0.000000 -0.000001 -0.086915 1.063967 0.052529
    19 9.341934 0.000000 -0.000002 0.000000 0.000000 -0.016875
    20 9.664096 0.000000 0.000003 -1.569555 0.000011 0.000000
    21 8.842831 0.000000 0.000001 0.408510 -1.085482 -0.080202
    22 9.341934 0.000000 -0.000001 0.000000 0.000000 -0.077937
    23 9.664095 0.000000 -0.000002 1.569555 0.165706 0.000000
    24 6.829857 -0.000001 0.000000 0.001241 0.000000 0.000000
    25 0.021231 -0.065060 1.351066 0.024842 0.006382 -0.003186
    26 1.089796 -0.106998 1.928624 -1.335374 -0.038786 1.563732
    27 -2.120019 0.552893 1.060325 0.522049 -2.764527 -1.418481
  time 26
    0 0.005132 0.000000 31.584650 0.000000 0.000000 -1.570834
    1 0.048195 -0.144535 9.745319 -1.570795 -1.570451 0.000000
    2 -0.000008 0.000010 5.615750 0.086285 3.206973 0.126006
    3 15.693467 0.000000 0.000000 0.000000 0.000000 -0.688974
    4 22.146629 -0.000001 0.000000 -0.035694 -0.102237 0.104445
    5 0.000008 -0.000006 -5.615750 0.074380 3.152136 -0.035648
    6 15.693467 0.000000 0.000000 0.000000 0.000000 -0.601484
    7 22.146629 0.000000 0.000000 -0.030442 -0.068703 -0.409527
    8 1.384163 -0.004728 0.000002 -0.000004 -0.000001 -0.060233
    9 5.939814 -0.004730 0.000000 -0.000012 -0.025467 0.052318
    10 5.939809 -0.003975 0.000000 0.000000 0.000000 -0.104655
    11 4.991439 -0.003975 0.000000 0.000000 0.000000 0.000000
    12 4.991436 -0.001575 0.000000 0.000000 0.000000 0.000000
    13 0.000005 0.001564 3.638375 -0.000010 -1.283530 3.140806
    14 0.000005 0.001585 -3.638375 -0.000010 1.283530 3.140787
    15 1.977383 0.000000 0.000000 -0.000419 0.025449 0.086406
    16 3.723980 2.768055 -0.395205 0.000000 -3.141591 -1.570795
    17 2.863741 -0.721077 0.000003 0.000000 0.000000 0.000000
    18 8.842831 0.000000 -0.000001 -0.088382 1.028730 0.047701
    19 9.341934 0.000000 -0.000002 0.000000 0.000000 -0.016875
    20 9.664096 0.000000 0.000003 -1.569555 0.000011 0.000000
    21 8.842831 0.000000 0.000001 0.417244 -1.120453 -0.084483
    22 9.341934 0.000000 -0.000001 0.000000 0.000000 -0.077937
    23 9.664095 0.000000 -0.000002 1.569555 0.165706 0.000000
    24 6.829857 -0.000001 0.000000 0.001241 0.000000 0.000000
    25 0.021231 -0.065060 1.351066 0.024842 0.006382 -0.003186
    26 1.089796 -0.106998 1.928624 -1.335374 -0.038786 1.563732
    27 -2.120019 0.552893 1.060325 0.522049 -2.764527 -1.418481
  time 27
    0 0.005132 0.000000 31.787781 0.000000 0.000000 -1.570834
    1 0.048195 -0.328134 9.745319 -1.570795 -1.570451 0.000000
    2 -0.000008 0.000010 5.615750 0.096160 3.194990 -0.108644
    3 15.693467 0.000000 0.000000 0.000000 0.000000 -0.796168
    4 22.146629 -0.000001 0.000000 -0.026391 -0.106850 -0.023733
    5 0.000008 -0.000006 -5.615750 0.076009 3.153766 -0.166541
    6 15.693467 0.000000 0.000000 0.000000 0.000000 -0.691061
    7 22.146629 0.000000 0.000000 -0.020393 -0.074230 -0.451096
    8 1.384163 -0.004728 0.000002 -0.000004 -0.000001 -0.060233
    9 5.939814 -0.004730 0.000000 -0.000036 -0.057682 0.052318
    10 5.939809 -0.003975 0.000000 0.000000 0.000000 -0.104655
    11 4.991439 -0.003975 0.000000 0.000000 0.000000 0.000000
    12 4.991436 -0.001575 0.000000 0.000000 0.000000 0.000000
    13 0.000005 0.001564 3.638375 -0.000010 -1.283530 3.140806
    14 0.000005 0.001585 -3.638375 -0.000010 1.283530 3.140787
    15 1.977383 0.000000 0.000000 -0.000979 0.057677 0.086360
    16 3.723980 2.768055 -0.395205 0.000000 -3.141591 -1.570795
    17 2.863741 -0.721077 0.000003 0.000000 0.000000 0.000000
    18 8.842831 0.000000 -0.000001 -0.089341 0.996680 0.043692
    19 9.341934 0.000000 -0.000002 0.000000 0.000000 -0.016875
    20 9.664096 0.000000 0.000003 -1.569555 0.000011 0.000000
    21 8.842831 0.000000 0.000001 0.426143 -1.152297 -0.089324
    22 9.341934 0.000000 -0.000001 0.000000 0.000000 -0.077937
    23 9.664095 0.000000 -0.000002 1.569555 0.165706 0.000000
    24 6.829857 -0.000001 0.000000 0.001241 0.000000 0.000000
    25 0.021231 -0.065060 1.351066 0.024842 0.006382 -0.003186
    26 1.089796 -0.106998 1.928624 -1.335374 -0.038786 1.563732
    27 -2.120019 0.552893 1.060325 0.522049 -2.764527 -1.418481
  time 28
    0 0.005132 0.000000 31.924504 0.000000 0.000000 -1.570834
    1 0.048195 -0.476576 9.745319 -1.570795 -1.570451 0.000000
    2 -0.000008 0.000010 5.615750 0.103063 3.180801 -0.339149
    3 15.693467 0.000000 0.000000 0.000000 0.000000 -0.894946
    4 22.146629 -0.000001 0.000000 -0.016982 -0.108944 -0.156420
    5 0.000008 -0.000006 -5.615750 0.077639 3.154628 -0.294583
    6 15.693467 0.000000 0.000000 0.000000 0.000000 -0.773592
    7 22.146629 0.000000 0.000000 -0.010452 -0.078101 -0.496887
    8 1.384163 -0.004728 0.000002 -0.000004 -0.000001 -0.060233
    9 5.939814 -0.004730 0.000000 -0.000060 -0.083880 0.052318
    10 5.939809 -0.003975 0.000000 0.000000 0.000000 -0.104655
    11 4.991439 -0.003975 0.000000 0.000000 0.000000 0.000000
    12 4.991436 -0.001575 0.000000 0.000000 0.000000 0.000000
    13 0.000005 0.001564 3.638375 -0.000010 -1.283530 3.140806
    14 0.000005 0.001585 -3.638375 -0.000010 1.283530 3.140787
    15 1.977383 0.000000 0.000000 -0.001433 0.083859 0.086360
    16 3.723980 2.768055 -0.395205 0.000000 -3.141591 -1.570795
    17 2.863741 -0.721077 0.000003 0.000000 0.000000 0.000000
    18 8.842831 0.000000 -0.000001 -0.089905 0.970639 0.040583
    19 9.341934 0.000000 -0.000002 0.000000 0.000000 -0.016875
    20 9.664096 0.000000 0.000003 -1.569555 0.000011 0.000000
    21 8.842831 0.000000 0.000001 0.434159 -1.178206 -0.094026
    22 9.341934 0.000000 -0.000001 0.000000 0.000000 -0.077937
    23 9.664095 0.000000 -0.000002 1.569555 0.165706 0.000000
    24 6.829857 -0.000001 0.000000 0.001241 0.000000 0.000000
    25 0.021231 -0.065060 1.351066 0.024842 0.006382 -0.003186
    26 1.089796 -0.106998 1.928624 -1.335374 -0.038786 1.563732
    27 -2.120019 0.552893 1.060325 0.522049 -2.764527 -1.418481
  time 29
    0 0.005132 0.000000 31.975287 0.000000 0.000000 -1.570834
    1 0.048195 -0.445325 9.745319 -1.570795 -1.570451 0.000000
    2 -0.000008 0.000010 5.615750 0.104885 3.173611 -0.451975
    3 15.693467 0.000000 0.000000 0.000000 0.000000 -0.889223
    4 22.146629 -0.000001 0.000000 -0.011846 -0.109039 -0.275642
    5 0.000008 -0.000006 -5.615750 0.078405 3.156737 -0.340251
    6 15.693467 0.000000 0.000000 0.000000 0.000000 -0.758150
    7 22.146629 0.000000 0.000000 -0.004998 -0.079687 -0.558112
    8 1.384163 -0.004728 0.000002 -0.000004 -0.000001 -0.060233
    9 5.939814 -0.004730 0.000000 -0.000060 -0.078499 0.052318
    10 5.939809 -0.003975 0.000000 0.000000 0.000000 -0.104655
    11 4.991439 -0.003975 0.000000 0.000000 0.000000 0.000000
    12 4.991436 -0.001575 0.000000 0.000000 0.000000 0.000000
    13 0.000005 0.001564 3.638375 -0.000010 -1.283530 3.140806
    14 0.000005 0.001585 -3.638375 -0.000010 1.283530 3.140787
    15 1.977383 0.000000 0.000000 -0.001363 0.078481 0.086360
    16 3.723980 2.768055 -0.395205 0.000000 -3.141591 -1.570795
    17 2.863741 -0.721077 0.000003 0.000000 0.000000 0.000000
    18 8.842831 0.000000 -0.000001 -0.089792 0.976011 0.041156
    19 9.341934 0.000000 -0.000002 0.000000 0.000000 -0.016875
    20 9.664096 0.000000 0.000003 -1.569555 0.000011 0.000000
    21 8.842831 0.000000 0.000001 0.432445 -1.172846 -0.092973
    22 9.341934 0.000000 -0.000001 0.000000 0.000000 -0.077937
    23 9.664095 0.000000 -0.000002 1.569555 0.165706 0.000000
    24 6.829857 -0.000001 0.000000 0.001241 0.000000 0.000000
    25 0.021231 -0.065060 1.351066 0.024842 0.006382 -0.003186
    26 1.089796 -0.106998 1.928624 -1.335374 -0.038786 1.563732
    27 -2.120019 0.552893 1.060325 0.522049 -2.764527 -1.418481
  time 30
    0 0.001225 0.000000 31.889347 0.000000 0.000000 -1.570834
    1 0.048195 -0.191411 9.745319 -1.570795 -1.570451 0.000000
    2 -0.000008 0.000010 5.615750 0.097598 3.192689 -0.221268
    3 15.693467 0.000000 0.000000 0.000000 0.000000 -0.516803
    4 22.146629 -0.000001 0.000000 -0.016878 -0.108897 -0.416173
    5 0.000008 -0.000006 -5.615750 0.074859 3.168145 -0.119855
    6 15.693467 0.000000 0.000000 0.000000 0.000000 -0.377355
    7 22.146629 0.000000 0.000000 -0.010586 -0.078824 -0.717908
    8 1.384163 -0.004728 0.000002 -0.000004 -0.000001 -0.060233
    9 5.939814 -0.004730 0.000000 -0.000024 -0.034012 0.052318
    10 5.939809 -0.003975 0.000000 0.000000 0.000000 -0.104655
    11 4.991439 -0.003975 0.000000 0.000000 0.000000 0.000000
    12 4.991436 -0.001575 0.000000 0.000000 0.000000 0.000000
    13 0.000005 0.001564 3.638375 -0.000010 -1.283530 3.140806
    14 0.000005 0.001585 -3.638375 -0.000010 1.283530 3.140787
    15 1.977383 0.000000 0.000000 -0.000559 0.034006 0.086406
    16 3.723980 2.768055 -0.395205 0.000000 -3.141591 -1.570795
    17 2.863741 -0.721077 0.000003 0.000000 0.000000 0.000000
    18 8.842831 0.000000 -0.000001 -0.088664 1.020262 0.046638
    19 9.341934 0.000000 -0.000002 0.000000 0.000000 -0.016875
    20 9.664096 0.000000 0.000003 -1.569555 0.000011 0.000000
    21 8.842831 0.000000 0.000001 0.419510 -1.128941 -0.085676
    22 9.341934 0.000000 -0.000001 0.000000 0.000000 -0.077937
    23 9.664095 0.000000 -0.000002 1.569555 0.165706 0.000000
    24 6.829857 -0.000001 0.000000 0.001241 0.000000 0.000000
    25 0.021231 -0.065060 1.351066 0.024842 0.006382 -0.003186
    26 1.089796 -0.106998 1.928624 -1.335374 -0.038786 1.563732
    27 -2.120019 0.552893 1.060325 0.522049 -2.764527 -1.418481
  time 31
    0 -0.002681 0.000000 31.654965 0.000000 0.000000 -1.570834
    1 0.048195 0.058597 9.745319 -1.570795 -1.570451 0.000000
    2 -0.000008 0.000010 5.615750 0.090408 3.201700 -0.041464
    3 15.693467 0.000000 0.000000 0.000000 0.000000 -0.274067
    4 22.146629 -0.000001 0.000000 -0.024740 -0.105720 -0.478464
    5 0.000008 -0.000006 -5.615750 0.071025 3.169391 0.026973
    6 15.693467 0.000000 0.000000 0.000000 0.000000 -0.157498
    7 22.146629 0.000000 0.000000 -0.018727 -0.073996 -0.790708
    8 1.384163 -0.004728 0.000002 -0.000004 -0.000001 -0.060233
    9 5.939814 -0.004730 0.000000 0.000000 0.010666 0.052318
    10 5.939809 -0.003975 0.000000 0.000000 0.000000 -0.104655
    11 4.991439 -0.003975 0.000000 0.000000 0.000000 0.000000
    12 4.991436 -0.001575 0.000000 0.000000 0.000000 0.000000
    13 0.000005 0.001564 3.638375 -0.000010 -1.283530 3.140806
    14 0.000005 0.001585 -3.638375 -0.000010 1.283530 3.140787
    15 1.977383 0.000000 0.000000 0.000175 -0.010646 0.086406
    16 3.723980 2.768055 -0.395205 0.000000 -3.141591 -1.570795
    17 2.863741 -0.721077 0.000003 0.000000 0.000000 0.000000
    18 8.842831 0.000000 -0.000001 -0.086915 1.064695 0.052611
    19 9.341934 0.000000 -0.000002 0.000000 0.000000 -0.016875
    20 9.664096 0.000000 0.000003 -1.569555 0.000011 0.000000
    21 8.842831 0.000000 0.000001 0.408344 -1.084717 -0.080132
    22 9.341934 0.000000 -0.000001 0.000000 0.000000 -0.077937
    23 9.664095 0.000000 -0.000002 1.569555 0.165706 0.000000
    24 6.829857 -0.000001 0.000000 0.001241 0.000000 0.000000
    25 0.021231 -0.065060 1.351066 0.024842 0.006382 -0.003186
    26 1.089796 -0.106998 1.928624 -1.335374 -0.038786 1.563732
    27 -2.120019 0.552893 1.060325 0.522049 -2.764527 -1.418481
  time 32
    0 -0.010494 0.000000 31.326830 0.000000 0.000000 -1.570834
    1 0.048195 0.289072 9.745319 -1.570795 -1.570451 0.000000
    2 -0.000008 0.000010 5.615750 0.098749 3.177446 -0.127398
    3 15.693467 0.000000 0.000000 0.000000 0.000000 -0.563397
    4 22.146629 -0.000001 0.000000 -0.039206 -0.097530 -0.275512
    5 0.000008 -0.000006 -5.615750 0.071121 3.138715 -0.142715
    6 15.693467 0.000000 0.000000 0.000000 0.000000 -0.586117
    7 22.146629 0.000000 0.000000 -0.033666 -0.062732 -0.532487
    8 1.384163 -0.004728 0.000002 -0.000004 -0.000001 -0.060233
    9 5.939814 -0.004730 0.000000 0.000036 0.051198 0.052318
    10 5.939809 -0.003975 0.000000 0.000000 0.000000 -0.104655
    11 4.991439 -0.003975 0.000000 0.000000 0.000000 0.000000
    12 4.991436 -0.001575 0.000000 0.000000 0.000000 0.000000
    13 0.000005 0.001564 3.638375 -0.000010 -1.283530 3.140806
    14 0.000005 0.001585 -3.638375 -0.000010 1.283530 3.140787
    15 1.977383 0.000000 0.000000 0.000874 -0.051187 0.086360
    16 3.723980 2.768055 -0.395205 0.000000 -3.141591 -1.570795
    17 2.863741 -0.721077 0.000003 0.000000 0.000000 0.000000
    18 8.842831 0.000000 -0.000001 -0.084659 1.105031 0.058665
    19 9.341934 0.000000 -0.000002 0.000000 0.000000 -0.016875
    20 9.664096 0.000000 0.000003 -1.569555 0.000011 0.000000
    21 8.842831 0.000000 0.000001 0.399389 -1.044641 -0.076343
    22 9.341934 0.000000 -0.000001 0.000000 0.000000 -0.077937
    23 9.664095 0.000000 -0.000002 1.569555 0.165706 0.000000
    24 6.829857 -0.000001 0.000000 0.001241 0.000000 0.000000
    25 0.021231 -0.065060 1.351066 0.024842 0.006382 -0.003186
    26 1.089796 -0.106998 1.928624 -1.335374 -0.038786 1.563732
    27 -2.120019 0.552893 1.060325 0.522049 -2.764527 -1.418481
  time 33
    0 -0.018307 0.000000 30.955725 0.000000 0.000000 -1.570834
    1 0.048195 0.515642 9.745319 -1.570795 -1.570451 0.000000
    2 -0.000008 0.000010 5.615750 0.104980 3.155013 -0.199886
    3 15.693467 0.000000 0.000000 0.000000 0.000000 -0.757384
    4 22.146629 -0.000001 0.000000 -0.053568 -0.091364 -0.154459
    5 0.000008 -0.000006 -5.615750 0.067766 3.111970 -0.274372
    6 15.693467 0.000000 0.000000 0.000000 0.000000 -0.875462
    7 22.146629 0.000000 0.000000 -0.049492 -0.054990 -0.375384
    8 1.384163 -0.004728 0.000002 -0.000004 -0.000001 -0.060233
    9 5.939814 -0.004730 0.000000 0.000072 0.090747 0.052318
    10 5.939809 -0.003975 0.000000 0.000000 0.000000 -0.104655
    11 4.991439 -0.003975 0.000000 0.000000 0.000000 0.000000
    12 4.991436 -0.001575 0.000000 0.000000 0.000000 0.000000
    13 0.000005 0.001564 3.638375 -0.000010 -1.283530 3.140806
    14 0.000005 0.001585 -3.638375 -0.000010 1.283530 3.140787
    15 1.977383 0.000000 0.000000 0.001573 -0.090727 0.086315
    16 3.723980 2.768055 -0.395205 0.000000 -3.141591 -1.570795
    17 2.863741 -0.721077 0.000003 0.000000 0.000000 0.000000
    18 8.842831 0.000000 -0.000001 -0.081726 1.144366 0.065293
    19 9.341934 0.000000 -0.000002 0.000000 0.000000 -0.016875
    20 9.664096 0.000000 0.000003 -1.569555 0.000011 0.000000
    21 8.842831 0.000000 0.000001 0.391428 -1.005522 -0.073536
    22 9.341934 0.000000 -0.000001 0.000000 0.000000 -0.077937
    23 9.664095 0.000000 -0.000002 1.569555 0.165706 0.000000
    24 6.829857 -0.000001 0.000000 0.001241 0.000000 0.000000
    25 0.021231 -0.065060 1.351066 0.024842 0.006382 -0.003186
    26 1.089796 -0.106998 1.928624 -1.335374 -0.038786 1.563732
    27 -2.120019 0.552893 1.060325 0.522049 -2.764527 -1.418481
  time 34
    0 -0.026119 0.000000 30.576807 0.000000 0.000000 -1.570834
    1 0.048195 0.820339 9.745319 -1.570795 -1.570451 0.000000
    2 -0.000008 0.000010 5.615750 0.108624 3.148206 -0.133261
    3 15.693467 0.000000 0.000000 0.000000 0.000000 -0.470477
    4 22.146629 -0.000001 0.000000 -0.067039 -0.085833 -0.374798
    5 0.000008 -0.000006 -5.615750 0.069875 3.101713 -0.185429
    6 15.693467 0.000000 0.000000 0.000000 0.000000 -0.523826
    7 22.146629 0.000000 0.000000 -0.064404 -0.048320 -0.638265
    8 1.384163 -0.004728 0.000002 -0.000004 -0.000001 -0.060233
    9 5.939814 -0.004730 0.000000 0.000108 0.144007 0.052337
    10 5.939809 -0.003975 0.000000 0.000000 0.000000 -0.104655
    11 4.991439 -0.003975 0.000000 0.000000 0.000000 0.000000
    12 4.991436 -0.001575 0.000000 0.000000 0.000000 0.000000
    13 0.000005 0.001564 3.638375 -0.000010 -1.283530 3.140806
    14 0.000005 0.001585 -3.638375 -0.000010 1.283530 3.140787
    15 1.977383 0.000000 0.000000 0.002517 -0.143981 0.086225
    16 3.723980 2.768055 -0.395205 0.000000 -3.141591 -1.570795
    17 2.863741 -0.721077 0.000003 0.000000 0.000000 0.000000
    18 8.842831 0.000000 -0.000001 -0.076143 1.197267 0.075766
    19 9.341934 0.000000 -0.000002 0.000000 0.000000 -0.016875
    20 9.664096 0.000000 0.000003 -1.569555 0.000011 0.000000
    21 8.842831 0.000000 0.000001 0.381755 -0.952810 -0.070870
    22 9.341934 0.000000 -0.000001 0.000000 0.000000 -0.077937
    23 9.664095 0.000000 -0.000002 1.569555 0.165706 0.000000
    24 6.829857 -0.000001 0.000000 0.001241 0.000000 0.000000
    25 0.021231 -0.065060 1.351066 0.024842 0.006382 -0.003186
    26 1.089796 -0.106998 1.928624 -1.335374 -0.038786 1.563732
    27 -2.120019 0.552893 1.060325 0.522049 -2.764527 -1.418481
  time 35
    0 -0.010494 0.000000 30.252578 0.000000 0.000000 -1.570834
    1 -0.248689 1.043002 9.745319 -1.570795 -1.570451 0.000000
    2 -0.000008 0.000010 5.615750 0.111308 3.144180 -0.080488
    3 15.693467 0.000000 0.000000 0.000000 0.000000 -0.217574
    4 22.146629 -0.000001 0.000000 -0.076159 -0.081291 -0.574810
    5 0.000008 -0.000006 -5.615750 0.077351 3.104876 0.013482
    6 15.693467 0.000000 0.000000 0.000000 0.000000 -0.208695
    7 22.146629 0.000000 0.000000 -0.074318 -0.042583 -0.754454
    8 1.384163 -0.004728 0.000002 -0.000004 -0.000001 -0.060233
    9 5.939814 -0.004730 0.000000 0.000144 0.183161 0.052337
    10 5.939809 -0.003975 0.000000 0.000000 0.000000 0.008718
    11 4.991439 -0.003975 0.000000 0.000000 0.000000 0.000000
    12 4.991436 -0.001575 0.000000 0.000000 0.000000 0.000000
    13 0.000005 0.001564 3.638375 -0.000010 -1.283530 3.140806
    14 0.000005 0.001585 -3.638375 -0.000010 1.283530 3.140787
    15 1.977383 0.000000 0.000000 0.003216 -0.183121 -0.027244
    16 3.723980 2.768055 -0.395205 0.000000 -3.141591 -1.570795
    17 2.863741 -0.721077 0.000003 0.000000 0.000000 0.000000
    18 8.842831 0.000000 -0.000001 -0.397352 1.226859 -0.255607
    19 9.341934 0.000000 -0.000002 0.000000 0.000000 -0.016875
    20 9.664096 0.000000 0.000003 -1.569555 0.000011 0.000000
    21 8.842831 0.000000 0.000001 0.549470 -0.897291 -0.238923
    22 9.341934 0.000000 -0.000001 0.000000 0.000000 -0.077937
    23 9.664095 0.000000 -0.000002 1.569555 0.165706 0.000000
    24 6.829857 -0.000001 0.000000 0.001241 0.000000 0.000000
    25 0.021231 -0.065060 1.351066 0.024842 0.006382 -0.003186
    26 1.089796 -0.106998 1.928624 -1.335374 -0.038786 1.563732
    27 -2.120019 0.552893 1.060325 0.522049 -2.764527 -1.418481
end
