version 1
nodes
  0 "Bip01" -1
  1 "Bip01 Pelvis" 0
  2 "Bip01 L Thigh" 1
  3 "Bip01 L Calf" 2
  4 "Bip01 L Foot" 3
  5 "Bip01 R Thigh" 1
  6 "Bip01 R Calf" 5
  7 "Bip01 R Foot" 6
  8 "Bip01 Spine" 1
  9 "Bip01 Spine1" 8
  10 "Bip01 Spine2" 9
  11 "Bip01 Spine3" 10
  12 "Bip01 Neck" 11
  13 "Bip01 L Clavicle" 12
  14 "Bip01 R Clavicle" 12
  15 "Bip01 Head" 12
  16 "Bone05" 15
  17 "Bone06" 16
  18 "Bip01 L UpperArm" 13
  19 "Bip01 L Forearm" 18
  20 "Bip01 L Hand" 19
  21 "Bip01 R UpperArm" 14
  22 "Bip01 R Forearm" 21
  23 "Bip01 R Hand" 22
  24 "Bip01 R Finger0" 23
  25 "p_desert_eagle" 24
  26 "GLOCK_model" 24
  27 "Cylinder02" 24
end
skeleton
  time 0
    0 2.665369 1.894589 10.427755 0.002890 -0.095883 -1.571121
    1 -4.639448 -0.773460 9.745319 -1.570795 -1.570451 0.000000
    2 -0.000008 0.000010 5.615750 -3.041334 6.259893 1.299257
    3 15.693467 0.000000 0.000000 0.000000 0.000000 -1.913966
    4 22.146629 -0.000001 0.000000 0.057735 -0.085174 -0.025497
    5 0.000008 -0.000006 -5.615750 -0.202144 3.071708 -0.698413
    6 15.693467 0.000000 0.000000 0.000000 0.000000 -2.116344
    7 22.146629 0.000000 0.000000 0.093771 0.192418 1.338110
    8 1.384163 -0.004728 0.000002 -0.431549 -0.129382 0.271186
    9 5.939814 -0.004730 0.000000 -0.093624 -0.026965 0.225909
    10 5.939809 -0.003975 0.000000 -0.095440 -0.068108 0.133523
    11 4.991439 -0.003975 0.000000 -0.087226 0.060306 0.042835
    12 4.991436 -0.001575 0.000000 0.000000 0.000000 0.000000
    13 0.000005 0.001564 3.638375 -0.000010 -1.283530 3.140806
    14 0.000005 0.001585 -3.638375 -0.000010 1.082936 3.140787
    15 1.977383 0.000000 0.000000 0.691316 0.215549 -0.175929
    16 3.723980 2.768055 -0.395205 0.000000 -3.141591 -1.570795
    17 2.863741 -0.721077 0.000003 0.000000 0.000000 0.000000
    18 8.842831 0.000000 -0.000001 0.140948 -0.513145 -0.801677
    19 9.341934 0.000000 -0.000002 0.000000 0.000000 -1.771678
    20 9.664096 0.000000 0.000003 -2.898114 -0.057670 0.101359
    21 8.842831 0.000000 0.000001 -0.060641 -0.191748 -2.120347
    22 9.341934 0.000000 -0.000001 0.000000 0.000000 -0.783277
    23 9.664095 0.000000 -0.000002 2.840650 0.149945 0.479192
    24 6.829857 -0.000001 0.000000 0.001241 0.000000 0.000000
    25 0.103265 -0.365850 1.319815 0.024842 0.006382 -0.003186
    26 1.089796 -0.106998 1.928624 -1.335374 -0.038786 1.563732
    27 -2.037985 0.252103 1.029074 0.522049 -2.764527 -1.418481
  time 1
    0 2.665369 1.894589 10.439474 0.002890 -0.095883 -1.571121
    1 -4.748826 -0.746116 9.745319 -1.570795 -1.570451 0.000000
    2 -0.000008 0.000010 5.615750 -3.042676 6.260468 1.299307
    3 15.693467 0.000000 0.000000 0.000000 0.000000 -1.909118
    4 22.146629 -0.000001 0.000000 0.056739 -0.084115 -0.030269
    5 0.000008 -0.000006 -5.615750 -0.204540 3.072858 -0.705948
    6 15.693467 0.000000 0.000000 0.000000 0.000000 -2.119718
    7 22.146629 0.000000 0.000000 0.094792 0.194004 1.334106
    8 1.384163 -0.004728 0.000002 -0.447631 -0.130368 0.280967
    9 5.939814 -0.004730 0.000000 -0.096967 -0.027601 0.232143
    10 5.939809 -0.003975 0.000000 -0.098790 -0.070469 0.133887
    11 4.991439 -0.003975 0.000000 -0.090279 0.062404 0.042566
    12 4.991436 -0.001575 0.000000 0.000000 0.000000 0.000000
    13 0.000005 0.001564 3.638375 -0.000010 -1.283530 3.140806
    14 0.000005 0.001585 -3.638375 -0.000010 1.082936 3.140787
    15 1.977383 0.000000 0.000000 0.715680 0.224506 -0.183433
    16 3.723980 2.768055 -0.395205 0.000000 -3.141591 -1.570795
    17 2.863741 -0.721077 0.000003 0.000000 0.000000 0.000000
    18 8.842831 0.000000 -0.000001 0.108856 -0.530445 -0.772139
    19 9.341934 0.000000 -0.000002 0.000000 0.000000 -1.781382
    20 9.664096 0.000000 0.000003 -2.898114 -0.057670 0.101359
    21 8.842831 0.000000 0.000001 -0.058153 -0.189387 -2.149747
    22 9.341934 0.000000 -0.000001 0.000000 0.000000 -0.783277
    23 9.664095 0.000000 -0.000002 2.840650 0.149945 0.479192
    24 6.829857 -0.000001 0.000000 0.001241 0.000000 0.000000
    25 0.103265 -0.365850 1.319815 0.024842 0.006382 -0.003186
    26 1.089796 -0.106998 1.928624 -1.335374 -0.038786 1.563732
    27 -2.037985 0.252103 1.029074 0.522049 -2.764527 -1.418481
  time 2
    0 2.665369 1.894589 10.451193 0.002890 -0.095883 -1.571121
    1 -4.858204 -0.710958 9.745319 -1.570795 -1.570451 0.000000
    2 -0.000008 0.000010 5.615750 -3.044402 6.261139 1.299358
    3 15.693467 0.000000 0.000000 0.000000 0.000000 -1.904338
    4 22.146629 -0.000001 0.000000 0.055429 -0.082726 -0.034910
    5 0.000008 -0.000006 -5.615750 -0.207320 3.073817 -0.713330
    6 15.693467 0.000000 0.000000 0.000000 0.000000 -2.122866
    7 22.146629 0.000000 0.000000 0.096082 0.196033 1.330102
    8 1.384163 -0.004728 0.000002 -0.459750 -0.129364 0.291478
    9 5.939814 -0.004730 0.000000 -0.099388 -0.028044 0.236675
    10 5.939809 -0.003975 0.000000 -0.101215 -0.072183 0.134164
    11 4.991439 -0.003975 0.000000 -0.092493 0.063914 0.042372
    12 4.991436 -0.001575 0.000000 0.000000 0.000000 0.000000
    13 0.000005 0.001564 3.638375 -0.000010 -1.283530 3.140806
    14 0.000005 0.001585 -3.638375 -0.000010 1.082936 3.140787
    15 1.977383 0.000000 0.000000 0.732983 0.232374 -0.192158
    16 3.723980 2.768055 -0.395205 0.000000 -3.141591 -1.570795
    17 2.863741 -0.721077 0.000003 0.000000 0.000000 0.000000
    18 8.842831 0.000000 -0.000001 0.071405 -0.546015 -0.748575
    19 9.341934 0.000000 -0.000002 0.000000 0.000000 -1.795013
    20 9.664096 0.000000 0.000003 -2.898114 -0.057670 0.101359
    21 8.842831 0.000000 0.000001 -0.057213 -0.184409 -2.172482
    22 9.341934 0.000000 -0.000001 0.000000 0.000000 -0.783277
    23 9.664095 0.000000 -0.000002 2.840650 0.149945 0.479192
    24 6.829857 -0.000001 0.000000 0.001241 0.000000 0.000000
    25 0.103265 -0.365850 1.319815 0.024842 0.006382 -0.003186
    26 1.089796 -0.106998 1.928624 -1.335374 -0.038786 1.563732
    27 -2.037985 0.252103 1.029074 0.522049 -2.764527 -1.418481
  time 3
    0 2.665369 1.894589 10.459006 0.002890 -0.095883 -1.571121
    1 -4.963676 -0.664082 9.745319 -1.570795 -1.570451 0.000000
    2 -0.000008 0.000010 5.615750 -3.046511 6.262002 1.299459
    3 15.693467 0.000000 0.000000 0.000000 0.000000 -1.899692
    4 22.146629 -0.000001 0.000000 0.053882 -0.081102 -0.039485
    5 0.000008 -0.000006 -5.615750 -0.210579 3.074775 -0.720457
    6 15.693467 0.000000 0.000000 0.000000 0.000000 -2.125789
    7 22.146629 0.000000 0.000000 0.097587 0.198412 1.326171
    8 1.384163 -0.004728 0.000002 -0.468242 -0.126710 0.302448
    9 5.939814 -0.004730 0.000000 -0.100994 -0.028332 0.239658
    10 5.939809 -0.003975 0.000000 -0.102812 -0.073310 0.134339
    11 4.991439 -0.003975 0.000000 -0.093938 0.064921 0.042237
    12 4.991436 -0.001575 0.000000 0.000000 0.000000 0.000000
    13 0.000005 0.001564 3.638375 -0.000010 -1.283530 3.140806
    14 0.000005 0.001585 -3.638375 -0.000010 1.082936 3.140787
    15 1.977383 0.000000 0.000000 0.743994 0.239242 -0.201877
    16 3.723980 2.768055 -0.395205 0.000000 -3.141591 -1.570795
    17 2.863741 -0.721077 0.000003 0.000000 0.000000 0.000000
    18 8.842831 0.000000 -0.000001 0.034349 -0.560037 -0.731556
    19 9.341934 0.000000 -0.000002 0.000000 0.000000 -1.809014
    20 9.664096 0.000000 0.000003 -2.898114 -0.057670 0.101359
    21 8.842831 0.000000 0.000001 -0.057711 -0.177262 -2.189252
    22 9.341934 0.000000 -0.000001 0.000000 0.000000 -0.783277
    23 9.664095 0.000000 -0.000002 2.840650 0.149945 0.479192
    24 6.829857 -0.000001 0.000000 0.001241 0.000000 0.000000
    25 0.103265 -0.365850 1.319815 0.024842 0.006382 -0.003186
    26 1.089796 -0.106998 1.928624 -1.335374 -0.038786 1.563732
    27 -2.037985 0.252103 1.029074 0.522049 -2.764527 -1.418481
  time 4
    0 2.665369 1.894589 10.470725 0.002890 -0.095883 -1.571121
    1 -5.065242 -0.613299 9.745319 -1.570795 -1.570451 0.000000
    2 -0.000008 0.000010 5.615750 -3.048716 6.262961 1.299510
    3 15.693467 0.000000 0.000000 0.000000 0.000000 -1.895248
    4 22.146629 -0.000001 0.000000 0.052179 -0.079337 -0.043864
    5 0.000008 -0.000006 -5.615750 -0.214029 3.075542 -0.727279
    6 15.693467 0.000000 0.000000 0.000000 0.000000 -2.128488
    7 22.146629 0.000000 0.000000 0.099199 0.201024 1.322385
    8 1.384163 -0.004728 0.000002 -0.473543 -0.122711 0.313649
    9 5.939814 -0.004730 0.000000 -0.101881 -0.028499 0.241322
    10 5.939809 -0.003975 0.000000 -0.103695 -0.073933 0.134440
    11 4.991439 -0.003975 0.000000 -0.094753 0.065472 0.042162
    12 4.991436 -0.001575 0.000000 0.000000 0.000000 0.000000
    13 0.000005 0.001564 3.638375 -0.000010 -1.283530 3.140806
    14 0.000005 0.001585 -3.638375 -0.000010 1.082936 3.140787
    15 1.977383 0.000000 0.000000 0.749517 0.245088 -0.212501
    16 3.723980 2.768055 -0.395205 0.000000 -3.141591 -1.570795
    17 2.863741 -0.721077 0.000003 0.000000 0.000000 0.000000
    18 8.842831 0.000000 -0.000001 0.003441 -0.572329 -0.721902
    19 9.341934 0.000000 -0.000002 0.000000 0.000000 -1.819904
    20 9.664096 0.000000 0.000003 -2.898114 -0.057670 0.101359
    21 8.842831 0.000000 0.000001 -0.059369 -0.168328 -2.200760
    22 9.341934 0.000000 -0.000001 0.000000 0.000000 -0.783277
    23 9.664095 0.000000 -0.000002 2.840650 0.149945 0.479192
    24 6.829857 -0.000001 0.000000 0.001241 0.000000 0.000000
    25 0.103265 -0.365850 1.319815 0.024842 0.006382 -0.003186
    26 1.089796 -0.106998 1.928624 -1.335374 -0.038786 1.563732
    27 -2.037985 0.252103 1.029074 0.522049 -2.764527 -1.418481
  time 5
    0 2.665369 1.894589 10.478537 0.002890 -0.095883 -1.571121
    1 -5.166808 -0.562516 9.745319 -1.570795 -1.570451 0.000000
    2 -0.000008 0.000010 5.615750 -3.051113 6.264015 1.299560
    3 15.693467 0.000000 0.000000 0.000000 0.000000 -1.890938
    4 22.146629 -0.000001 0.000000 0.050397 -0.077501 -0.048048
    5 0.000008 -0.000006 -5.615750 -0.217576 3.076213 -0.733796
    6 15.693467 0.000000 0.000000 0.000000 0.000000 -2.130962
    7 22.146629 0.000000 0.000000 0.100891 0.203799 1.318672
    8 1.384163 -0.004728 0.000002 -0.476039 -0.117654 0.324888
    9 5.939814 -0.004730 0.000000 -0.102157 -0.028547 0.241838
    10 5.939809 -0.003975 0.000000 -0.103976 -0.074125 0.134478
    11 4.991439 -0.003975 0.000000 -0.095010 0.065640 0.042133
    12 4.991436 -0.001575 0.000000 0.000000 0.000000 0.000000
    13 0.000005 0.001564 3.638375 -0.000010 -1.283530 3.140806
    14 0.000005 0.001585 -3.638375 -0.000010 1.082936 3.140787
    15 1.977383 0.000000 0.000000 0.750321 0.249955 -0.223712
    16 3.723980 2.768055 -0.395205 0.000000 -3.141591 -1.570795
    17 2.863741 -0.721077 0.000003 0.000000 0.000000 0.000000
    18 8.842831 0.000000 -0.000001 -0.015398 -0.583346 -0.720265
    19 9.341934 0.000000 -0.000002 0.000000 0.000000 -1.824052
    20 9.664096 0.000000 0.000003 -2.898114 -0.057670 0.101359
    21 8.842831 0.000000 0.000001 -0.062023 -0.158053 -2.207706
    22 9.341934 0.000000 -0.000001 0.000000 0.000000 -0.783277
    23 9.664095 0.000000 -0.000002 2.840650 0.149945 0.479192
    24 6.829857 -0.000001 0.000000 0.001241 0.000000 0.000000
    25 0.103265 -0.365850 1.319815 0.024842 0.006382 -0.003186
    26 1.089796 -0.106998 1.928624 -1.335374 -0.038786 1.563732
    27 -2.037985 0.252103 1.029074 0.522049 -2.764527 -1.418481
  time 6
    0 2.665369 1.894589 10.486350 0.002890 -0.095883 -1.571121
    1 -5.260560 -0.503921 9.745319 -1.570795 -1.570451 0.000000
    2 -0.000008 0.000010 5.615750 -3.053510 6.264974 1.299661
    3 15.693467 0.000000 0.000000 0.000000 0.000000 -1.886831
    4 22.146629 -0.000001 0.000000 0.048536 -0.075642 -0.051969
    5 0.000008 -0.000006 -5.615750 -0.221218 3.076788 -0.739956
    6 15.693467 0.000000 0.000000 0.000000 0.000000 -2.133210
    7 22.146629 0.000000 0.000000 0.102611 0.206644 1.315178
    8 1.384163 -0.004728 0.000002 -0.476193 -0.111862 0.336012
    9 5.939814 -0.004730 0.000000 -0.101917 -0.028499 0.241379
    10 5.939809 -0.003975 0.000000 -0.103738 -0.073957 0.134453
    11 4.991439 -0.003975 0.000000 -0.094776 0.065496 0.042162
    12 4.991436 -0.001575 0.000000 0.000000 0.000000 0.000000
    13 0.000005 0.001564 3.638375 -0.000010 -1.283530 3.140806
    14 0.000005 0.001585 -3.638375 -0.000010 1.082936 3.140787
    15 1.977383 0.000000 0.000000 0.747245 0.253823 -0.235330
    16 3.723980 2.768055 -0.395205 0.000000 -3.141591 -1.570795
    17 2.863741 -0.721077 0.000003 0.000000 0.000000 0.000000
    18 8.842831 0.000000 -0.000001 -0.023971 -0.592998 -0.725911
    19 9.341934 0.000000 -0.000002 0.000000 0.000000 -1.822348
    20 9.664096 0.000000 0.000003 -2.898114 -0.057670 0.101359
    21 8.842831 0.000000 0.000001 -0.065395 -0.146886 -2.210794
    22 9.341934 0.000000 -0.000001 0.000000 0.000000 -0.783277
    23 9.664095 0.000000 -0.000002 2.840650 0.149945 0.479192
    24 6.829857 -0.000001 0.000000 0.001241 0.000000 0.000000
    25 0.103265 -0.365850 1.319815 0.024842 0.006382 -0.003186
    26 1.089796 -0.106998 1.928624 -1.335374 -0.038786 1.563732
    27 -2.037985 0.252103 1.029074 0.522049 -2.764527 -1.418481
end
