version 1
nodes
  0 "Bip01" -1
  1 "Bip01 Pelvis" 0
  2 "Bip01 L Thigh" 1
  3 "Bip01 L Calf" 2
  4 "Bip01 L Foot" 3
  5 "Bip01 R Thigh" 1
  6 "Bip01 R Calf" 5
  7 "Bip01 R Foot" 6
  8 "Bip01 Spine" 1
  9 "Bip01 Spine1" 8
  10 "Bip01 Spine2" 9
  11 "Bip01 Spine3" 10
  12 "Bip01 Neck" 11
  13 "Bip01 L Clavicle" 12
  14 "Bip01 R Clavicle" 12
  15 "Bip01 Head" 12
  16 "Bone05" 15
  17 "Bone06" 16
  18 "Bip01 L UpperArm" 13
  19 "Bip01 L Forearm" 18
  20 "Bip01 L Hand" 19
  21 "Bip01 R UpperArm" 14
  22 "Bip01 R Forearm" 21
  23 "Bip01 R Hand" 22
  24 "Bip01 R Finger0" 23
  25 "p_desert_eagle" 24
  26 "GLOCK_model" 24
  27 "Cylinder02" 24
end
skeleton
  time 0
    0 0.219982 -0.222663 29.369739 0.000000 0.000000 -1.562131
    1 -3.237061 0.378919 9.745319 -1.570795 -1.570451 0.000000
    2 -0.000008 0.000010 5.615750 -0.003163 3.121938 -0.269037
    3 15.693467 0.000000 0.000000 0.000000 0.000000 -0.459906
    4 22.146629 -0.000001 0.000000 -0.002149 0.019864 0.190855
    5 0.000008 -0.000006 -5.615750 0.000001 3.120981 -0.269077
    6 15.693467 0.000000 0.000000 0.000000 0.000000 -0.459885
    7 22.146629 0.000000 0.000000 -0.005481 0.019869 0.190782
    8 1.384163 -0.004728 0.000002 -0.181360 0.026431 0.240806
    9 5.939814 -0.004730 0.000000 0.192053 0.008917 0.068266
    10 5.939809 -0.003975 0.000000 0.000000 0.000000 0.000000
    11 4.991439 -0.003975 0.000000 -0.043625 0.000024 0.000000
    12 4.991436 -0.001575 0.000000 0.000000 0.000000 0.000000
    13 0.000005 0.001564 3.638375 0.485298 -1.248450 2.676959
    14 0.000005 0.001585 -3.638375 -0.661389 1.254957 2.503797
    15 1.977383 0.000000 0.000000 0.054076 0.007535 -0.247717
    16 3.723980 2.768055 -0.395205 0.000000 -3.141591 -1.570795
    17 2.863741 -0.721077 0.000003 0.000000 0.000000 0.000000
    18 8.842831 0.000000 -0.000001 -0.611623 0.666616 -1.209306
    19 9.341934 0.000000 -0.000002 0.000000 0.000000 -0.915093
    20 9.664096 0.000000 0.000003 -1.720310 0.453536 -0.200790
    21 8.842831 0.000000 0.000001 0.580205 -0.166732 -1.447783
    22 9.341934 0.000000 -0.000001 0.000000 0.000000 -0.434499
    23 9.664095 0.000000 -0.000002 0.955766 0.052048 0.553661
    24 6.829857 -0.000001 0.000000 0.001241 0.000000 0.000000
    25 0.103265 -0.365850 1.319815 0.024842 0.006382 -0.003186
    26 1.089796 -0.106998 1.928624 -1.335374 -0.038786 1.563732
    27 -2.037985 0.252103 1.029074 0.522049 -2.764527 -1.418481
  time 1
    0 0.219982 -0.265633 29.369739 0.000000 0.000000 -1.562131
    1 -3.291750 0.390638 9.745319 -1.570795 -1.570451 0.000000
    2 -0.000008 0.000010 5.615750 -0.003259 3.121651 -0.269239
    3 15.693467 0.000000 0.000000 0.000000 0.000000 -0.459637
    4 22.146629 -0.000001 0.000000 -0.002149 0.020123 0.190463
    5 0.000008 -0.000006 -5.615750 0.000001 3.120789 -0.269230
    6 15.693467 0.000000 0.000000 0.000000 0.000000 -0.459660
    7 22.146629 0.000000 0.000000 -0.005481 0.020126 0.190345
    8 1.384163 -0.004728 0.000002 -0.181206 0.027525 0.246752
    9 5.939814 -0.004730 0.000000 0.192053 0.008917 0.068266
    10 5.939809 -0.003975 0.000000 0.000000 0.000000 0.000000
    11 4.991439 -0.003975 0.000000 -0.043625 0.000024 0.000000
    12 4.991436 -0.001575 0.000000 0.000000 0.000000 0.000000
    13 0.000005 0.001564 3.638375 0.485298 -1.248450 2.676959
    14 0.000005 0.001585 -3.638375 -0.661389 1.254957 2.503797
    15 1.977383 0.000000 0.000000 0.054356 0.006712 -0.254181
    16 3.723980 2.768055 -0.395205 0.000000 -3.141591 -1.570795
    17 2.863741 -0.721077 0.000003 0.000000 0.000000 0.000000
    18 8.842831 0.000000 -0.000001 -0.598425 0.645856 -1.213806
    19 9.341934 0.000000 -0.000002 0.000000 0.000000 -0.902203
    20 9.664096 0.000000 0.000003 -1.713051 0.450645 -0.197964
    21 8.842831 0.000000 0.000001 0.561576 -0.159649 -1.451222
    22 9.341934 0.000000 -0.000001 0.000000 0.000000 -0.432835
    23 9.664095 0.000000 -0.000002 0.961648 0.052048 0.553661
    24 6.829857 -0.000001 0.000000 0.001241 0.000000 0.000000
    25 0.103265 -0.365850 1.319815 0.024842 0.006382 -0.003186
    26 1.089796 -0.106998 1.928624 -1.335374 -0.038786 1.563732
    27 -2.037985 0.252103 1.029074 0.522049 -2.764527 -1.418481
  time 2
    0 0.219982 -0.316416 29.369739 0.000000 0.000000 -1.562131
    1 -3.354252 0.402357 9.745319 -1.570795 -1.570451 0.000000
    2 -0.000008 0.000010 5.615750 -0.003259 3.121363 -0.269340
    3 15.693467 0.000000 0.000000 0.000000 0.000000 -0.459367
    4 22.146629 -0.000001 0.000000 -0.002149 0.020405 0.190070
    5 0.000008 -0.000006 -5.615750 -0.000095 3.120501 -0.269331
    6 15.693467 0.000000 0.000000 0.000000 0.000000 -0.459361
    7 22.146629 0.000000 0.000000 -0.005481 0.020406 0.189981
    8 1.384163 -0.004728 0.000002 -0.181026 0.028691 0.253119
    9 5.939814 -0.004730 0.000000 0.192053 0.008917 0.068266
    10 5.939809 -0.003975 0.000000 0.000000 0.000000 0.000000
    11 4.991439 -0.003975 0.000000 -0.043625 0.000024 0.000000
    12 4.991436 -0.001575 0.000000 0.000000 0.000000 0.000000
    13 0.000005 0.001564 3.638375 0.485298 -1.248450 2.676959
    14 0.000005 0.001585 -3.638375 -0.661389 1.254957 2.503797
    15 1.977383 0.000000 0.000000 0.054636 0.005823 -0.261143
    16 3.723980 2.768055 -0.395205 0.000000 -3.141591 -1.570795
    17 2.863741 -0.721077 0.000003 0.000000 0.000000 0.000000
    18 8.842831 0.000000 -0.000001 -0.582350 0.622911 -1.217733
    19 9.341934 0.000000 -0.000002 0.000000 0.000000 -0.887979
    20 9.664096 0.000000 0.000003 -1.704553 0.447300 -0.194740
    21 8.842831 0.000000 0.000001 0.539962 -0.152565 -1.454169
    22 9.341934 0.000000 -0.000001 0.000000 0.000000 -0.431587
    23 9.664095 0.000000 -0.000002 0.968490 0.052048 0.553661
    24 6.829857 -0.000001 0.000000 0.001241 0.000000 0.000000
    25 0.103265 -0.365850 1.319815 0.024842 0.006382 -0.003186
    26 1.089796 -0.106998 1.928624 -1.335374 -0.038786 1.563732
    27 -2.037985 0.252103 1.029074 0.522049 -2.764527 -1.418481
  time 3
    0 0.219982 -0.371105 29.369739 0.000000 0.000000 -1.562131
    1 -3.416754 0.414076 9.745319 -1.570795 -1.570451 0.000000
    2 -0.000008 0.000010 5.615750 -0.003355 3.121075 -0.269340
    3 15.693467 0.000000 0.000000 0.000000 0.000000 -0.459031
    4 22.146629 -0.000001 0.000000 -0.002149 0.020711 0.189678
    5 0.000008 -0.000006 -5.615750 -0.000191 3.120214 -0.269382
    6 15.693467 0.000000 0.000000 0.000000 0.000000 -0.459061
    7 22.146629 0.000000 0.000000 -0.005481 0.020709 0.189617
    8 1.384163 -0.004728 0.000002 -0.180820 0.029910 0.259755
    9 5.939814 -0.004730 0.000000 0.192053 0.008917 0.068266
    10 5.939809 -0.003975 0.000000 0.000000 0.000000 0.000000
    11 4.991439 -0.003975 0.000000 -0.043625 0.000024 0.000000
    12 4.991436 -0.001575 0.000000 0.000000 0.000000 0.000000
    13 0.000005 0.001564 3.638375 0.485298 -1.248450 2.676959
    14 0.000005 0.001585 -3.638375 -0.661389 1.254957 2.503797
    15 1.977383 0.000000 0.000000 0.054950 0.004912 -0.268376
    16 3.723980 2.768055 -0.395205 0.000000 -3.141591 -1.570795
    17 2.863741 -0.721077 0.000003 0.000000 0.000000 0.000000
    18 8.842831 0.000000 -0.000001 -0.563963 0.598327 -1.221334
    19 9.341934 0.000000 -0.000002 0.000000 0.000000 -0.872793
    20 9.664096 0.000000 0.000003 -1.695170 0.443532 -0.191183
    21 8.842831 0.000000 0.000001 0.515916 -0.145609 -1.456625
    22 9.341934 0.000000 -0.000001 0.000000 0.000000 -0.430815
    23 9.664095 0.000000 -0.000002 0.975993 0.052048 0.553661
    24 6.829857 -0.000001 0.000000 0.001241 0.000000 0.000000
    25 0.103265 -0.365850 1.319815 0.024842 0.006382 -0.003186
    26 1.089796 -0.106998 1.928624 -1.335374 -0.038786 1.563732
    27 -2.037985 0.252103 1.029074 0.522049 -2.764527 -1.418481
  time 4
    0 0.219982 -0.425794 29.373645 0.000000 0.000000 -1.562131
    1 -3.479256 0.425795 9.745319 -1.570795 -1.570451 0.000000
    2 -0.000008 0.000010 5.615750 -0.003450 3.120788 -0.269340
    3 15.693467 0.000000 0.000000 0.000000 0.000000 -0.458627
    4 22.146629 -0.000001 0.000000 -0.002149 0.021017 0.189286
    5 0.000008 -0.000006 -5.615750 -0.000287 3.119926 -0.269331
    6 15.693467 0.000000 0.000000 0.000000 0.000000 -0.458611
    7 22.146629 0.000000 0.000000 -0.005481 0.021012 0.189180
    8 1.384163 -0.004728 0.000002 -0.180614 0.031147 0.266583
    9 5.939814 -0.004730 0.000000 0.192053 0.008917 0.068266
    10 5.939809 -0.003975 0.000000 0.000000 0.000000 0.000000
    11 4.991439 -0.003975 0.000000 -0.043625 0.000024 0.000000
    12 4.991436 -0.001575 0.000000 0.000000 0.000000 0.000000
    13 0.000005 0.001564 3.638375 0.485298 -1.248450 2.676959
    14 0.000005 0.001585 -3.638375 -0.661389 1.254957 2.503797
    15 1.977383 0.000000 0.000000 0.055300 0.003956 -0.275790
    16 3.723980 2.768055 -0.395205 0.000000 -3.141591 -1.570795
    17 2.863741 -0.721077 0.000003 0.000000 0.000000 0.000000
    18 8.842831 0.000000 -0.000001 -0.543940 0.572559 -1.224852
    19 9.341934 0.000000 -0.000002 0.000000 0.000000 -0.856866
    20 9.664096 0.000000 0.000003 -1.685167 0.439440 -0.187426
    21 8.842831 0.000000 0.000001 0.490156 -0.138781 -1.458730
    22 9.341934 0.000000 -0.000001 0.000000 0.000000 -0.430339
    23 9.664095 0.000000 -0.000002 0.984096 0.052048 0.553661
    24 6.829857 -0.000001 0.000000 0.001241 0.000000 0.000000
    25 0.103265 -0.365850 1.319815 0.024842 0.006382 -0.003186
    26 1.089796 -0.106998 1.928624 -1.335374 -0.038786 1.563732
    27 -2.037985 0.252103 1.029074 0.522049 -2.764527 -1.418481
  time 5
    0 0.219982 -0.484390 29.373645 0.000000 0.000000 -1.562131
    1 -3.545664 0.437514 9.745319 -1.570795 -1.570451 0.000000
    2 -0.000008 0.000010 5.615750 -0.003546 3.120500 -0.269290
    3 15.693467 0.000000 0.000000 0.000000 0.000000 -0.458223
    4 22.146629 -0.000001 0.000000 -0.002149 0.021323 0.188894
    5 0.000008 -0.000006 -5.615750 -0.000287 3.119639 -0.269280
    6 15.693467 0.000000 0.000000 0.000000 0.000000 -0.458236
    7 22.146629 0.000000 0.000000 -0.005481 0.021315 0.188816
    8 1.384163 -0.004728 0.000002 -0.180408 0.032403 0.273449
    9 5.939814 -0.004730 0.000000 0.192053 0.008917 0.068266
    10 5.939809 -0.003975 0.000000 0.000000 0.000000 0.000000
    11 4.991439 -0.003975 0.000000 -0.043625 0.000024 0.000000
    12 4.991436 -0.001575 0.000000 0.000000 0.000000 0.000000
    13 0.000005 0.001564 3.638375 0.485298 -1.248450 2.676959
    14 0.000005 0.001585 -3.638375 -0.661389 1.254957 2.503797
    15 1.977383 0.000000 0.000000 0.055649 0.003023 -0.283249
    16 3.723980 2.768055 -0.395205 0.000000 -3.141591 -1.570795
    17 2.863741 -0.721077 0.000003 0.000000 0.000000 0.000000
    18 8.842831 0.000000 -0.000001 -0.522902 0.546245 -1.228206
    19 9.341934 0.000000 -0.000002 0.000000 0.000000 -0.840642
    20 9.664096 0.000000 0.000003 -1.674721 0.435153 -0.183570
    21 8.842831 0.000000 0.000001 0.463235 -0.132208 -1.460414
    22 9.341934 0.000000 -0.000001 0.000000 0.000000 -0.430220
    23 9.664095 0.000000 -0.000002 0.992499 0.052048 0.553661
    24 6.829857 -0.000001 0.000000 0.001241 0.000000 0.000000
    25 0.103265 -0.365850 1.319815 0.024842 0.006382 -0.003186
    26 1.089796 -0.106998 1.928624 -1.335374 -0.038786 1.563732
    27 -2.037985 0.252103 1.029074 0.522049 -2.764527 -1.418481
  time 6
    0 0.219982 -0.542985 29.377552 0.000000 0.000000 -1.562131
    1 -3.608166 0.449233 9.745319 -1.570795 -1.570451 0.000000
    2 -0.000008 0.000010 5.615750 -0.003642 3.120212 -0.269189
    3 15.693467 0.000000 0.000000 0.000000 0.000000 -0.457684
    4 22.146629 -0.000001 0.000000 -0.002149 0.021629 0.188502
    5 0.000008 -0.000006 -5.615750 -0.000382 3.119351 -0.269179
    6 15.693467 0.000000 0.000000 0.000000 0.000000 -0.457711
    7 22.146629 0.000000 0.000000 -0.005481 0.021618 0.188452
    8 1.384163 -0.004728 0.000002 -0.180177 0.033640 0.280239
    9 5.939814 -0.004730 0.000000 0.192053 0.008917 0.068266
    10 5.939809 -0.003975 0.000000 0.000000 0.000000 0.000000
    11 4.991439 -0.003975 0.000000 -0.043625 0.000024 0.000000
    12 4.991436 -0.001575 0.000000 0.000000 0.000000 0.000000
    13 0.000005 0.001564 3.638375 0.485298 -1.248450 2.676959
    14 0.000005 0.001585 -3.638375 -0.661389 1.254957 2.503797
    15 1.977383 0.000000 0.000000 0.055999 0.002089 -0.290618
    16 3.723980 2.768055 -0.395205 0.000000 -3.141591 -1.570795
    17 2.863741 -0.721077 0.000003 0.000000 0.000000 0.000000
    18 8.842831 0.000000 -0.000001 -0.501413 0.519840 -1.231561
    19 9.341934 0.000000 -0.000002 0.000000 0.000000 -0.824419
    20 9.664096 0.000000 0.000003 -1.664187 0.430768 -0.179714
    21 8.842831 0.000000 0.000001 0.435928 -0.125826 -1.461817
    22 9.341934 0.000000 -0.000001 0.000000 0.000000 -0.430339
    23 9.664095 0.000000 -0.000002 1.001083 0.052048 0.553661
    24 6.829857 -0.000001 0.000000 0.001241 0.000000 0.000000
    25 0.103265 -0.365850 1.319815 0.024842 0.006382 -0.003186
    26 1.089796 -0.106998 1.928624 -1.335374 -0.038786 1.563732
    27 -2.037985 0.252103 1.029074 0.522049 -2.764527 -1.418481
  time 7
    0 0.219982 -0.597674 29.377552 0.000000 0.000000 -1.562131
    1 -3.670668 0.460953 9.745319 -1.570795 -1.570451 0.000000
    2 -0.000008 0.000010 5.615750 -0.003642 3.119925 -0.268987
    3 15.693467 0.000000 0.000000 0.000000 0.000000 -0.457213
    4 22.146629 -0.000001 0.000000 -0.002149 0.021935 0.188175
    5 0.000008 -0.000006 -5.615750 -0.000478 3.119064 -0.269026
    6 15.693467 0.000000 0.000000 0.000000 0.000000 -0.457187
    7 22.146629 0.000000 0.000000 -0.005481 0.021921 0.188088
    8 1.384163 -0.004728 0.000002 -0.179945 0.034841 0.286836
    9 5.939814 -0.004730 0.000000 0.192053 0.008917 0.068266
    10 5.939809 -0.003975 0.000000 0.000000 0.000000 0.000000
    11 4.991439 -0.003975 0.000000 -0.043625 0.000024 0.000000
    12 4.991436 -0.001575 0.000000 0.000000 0.000000 0.000000
    13 0.000005 0.001564 3.638375 0.485298 -1.248450 2.676959
    14 0.000005 0.001585 -3.638375 -0.661389 1.254957 2.503797
    15 1.977383 0.000000 0.000000 0.056313 0.001200 -0.297761
    16 3.723980 2.768055 -0.395205 0.000000 -3.141591 -1.570795
    17 2.863741 -0.721077 0.000003 0.000000 0.000000 0.000000
    18 8.842831 0.000000 -0.000001 -0.480037 0.493981 -1.234998
    19 9.341934 0.000000 -0.000002 0.000000 0.000000 -0.808492
    20 9.664096 0.000000 0.000003 -1.653829 0.426384 -0.175924
    21 8.842831 0.000000 0.000001 0.408731 -0.119828 -1.462870
    22 9.341934 0.000000 -0.000001 0.000000 0.000000 -0.430696
    23 9.664095 0.000000 -0.000002 1.009606 0.052048 0.553661
    24 6.829857 -0.000001 0.000000 0.001241 0.000000 0.000000
    25 0.103265 -0.365850 1.319815 0.024842 0.006382 -0.003186
    26 1.089796 -0.106998 1.928624 -1.335374 -0.038786 1.563732
    27 -2.037985 0.252103 1.029074 0.522049 -2.764527 -1.418481
  time 8
    0 0.219982 -0.652364 29.381458 0.000000 0.000000 -1.562131
    1 -3.729264 0.472672 9.745319 -1.570795 -1.570451 0.000000
    2 -0.000008 0.000010 5.615750 -0.003738 3.119637 -0.268784
    3 15.693467 0.000000 0.000000 0.000000 0.000000 -0.456607
    4 22.146629 -0.000001 0.000000 -0.002149 0.022217 0.187783
    5 0.000008 -0.000006 -5.615750 -0.000574 3.118776 -0.268822
    6 15.693467 0.000000 0.000000 0.000000 0.000000 -0.456587
    7 22.146629 0.000000 0.000000 -0.005481 0.022201 0.187724
    8 1.384163 -0.004728 0.000002 -0.179739 0.035971 0.293089
    9 5.939814 -0.004730 0.000000 0.192053 0.008917 0.068266
    10 5.939809 -0.003975 0.000000 0.000000 0.000000 0.000000
    11 4.991439 -0.003975 0.000000 -0.043625 0.000024 0.000000
    12 4.991436 -0.001575 0.000000 0.000000 0.000000 0.000000
    13 0.000005 0.001564 3.638375 0.485298 -1.248450 2.676959
    14 0.000005 0.001585 -3.638375 -0.661389 1.254957 2.503797
    15 1.977383 0.000000 0.000000 0.056663 0.000333 -0.304587
    16 3.723980 2.768055 -0.395205 0.000000 -3.141591 -1.570795
    17 2.863741 -0.721077 0.000003 0.000000 0.000000 0.000000
    18 8.842831 0.000000 -0.000001 -0.459281 0.469124 -1.238352
    19 9.341934 0.000000 -0.000002 0.000000 0.000000 -0.793231
    20 9.664096 0.000000 0.000003 -1.643738 0.422097 -0.172300
    21 8.842831 0.000000 0.000001 0.382418 -0.114276 -1.463641
    22 9.341934 0.000000 -0.000001 0.000000 0.000000 -0.431171
    23 9.664095 0.000000 -0.000002 1.017889 0.052048 0.553661
    24 6.829857 -0.000001 0.000000 0.001241 0.000000 0.000000
    25 0.103265 -0.365850 1.319815 0.024842 0.006382 -0.003186
    26 1.089796 -0.106998 1.928624 -1.335374 -0.038786 1.563732
    27 -2.037985 0.252103 1.029074 0.522049 -2.764527 -1.418481
  time 9
    0 0.219982 -0.703146 29.381458 0.000000 0.000000 -1.562131
    1 -3.783953 0.484391 9.745319 -1.570795 -1.570451 0.000000
    2 -0.000008 0.000010 5.615750 -0.003834 3.119350 -0.268532
    3 15.693467 0.000000 0.000000 0.000000 0.000000 -0.456001
    4 22.146629 -0.000001 0.000000 -0.002149 0.022476 0.187456
    5 0.000008 -0.000006 -5.615750 -0.000574 3.118488 -0.268517
    6 15.693467 0.000000 0.000000 0.000000 0.000000 -0.455987
    7 22.146629 0.000000 0.000000 -0.005481 0.022481 0.187360
    8 1.384163 -0.004728 0.000002 -0.179508 0.037029 0.298919
    9 5.939814 -0.004730 0.000000 0.192053 0.008917 0.068266
    10 5.939809 -0.003975 0.000000 0.000000 0.000000 0.000000
    11 4.991439 -0.003975 0.000000 -0.043625 0.000024 0.000000
    12 4.991436 -0.001575 0.000000 0.000000 0.000000 0.000000
    13 0.000005 0.001564 3.638375 0.485298 -1.248450 2.676959
    14 0.000005 0.001585 -3.638375 -0.661389 1.254957 2.503797
    15 1.977383 0.000000 0.000000 0.056978 -0.000422 -0.310871
    16 3.723980 2.768055 -0.395205 0.000000 -3.141591 -1.570795
    17 2.863741 -0.721077 0.000003 0.000000 0.000000 0.000000
    18 8.842831 0.000000 -0.000001 -0.439597 0.445815 -1.241625
    19 9.341934 0.000000 -0.000002 0.000000 0.000000 -0.778860
    20 9.664096 0.000000 0.000003 -1.634266 0.418005 -0.168943
    21 8.842831 0.000000 0.000001 0.357487 -0.109107 -1.464133
    22 9.341934 0.000000 -0.000001 0.000000 0.000000 -0.431706
    23 9.664095 0.000000 -0.000002 1.025692 0.052048 0.553661
    24 6.829857 -0.000001 0.000000 0.001241 0.000000 0.000000
    25 0.103265 -0.365850 1.319815 0.024842 0.006382 -0.003186
    26 1.089796 -0.106998 1.928624 -1.335374 -0.038786 1.563732
    27 -2.037985 0.252103 1.029074 0.522049 -2.764527 -1.418481
  time 10
    0 0.219982 -0.750023 29.385364 0.000000 0.000000 -1.562131
    1 -3.830829 0.492204 9.745319 -1.570795 -1.570451 0.000000
    2 -0.000008 0.000010 5.615750 -0.003834 3.119158 -0.268228
    3 15.693467 0.000000 0.000000 0.000000 0.000000 -0.455327
    4 22.146629 -0.000001 0.000000 -0.002149 0.022711 0.187064
    5 0.000008 -0.000006 -5.615750 -0.000670 3.118297 -0.268211
    6 15.693467 0.000000 0.000000 0.000000 0.000000 -0.455313
    7 22.146629 0.000000 0.000000 -0.005481 0.022714 0.186996
    8 1.384163 -0.004728 0.000002 -0.179328 0.037980 0.304174
    9 5.939814 -0.004730 0.000000 0.192053 0.008917 0.068266
    10 5.939809 -0.003975 0.000000 0.000000 0.000000 0.000000
    11 4.991439 -0.003975 0.000000 -0.043625 0.000024 0.000000
    12 4.991436 -0.001575 0.000000 0.000000 0.000000 0.000000
    13 0.000005 0.001564 3.638375 0.485298 -1.248450 2.676959
    14 0.000005 0.001585 -3.638375 -0.661389 1.254957 2.503797
    15 1.977383 0.000000 0.000000 0.057257 -0.001134 -0.316612
    16 3.723980 2.768055 -0.395205 0.000000 -3.141591 -1.570795
    17 2.863741 -0.721077 0.000003 0.000000 0.000000 0.000000
    18 8.842831 0.000000 -0.000001 -0.421605 0.424600 -1.244734
    19 9.341934 0.000000 -0.000002 0.000000 0.000000 -0.765896
    20 9.664096 0.000000 0.000003 -1.625590 0.414237 -0.165884
    21 8.842831 0.000000 0.000001 0.334712 -0.104576 -1.464483
    22 9.341934 0.000000 -0.000001 0.000000 0.000000 -0.432360
    23 9.664095 0.000000 -0.000002 1.032834 0.052048 0.553661
    24 6.829857 -0.000001 0.000000 0.001241 0.000000 0.000000
    25 0.103265 -0.365850 1.319815 0.024842 0.006382 -0.003186
    26 1.089796 -0.106998 1.928624 -1.335374 -0.038786 1.563732
    27 -2.037985 0.252103 1.029074 0.522049 -2.764527 -1.418481
  time 11
    0 0.219982 -0.789087 29.389271 0.000000 0.000000 -1.562131
    1 -3.873799 0.500016 9.745319 -1.570795 -1.570451 0.000000
    2 -0.000008 0.000010 5.615750 -0.003930 3.118966 -0.267874
    3 15.693467 0.000000 0.000000 0.000000 0.000000 -0.454654
    4 22.146629 -0.000001 0.000000 -0.002149 0.022923 0.186737
    5 0.000008 -0.000006 -5.615750 -0.000670 3.118105 -0.267906
    6 15.693467 0.000000 0.000000 0.000000 0.000000 -0.454638
    7 22.146629 0.000000 0.000000 -0.005481 0.022924 0.186632
    8 1.384163 -0.004728 0.000002 -0.179147 0.038822 0.308777
    9 5.939814 -0.004730 0.000000 0.192053 0.008917 0.068266
    10 5.939809 -0.003975 0.000000 0.000000 0.000000 0.000000
    11 4.991439 -0.003975 0.000000 -0.043625 0.000024 0.000000
    12 4.991436 -0.001575 0.000000 0.000000 0.000000 0.000000
    13 0.000005 0.001564 3.638375 0.485298 -1.248450 2.676959
    14 0.000005 0.001585 -3.638375 -0.661389 1.254957 2.503797
    15 1.977383 0.000000 0.000000 0.057537 -0.001756 -0.321585
    16 3.723980 2.768055 -0.395205 0.000000 -3.141591 -1.570795
    17 2.863741 -0.721077 0.000003 0.000000 0.000000 0.000000
    18 8.842831 0.000000 -0.000001 -0.405756 0.406025 -1.247516
    19 9.341934 0.000000 -0.000002 0.000000 0.000000 -0.754488
    20 9.664096 0.000000 0.000003 -1.617977 0.410892 -0.163258
    21 8.842831 0.000000 0.000001 0.314646 -0.100619 -1.464624
    22 9.341934 0.000000 -0.000001 0.000000 0.000000 -0.433014
    23 9.664095 0.000000 -0.000002 1.039137 0.052048 0.553661
    24 6.829857 -0.000001 0.000000 0.001241 0.000000 0.000000
    25 0.103265 -0.365850 1.319815 0.024842 0.006382 -0.003186
    26 1.089796 -0.106998 1.928624 -1.335374 -0.038786 1.563732
    27 -2.037985 0.252103 1.029074 0.522049 -2.764527 -1.418481
  time 12
    0 0.219982 -0.820338 29.389271 0.000000 0.000000 -1.562131
    1 -3.908957 0.507829 9.745319 -1.570795 -1.570451 0.000000
    2 -0.000008 0.000010 5.615750 -0.003930 3.118774 -0.267521
    3 15.693467 0.000000 0.000000 0.000000 0.000000 -0.453913
    4 22.146629 -0.000001 0.000000 -0.002149 0.023088 0.186410
    5 0.000008 -0.000006 -5.615750 -0.000766 3.117913 -0.267499
    6 15.693467 0.000000 0.000000 0.000000 0.000000 -0.453888
    7 22.146629 0.000000 0.000000 -0.005481 0.023087 0.186341
    8 1.384163 -0.004728 0.000002 -0.178993 0.039504 0.312537
    9 5.939814 -0.004730 0.000000 0.192053 0.008917 0.068266
    10 5.939809 -0.003975 0.000000 0.000000 0.000000 0.000000
    11 4.991439 -0.003975 0.000000 -0.043625 0.000024 0.000000
    12 4.991436 -0.001575 0.000000 0.000000 0.000000 0.000000
    13 0.000005 0.001564 3.638375 0.485298 -1.248450 2.676959
    14 0.000005 0.001585 -3.638375 -0.661389 1.254957 2.503797
    15 1.977383 0.000000 0.000000 0.057747 -0.002267 -0.325653
    16 3.723980 2.768055 -0.395205 0.000000 -3.141591 -1.570795
    17 2.863741 -0.721077 0.000003 0.000000 0.000000 0.000000
    18 8.842831 0.000000 -0.000001 -0.392558 0.390637 -1.249889
    19 9.341934 0.000000 -0.000002 0.000000 0.000000 -0.745079
    20 9.664096 0.000000 0.000003 -1.611692 0.408099 -0.161064
    21 8.842831 0.000000 0.000001 0.297897 -0.097429 -1.464624
    22 9.341934 0.000000 -0.000001 0.000000 0.000000 -0.433608
    23 9.664095 0.000000 -0.000002 1.044359 0.052048 0.553661
    24 6.829857 -0.000001 0.000000 0.001241 0.000000 0.000000
    25 0.103265 -0.365850 1.319815 0.024842 0.006382 -0.003186
    26 1.089796 -0.106998 1.928624 -1.335374 -0.038786 1.563732
    27 -2.037985 0.252103 1.029074 0.522049 -2.764527 -1.418481
  time 13
    0 0.219982 -0.847682 29.393177 0.000000 0.000000 -1.562131
    1 -3.936301 0.511735 9.745319 -1.570795 -1.570451 0.000000
    2 -0.000008 0.000010 5.615750 -0.004026 3.118679 -0.267066
    3 15.693467 0.000000 0.000000 0.000000 0.000000 -0.453105
    4 22.146629 -0.000001 0.000000 -0.002149 0.023229 0.186018
    5 0.000008 -0.000006 -5.615750 -0.000766 3.117817 -0.267091
    6 15.693467 0.000000 0.000000 0.000000 0.000000 -0.453139
    7 22.146629 0.000000 0.000000 -0.005481 0.023227 0.185977
    8 1.384163 -0.004728 0.000002 -0.178890 0.040024 0.315375
    9 5.939814 -0.004730 0.000000 0.192053 0.008917 0.068266
    10 5.939809 -0.003975 0.000000 0.000000 0.000000 0.000000
    11 4.991439 -0.003975 0.000000 -0.043625 0.000024 0.000000
    12 4.991436 -0.001575 0.000000 0.000000 0.000000 0.000000
    13 0.000005 0.001564 3.638375 0.485298 -1.248450 2.676959
    14 0.000005 0.001585 -3.638375 -0.661389 1.254957 2.503797
    15 1.977383 0.000000 0.000000 0.057886 -0.002645 -0.328772
    16 3.723980 2.768055 -0.395205 0.000000 -3.141591 -1.570795
    17 2.863741 -0.721077 0.000003 0.000000 0.000000 0.000000
    18 8.842831 0.000000 -0.000001 -0.382462 0.378983 -1.251771
    19 9.341934 0.000000 -0.000002 0.000000 0.000000 -0.737968
    20 9.664096 0.000000 0.000003 -1.606912 0.405955 -0.159435
    21 8.842831 0.000000 0.000001 0.285183 -0.095004 -1.464624
    22 9.341934 0.000000 -0.000001 0.000000 0.000000 -0.434083
    23 9.664095 0.000000 -0.000002 1.048380 0.052048 0.553661
    24 6.829857 -0.000001 0.000000 0.001241 0.000000 0.000000
    25 0.103265 -0.365850 1.319815 0.024842 0.006382 -0.003186
    26 1.089796 -0.106998 1.928624 -1.335374 -0.038786 1.563732
    27 -2.037985 0.252103 1.029074 0.522049 -2.764527 -1.418481
  time 14
    0 0.219982 -0.863308 29.397084 0.000000 0.000000 -1.562131
    1 -3.951927 0.515642 9.745319 -1.570795 -1.570451 0.000000
    2 -0.000008 0.000010 5.615750 -0.004026 3.118583 -0.266661
    3 15.693467 0.000000 0.000000 0.000000 0.000000 -0.452365
    4 22.146629 -0.000001 0.000000 -0.002149 0.023300 0.185691
    5 0.000008 -0.000006 -5.615750 -0.000766 3.117721 -0.266633
    6 15.693467 0.000000 0.000000 0.000000 0.000000 -0.452314
    7 22.146629 0.000000 0.000000 -0.005481 0.023297 0.185613
    8 1.384163 -0.004728 0.000002 -0.178813 0.040347 0.317178
    9 5.939814 -0.004730 0.000000 0.192053 0.008917 0.068266
    10 5.939809 -0.003975 0.000000 0.000000 0.000000 0.000000
    11 4.991439 -0.003975 0.000000 -0.043625 0.000024 0.000000
    12 4.991436 -0.001575 0.000000 0.000000 0.000000 0.000000
    13 0.000005 0.001564 3.638375 0.485298 -1.248450 2.676959
    14 0.000005 0.001585 -3.638375 -0.661389 1.254957 2.503797
    15 1.977383 0.000000 0.000000 0.057991 -0.002889 -0.330716
    16 3.723980 2.768055 -0.395205 0.000000 -3.141591 -1.570795
    17 2.863741 -0.721077 0.000003 0.000000 0.000000 0.000000
    18 8.842831 0.000000 -0.000001 -0.376032 0.371607 -1.252998
    19 9.341934 0.000000 -0.000002 0.000000 0.000000 -0.733449
    20 9.664096 0.000000 0.000003 -1.603814 0.404591 -0.158405
    21 8.842831 0.000000 0.000001 0.277112 -0.093472 -1.464554
    22 9.341934 0.000000 -0.000001 0.000000 0.000000 -0.434380
    23 9.664095 0.000000 -0.000002 1.050901 0.052048 0.553661
    24 6.829857 -0.000001 0.000000 0.001241 0.000000 0.000000
    25 0.103265 -0.365850 1.319815 0.024842 0.006382 -0.003186
    26 1.089796 -0.106998 1.928624 -1.335374 -0.038786 1.563732
    27 -2.037985 0.252103 1.029074 0.522049 -2.764527 -1.418481
  time 15
    0 0.219982 -0.867214 29.400990 0.000000 0.000000 -1.562131
    1 -3.959740 0.515642 9.745319 -1.570795 -1.570451 0.000000
    2 -0.000008 0.000010 5.615750 -0.004026 3.118583 -0.266156
    3 15.693467 0.000000 0.000000 0.000000 0.000000 -0.451489
    4 22.146629 -0.000001 0.000000 -0.002149 0.023323 0.185364
    5 0.000008 -0.000006 -5.615750 -0.000766 3.117626 -0.266175
    6 15.693467 0.000000 0.000000 0.000000 0.000000 -0.451490
    7 22.146629 0.000000 0.000000 -0.005481 0.023321 0.185249
    8 1.384163 -0.004728 0.000002 -0.178787 0.040454 0.317792
    9 5.939814 -0.004730 0.000000 0.192053 0.008917 0.068266
    10 5.939809 -0.003975 0.000000 0.000000 0.000000 0.000000
    11 4.991439 -0.003975 0.000000 -0.043625 0.000024 0.000000
    12 4.991436 -0.001575 0.000000 0.000000 0.000000 0.000000
    13 0.000005 0.001564 3.638375 0.485298 -1.248450 2.676959
    14 0.000005 0.001585 -3.638375 -0.661389 1.254957 2.503797
    15 1.977383 0.000000 0.000000 0.058026 -0.002978 -0.331394
    16 3.723980 2.768055 -0.395205 0.000000 -3.141591 -1.570795
    17 2.863741 -0.721077 0.000003 0.000000 0.000000 0.000000
    18 8.842831 0.000000 -0.000001 -0.373776 0.369058 -1.253407
    19 9.341934 0.000000 -0.000002 0.000000 0.000000 -0.731819
    20 9.664096 0.000000 0.000003 -1.602751 0.404104 -0.158039
    21 8.842831 0.000000 0.000001 0.274238 -0.092962 -1.464554
    22 9.341934 0.000000 -0.000001 0.000000 0.000000 -0.434499
    23 9.664095 0.000000 -0.000002 1.051801 0.052048 0.553661
    24 6.829857 -0.000001 0.000000 0.001241 0.000000 0.000000
    25 0.103265 -0.365850 1.319815 0.024842 0.006382 -0.003186
    26 1.089796 -0.106998 1.928624 -1.335374 -0.038786 1.563732
    27 -2.037985 0.252103 1.029074 0.522049 -2.764527 -1.418481
  time 16
    0 0.219982 -0.863308 29.404896 0.000000 0.000000 -1.562131
    1 -3.955833 0.515642 9.745319 -1.570795 -1.570451 0.000000
    2 -0.000008 0.000010 5.615750 -0.004026 3.118583 -0.265751
    3 15.693467 0.000000 0.000000 0.000000 0.000000 -0.450681
    4 22.146629 -0.000001 0.000000 -0.002149 0.023323 0.184907
    5 0.000008 -0.000006 -5.615750 -0.000766 3.117721 -0.265768
    6 15.693467 0.000000 0.000000 0.000000 0.000000 -0.450665
    7 22.146629 0.000000 0.000000 -0.005481 0.023321 0.184812
    8 1.384163 -0.004728 0.000002 -0.178787 0.040418 0.317638
    9 5.939814 -0.004730 0.000000 0.192053 0.008917 0.068266
    10 5.939809 -0.003975 0.000000 0.000000 0.000000 0.000000
    11 4.991439 -0.003975 0.000000 -0.043625 0.000024 0.000000
    12 4.991436 -0.001575 0.000000 0.000000 0.000000 0.000000
    13 0.000005 0.001564 3.638375 0.485298 -1.248424 2.676959
    14 0.000005 0.001585 -3.638375 -0.661389 1.254957 2.503797
    15 1.977383 0.000000 0.000000 0.057921 -0.002912 -0.332208
    16 3.723980 2.768055 -0.395205 0.000000 -3.141591 -1.570795
    17 2.863741 -0.721077 0.000003 0.000000 0.000000 0.000000
    18 8.842831 0.000000 -0.000001 -0.378006 0.370879 -1.254144
    19 9.341934 0.000000 -0.000002 0.000000 0.000000 -0.732856
    20 9.664096 0.000000 0.000003 -1.603371 0.404039 -0.157407
    21 8.842831 0.000000 0.000001 0.278384 -0.091175 -1.466939
    22 9.341934 0.000000 -0.000001 0.000000 0.000000 -0.431706
    23 9.664095 0.000000 -0.000002 1.050781 0.052840 0.554840
    24 6.829857 -0.000001 0.000000 0.001241 0.000000 0.000000
    25 0.103265 -0.365850 1.319815 0.024842 0.006382 -0.003186
    26 1.089796 -0.106998 1.928624 -1.335374 -0.038786 1.563732
    27 -2.037985 0.252103 1.029074 0.522049 -2.764527 -1.418481
  time 17
    0 0.219982 -0.847682 29.408803 0.000000 0.000000 -1.562131
    1 -3.951927 0.515642 9.745319 -1.570795 -1.570451 0.000000
    2 -0.000008 0.000010 5.615750 -0.003930 3.118583 -0.265499
    3 15.693467 0.000000 0.000000 0.000000 0.000000 -0.449739
    4 22.146629 -0.000001 0.000000 -0.002175 0.023300 0.184253
    5 0.000008 -0.000006 -5.615750 -0.000766 3.117721 -0.265462
    6 15.693467 0.000000 0.000000 0.000000 0.000000 -0.449766
    7 22.146629 0.000000 0.000000 -0.005481 0.023274 0.184230
    8 1.384163 -0.004728 0.000002 -0.178813 0.040311 0.316986
    9 5.939814 -0.004730 0.000000 0.192053 0.008917 0.068266
    10 5.939809 -0.003975 0.000000 0.000000 0.000000 0.000000
    11 4.991439 -0.003975 0.000000 -0.043625 0.000024 0.000000
    12 4.991436 -0.001575 0.000000 0.000000 0.000000 0.000000
    13 0.000005 0.001564 3.638375 0.485202 -1.248371 2.677055
    14 0.000005 0.001585 -3.638375 -0.661389 1.254957 2.503797
    15 1.977383 0.000000 0.000000 0.057607 -0.002712 -0.334288
    16 3.723980 2.768055 -0.395205 0.000000 -3.141591 -1.570795
    17 2.863741 -0.721077 0.000003 0.000000 0.000000 0.000000
    18 8.842831 0.000000 -0.000001 -0.389794 0.376160 -1.256189
    19 9.341934 0.000000 -0.000002 0.000000 0.000000 -0.735968
    20 9.664096 0.000000 0.000003 -1.605318 0.403941 -0.155812
    21 8.842831 0.000000 0.000001 0.289881 -0.086389 -1.473325
    22 9.341934 0.000000 -0.000001 0.000000 0.000000 -0.424099
    23 9.664095 0.000000 -0.000002 1.047840 0.055018 0.558089
    24 6.829857 -0.000001 0.000000 0.001241 0.000000 0.000000
    25 0.103265 -0.365850 1.319815 0.024842 0.006382 -0.003186
    26 1.089796 -0.106998 1.928624 -1.335374 -0.038786 1.563732
    27 -2.037985 0.252103 1.029074 0.522049 -2.764527 -1.418481
  time 18
    0 0.219982 -0.824244 29.412709 0.000000 0.000000 -1.562131
    1 -3.940208 0.515642 9.745319 -1.570795 -1.570451 0.000000
    2 -0.000008 0.000010 5.615750 -0.003930 3.118679 -0.265296
    3 15.693467 0.000000 0.000000 0.000000 0.000000 -0.448863
    4 22.146629 -0.000001 0.000000 -0.002175 0.023229 0.183534
    5 0.000008 -0.000006 -5.615750 -0.000766 3.117721 -0.265309
    6 15.693467 0.000000 0.000000 0.000000 0.000000 -0.448866
    7 22.146629 0.000000 0.000000 -0.005481 0.023227 0.183429
    8 1.384163 -0.004728 0.000002 -0.178864 0.040113 0.315912
    9 5.939814 -0.004730 0.000000 0.192053 0.008917 0.068266
    10 5.939809 -0.003975 0.000000 0.000000 0.000000 0.000000
    11 4.991439 -0.003975 0.000000 -0.043625 0.000024 0.000000
    12 4.991436 -0.001575 0.000000 0.000000 0.000000 0.000000
    13 0.000005 0.001564 3.638375 0.485106 -1.248293 2.677247
    14 0.000005 0.001585 -3.638375 -0.661389 1.254957 2.503797
    15 1.977383 0.000000 0.000000 0.057117 -0.002400 -0.337136
    16 3.723980 2.768055 -0.395205 0.000000 -3.141591 -1.570795
    17 2.863741 -0.721077 0.000003 0.000000 0.000000 0.000000
    18 8.842831 0.000000 -0.000001 -0.407842 0.384719 -1.259135
    19 9.341934 0.000000 -0.000002 0.000000 0.000000 -0.741005
    20 9.664096 0.000000 0.000003 -1.608417 0.403909 -0.153518
    21 8.842831 0.000000 0.000001 0.307626 -0.079369 -1.482517
    22 9.341934 0.000000 -0.000001 0.000000 0.000000 -0.412927
    23 9.664095 0.000000 -0.000002 1.043338 0.058226 0.562862
    24 6.829857 -0.000001 0.000000 0.001241 0.000000 0.000000
    25 0.103265 -0.365850 1.319815 0.024842 0.006382 -0.003186
    26 1.089796 -0.106998 1.928624 -1.335374 -0.038786 1.563732
    27 -2.037985 0.252103 1.029074 0.522049 -2.764527 -1.418481
  time 19
    0 0.216076 -0.792993 29.416615 0.000000 0.000000 -1.562131
    1 -3.924582 0.511735 9.745319 -1.570795 -1.570451 0.000000
    2 -0.000008 0.000010 5.615750 -0.003930 3.118679 -0.265195
    3 15.693467 0.000000 0.000000 0.000000 0.000000 -0.447853
    4 22.146629 -0.000001 0.000000 -0.002175 0.023159 0.182684
    5 0.000008 -0.000006 -5.615750 -0.000670 3.117817 -0.265208
    6 15.693467 0.000000 0.000000 0.000000 0.000000 -0.447892
    7 22.146629 0.000000 0.000000 -0.005508 0.023157 0.182628
    8 1.384163 -0.004728 0.000002 -0.178916 0.039809 0.314224
    9 5.939814 -0.004730 0.000000 0.192053 0.008917 0.068266
    10 5.939809 -0.003975 0.000000 0.000000 0.000000 0.000000
    11 4.991439 -0.003975 0.000000 -0.043625 0.000024 0.000000
    12 4.991436 -0.001575 0.000000 0.000000 0.000000 0.000000
    13 0.000005 0.001564 3.638375 0.484914 -1.248214 2.677343
    14 0.000005 0.001585 -3.638375 -0.661389 1.254957 2.503797
    15 1.977383 0.000000 0.000000 0.056488 -0.001978 -0.340255
    16 3.723980 2.768055 -0.395205 0.000000 -3.141591 -1.570795
    17 2.863741 -0.721077 0.000003 0.000000 0.000000 0.000000
    18 8.842831 0.000000 -0.000001 -0.430798 0.396191 -1.262653
    19 9.341934 0.000000 -0.000002 0.000000 0.000000 -0.747894
    20 9.664096 0.000000 0.000003 -1.612666 0.404136 -0.150892
    21 8.842831 0.000000 0.000001 0.330345 -0.070881 -1.493393
    22 9.341934 0.000000 -0.000001 0.000000 0.000000 -0.399318
    23 9.664095 0.000000 -0.000002 1.037516 0.062147 0.568612
    24 6.829857 -0.000001 0.000000 0.001241 0.000000 0.000000
    25 0.103265 -0.365850 1.319815 0.024842 0.006382 -0.003186
    26 1.089796 -0.106998 1.928624 -1.335374 -0.038786 1.563732
    27 -2.037985 0.252103 1.029074 0.522049 -2.764527 -1.418481
  time 20
    0 0.216076 -0.753929 29.420522 0.000000 0.000000 -1.562131
    1 -3.905050 0.507829 9.745319 -1.570795 -1.570451 0.000000
    2 -0.000008 0.000010 5.615750 -0.003930 3.118774 -0.265094
    3 15.693467 0.000000 0.000000 0.000000 0.000000 -0.446911
    4 22.146629 -0.000001 0.000000 -0.002175 0.023041 0.181769
    5 0.000008 -0.000006 -5.615750 -0.000670 3.117913 -0.265106
    6 15.693467 0.000000 0.000000 0.000000 0.000000 -0.446917
    7 22.146629 0.000000 0.000000 -0.005508 0.023041 0.181682
    8 1.384163 -0.004728 0.000002 -0.179019 0.039396 0.311961
    9 5.939814 -0.004730 0.000000 0.192053 0.008917 0.068266
    10 5.939809 -0.003975 0.000000 0.000000 0.000000 0.000000
    11 4.991439 -0.003975 0.000000 -0.043625 0.000024 0.000000
    12 4.991436 -0.001575 0.000000 0.000000 0.000000 0.000000
    13 0.000005 0.001564 3.638375 0.484819 -1.248109 2.677534
    14 0.000005 0.001585 -3.638375 -0.661389 1.254957 2.503797
    15 1.977383 0.000000 0.000000 0.055789 -0.001467 -0.343148
    16 3.723980 2.768055 -0.395205 0.000000 -3.141591 -1.570795
    17 2.863741 -0.721077 0.000003 0.000000 0.000000 0.000000
    18 8.842831 0.000000 -0.000001 -0.457476 0.410396 -1.266498
    19 9.341934 0.000000 -0.000002 0.000000 0.000000 -0.756488
    20 9.664096 0.000000 0.000003 -1.617977 0.404688 -0.148265
    21 8.842831 0.000000 0.000001 0.356879 -0.061820 -1.504830
    22 9.341934 0.000000 -0.000001 0.000000 0.000000 -0.384521
    23 9.664095 0.000000 -0.000002 1.030554 0.066463 0.574880
    24 6.829857 -0.000001 0.000000 0.001241 0.000000 0.000000
    25 0.103265 -0.365850 1.319815 0.024842 0.006382 -0.003186
    26 1.089796 -0.106998 1.928624 -1.335374 -0.038786 1.563732
    27 -2.037985 0.252103 1.029074 0.522049 -2.764527 -1.418481
  time 21
    0 0.216076 -0.707053 29.424428 0.000000 0.000000 -1.562131
    1 -3.877706 0.500016 9.745319 -1.570795 -1.570451 0.000000
    2 -0.000008 0.000010 5.615750 -0.003834 3.118966 -0.264943
    3 15.693467 0.000000 0.000000 0.000000 0.000000 -0.445833
    4 22.146629 -0.000001 0.000000 -0.002175 0.022900 0.180920
    5 0.000008 -0.000006 -5.615750 -0.000670 3.118105 -0.264953
    6 15.693467 0.000000 0.000000 0.000000 0.000000 -0.445868
    7 22.146629 0.000000 0.000000 -0.005508 0.022901 0.180808
    8 1.384163 -0.004728 0.000002 -0.179122 0.038858 0.308969
    9 5.939814 -0.004730 0.000000 0.192053 0.008917 0.068266
    10 5.939809 -0.003975 0.000000 0.000000 0.000000 0.000000
    11 4.991439 -0.003975 0.000000 -0.043625 0.000024 0.000000
    12 4.991436 -0.001575 0.000000 0.000000 0.000000 0.000000
    13 0.000005 0.001564 3.638375 0.484627 -1.248003 2.677726
    14 0.000005 0.001585 -3.638375 -0.661389 1.254957 2.503797
    15 1.977383 0.000000 0.000000 0.055055 -0.000867 -0.345273
    16 3.723980 2.768055 -0.395205 0.000000 -3.141591 -1.570795
    17 2.863741 -0.721077 0.000003 0.000000 0.000000 0.000000
    18 8.842831 0.000000 -0.000001 -0.486523 0.427149 -1.270262
    19 9.341934 0.000000 -0.000002 0.000000 0.000000 -0.766711
    20 9.664096 0.000000 0.000003 -1.624262 0.405695 -0.146038
    21 8.842831 0.000000 0.000001 0.386122 -0.053077 -1.515706
    22 9.341934 0.000000 -0.000001 0.000000 0.000000 -0.369664
    23 9.664095 0.000000 -0.000002 1.022811 0.070859 0.581062
    24 6.829857 -0.000001 0.000000 0.001241 0.000000 0.000000
    25 0.103265 -0.365850 1.319815 0.024842 0.006382 -0.003186
    26 1.089796 -0.106998 1.928624 -1.335374 -0.038786 1.563732
    27 -2.037985 0.252103 1.029074 0.522049 -2.764527 -1.418481
  time 22
    0 0.216076 -0.660176 29.428334 0.000000 0.000000 -1.562131
    1 -3.842548 0.496110 9.745319 -1.570795 -1.570451 0.000000
    2 -0.000008 0.000010 5.615750 -0.003834 3.119158 -0.264740
    3 15.693467 0.000000 0.000000 0.000000 0.000000 -0.444823
    4 22.146629 -0.000001 0.000000 -0.002175 0.022735 0.180070
    5 0.000008 -0.000006 -5.615750 -0.000574 3.118297 -0.264749
    6 15.693467 0.000000 0.000000 0.000000 0.000000 -0.444818
    7 22.146629 0.000000 0.000000 -0.005508 0.022714 0.180007
    8 1.384163 -0.004728 0.000002 -0.179276 0.038177 0.305287
    9 5.939814 -0.004730 0.000000 0.192053 0.008917 0.068266
    10 5.939809 -0.003975 0.000000 0.000000 0.000000 0.000000
    11 4.991439 -0.003975 0.000000 -0.043625 0.000024 0.000000
    12 4.991436 -0.001575 0.000000 0.000000 0.000000 0.000000
    13 0.000005 0.001564 3.638375 0.484531 -1.247898 2.677822
    14 0.000005 0.001585 -3.638375 -0.661389 1.254957 2.503797
    15 1.977383 0.000000 0.000000 0.054321 -0.000178 -0.346177
    16 3.723980 2.768055 -0.395205 0.000000 -3.141591 -1.570795
    17 2.863741 -0.721077 0.000003 0.000000 0.000000 0.000000
    18 8.842831 0.000000 -0.000001 -0.516585 0.446179 -1.273617
    19 9.341934 0.000000 -0.000002 0.000000 0.000000 -0.778415
    20 9.664096 0.000000 0.000003 -1.631610 0.407319 -0.144476
    21 8.842831 0.000000 0.000001 0.416857 -0.045483 -1.525039
    22 9.341934 0.000000 -0.000001 0.000000 0.000000 -0.356055
    23 9.664095 0.000000 -0.000002 1.014468 0.074938 0.586727
    24 6.829857 -0.000001 0.000000 0.001241 0.000000 0.000000
    25 0.103265 -0.365850 1.319815 0.024842 0.006382 -0.003186
    26 1.089796 -0.106998 1.928624 -1.335374 -0.038786 1.563732
    27 -2.037985 0.252103 1.029074 0.522049 -2.764527 -1.418481
  time 23
    0 0.216076 -0.605487 29.432241 0.000000 0.000000 -1.562131
    1 -3.799578 0.488297 9.745319 -1.570795 -1.570451 0.000000
    2 -0.000008 0.000010 5.615750 -0.003738 3.119350 -0.264387
    3 15.693467 0.000000 0.000000 0.000000 0.000000 -0.443746
    4 22.146629 -0.000001 0.000000 -0.002175 0.022523 0.179351
    5 0.000008 -0.000006 -5.615750 -0.000478 3.118488 -0.264393
    6 15.693467 0.000000 0.000000 0.000000 0.000000 -0.443769
    7 22.146629 0.000000 0.000000 -0.005508 0.022504 0.179279
    8 1.384163 -0.004728 0.000002 -0.179456 0.037370 0.300722
    9 5.939814 -0.004730 0.000000 0.192053 0.008917 0.068266
    10 5.939809 -0.003975 0.000000 0.000000 0.000000 0.000000
    11 4.991439 -0.003975 0.000000 -0.043625 0.000024 0.000000
    12 4.991436 -0.001575 0.000000 0.000000 0.000000 0.000000
    13 0.000005 0.001564 3.638375 0.484339 -1.247819 2.678014
    14 0.000005 0.001585 -3.638375 -0.661389 1.254957 2.503797
    15 1.977383 0.000000 0.000000 0.053622 0.000556 -0.345318
    16 3.723980 2.768055 -0.395205 0.000000 -3.141591 -1.570795
    17 2.863741 -0.721077 0.000003 0.000000 0.000000 0.000000
    18 8.842831 0.000000 -0.000001 -0.546309 0.467394 -1.276071
    19 9.341934 0.000000 -0.000002 0.000000 0.000000 -0.791602
    20 9.664096 0.000000 0.000003 -1.639843 0.409658 -0.143977
    21 8.842831 0.000000 0.000001 0.448089 -0.040250 -1.531845
    22 9.341934 0.000000 -0.000001 0.000000 0.000000 -0.344883
    23 9.664095 0.000000 -0.000002 1.005764 0.078384 0.591356
    24 6.829857 -0.000001 0.000000 0.001241 0.000000 0.000000
    25 0.103265 -0.365850 1.319815 0.024842 0.006382 -0.003186
    26 1.089796 -0.106998 1.928624 -1.335374 -0.038786 1.563732
    27 -2.037985 0.252103 1.029074 0.522049 -2.764527 -1.418481
  time 24
    0 0.216076 -0.550798 29.436147 0.000000 0.000000 -1.562131
    1 -3.748796 0.476578 9.745319 -1.570795 -1.570451 0.000000
    2 -0.000008 0.000010 5.615750 -0.003642 3.119541 -0.263881
    3 15.693467 0.000000 0.000000 0.000000 0.000000 -0.442669
    4 22.146629 -0.000001 0.000000 -0.002175 0.022288 0.178763
    5 0.000008 -0.000006 -5.615750 -0.000478 3.118680 -0.263884
    6 15.693467 0.000000 0.000000 0.000000 0.000000 -0.442645
    7 22.146629 0.000000 0.000000 -0.005508 0.022271 0.178697
    8 1.384163 -0.004728 0.000002 -0.179636 0.036384 0.295314
    9 5.939814 -0.004730 0.000000 0.192053 0.008917 0.068266
    10 5.939809 -0.003975 0.000000 0.000000 0.000000 0.000000
    11 4.991439 -0.003975 0.000000 -0.043625 0.000024 0.000000
    12 4.991436 -0.001575 0.000000 0.000000 0.000000 0.000000
    13 0.000005 0.001564 3.638375 0.484243 -1.247767 2.678110
    14 0.000005 0.001585 -3.638375 -0.661389 1.254957 2.503797
    15 1.977383 0.000000 0.000000 0.052993 0.001378 -0.342199
    16 3.723980 2.768055 -0.395205 0.000000 -3.141591 -1.570795
    17 2.863741 -0.721077 0.000003 0.000000 0.000000 0.000000
    18 8.842831 0.000000 -0.000001 -0.574285 0.490703 -1.277135
    19 9.341934 0.000000 -0.000002 0.000000 0.000000 -0.806121
    20 9.664096 0.000000 0.000003 -1.648960 0.412808 -0.144875
    21 8.842831 0.000000 0.000001 0.478713 -0.038399 -1.535424
    22 9.341934 0.000000 -0.000001 0.000000 0.000000 -0.337277
    23 9.664095 0.000000 -0.000002 0.997001 0.080799 0.594432
    24 6.829857 -0.000001 0.000000 0.001241 0.000000 0.000000
    25 0.103265 -0.365850 1.319815 0.024842 0.006382 -0.003186
    26 1.089796 -0.106998 1.928624 -1.335374 -0.038786 1.563732
    27 -2.037985 0.252103 1.029074 0.522049 -2.764527 -1.418481
  time 25
    0 0.216076 -0.492203 29.440054 0.000000 0.000000 -1.562131
    1 -3.690200 0.464859 9.745319 -1.570795 -1.570451 0.000000
    2 -0.000008 0.000010 5.615750 -0.003546 3.119829 -0.263173
    3 15.693467 0.000000 0.000000 0.000000 0.000000 -0.441524
    4 22.146629 -0.000001 0.000000 -0.002175 0.021982 0.178370
    5 0.000008 -0.000006 -5.615750 -0.000382 3.118968 -0.263171
    6 15.693467 0.000000 0.000000 0.000000 0.000000 -0.441520
    7 22.146629 0.000000 0.000000 -0.005508 0.021968 0.178260
    8 1.384163 -0.004728 0.000002 -0.179868 0.035236 0.288984
    9 5.939814 -0.004730 0.000000 0.192053 0.008917 0.068266
    10 5.939809 -0.003975 0.000000 0.000000 0.000000 0.000000
    11 4.991439 -0.003975 0.000000 -0.043625 0.000024 0.000000
    12 4.991436 -0.001575 0.000000 0.000000 0.000000 0.000000
    13 0.000005 0.001564 3.638375 0.484243 -1.247767 2.678110
    14 0.000005 0.001585 -3.638375 -0.661389 1.254957 2.503797
    15 1.977383 0.000000 0.000000 0.052503 0.002267 -0.336322
    16 3.723980 2.768055 -0.395205 0.000000 -3.141591 -1.570795
    17 2.863741 -0.721077 0.000003 0.000000 0.000000 0.000000
    18 8.842831 0.000000 -0.000001 -0.598989 0.515925 -1.276153
    19 9.341934 0.000000 -0.000002 0.000000 0.000000 -0.821826
    20 9.664096 0.000000 0.000003 -1.658875 0.416868 -0.147567
    21 8.842831 0.000000 0.000001 0.507680 -0.041207 -1.534932
    22 9.341934 0.000000 -0.000001 0.000000 0.000000 -0.334483
    23 9.664095 0.000000 -0.000002 0.988298 0.081789 0.595467
    24 6.829857 -0.000001 0.000000 0.001241 0.000000 0.000000
    25 0.103265 -0.365850 1.319815 0.024842 0.006382 -0.003186
    26 1.089796 -0.106998 1.928624 -1.335374 -0.038786 1.563732
    27 -2.037985 0.252103 1.029074 0.522049 -2.764527 -1.418481
  time 26
    0 0.219982 -0.437513 29.447866 0.000000 0.000000 -1.562131
    1 -3.623792 0.453140 9.745319 -1.570795 -1.570451 0.000000
    2 -0.000008 0.000010 5.615750 -0.003450 3.120117 -0.262213
    3 15.693467 0.000000 0.000000 0.000000 0.000000 -0.440379
    4 22.146629 -0.000001 0.000000 -0.002175 0.021652 0.178174
    5 0.000008 -0.000006 -5.615750 -0.000287 3.119255 -0.262204
    6 15.693467 0.000000 0.000000 0.000000 0.000000 -0.440396
    7 22.146629 0.000000 0.000000 -0.005481 0.021642 0.178114
    8 1.384163 -0.004728 0.000002 -0.180125 0.033891 0.281620
    9 5.939814 -0.004730 0.000000 0.192053 0.008917 0.068266
    10 5.939809 -0.003975 0.000000 0.000000 0.000000 0.000000
    11 4.991439 -0.003975 0.000000 -0.043625 0.000024 0.000000
    12 4.991436 -0.001575 0.000000 0.000000 0.000000 0.000000
    13 0.000005 0.001564 3.638375 0.484243 -1.247767 2.678110
    14 0.000005 0.001585 -3.638375 -0.661389 1.254957 2.503797
    15 1.977383 0.000000 0.000000 0.052224 0.003223 -0.327145
    16 3.723980 2.768055 -0.395205 0.000000 -3.141591 -1.570795
    17 2.863741 -0.721077 0.000003 0.000000 0.000000 0.000000
    18 8.842831 0.000000 -0.000001 -0.618786 0.542967 -1.272389
    19 9.341934 0.000000 -0.000002 0.000000 0.000000 -0.838642
    20 9.664096 0.000000 0.000003 -1.669586 0.421934 -0.152388
    21 8.842831 0.000000 0.000001 0.533716 -0.049886 -1.529740
    22 9.341934 0.000000 -0.000001 0.000000 0.000000 -0.337693
    23 9.664095 0.000000 -0.000002 0.979955 0.080997 0.594001
    24 6.829857 -0.000001 0.000000 0.001241 0.000000 0.000000
    25 0.103265 -0.365850 1.319815 0.024842 0.006382 -0.003186
    26 1.089796 -0.106998 1.928624 -1.335374 -0.038786 1.563732
    27 -2.037985 0.252103 1.029074 0.522049 -2.764527 -1.418481
  time 27
    0 0.219982 -0.378918 29.451773 0.000000 0.000000 -1.562131
    1 -3.541758 0.437514 9.745319 -1.570795 -1.570451 0.000000
    2 -0.000008 0.000010 5.615750 -0.003355 3.120500 -0.260949
    3 15.693467 0.000000 0.000000 0.000000 0.000000 -0.439235
    4 22.146629 -0.000001 0.000000 -0.002149 0.021276 0.178305
    5 0.000008 -0.000006 -5.615750 -0.000095 3.119639 -0.260931
    6 15.693467 0.000000 0.000000 0.000000 0.000000 -0.439271
    7 22.146629 0.000000 0.000000 -0.005481 0.021268 0.178260
    8 1.384163 -0.004728 0.000002 -0.180408 0.032349 0.273181
    9 5.939814 -0.004730 0.000000 0.192053 0.008917 0.068266
    10 5.939809 -0.003975 0.000000 0.000000 0.000000 0.000000
    11 4.991439 -0.003975 0.000000 -0.043625 0.000024 0.000000
    12 4.991436 -0.001575 0.000000 0.000000 0.000000 0.000000
    13 0.000005 0.001564 3.638375 0.484435 -1.247846 2.677918
    14 0.000005 0.001585 -3.638375 -0.661389 1.254957 2.503797
    15 1.977383 0.000000 0.000000 0.052189 0.004223 -0.314216
    16 3.723980 2.768055 -0.395205 0.000000 -3.141591 -1.570795
    17 2.863741 -0.721077 0.000003 0.000000 0.000000 0.000000
    18 8.842831 0.000000 -0.000001 -0.631984 0.571831 -1.265026
    19 9.341934 0.000000 -0.000002 0.000000 0.000000 -0.856496
    20 9.664096 0.000000 0.000003 -1.681006 0.428073 -0.159734
    21 8.842831 0.000000 0.000001 0.555606 -0.065649 -1.519215
    22 9.341934 0.000000 -0.000001 0.000000 0.000000 -0.348092
    23 9.664095 0.000000 -0.000002 0.972272 0.078027 0.589544
    24 6.829857 -0.000001 0.000000 0.001241 0.000000 0.000000
    25 0.103265 -0.365850 1.319815 0.024842 0.006382 -0.003186
    26 1.089796 -0.106998 1.928624 -1.335374 -0.038786 1.563732
    27 -2.037985 0.252103 1.029074 0.522049 -2.764527 -1.418481
  time 28
    0 0.219982 -0.324229 29.455679 0.000000 0.000000 -1.562131
    1 -3.451912 0.421889 9.745319 -1.570795 -1.570451 0.000000
    2 -0.000008 0.000010 5.615750 -0.003163 3.120884 -0.259332
    3 15.693467 0.000000 0.000000 0.000000 0.000000 -0.438090
    4 22.146629 -0.000001 0.000000 -0.002149 0.020829 0.178763
    5 0.000008 -0.000006 -5.615750 0.000001 3.120118 -0.259302
    6 15.693467 0.000000 0.000000 0.000000 0.000000 -0.438072
    7 22.146629 0.000000 0.000000 -0.005481 0.020825 0.178697
    8 1.384163 -0.004728 0.000002 -0.180717 0.030609 0.263591
    9 5.939814 -0.004730 0.000000 0.192053 0.008917 0.068266
    10 5.939809 -0.003975 0.000000 0.000000 0.000000 0.000000
    11 4.991439 -0.003975 0.000000 -0.043625 0.000024 0.000000
    12 4.991436 -0.001575 0.000000 0.000000 0.000000 0.000000
    13 0.000005 0.001564 3.638375 0.484627 -1.247977 2.677726
    14 0.000005 0.001585 -3.638375 -0.661389 1.254957 2.503797
    15 1.977383 0.000000 0.000000 0.052433 0.005290 -0.296992
    16 3.723980 2.768055 -0.395205 0.000000 -3.141591 -1.570795
    17 2.863741 -0.721077 0.000003 0.000000 0.000000 0.000000
    18 8.842831 0.000000 -0.000001 -0.636665 0.602242 -1.252916
    19 9.341934 0.000000 -0.000002 0.000000 0.000000 -0.875238
    20 9.664096 0.000000 0.000003 -1.693311 0.435348 -0.169973
    21 8.842831 0.000000 0.000001 0.571858 -0.089707 -1.502585
    22 9.341934 0.000000 -0.000001 0.000000 0.000000 -0.366871
    23 9.664095 0.000000 -0.000002 0.965429 0.072483 0.581666
    24 6.829857 -0.000001 0.000000 0.001241 0.000000 0.000000
    25 0.103265 -0.365850 1.319815 0.024842 0.006382 -0.003186
    26 1.089796 -0.106998 1.928624 -1.335374 -0.038786 1.563732
    27 -2.037985 0.252103 1.029074 0.522049 -2.764527 -1.418481
  time 29
    0 0.219982 -0.269539 29.463492 0.000000 0.000000 -1.562131
    1 -3.350346 0.402357 9.745319 -1.570795 -1.570451 0.000000
    2 -0.000008 0.000010 5.615750 -0.003067 3.121363 -0.257310
    3 15.693467 0.000000 0.000000 0.000000 0.000000 -0.436945
    4 22.146629 -0.000001 0.000000 -0.002149 0.020358 0.179612
    5 0.000008 -0.000006 -5.615750 0.000097 3.120501 -0.257265
    6 15.693467 0.000000 0.000000 0.000000 0.000000 -0.436948
    7 22.146629 0.000000 0.000000 -0.005481 0.020359 0.179570
    8 1.384163 -0.004728 0.000002 -0.181026 0.028637 0.252851
    9 5.939814 -0.004730 0.000000 0.192053 0.008917 0.068266
    10 5.939809 -0.003975 0.000000 0.000000 0.000000 0.000000
    11 4.991439 -0.003975 0.000000 -0.043625 0.000024 0.000000
    12 4.991436 -0.001575 0.000000 0.000000 0.000000 0.000000
    13 0.000005 0.001564 3.638375 0.484914 -1.248161 2.677439
    14 0.000005 0.001585 -3.638375 -0.661389 1.254957 2.503797
    15 1.977383 0.000000 0.000000 0.053028 0.006401 -0.275022
    16 3.723980 2.768055 -0.395205 0.000000 -3.141591 -1.570795
    17 2.863741 -0.721077 0.000003 0.000000 0.000000 0.000000
    18 8.842831 0.000000 -0.000001 -0.630630 0.634019 -1.234834
    19 9.341934 0.000000 -0.000002 0.000000 0.000000 -0.894795
    20 9.664096 0.000000 0.000003 -1.706412 0.443825 -0.183503
    21 8.842831 0.000000 0.000001 0.580758 -0.123082 -1.479149
    22 9.341934 0.000000 -0.000001 0.000000 0.000000 -0.395277
    23 9.664095 0.000000 -0.000002 0.959847 0.063929 0.569849
    24 6.829857 -0.000001 0.000000 0.001241 0.000000 0.000000
    25 0.103265 -0.365850 1.319815 0.024842 0.006382 -0.003186
    26 1.089796 -0.106998 1.928624 -1.335374 -0.038786 1.563732
    27 -2.037985 0.252103 1.029074 0.522049 -2.764527 -1.418481
  time 30
    0 0.219982 -0.222663 29.369739 0.000000 0.000000 -1.562131
    1 -3.237061 0.378919 9.745319 -1.570795 -1.570451 0.000000
    2 -0.000008 0.000010 5.615750 -0.003163 3.121938 -0.269037
    3 15.693467 0.000000 0.000000 0.000000 0.000000 -0.459906
    4 22.146629 -0.000001 0.000000 -0.002149 0.019864 0.190855
    5 0.000008 -0.000006 -5.615750 0.000001 3.120981 -0.269077
    6 15.693467 0.000000 0.000000 0.000000 0.000000 -0.459885
    7 22.146629 0.000000 0.000000 -0.005481 0.019869 0.190782
    8 1.384163 -0.004728 0.000002 -0.181360 0.026431 0.240806
    9 5.939814 -0.004730 0.000000 0.192053 0.008917 0.068266
    10 5.939809 -0.003975 0.000000 0.000000 0.000000 0.000000
    11 4.991439 -0.003975 0.000000 -0.043625 0.000024 0.000000
    12 4.991436 -0.001575 0.000000 0.000000 0.000000 0.000000
    13 0.000005 0.001564 3.638375 0.485298 -1.248450 2.676959
    14 0.000005 0.001585 -3.638375 -0.661389 1.254957 2.503797
    15 1.977383 0.000000 0.000000 0.054076 0.007535 -0.247717
    16 3.723980 2.768055 -0.395205 0.000000 -3.141591 -1.570795
    17 2.863741 -0.721077 0.000003 0.000000 0.000000 0.000000
    18 8.842831 0.000000 -0.000001 -0.611623 0.666616 -1.209306
    19 9.341934 0.000000 -0.000002 0.000000 0.000000 -0.915093
    20 9.664096 0.000000 0.000003 -1.720310 0.453536 -0.200790
    21 8.842831 0.000000 0.000001 0.580205 -0.166732 -1.447783
    22 9.341934 0.000000 -0.000001 0.000000 0.000000 -0.434499
    23 9.664095 0.000000 -0.000002 0.955766 0.052048 0.553661
    24 6.829857 -0.000001 0.000000 0.001241 0.000000 0.000000
    25 0.103265 -0.365850 1.319815 0.024842 0.006382 -0.003186
    26 1.089796 -0.106998 1.928624 -1.335374 -0.038786 1.563732
    27 -2.037985 0.252103 1.029074 0.522049 -2.764527 -1.418481
end
