version 1
nodes
  0 "Bip01" -1
  1 "Bip01 Pelvis" 0
  2 "Bip01 L Thigh" 1
  3 "Bip01 L Calf" 2
  4 "Bip01 L Foot" 3
  5 "Bip01 R Thigh" 1
  6 "Bip01 R Calf" 5
  7 "Bip01 R Foot" 6
  8 "Bip01 Spine" 1
  9 "Bip01 Spine1" 8
  10 "Bip01 Spine2" 9
  11 "Bip01 Spine3" 10
  12 "Bip01 Neck" 11
  13 "Bip01 L Clavicle" 12
  14 "Bip01 R Clavicle" 12
  15 "Bip01 Head" 12
  16 "Bone05" 15
  17 "Bone06" 16
  18 "Bip01 L UpperArm" 13
  19 "Bip01 L Forearm" 18
  20 "Bip01 L Hand" 19
  21 "Bip01 R UpperArm" 14
  22 "Bip01 R Forearm" 21
  23 "Bip01 R Hand" 22
  24 "Bip01 R Finger0" 23
  25 "p_desert_eagle" 24
  26 "GLOCK_model" 24
  27 "Cylinder02" 24
end
skeleton
  time 0
    0 -2.670731 -0.085940 25.521965 -0.002144 0.226768 -1.571313
    1 -0.705734 1.132848 9.745319 -0.000032 -1.620786 -1.570765
    2 -0.000008 0.000010 5.615750 0.116677 3.222408 -1.159717
    3 15.693467 0.000000 0.000000 0.000000 0.000000 -1.042675
    4 22.146629 -0.000001 0.000000 -0.022224 -0.061521 0.430672
    5 0.000008 -0.000006 -5.615750 0.030481 3.218568 -0.315915
    6 15.693467 0.000000 0.000000 0.000000 0.000000 -0.975008
    7 22.146629 0.000000 0.000000 -0.001773 -0.054244 0.536946
    8 1.384163 -0.004728 -0.066406 0.000845 0.129990 0.015679
    9 5.939814 -0.004730 0.000000 0.000024 0.032203 0.003691
    10 5.939809 -0.003975 0.000000 0.000028 0.045062 0.003706
    11 4.991439 -0.003975 0.000000 0.000023 0.047974 0.003708
    12 4.991436 -0.001575 0.000000 0.000000 0.000000 0.000000
    13 0.000005 0.001564 3.638375 -0.000010 -1.283530 3.140806
    14 0.000005 0.001585 -3.638375 -0.000010 1.283530 3.140787
    15 1.977383 0.000000 0.000000 0.004055 -0.205192 -0.027199
    16 3.723980 2.768055 -0.395205 0.000000 -3.141591 -1.570795
    17 2.863741 -0.721077 0.000003 0.000000 0.000000 0.000000
    18 8.842831 0.000000 -0.000001 -0.549637 1.125336 -0.813131
    19 9.341934 0.000000 -0.000002 0.000000 0.000000 -0.077842
    20 9.664096 0.000000 0.000003 -1.569555 -0.049973 0.000000
    21 8.842831 0.000000 0.000001 -0.622106 -0.769149 0.336808
    22 9.341934 0.000000 -0.000001 0.000000 0.000000 -1.089742
    23 9.664095 0.000000 -0.000002 1.569555 0.049989 0.000000
    24 6.829857 -0.000001 0.000000 0.001241 0.000000 0.000000
    25 0.021231 -0.065060 1.351066 0.024842 0.006382 -0.003186
    26 1.089796 -0.106998 1.928624 -1.335374 -0.038786 1.563732
    27 -2.120019 0.552893 1.060325 0.522049 -2.764527 -1.418481
  time 1
    0 -2.655106 -1.441759 25.338366 -0.013613 0.228418 -1.557923
    1 -0.713547 1.187537 9.745319 -3.141558 -1.526539 1.570765
    2 -0.000008 0.000010 5.615750 0.113801 3.220203 -1.165075
    3 15.693467 0.000000 0.000000 0.000000 0.000000 -1.084152
    4 22.146629 -0.000001 0.000000 0.004010 -0.067522 0.350668
    5 0.000008 -0.000006 -5.615750 0.039778 3.220006 -0.323399
    6 15.693467 0.000000 0.000000 0.000000 0.000000 -1.035201
    7 22.146629 0.000000 0.000000 0.005911 -0.049370 0.467931
    8 1.384163 -0.004728 -0.058594 0.000794 0.126637 0.016446
    9 5.939814 -0.004730 0.000000 0.000024 0.036110 0.003901
    10 5.939809 -0.003975 0.000000 0.000028 0.048010 0.003894
    11 4.991439 -0.003975 0.000000 0.000023 0.050935 0.003902
    12 4.991436 -0.001575 0.000000 0.000000 0.000000 0.000000
    13 0.000005 0.001564 3.638375 -0.000010 -1.283530 3.140806
    14 0.000005 0.001585 -3.638375 -0.000010 1.283530 3.140787
    15 1.977383 0.000000 0.000000 -0.003286 -0.217394 -0.028645
    16 3.723980 2.768055 -0.395205 0.000000 -3.141591 -1.570795
    17 2.863741 -0.721077 0.000003 0.000000 0.000000 0.000000
    18 8.842831 0.000000 -0.000001 -0.581448 1.131710 -0.844223
    19 9.341934 0.000000 -0.000002 0.000000 0.000000 -0.056656
    20 9.664096 0.000000 0.000003 -1.569732 -0.046335 0.004854
    21 8.842831 0.000000 0.000001 -0.599497 -0.760343 0.316600
    22 9.341934 0.000000 -0.000001 0.000000 0.000000 -1.061633
    23 9.664095 0.000000 -0.000002 1.569555 0.049989 0.000000
    24 6.829857 -0.000001 0.000000 0.001241 0.000000 0.000000
    25 0.021231 -0.065060 1.351066 0.024842 0.006382 -0.003186
    26 1.089796 -0.106998 1.928624 -1.335374 -0.038786 1.563732
    27 -2.120019 0.552893 1.060325 0.522049 -2.764527 -1.418481
  time 2
    0 -2.635574 -2.797578 25.045388 -0.028437 0.230850 -1.540613
    1 -0.717453 1.253946 9.745319 -0.000032 -1.607591 -1.570765
    2 -0.000008 0.000010 5.615750 0.112363 3.216272 -1.174326
    3 15.693467 0.000000 0.000000 0.000000 0.000000 -1.129804
    4 22.146629 -0.000001 0.000000 0.032707 -0.067240 0.271317
    5 0.000008 -0.000006 -5.615750 0.054060 3.220390 -0.346819
    6 15.693467 0.000000 0.000000 0.000000 0.000000 -1.112859
    7 22.146629 0.000000 0.000000 0.012467 -0.041347 0.369506
    8 1.384163 -0.004728 -0.050781 0.000716 0.122010 0.016983
    9 5.939814 -0.004730 0.000000 0.000036 0.040484 0.004016
    10 5.939809 -0.003975 0.000000 0.000042 0.051725 0.004020
    11 4.991439 -0.003975 0.000000 0.000047 0.054626 0.004022
    12 4.991436 -0.001575 0.000000 0.000000 0.000000 0.000000
    13 0.000005 0.001564 3.638375 -0.000010 -1.283530 3.140806
    14 0.000005 0.001585 -3.638375 -0.000010 1.283530 3.140787
    15 1.977383 0.000000 0.000000 -0.009927 -0.231996 -0.029640
    16 3.723980 2.768055 -0.395205 0.000000 -3.141591 -1.570795
    17 2.863741 -0.721077 0.000003 0.000000 0.000000 0.000000
    18 8.842831 0.000000 -0.000001 -0.605870 1.141999 -0.870569
    19 9.341934 0.000000 -0.000002 0.000000 0.000000 -0.038654
    20 9.664096 0.000000 0.000003 -1.569998 -0.043445 0.011170
    21 8.842831 0.000000 0.000001 -0.575617 -0.749303 0.297865
    22 9.341934 0.000000 -0.000001 0.000000 0.000000 -1.036020
    23 9.664095 0.000000 -0.000002 1.569555 0.049989 0.000000
    24 6.829857 -0.000001 0.000000 0.001241 0.000000 0.000000
    25 0.021231 -0.065060 1.351066 0.024842 0.006382 -0.003186
    26 1.089796 -0.106998 1.928624 -1.335374 -0.038786 1.563732
    27 -2.120019 0.552893 1.060325 0.522049 -2.764527 -1.418481
  time 3
    0 -2.616042 -4.149491 24.814912 -0.045966 0.233976 -1.520242
    1 -0.721359 1.324260 9.745319 -0.000032 -1.598819 -1.570765
    2 -0.000008 0.000010 5.615750 0.111020 3.212246 -1.178117
    3 15.693467 0.000000 0.000000 0.000000 0.000000 -1.172763
    4 22.146629 -0.000001 0.000000 0.059517 -0.059309 0.233079
    5 0.000008 -0.000006 -5.615750 0.067766 3.222403 -0.371256
    6 15.693467 0.000000 0.000000 0.000000 0.000000 -1.179198
    7 22.146629 0.000000 0.000000 0.020286 -0.029431 0.246983
    8 1.384163 -0.004728 -0.035155 0.000588 0.116415 0.017213
    9 5.939814 -0.004730 0.000000 0.000048 0.045242 0.004092
    10 5.939809 -0.003975 0.000000 0.000042 0.056136 0.004095
    11 4.991439 -0.003975 0.000000 0.000047 0.058916 0.004097
    12 4.991436 -0.001575 0.000000 0.000000 0.000000 0.000000
    13 0.000005 0.001564 3.638375 -0.000010 -1.283530 3.140806
    14 0.000005 0.001585 -3.638375 -0.000010 1.283530 3.140787
    15 1.977383 0.000000 0.000000 -0.015835 -0.248622 -0.030228
    16 3.723980 2.768055 -0.395205 0.000000 -3.141591 -1.570795
    17 2.863741 -0.721077 0.000003 0.000000 0.000000 0.000000
    18 8.842831 0.000000 -0.000001 -0.623862 1.155838 -0.893152
    19 9.341934 0.000000 -0.000002 0.000000 0.000000 -0.023690
    20 9.664096 0.000000 0.000003 -1.570352 -0.041204 0.018816
    21 8.842831 0.000000 0.000001 -0.550852 -0.736604 0.280673
    22 9.341934 0.000000 -0.000001 0.000000 0.000000 -1.012784
    23 9.664095 0.000000 -0.000002 1.569555 0.049989 0.000000
    24 6.829857 -0.000001 0.000000 0.001241 0.000000 0.000000
    25 0.021231 -0.065060 1.351066 0.024842 0.006382 -0.003186
    26 1.089796 -0.106998 1.928624 -1.335374 -0.038786 1.563732
    27 -2.120019 0.552893 1.060325 0.522049 -2.764527 -1.418481
  time 4
    0 -2.592604 -5.505310 24.818819 -0.065266 0.237885 -1.497671
    1 -0.721359 1.406294 9.745319 -3.141558 -1.552510 1.570765
    2 -0.000008 0.000010 5.615750 0.109391 3.209753 -1.169068
    3 15.693467 0.000000 0.000000 0.000000 0.000000 -1.208651
    4 22.146629 -0.000001 0.000000 0.081977 -0.047188 0.281840
    5 0.000008 -0.000006 -5.615750 0.076776 3.229401 -0.385257
    6 15.693467 0.000000 0.000000 0.000000 0.000000 -1.214429
    7 22.146629 0.000000 0.000000 0.030899 -0.011800 0.111066
    8 1.384163 -0.004728 -0.023436 0.000433 0.110157 0.017290
    9 5.939814 -0.004730 0.000000 0.000060 0.050311 0.004111
    10 5.939809 -0.003975 0.000000 0.000056 0.061097 0.004108
    11 4.991439 -0.003975 0.000000 0.000047 0.063710 0.004112
    12 4.991436 -0.001575 0.000000 0.000000 0.000000 0.000000
    13 0.000005 0.001564 3.638375 -0.000010 -1.283530 3.140806
    14 0.000005 0.001585 -3.638375 -0.000010 1.283530 3.140787
    15 1.977383 0.000000 0.000000 -0.021043 -0.266914 -0.030499
    16 3.723980 2.768055 -0.395205 0.000000 -3.141591 -1.570795
    17 2.863741 -0.721077 0.000003 0.000000 0.000000 0.000000
    18 8.842831 0.000000 -0.000001 -0.636158 1.172774 -0.912461
    19 9.341934 0.000000 -0.000002 0.000000 0.000000 -0.011467
    20 9.664096 0.000000 0.000003 -1.570706 -0.039612 0.027592
    21 8.842831 0.000000 0.000001 -0.525535 -0.722309 0.265096
    22 9.341934 0.000000 -0.000001 0.000000 0.000000 -0.991806
    23 9.664095 0.000000 -0.000002 1.569555 0.049989 0.000000
    24 6.829857 -0.000001 0.000000 0.001241 0.000000 0.000000
    25 0.021231 -0.065060 1.351066 0.024842 0.006382 -0.003186
    26 1.089796 -0.106998 1.928624 -1.335374 -0.038786 1.563732
    27 -2.120019 0.552893 1.060325 0.522049 -2.764527 -1.418481
  time 5
    0 -2.573072 -6.861130 25.061014 -0.085685 0.242401 -1.473858
    1 -0.721359 1.488328 9.745319 -0.000032 -1.578768 -1.570765
    2 -0.000008 0.000010 5.615750 0.107473 3.210041 -1.142682
    3 15.693467 0.000000 0.000000 0.000000 0.000000 -1.218347
    4 22.146629 -0.000001 0.000000 0.106035 -0.035774 0.322431
    5 0.000008 -0.000006 -5.615750 0.068149 3.222403 -0.460402
    6 15.693467 0.000000 0.000000 0.000000 0.000000 -1.208283
    7 22.146629 0.000000 0.000000 0.026842 0.001259 0.070225
    8 1.384163 -0.004728 -0.007811 0.000279 0.103522 0.017137
    9 5.939814 -0.004730 0.000000 0.000072 0.055597 0.004073
    10 5.939809 -0.003975 0.000000 0.000056 0.066502 0.004083
    11 4.991439 -0.003975 0.000000 0.000070 0.068899 0.004082
    12 4.991436 -0.001575 0.000000 0.000000 0.000000 0.000000
    13 0.000005 0.001564 3.638375 -0.000010 -1.283530 3.140806
    14 0.000005 0.001585 -3.638375 -0.000010 1.283530 3.140787
    15 1.977383 0.000000 0.000000 -0.025622 -0.286473 -0.030408
    16 3.723980 2.768055 -0.395205 0.000000 -3.141591 -1.570795
    17 2.863741 -0.721077 0.000003 0.000000 0.000000 0.000000
    18 8.842831 0.000000 -0.000001 -0.643377 1.192350 -0.928825
    19 9.341934 0.000000 -0.000002 0.000000 0.000000 -0.001762
    20 9.664096 0.000000 0.000003 -1.571148 -0.038573 0.037266
    21 8.842831 0.000000 0.000001 -0.500051 -0.706802 0.250922
    22 9.341934 0.000000 -0.000001 0.000000 0.000000 -0.972968
    23 9.664095 0.000000 -0.000002 1.569555 0.049989 0.000000
    24 6.829857 -0.000001 0.000000 0.001241 0.000000 0.000000
    25 0.021231 -0.065060 1.351066 0.024842 0.006382 -0.003186
    26 1.089796 -0.106998 1.928624 -1.335374 -0.038786 1.563732
    27 -2.120019 0.552893 1.060325 0.522049 -2.764527 -1.418481
  time 6
    0 -2.549634 -8.216949 25.408681 -0.106290 0.247612 -1.449566
    1 -0.717453 1.574268 9.745319 -0.000032 -1.568270 -1.570813
    2 -0.000008 0.000010 5.615750 0.106514 3.212342 -1.107853
    3 15.693467 0.000000 0.000000 0.000000 0.000000 -1.214172
    4 22.146629 -0.000001 0.000000 0.130539 -0.026101 0.358446
    5 0.000008 -0.000006 -5.615750 0.049459 3.214350 -0.561003
    6 15.693467 0.000000 0.000000 0.000000 0.000000 -1.173801
    7 22.146629 0.000000 0.000000 0.003493 -0.004874 0.225653
    8 1.384163 -0.004728 0.000002 0.000099 0.096815 0.016830
    9 5.939814 -0.004730 0.000000 0.000072 0.061026 0.004016
    10 5.939809 -0.003975 0.000000 0.000070 0.072255 0.004007
    11 4.991439 -0.003975 0.000000 0.000070 0.074376 0.004007
    12 4.991436 -0.001575 0.000000 0.000000 0.000000 0.000000
    13 0.000005 0.001564 3.638375 -0.000010 -1.283530 3.140806
    14 0.000005 0.001585 -3.638375 -0.000010 1.283530 3.140787
    15 1.977383 0.000000 0.000000 -0.029607 -0.306943 -0.030047
    16 3.723980 2.768055 -0.395205 0.000000 -3.141591 -1.570795
    17 2.863741 -0.721077 0.000003 0.000000 0.000000 0.000000
    18 8.842831 0.000000 -0.000001 -0.645859 1.214021 -0.942326
    19 9.341934 0.000000 -0.000002 0.000000 0.000000 0.005720
    20 9.664096 0.000000 0.000003 -1.571591 -0.038021 0.047704
    21 8.842831 0.000000 0.000001 -0.474568 -0.690465 0.238292
    22 9.341934 0.000000 -0.000001 0.000000 0.000000 -0.956150
    23 9.664095 0.000000 -0.000002 1.569555 0.049989 0.000000
    24 6.829857 -0.000001 0.000000 0.001241 0.000000 0.000000
    25 0.021231 -0.065060 1.351066 0.024842 0.006382 -0.003186
    26 1.089796 -0.106998 1.928624 -1.335374 -0.038786 1.563732
    27 -2.120019 0.552893 1.060325 0.522049 -2.764527 -1.418481
  time 7
    0 -2.526196 -9.572768 25.830568 -0.126523 0.253171 -1.425847
    1 -0.713547 1.664114 9.745319 -0.000032 -1.557939 -1.570765
    2 -0.000008 0.000010 5.615750 0.106706 3.216464 -1.066504
    3 15.693467 0.000000 0.000000 0.000000 0.000000 -1.199023
    4 22.146629 -0.000001 0.000000 0.154204 -0.018758 0.390409
    5 0.000008 -0.000006 -5.615750 0.026264 3.205147 -0.668171
    6 15.693467 0.000000 0.000000 0.000000 0.000000 -1.125527
    7 22.146629 0.000000 0.000000 -0.018512 -0.009491 0.419738
    8 1.384163 -0.004728 0.015627 -0.000030 0.090342 0.016408
    9 5.939814 -0.004730 0.000000 0.000084 0.066526 0.003901
    10 5.939809 -0.003975 0.000000 0.000084 0.078223 0.003907
    11 4.991439 -0.003975 0.000000 0.000070 0.080057 0.003902
    12 4.991436 -0.001575 0.000000 0.000000 0.000000 0.000000
    13 0.000005 0.001564 3.638375 -0.000010 -1.283530 3.140806
    14 0.000005 0.001585 -3.638375 -0.000010 1.283530 3.140787
    15 1.977383 0.000000 0.000000 -0.033033 -0.327947 -0.029459
    16 3.723980 2.768055 -0.395205 0.000000 -3.141591 -1.570795
    17 2.863741 -0.721077 0.000003 0.000000 0.000000 0.000000
    18 8.842831 0.000000 -0.000001 -0.643772 1.237330 -0.953044
    19 9.341934 0.000000 -0.000002 0.000000 0.000000 0.011053
    20 9.664096 0.000000 0.000003 -1.572122 -0.037923 0.058675
    21 8.842831 0.000000 0.000001 -0.449416 -0.673618 0.227065
    22 9.341934 0.000000 -0.000001 0.000000 0.000000 -0.941234
    23 9.664095 0.000000 -0.000002 1.569555 0.049989 0.000000
    24 6.829857 -0.000001 0.000000 0.001241 0.000000 0.000000
    25 0.021231 -0.065060 1.351066 0.024842 0.006382 -0.003186
    26 1.089796 -0.106998 1.928624 -1.335374 -0.038786 1.563732
    27 -2.120019 0.552893 1.060325 0.522049 -2.764527 -1.418481
  time 8
    0 -2.506664 -10.928587 26.283707 -0.145636 0.258816 -1.403468
    1 -0.705734 1.750054 9.745319 -0.000032 -1.548172 -1.570765
    2 -0.000008 0.000010 5.615750 0.108336 3.222120 -1.020352
    3 15.693467 0.000000 0.000000 0.000000 0.000000 -1.175591
    4 22.146629 -0.000001 0.000000 0.175694 -0.014027 0.419103
    5 0.000008 -0.000006 -5.615750 0.004698 3.192494 -0.763274
    6 15.693467 0.000000 0.000000 0.000000 0.000000 -1.078228
    7 22.146629 0.000000 0.000000 -0.017169 -0.001679 0.493411
    8 1.384163 -0.004728 0.031253 -0.000158 0.084406 0.015833
    9 5.939814 -0.004730 0.000000 0.000084 0.071991 0.003767
    10 5.939809 -0.003975 0.000000 0.000084 0.084312 0.003769
    11 4.991439 -0.003975 0.000000 0.000093 0.085810 0.003768
    12 4.991436 -0.001575 0.000000 0.000000 0.000000 0.000000
    13 0.000005 0.001564 3.638375 -0.000010 -1.283530 3.140806
    14 0.000005 0.001585 -3.638375 -0.000010 1.283530 3.140787
    15 1.977383 0.000000 0.000000 -0.035934 -0.349084 -0.028645
    16 3.723980 2.768055 -0.395205 0.000000 -3.141591 -1.570795
    17 2.863741 -0.721077 0.000003 0.000000 0.000000 0.000000
    18 8.842831 0.000000 -0.000001 -0.637116 1.261550 -0.960735
    19 9.341934 0.000000 -0.000002 0.000000 0.000000 0.014535
    20 9.664096 0.000000 0.000003 -1.572565 -0.038216 0.070011
    21 8.842831 0.000000 0.000001 -0.424817 -0.656643 0.217171
    22 9.341934 0.000000 -0.000001 0.000000 0.000000 -0.928160
    23 9.664095 0.000000 -0.000002 1.569555 0.049989 0.000000
    24 6.829857 -0.000001 0.000000 0.001241 0.000000 0.000000
    25 0.021231 -0.065060 1.351066 0.024842 0.006382 -0.003186
    26 1.089796 -0.106998 1.928624 -1.335374 -0.038786 1.563732
    27 -2.120019 0.552893 1.060325 0.522049 -2.764527 -1.418481
  time 9
    0 -2.491038 -12.280500 26.744659 -0.162699 0.264287 -1.383288
    1 -0.697921 1.835995 9.745319 -0.000032 -1.539315 -1.570765
    2 -0.000008 0.000010 5.615750 0.111212 3.229215 -0.970915
    3 15.693467 0.000000 0.000000 0.000000 0.000000 -1.146503
    4 22.146629 -0.000001 0.000000 0.193778 -0.011979 0.445314
    5 0.000008 -0.000006 -5.615750 -0.014951 3.172459 -0.848856
    6 15.693467 0.000000 0.000000 0.000000 0.000000 -1.029054
    7 22.146629 0.000000 0.000000 0.011876 0.021665 0.395131
    8 1.384163 -0.004728 0.042972 -0.000287 0.079295 0.015219
    9 5.939814 -0.004730 0.000000 0.000096 0.077361 0.003614
    10 5.939809 -0.003975 0.000000 0.000098 0.090400 0.003618
    11 4.991439 -0.003975 0.000000 0.000093 0.091538 0.003618
    12 4.991436 -0.001575 0.000000 0.000000 0.000000 0.000000
    13 0.000005 0.001564 3.638375 -0.000010 -1.283530 3.140806
    14 0.000005 0.001585 -3.638375 -0.000010 1.283530 3.140787
    15 1.977383 0.000000 0.000000 -0.038346 -0.370021 -0.027651
    16 3.723980 2.768055 -0.395205 0.000000 -3.141591 -1.570795
    17 2.863741 -0.721077 0.000003 0.000000 0.000000 0.000000
    18 8.842831 0.000000 -0.000001 -0.625780 1.286225 -0.964826
    19 9.341934 0.000000 -0.000002 0.000000 0.000000 0.016461
    20 9.664096 0.000000 0.000003 -1.573096 -0.038800 0.081513
    21 8.842831 0.000000 0.000001 -0.400936 -0.639732 0.208470
    22 9.341934 0.000000 -0.000001 0.000000 0.000000 -0.916750
    23 9.664095 0.000000 -0.000002 1.569555 0.049989 0.000000
    24 6.829857 -0.000001 0.000000 0.001241 0.000000 0.000000
    25 0.021231 -0.065060 1.351066 0.024842 0.006382 -0.003186
    26 1.089796 -0.106998 1.928624 -1.335374 -0.038786 1.563732
    27 -2.120019 0.552893 1.060325 0.522049 -2.764527 -1.418481
  time 10
    0 -2.475413 -13.636319 27.166547 -0.177244 0.269238 -1.366169
    1 -0.690108 1.918028 9.745319 -0.000032 -1.531789 -1.570765
    2 -0.000008 0.000010 5.615750 0.115047 3.237363 -0.919405
    3 15.693467 0.000000 0.000000 0.000000 0.000000 -1.114519
    4 22.146629 -0.000001 0.000000 0.207353 -0.012403 0.470282
    5 0.000008 -0.000006 -5.615750 -0.036326 3.147822 -0.935711
    6 15.693467 0.000000 0.000000 0.000000 0.000000 -0.971485
    7 22.146629 0.000000 0.000000 0.051158 0.055363 0.216480
    8 1.384163 -0.004728 0.050785 -0.000364 0.075314 0.014490
    9 5.939814 -0.004730 0.000000 0.000096 0.082550 0.003442
    10 5.939809 -0.003975 0.000000 0.000098 0.096380 0.003442
    11 4.991439 -0.003975 0.000000 0.000093 0.097147 0.003439
    12 4.991436 -0.001575 0.000000 0.000000 0.000000 0.000000
    13 0.000005 0.001564 3.638375 -0.000010 -1.283530 3.140806
    14 0.000005 0.001585 -3.638375 -0.000010 1.283530 3.140787
    15 1.977383 0.000000 0.000000 -0.040304 -0.390358 -0.026566
    16 3.723980 2.768055 -0.395205 0.000000 -3.141591 -1.570795
    17 2.863741 -0.721077 0.000003 0.000000 0.000000 0.000000
    18 8.842831 0.000000 -0.000001 -0.609254 1.310900 -0.964745
    19 9.341934 0.000000 -0.000002 0.000000 0.000000 0.017054
    20 9.664096 0.000000 0.000003 -1.573716 -0.039645 0.093015
    21 8.842831 0.000000 0.000001 -0.378051 -0.623395 0.200962
    22 9.341934 0.000000 -0.000001 0.000000 0.000000 -0.906944
    23 9.664095 0.000000 -0.000002 1.569555 0.049989 0.000000
    24 6.829857 -0.000001 0.000000 0.001241 0.000000 0.000000
    25 0.021231 -0.065060 1.351066 0.024842 0.006382 -0.003186
    26 1.089796 -0.106998 1.928624 -1.335374 -0.038786 1.563732
    27 -2.120019 0.552893 1.060325 0.522049 -2.764527 -1.418481
  time 11
    0 -2.467600 -14.992138 27.514214 -0.188525 0.273233 -1.352971
    1 -0.678389 1.996156 9.745319 -0.000032 -1.525928 -1.570765
    2 -0.000008 0.000010 5.615750 0.119745 3.246087 -0.866935
    3 15.693467 0.000000 0.000000 0.000000 0.000000 -1.082469
    4 22.146629 -0.000001 0.000000 0.215425 -0.014992 0.495186
    5 0.000008 -0.000006 -5.615750 -0.057892 3.124432 -1.017220
    6 15.693467 0.000000 0.000000 0.000000 0.000000 -0.914291
    7 22.146629 0.000000 0.000000 0.089123 0.093329 0.012858
    8 1.384163 -0.004728 0.058598 -0.000416 0.072786 0.013761
    9 5.939814 -0.004730 0.000000 0.000096 0.087464 0.003251
    10 5.939809 -0.003975 0.000000 0.000098 0.102133 0.003254
    11 4.991439 -0.003975 0.000000 0.000093 0.102528 0.003259
    12 4.991436 -0.001575 0.000000 0.000000 0.000000 0.000000
    13 0.000005 0.001564 3.638375 -0.000010 -1.283530 3.140806
    14 0.000005 0.001585 -3.638375 -0.000010 1.283530 3.140787
    15 1.977383 0.000000 0.000000 -0.041842 -0.409717 -0.025345
    16 3.723980 2.768055 -0.395205 0.000000 -3.141591 -1.570795
    17 2.863741 -0.721077 0.000003 0.000000 0.000000 0.000000
    18 8.842831 0.000000 -0.000001 -0.586975 1.334938 -0.959263
    19 9.341934 0.000000 -0.000002 0.000000 0.000000 0.016387
    20 9.664096 0.000000 0.000003 -1.574247 -0.040684 0.104318
    21 8.842831 0.000000 0.000001 -0.356326 -0.607888 0.194507
    22 9.341934 0.000000 -0.000001 0.000000 0.000000 -0.898565
    23 9.664095 0.000000 -0.000002 1.569555 0.049989 0.000000
    24 6.829857 -0.000001 0.000000 0.001241 0.000000 0.000000
    25 0.021231 -0.065060 1.351066 0.024842 0.006382 -0.003186
    26 1.089796 -0.106998 1.928624 -1.335374 -0.038786 1.563732
    27 -2.120019 0.552893 1.060325 0.522049 -2.764527 -1.418481
  time 12
    0 -2.459787 -16.344051 27.756408 -0.195705 0.275839 -1.344364
    1 -0.670577 2.070377 9.745319 -0.000032 -1.522153 -1.570765
    2 -0.000008 0.000010 5.615750 0.124634 3.254811 -0.814364
    3 15.693467 0.000000 0.000000 0.000000 0.000000 -1.053381
    4 22.146629 -0.000001 0.000000 0.217128 -0.019252 0.521789
    5 0.000008 -0.000006 -5.615750 -0.076870 3.107273 -1.086256
    6 15.693467 0.000000 0.000000 0.000000 0.000000 -0.866242
    7 22.146629 0.000000 0.000000 0.121392 0.126771 -0.159969
    8 1.384163 -0.004728 0.066410 -0.000441 0.071961 0.012994
    9 5.939814 -0.004730 0.000000 0.000096 0.092030 0.003060
    10 5.939809 -0.003975 0.000000 0.000098 0.107550 0.003065
    11 4.991439 -0.003975 0.000000 0.000093 0.107574 0.003065
    12 4.991436 -0.001575 0.000000 0.000000 0.000000 0.000000
    13 0.000005 0.001564 3.638375 -0.000010 -1.283530 3.140806
    14 0.000005 0.001585 -3.638375 -0.000010 1.283530 3.140787
    15 1.977383 0.000000 0.000000 -0.042960 -0.427720 -0.024079
    16 3.723980 2.768055 -0.395205 0.000000 -3.141591 -1.570795
    17 2.863741 -0.721077 0.000003 0.000000 0.000000 0.000000
    18 8.842831 0.000000 -0.000001 -0.557984 1.357792 -0.947317
    19 9.341934 0.000000 -0.000002 0.000000 0.000000 0.014906
    20 9.664096 0.000000 0.000003 -1.574778 -0.041886 0.115222
    21 8.842831 0.000000 0.000001 -0.335984 -0.593466 0.189034
    22 9.341934 0.000000 -0.000001 0.000000 0.000000 -0.891612
    23 9.664095 0.000000 -0.000002 1.569555 0.049989 0.000000
    24 6.829857 -0.000001 0.000000 0.001241 0.000000 0.000000
    25 0.021231 -0.065060 1.351066 0.024842 0.006382 -0.003186
    26 1.089796 -0.106998 1.928624 -1.335374 -0.038786 1.563732
    27 -2.120019 0.552893 1.060325 0.522049 -2.764527 -1.418481
  time 13
    0 -2.459787 -17.695964 27.850161 -0.198315 0.276881 -1.341303
    1 -0.662764 2.132879 9.745319 -0.000032 -1.520799 -1.570765
    2 -0.000008 0.000010 5.615750 0.129332 3.263056 -0.762449
    3 15.693467 0.000000 0.000000 0.000000 0.000000 -1.030084
    4 22.146629 -0.000001 0.000000 0.211834 -0.024665 0.551856
    5 0.000008 -0.000006 -5.615750 -0.089618 3.100754 -1.135487
    6 15.693467 0.000000 0.000000 0.000000 0.000000 -0.836333
    7 22.146629 0.000000 0.000000 0.150168 0.145707 -0.245654
    8 1.384163 -0.004728 0.066410 -0.000441 0.073198 0.012227
    9 5.939814 -0.004730 0.000000 0.000096 0.096164 0.002868
    10 5.939809 -0.003975 0.000000 0.000098 0.112523 0.002877
    11 4.991439 -0.003975 0.000000 0.000093 0.112176 0.002886
    12 4.991436 -0.001575 0.000000 0.000000 0.000000 0.000000
    13 0.000005 0.001564 3.638375 -0.000010 -1.283530 3.140806
    14 0.000005 0.001585 -3.638375 -0.000010 1.283530 3.140787
    15 1.977383 0.000000 0.000000 -0.043694 -0.444012 -0.022814
    16 3.723980 2.768055 -0.395205 0.000000 -3.141591 -1.570795
    17 2.863741 -0.721077 0.000003 0.000000 0.000000 0.000000
    18 8.842831 0.000000 -0.000001 -0.521154 1.378916 -0.927271
    19 9.341934 0.000000 -0.000002 0.000000 0.000000 0.012683
    20 9.664096 0.000000 0.000003 -1.575398 -0.043152 0.125560
    21 8.842831 0.000000 0.000001 -0.317300 -0.580575 0.184402
    22 9.341934 0.000000 -0.000001 0.000000 0.000000 -0.885848
    23 9.664095 0.000000 -0.000002 1.569555 0.049989 0.000000
    24 6.829857 -0.000001 0.000000 0.001241 0.000000 0.000000
    25 0.021231 -0.065060 1.351066 0.024842 0.006382 -0.003186
    26 1.089796 -0.106998 1.928624 -1.335374 -0.038786 1.563732
    27 -2.120019 0.552893 1.060325 0.522049 -2.764527 -1.418481
  time 14
    0 -2.463694 -19.051783 27.748596 -0.197383 0.276447 -1.342451
    1 -0.651045 2.187568 9.745319 -0.000032 -1.521302 -1.570765
    2 -0.000008 0.000010 5.615750 0.137097 3.265836 -0.740258
    3 15.693467 0.000000 0.000000 0.000000 0.000000 -1.056882
    4 22.146629 -0.000001 0.000000 0.202531 -0.019511 0.563360
    5 0.000008 -0.000006 -5.615750 -0.094793 3.106410 -1.157583
    6 15.693467 0.000000 0.000000 0.000000 0.000000 -0.826438
    7 22.146629 0.000000 0.000000 0.181309 0.144471 -0.221849
    8 1.384163 -0.004728 0.066410 -0.000416 0.075781 0.011536
    9 5.939814 -0.004730 0.000000 0.000096 0.099784 0.002696
    10 5.939809 -0.003975 0.000000 0.000098 0.116946 0.002701
    11 4.991439 -0.003975 0.000000 0.000093 0.116227 0.002691
    12 4.991436 -0.001575 0.000000 0.000000 0.000000 0.000000
    13 0.000005 0.001564 3.638375 -0.000010 -1.283530 3.140806
    14 0.000005 0.001585 -3.638375 -0.000010 1.283530 3.140787
    15 1.977383 0.000000 0.000000 -0.044079 -0.458192 -0.021548
    16 3.723980 2.768055 -0.395205 0.000000 -3.141591 -1.570795
    17 2.863741 -0.721077 0.000003 0.000000 0.000000 0.000000
    18 8.842831 0.000000 -0.000001 -0.475525 1.397764 -0.897652
    19 9.341934 0.000000 -0.000002 0.000000 0.000000 0.010016
    20 9.664096 0.000000 0.000003 -1.575929 -0.044419 0.135134
    21 8.842831 0.000000 0.000001 -0.300440 -0.569535 0.180683
    22 9.341934 0.000000 -0.000001 0.000000 0.000000 -0.881212
    23 9.664095 0.000000 -0.000002 1.569555 0.049989 0.000000
    24 6.829857 -0.000001 0.000000 0.001241 0.000000 0.000000
    25 0.021231 -0.065060 1.351066 0.024842 0.006382 -0.003186
    26 1.089796 -0.106998 1.928624 -1.335374 -0.038786 1.563732
    27 -2.120019 0.552893 1.060325 0.522049 -2.764527 -1.418481
  time 15
    0 -2.471506 -20.403696 27.471244 -0.194586 0.275404 -1.345703
    1 -0.643232 2.230538 9.745319 -0.000032 -1.522752 -1.570765
    2 -0.000008 0.000010 5.615750 0.145246 3.267370 -0.720493
    3 15.693467 0.000000 0.000000 0.000000 0.000000 -1.091761
    4 22.146629 -0.000001 0.000000 0.190109 -0.015110 0.579897
    5 0.000008 -0.000006 -5.615750 -0.094506 3.119735 -1.157379
    6 15.693467 0.000000 0.000000 0.000000 0.000000 -0.830711
    7 22.146629 0.000000 0.000000 0.214008 0.126654 -0.126772
    8 1.384163 -0.004728 0.066410 -0.000364 0.078757 0.010846
    9 5.939814 -0.004730 0.000000 0.000084 0.102816 0.002524
    10 5.939809 -0.003975 0.000000 0.000098 0.120685 0.002538
    11 4.991439 -0.003975 0.000000 0.000093 0.119630 0.002527
    12 4.991436 -0.001575 0.000000 0.000000 0.000000 0.000000
    13 0.000005 0.001564 3.638375 -0.000010 -1.283530 3.140806
    14 0.000005 0.001585 -3.638375 -0.000010 1.283530 3.140787
    15 1.977383 0.000000 0.000000 -0.044079 -0.469905 -0.020372
    16 3.723980 2.768055 -0.395205 0.000000 -3.141591 -1.570795
    17 2.863741 -0.721077 0.000003 0.000000 0.000000 0.000000
    18 8.842831 0.000000 -0.000001 -0.420420 1.413789 -0.857396
    19 9.341934 0.000000 -0.000002 0.000000 0.000000 0.007201
    20 9.664096 0.000000 0.000003 -1.576371 -0.045686 0.143744
    21 8.842831 0.000000 0.000001 -0.285736 -0.560601 0.177736
    22 9.341934 0.000000 -0.000001 0.000000 0.000000 -0.877587
    23 9.664095 0.000000 -0.000002 1.569555 0.049989 0.000000
    24 6.829857 -0.000001 0.000000 0.001241 0.000000 0.000000
    25 0.021231 -0.065060 1.351066 0.024842 0.006382 -0.003186
    26 1.089796 -0.106998 1.928624 -1.335374 -0.038786 1.563732
    27 -2.120019 0.552893 1.060325 0.522049 -2.764527 -1.418481
  time 16
    0 -2.483225 -21.755609 27.064981 -0.190110 0.273841 -1.350963
    1 -0.635419 2.257882 9.745319 -0.000032 -1.525077 -1.570765
    2 -0.000008 0.000010 5.615750 0.153300 3.267945 -0.699970
    3 15.693467 0.000000 0.000000 0.000000 0.000000 -1.129333
    4 22.146629 -0.000001 0.000000 0.175118 -0.011273 0.598329
    5 0.000008 -0.000006 -5.615750 -0.090289 3.136702 -1.145364
    6 15.693467 0.000000 0.000000 0.000000 0.000000 -0.846078
    7 22.146629 0.000000 0.000000 0.242032 0.097037 0.006088
    8 1.384163 -0.004728 0.062504 -0.000339 0.081967 0.010271
    9 5.939814 -0.004730 0.000000 0.000084 0.105177 0.002371
    10 5.939809 -0.003975 0.000000 0.000098 0.123645 0.002387
    11 4.991439 -0.003975 0.000000 0.000093 0.122279 0.002377
    12 4.991436 -0.001575 0.000000 0.000000 0.000000 0.000000
    13 0.000005 0.001564 3.638375 -0.000010 -1.283530 3.140806
    14 0.000005 0.001585 -3.638375 -0.000010 1.283530 3.140787
    15 1.977383 0.000000 0.000000 -0.043764 -0.478773 -0.019288
    16 3.723980 2.768055 -0.395205 0.000000 -3.141591 -1.570795
    17 2.863741 -0.721077 0.000003 0.000000 0.000000 0.000000
    18 8.842831 0.000000 -0.000001 -0.356517 1.426445 -0.806831
    19 9.341934 0.000000 -0.000002 0.000000 0.000000 0.004312
    20 9.664096 0.000000 0.000003 -1.576814 -0.046822 0.151224
    21 8.842831 0.000000 0.000001 -0.273353 -0.554092 0.175561
    22 9.341934 0.000000 -0.000001 0.000000 0.000000 -0.874913
    23 9.664095 0.000000 -0.000002 1.569555 0.049989 0.000000
    24 6.829857 -0.000001 0.000000 0.001241 0.000000 0.000000
    25 0.021231 -0.065060 1.351066 0.024842 0.006382 -0.003186
    26 1.089796 -0.106998 1.928624 -1.335374 -0.038786 1.563732
    27 -2.120019 0.552893 1.060325 0.522049 -2.764527 -1.418481
  time 17
    0 -2.491038 -23.107522 26.592310 -0.184237 0.271670 -1.358040
    1 -0.631513 2.277414 9.745319 -0.000032 -1.528181 -1.570765
    2 -0.000008 0.000010 5.615750 0.160394 3.267945 -0.676313
    3 15.693467 0.000000 0.000000 0.000000 0.000000 -1.165289
    4 22.146629 -0.000001 0.000000 0.158135 -0.007814 0.615846
    5 0.000008 -0.000006 -5.615750 -0.083675 3.153190 -1.132025
    6 15.693467 0.000000 0.000000 0.000000 0.000000 -0.869615
    7 22.146629 0.000000 0.000000 0.261673 0.063735 0.144262
    8 1.384163 -0.004728 0.058598 -0.000287 0.085249 0.009772
    9 5.939814 -0.004730 0.000000 0.000084 0.106771 0.002256
    10 5.939809 -0.003975 0.000000 0.000098 0.125706 0.002261
    11 4.991439 -0.003975 0.000000 0.000093 0.124076 0.002258
    12 4.991436 -0.001575 0.000000 0.000000 0.000000 0.000000
    13 0.000005 0.001564 3.638375 -0.000010 -1.283530 3.140806
    14 0.000005 0.001585 -3.638375 -0.000010 1.283530 3.140787
    15 1.977383 0.000000 0.000000 -0.043100 -0.484397 -0.018383
    16 3.723980 2.768055 -0.395205 0.000000 -3.141591 -1.570795
    17 2.863741 -0.721077 0.000003 0.000000 0.000000 0.000000
    18 8.842831 0.000000 -0.000001 -0.286973 1.435277 -0.748330
    19 9.341934 0.000000 -0.000002 0.000000 0.000000 0.001645
    20 9.664096 0.000000 0.000003 -1.577257 -0.047829 0.157374
    21 8.842831 0.000000 0.000001 -0.263624 -0.550454 0.174088
    22 9.341934 0.000000 -0.000001 0.000000 0.000000 -0.873011
    23 9.664095 0.000000 -0.000002 1.569555 0.049989 0.000000
    24 6.829857 -0.000001 0.000000 0.001241 0.000000 0.000000
    25 0.021231 -0.065060 1.351066 0.024842 0.006382 -0.003186
    26 1.089796 -0.106998 1.928624 -1.335374 -0.038786 1.563732
    27 -2.120019 0.552893 1.060325 0.522049 -2.764527 -1.418481
  time 18
    0 -2.506664 -24.459435 26.100108 -0.176871 0.269064 -1.366647
    1 -0.627607 2.277414 9.745319 -0.000032 -1.531980 -1.570765
    2 -0.000008 0.000010 5.615750 0.165955 3.267658 -0.647803
    3 15.693467 0.000000 0.000000 0.000000 0.000000 -1.195858
    4 22.146629 -0.000001 0.000000 0.139843 -0.004566 0.629638
    5 0.000008 -0.000006 -5.615750 -0.075624 3.165365 -1.127901
    6 15.693467 0.000000 0.000000 0.000000 0.000000 -0.898100
    7 22.146629 0.000000 0.000000 0.273818 0.037196 0.256447
    8 1.384163 -0.004728 0.050785 -0.000261 0.088441 0.009427
    9 5.939814 -0.004730 0.000000 0.000084 0.107526 0.002161
    10 5.939809 -0.003975 0.000000 0.000098 0.126761 0.002173
    11 4.991439 -0.003975 0.000000 0.000093 0.124903 0.002168
    12 4.991436 -0.001575 0.000000 0.000000 0.000000 0.000000
    13 0.000005 0.001564 3.638375 -0.000010 -1.283530 3.140806
    14 0.000005 0.001585 -3.638375 -0.000010 1.283530 3.140787
    15 1.977383 0.000000 0.000000 -0.042086 -0.486419 -0.017705
    16 3.723980 2.768055 -0.395205 0.000000 -3.141591 -1.570795
    17 2.863741 -0.721077 0.000003 0.000000 0.000000 0.000000
    18 8.842831 0.000000 -0.000001 -0.217599 1.439739 -0.687537
    19 9.341934 0.000000 -0.000002 0.000000 0.000000 -0.000503
    20 9.664096 0.000000 0.000003 -1.577522 -0.048609 0.161995
    21 8.842831 0.000000 0.000001 -0.256714 -0.549816 0.173246
    22 9.341934 0.000000 -0.000001 0.000000 0.000000 -0.871763
    23 9.664095 0.000000 -0.000002 1.569555 0.049989 0.000000
    24 6.829857 -0.000001 0.000000 0.001241 0.000000 0.000000
    25 0.021231 -0.065060 1.351066 0.024842 0.006382 -0.003186
    26 1.089796 -0.106998 1.928624 -1.335374 -0.038786 1.563732
    27 -2.120019 0.552893 1.060325 0.522049 -2.764527 -1.418481
  time 19
    0 -2.522289 -25.811347 25.650875 -0.168386 0.266198 -1.376689
    1 -0.623700 2.265695 9.745319 -0.000032 -1.536403 -1.570765
    2 -0.000008 0.000010 5.615750 0.169598 3.267562 -0.613480
    3 15.693467 0.000000 0.000000 0.000000 0.000000 -1.217943
    4 22.146629 -0.000001 0.000000 0.120921 -0.001389 0.636762
    5 0.000008 -0.000006 -5.615750 -0.062301 3.168624 -1.144040
    6 15.693467 0.000000 0.000000 0.000000 0.000000 -0.954919
    7 22.146629 0.000000 0.000000 0.275430 0.026096 0.339658
    8 1.384163 -0.004728 0.046878 -0.000210 0.091507 0.009081
    9 5.939814 -0.004730 0.000000 0.000072 0.107526 0.002084
    10 5.939809 -0.003975 0.000000 0.000084 0.127061 0.002085
    11 4.991439 -0.003975 0.000000 0.000093 0.124963 0.002078
    12 4.991436 -0.001575 0.000000 0.000000 0.000000 0.000000
    13 0.000005 0.001564 3.638375 -0.000010 -1.283530 3.140806
    14 0.000005 0.001585 -3.638375 -0.000010 1.283530 3.140787
    15 1.977383 0.000000 0.000000 -0.040863 -0.485419 -0.017027
    16 3.723980 2.768055 -0.395205 0.000000 -3.141591 -1.570795
    17 2.863741 -0.721077 0.000003 0.000000 0.000000 0.000000
    18 8.842831 0.000000 -0.000001 -0.159448 1.440558 -0.634927
    19 9.341934 0.000000 -0.000002 0.000000 0.000000 -0.001985
    20 9.664096 0.000000 0.000003 -1.577699 -0.049128 0.164887
    21 8.842831 0.000000 0.000001 -0.253066 -0.551667 0.173246
    22 9.341934 0.000000 -0.000001 0.000000 0.000000 -0.871110
    23 9.664095 0.000000 -0.000002 1.569555 0.049989 0.000000
    24 6.829857 -0.000001 0.000000 0.001241 0.000000 0.000000
    25 0.021231 -0.065060 1.351066 0.024842 0.006382 -0.003186
    26 1.089796 -0.106998 1.928624 -1.335374 -0.038786 1.563732
    27 -2.120019 0.552893 1.060325 0.522049 -2.764527 -1.418481
  time 20
    0 -2.537915 -27.163260 25.291489 -0.158783 0.262985 -1.387975
    1 -0.615887 2.242257 9.745319 -0.000032 -1.541364 -1.570765
    2 -0.000008 0.000010 5.615750 0.170557 3.267753 -0.572839
    3 15.693467 0.000000 0.000000 0.000000 0.000000 -1.228918
    4 22.146629 -0.000001 0.000000 0.102078 0.001836 0.634213
    5 0.000008 -0.000006 -5.615750 -0.043994 3.165748 -1.165881
    6 15.693467 0.000000 0.000000 0.000000 0.000000 -1.031378
    7 22.146629 0.000000 0.000000 0.268686 0.024953 0.412094
    8 1.384163 -0.004728 0.039066 -0.000184 0.094466 0.008660
    9 5.939814 -0.004730 0.000000 0.000072 0.106950 0.001970
    10 5.939809 -0.003975 0.000000 0.000084 0.126917 0.001972
    11 4.991439 -0.003975 0.000000 0.000070 0.124556 0.001974
    12 4.991436 -0.001575 0.000000 0.000000 0.000000 0.000000
    13 0.000005 0.001564 3.638375 -0.000010 -1.283530 3.140806
    14 0.000005 0.001585 -3.638375 -0.000010 1.283530 3.140787
    15 1.977383 0.000000 0.000000 -0.039430 -0.482307 -0.016168
    16 3.723980 2.768055 -0.395205 0.000000 -3.141591 -1.570795
    17 2.863741 -0.721077 0.000003 0.000000 0.000000 0.000000
    18 8.842831 0.000000 -0.000001 -0.123464 1.438828 -0.601053
    19 9.341934 0.000000 -0.000002 0.000000 0.000000 -0.002503
    20 9.664096 0.000000 0.000003 -1.577788 -0.049291 0.165918
    21 8.842831 0.000000 0.000001 -0.252900 -0.554985 0.174088
    22 9.341934 0.000000 -0.000001 0.000000 0.000000 -0.870932
    23 9.664095 0.000000 -0.000002 1.569555 0.049989 0.000000
    24 6.829857 -0.000001 0.000000 0.001241 0.000000 0.000000
    25 0.021231 -0.065060 1.351066 0.024842 0.006382 -0.003186
    26 1.089796 -0.106998 1.928624 -1.335374 -0.038786 1.563732
    27 -2.120019 0.552893 1.060325 0.522049 -2.764527 -1.418481
  time 21
    0 -2.553540 -28.515173 25.084452 -0.148340 0.259684 -1.400312
    1 -0.611981 2.211006 9.745319 -0.000032 -1.546781 -1.570765
    2 -0.000008 0.000010 5.615750 0.168543 3.268520 -0.525979
    3 15.693467 0.000000 0.000000 0.000000 0.000000 -1.226158
    4 22.146629 -0.000001 0.000000 0.084100 0.005131 0.618722
    5 0.000008 -0.000006 -5.615750 -0.027124 3.163639 -1.165423
    6 15.693467 0.000000 0.000000 0.000000 0.000000 -1.075979
    7 22.146629 0.000000 0.000000 0.264091 0.023227 0.475066
    8 1.384163 -0.004728 0.031253 -0.000133 0.097299 0.008161
    9 5.939814 -0.004730 0.000000 0.000072 0.105848 0.001855
    10 5.939809 -0.003975 0.000000 0.000084 0.126366 0.001847
    11 4.991439 -0.003975 0.000000 0.000070 0.123705 0.001854
    12 4.991436 -0.001575 0.000000 0.000000 0.000000 0.000000
    13 0.000005 0.001564 3.638375 -0.000010 -1.283530 3.140806
    14 0.000005 0.001585 -3.638375 -0.000010 1.283530 3.140787
    15 1.977383 0.000000 0.000000 -0.037892 -0.477240 -0.015219
    16 3.723980 2.768055 -0.395205 0.000000 -3.141591 -1.570795
    17 2.863741 -0.721077 0.000003 0.000000 0.000000 0.000000
    18 8.842831 0.000000 -0.000001 -0.111112 1.434640 -0.587471
    19 9.341934 0.000000 -0.000002 0.000000 0.000000 -0.001985
    20 9.664096 0.000000 0.000003 -1.577699 -0.049128 0.164887
    21 8.842831 0.000000 0.000001 -0.255996 -0.559580 0.175702
    22 9.341934 0.000000 -0.000001 0.000000 0.000000 -0.871050
    23 9.664095 0.000000 -0.000002 1.569555 0.049989 0.000000
    24 6.829857 -0.000001 0.000000 0.001241 0.000000 0.000000
    25 0.021231 -0.065060 1.351066 0.024842 0.006382 -0.003186
    26 1.089796 -0.106998 1.928624 -1.335374 -0.038786 1.563732
    27 -2.120019 0.552893 1.060325 0.522049 -2.764527 -1.418481
  time 22
    0 -2.573072 -29.867086 25.256332 -0.137059 0.256210 -1.413510
    1 -0.604168 2.168036 9.745319 -0.000032 -1.552558 -1.570765
    2 -0.000008 0.000010 5.615750 0.157326 3.278011 -0.416793
    3 15.693467 0.000000 0.000000 0.000000 0.000000 -1.117482
    4 22.146629 -0.000001 0.000000 0.065125 0.000565 0.626304
    5 0.000008 -0.000006 -5.615750 -0.013993 3.166323 -1.134520
    6 15.693467 0.000000 0.000000 0.000000 0.000000 -1.072681
    7 22.146629 0.000000 0.000000 0.233488 0.049580 0.388215
    8 1.384163 -0.004728 0.023440 -0.000081 0.100007 0.007624
    9 5.939814 -0.004730 0.000000 0.000060 0.104254 0.001702
    10 5.939809 -0.003975 0.000000 0.000070 0.125431 0.001708
    11 4.991439 -0.003975 0.000000 0.000070 0.122459 0.001719
    12 4.991436 -0.001575 0.000000 0.000000 0.000000 0.000000
    13 0.000005 0.001564 3.638375 -0.000010 -1.283530 3.140806
    14 0.000005 0.001585 -3.638375 -0.000010 1.283530 3.140787
    15 1.977383 0.000000 0.000000 -0.036179 -0.470372 -0.014089
    16 3.723980 2.768055 -0.395205 0.000000 -3.141591 -1.570795
    17 2.863741 -0.721077 0.000003 0.000000 0.000000 0.000000
    18 8.842831 0.000000 -0.000001 -0.117485 1.428266 -0.589762
    19 9.341934 0.000000 -0.000002 0.000000 0.000000 -0.000651
    20 9.664096 0.000000 0.000003 -1.577434 -0.048706 0.161929
    21 8.842831 0.000000 0.000001 -0.261966 -0.565387 0.178087
    22 9.341934 0.000000 -0.000001 0.000000 0.000000 -0.871407
    23 9.664095 0.000000 -0.000002 1.569555 0.049989 0.000000
    24 6.829857 -0.000001 0.000000 0.001241 0.000000 0.000000
    25 0.021231 -0.065060 1.351066 0.024842 0.006382 -0.003186
    26 1.089796 -0.106998 1.928624 -1.335374 -0.038786 1.563732
    27 -2.120019 0.552893 1.060325 0.522049 -2.764527 -1.418481
  time 23
    0 -2.592604 -31.218999 25.787598 -0.125217 0.252736 -1.427473
    1 -0.596356 2.117253 9.745319 -0.000032 -1.558634 -1.570765
    2 -0.000008 0.000010 5.615750 0.138344 3.290091 -0.277782
    3 15.693467 0.000000 0.000000 0.000000 0.000000 -0.943964
    4 22.146629 -0.000001 0.000000 0.048169 -0.002048 0.602055
    5 0.000008 -0.000006 -5.615750 -0.003258 3.170829 -1.072001
    6 15.693467 0.000000 0.000000 0.000000 0.000000 -1.022832
    7 22.146629 0.000000 0.000000 0.202723 0.069449 0.284621
    8 1.384163 -0.004728 0.015627 -0.000055 0.102536 0.007010
    9 5.939814 -0.004730 0.000000 0.000060 0.102241 0.001549
    10 5.939809 -0.003975 0.000000 0.000070 0.124148 0.001558
    11 4.991439 -0.003975 0.000000 0.000070 0.120817 0.001555
    12 4.991436 -0.001575 0.000000 0.000000 0.000000 0.000000
    13 0.000005 0.001564 3.638375 -0.000010 -1.283530 3.140806
    14 0.000005 0.001585 -3.638375 -0.000010 1.283530 3.140787
    15 1.977383 0.000000 0.000000 -0.034326 -0.461904 -0.012868
    16 3.723980 2.768055 -0.395205 0.000000 -3.141591 -1.570795
    17 2.863741 -0.721077 0.000003 0.000000 0.000000 0.000000
    18 8.842831 0.000000 -0.000001 -0.138410 1.419707 -0.604080
    19 9.341934 0.000000 -0.000002 0.000000 0.000000 0.001349
    20 9.664096 0.000000 0.000003 -1.577080 -0.048024 0.157274
    21 8.842831 0.000000 0.000001 -0.270534 -0.572343 0.181175
    22 9.341934 0.000000 -0.000001 0.000000 0.000000 -0.872120
    23 9.664095 0.000000 -0.000002 1.569555 0.049989 0.000000
    24 6.829857 -0.000001 0.000000 0.001241 0.000000 0.000000
    25 0.021231 -0.065060 1.351066 0.024842 0.006382 -0.003186
    26 1.089796 -0.106998 1.928624 -1.335374 -0.038786 1.563732
    27 -2.120019 0.552893 1.060325 0.522049 -2.764527 -1.418481
  time 24
    0 -2.612136 -32.567005 26.361835 -0.112910 0.249349 -1.441914
    1 -0.592449 2.062564 9.745319 -0.000032 -1.564902 -1.570765
    2 -0.000008 0.000010 5.615750 0.110157 3.302937 -0.122090
    3 15.693467 0.000000 0.000000 0.000000 0.000000 -0.736511
    4 22.146629 -0.000001 0.000000 0.036952 -0.004801 0.560026
    5 0.000008 -0.000006 -5.615750 0.005848 3.176772 -1.002965
    6 15.693467 0.000000 0.000000 0.000000 0.000000 -0.967887
    7 22.146629 0.000000 0.000000 0.175290 0.074020 0.217499
    8 1.384163 -0.004728 0.007815 -0.000004 0.104867 0.006396
    9 5.939814 -0.004730 0.000000 0.000060 0.099832 0.001396
    10 5.939809 -0.003975 0.000000 0.000056 0.122530 0.001407
    11 4.991439 -0.003975 0.000000 0.000047 0.118851 0.001405
    12 4.991436 -0.001575 0.000000 0.000000 0.000000 0.000000
    13 0.000005 0.001564 3.638375 -0.000010 -1.283530 3.140806
    14 0.000005 0.001585 -3.638375 -0.000010 1.283530 3.140787
    15 1.977383 0.000000 0.000000 -0.032369 -0.451969 -0.011602
    16 3.723980 2.768055 -0.395205 0.000000 -3.141591 -1.570795
    17 2.863741 -0.721077 0.000003 0.000000 0.000000 0.000000
    18 8.842831 0.000000 -0.000001 -0.169713 1.409327 -0.626663
    19 9.341934 0.000000 -0.000002 0.000000 0.000000 0.003942
    20 9.664096 0.000000 0.000003 -1.576637 -0.047147 0.151091
    21 8.842831 0.000000 0.000001 -0.281534 -0.580256 0.184894
    22 9.341934 0.000000 -0.000001 0.000000 0.000000 -0.873368
    23 9.664095 0.000000 -0.000002 1.569555 0.049989 0.000000
    24 6.829857 -0.000001 0.000000 0.001241 0.000000 0.000000
    25 0.021231 -0.065060 1.351066 0.024842 0.006382 -0.003186
    26 1.089796 -0.106998 1.928624 -1.335374 -0.038786 1.563732
    27 -2.120019 0.552893 1.060325 0.522049 -2.764527 -1.418481
  time 25
    0 -2.631668 -33.918918 26.654812 -0.100416 0.246049 -1.456547
    1 -0.584637 2.000062 9.745319 -1.570795 -1.570319 0.000000
    2 -0.000008 0.000010 5.615750 0.074206 3.312620 0.043914
    3 15.693467 0.000000 0.000000 0.000000 0.000000 -0.514783
    4 22.146629 -0.000001 0.000000 0.030977 -0.008732 0.509893
    5 0.000008 -0.000006 -5.615750 0.014858 3.183195 -0.956992
    6 15.693467 0.000000 0.000000 0.000000 0.000000 -0.959192
    7 22.146629 0.000000 0.000000 0.154709 0.056599 0.251060
    8 1.384163 -0.004728 0.000002 -0.000004 0.106983 0.005744
    9 5.939814 -0.004730 0.000000 0.000048 0.097075 0.001243
    10 5.939809 -0.003975 0.000000 0.000056 0.120613 0.001244
    11 4.991439 -0.003975 0.000000 0.000047 0.116562 0.001241
    12 4.991436 -0.001575 0.000000 0.000000 0.000000 0.000000
    13 0.000005 0.001564 3.638375 -0.000010 -1.283530 3.140806
    14 0.000005 0.001585 -3.638375 -0.000010 1.283530 3.140787
    15 1.977383 0.000000 0.000000 -0.030306 -0.440722 -0.010291
    16 3.723980 2.768055 -0.395205 0.000000 -3.141591 -1.570795
    17 2.863741 -0.721077 0.000003 0.000000 0.000000 0.000000
    18 8.842831 0.000000 -0.000001 -0.207446 1.396944 -0.653827
    19 9.341934 0.000000 -0.000002 0.000000 0.000000 0.006757
    20 9.664096 0.000000 0.000003 -1.576106 -0.046108 0.143545
    21 8.842831 0.000000 0.000001 -0.294746 -0.589062 0.189314
    22 9.341934 0.000000 -0.000001 0.000000 0.000000 -0.875151
    23 9.664095 0.000000 -0.000002 1.569555 0.049989 0.000000
    24 6.829857 -0.000001 0.000000 0.001241 0.000000 0.000000
    25 0.021231 -0.065060 1.351066 0.024842 0.006382 -0.003186
    26 1.089796 -0.106998 1.928624 -1.335374 -0.038786 1.563732
    27 -2.120019 0.552893 1.060325 0.522049 -2.764527 -1.418481
  time 26
    0 -2.651199 -35.270831 26.662625 -0.087736 0.242922 -1.471467
    1 -0.576824 1.929747 9.745319 -0.000032 -1.577726 -1.570765
    2 -0.000008 0.000010 5.615750 0.075068 3.317509 0.002514
    3 15.693467 0.000000 0.000000 0.000000 0.000000 -0.530943
    4 22.146629 -0.000001 0.000000 0.028854 -0.019158 0.500415
    5 0.000008 -0.000006 -5.615750 0.023292 3.188084 -0.928125
    6 15.693467 0.000000 0.000000 0.000000 0.000000 -0.977257
    7 22.146629 0.000000 0.000000 0.133590 0.041091 0.294449
    8 1.384163 -0.004728 -0.007811 0.000022 0.108848 0.005092
    9 5.939814 -0.004730 0.000000 0.000048 0.094043 0.001071
    10 5.939809 -0.003975 0.000000 0.000042 0.118420 0.001068
    11 4.991439 -0.003975 0.000000 0.000047 0.113997 0.001062
    12 4.991436 -0.001575 0.000000 0.000000 0.000000 0.000000
    13 0.000005 0.001564 3.638375 -0.000010 -1.283530 3.140806
    14 0.000005 0.001585 -3.638375 -0.000010 1.283530 3.140787
    15 1.977383 0.000000 0.000000 -0.028174 -0.428364 -0.008980
    16 3.723980 2.768055 -0.395205 0.000000 -3.141591 -1.570795
    17 2.863741 -0.721077 0.000003 0.000000 0.000000 0.000000
    18 8.842831 0.000000 -0.000001 -0.248394 1.382922 -0.682710
    19 9.341934 0.000000 -0.000002 0.000000 0.000000 0.009720
    20 9.664096 0.000000 0.000003 -1.575486 -0.044971 0.134868
    21 8.842831 0.000000 0.000001 -0.310003 -0.598699 0.194366
    22 9.341934 0.000000 -0.000001 0.000000 0.000000 -0.877587
    23 9.664095 0.000000 -0.000002 1.569555 0.049989 0.000000
    24 6.829857 -0.000001 0.000000 0.001241 0.000000 0.000000
    25 0.021231 -0.065060 1.351066 0.024842 0.006382 -0.003186
    26 1.089796 -0.106998 1.928624 -1.335374 -0.038786 1.563732
    27 -2.120019 0.552893 1.060325 0.522049 -2.764527 -1.418481
  time 27
    0 -2.670731 -36.622743 26.615749 -0.075056 0.239969 -1.486195
    1 -0.569011 1.859433 9.745319 -3.141558 -1.557460 1.570765
    2 -0.000008 0.000010 5.615750 0.081588 3.322398 -0.068811
    3 15.693467 0.000000 0.000000 0.000000 0.000000 -0.580365
    4 22.146629 -0.000001 0.000000 0.026103 -0.030502 0.509958
    5 0.000008 -0.000006 -5.615750 0.030673 3.192110 -0.899360
    6 15.693467 0.000000 0.000000 0.000000 0.000000 -0.995922
    7 22.146629 0.000000 0.000000 0.112337 0.027122 0.338638
    8 1.384163 -0.004728 -0.015623 0.000022 0.110444 0.004402
    9 5.939814 -0.004730 0.000000 0.000048 0.090759 0.000899
    10 5.939809 -0.003975 0.000000 0.000042 0.115963 0.000904
    11 4.991439 -0.003975 0.000000 0.000047 0.111181 0.000897
    12 4.991436 -0.001575 0.000000 0.000000 0.000000 0.000000
    13 0.000005 0.001564 3.638375 -0.000010 -1.283530 3.140806
    14 0.000005 0.001585 -3.638375 -0.000010 1.283530 3.140787
    15 1.977383 0.000000 0.000000 -0.025937 -0.415007 -0.007669
    16 3.723980 2.768055 -0.395205 0.000000 -3.141591 -1.570795
    17 2.863741 -0.721077 0.000003 0.000000 0.000000 0.000000
    18 8.842831 0.000000 -0.000001 -0.289962 1.367261 -0.711020
    19 9.341934 0.000000 -0.000002 0.000000 0.000000 0.012609
    20 9.664096 0.000000 0.000003 -1.574866 -0.043769 0.125261
    21 8.842831 0.000000 0.000001 -0.326973 -0.608909 0.200120
    22 9.341934 0.000000 -0.000001 0.000000 0.000000 -0.880796
    23 9.664095 0.000000 -0.000002 1.569555 0.049989 0.000000
    24 6.829857 -0.000001 0.000000 0.001241 0.000000 0.000000
    25 0.021231 -0.065060 1.351066 0.024842 0.006382 -0.003186
    26 1.089796 -0.106998 1.928624 -1.335374 -0.038786 1.563732
    27 -2.120019 0.552893 1.060325 0.522049 -2.764527 -1.418481
  time 28
    0 -2.686357 -37.974656 26.521996 -0.062655 0.237277 -1.500732
    1 -0.561198 1.781305 9.745319 -3.141558 -1.551192 1.570765
    2 -0.000008 0.000010 5.615750 0.092901 3.326233 -0.163490
    3 15.693467 0.000000 0.000000 0.000000 0.000000 -0.655038
    4 22.146629 -0.000001 0.000000 0.022827 -0.042199 0.533162
    5 0.000008 -0.000006 -5.615750 0.036903 3.195274 -0.869679
    6 15.693467 0.000000 0.000000 0.000000 0.000000 -1.013612
    7 22.146629 0.000000 0.000000 0.091380 0.014785 0.383119
    8 1.384163 -0.004728 -0.023436 0.000047 0.111735 0.003750
    9 5.939814 -0.004730 0.000000 0.000048 0.087284 0.000746
    10 5.939809 -0.003975 0.000000 0.000028 0.113290 0.000741
    11 4.991439 -0.003975 0.000000 0.000023 0.108149 0.000733
    12 4.991436 -0.001575 0.000000 0.000000 0.000000 0.000000
    13 0.000005 0.001564 3.638375 -0.000010 -1.283530 3.140806
    14 0.000005 0.001585 -3.638375 -0.000010 1.283530 3.140787
    15 1.977383 0.000000 0.000000 -0.023665 -0.400871 -0.006449
    16 3.723980 2.768055 -0.395205 0.000000 -3.141591 -1.570795
    17 2.863741 -0.721077 0.000003 0.000000 0.000000 0.000000
    18 8.842831 0.000000 -0.000001 -0.330515 1.350326 -0.737448
    19 9.341934 0.000000 -0.000002 0.000000 0.000000 0.015276
    20 9.664096 0.000000 0.000003 -1.574158 -0.042568 0.114889
    21 8.842831 0.000000 0.000001 -0.345492 -0.619694 0.206576
    22 9.341934 0.000000 -0.000001 0.000000 0.000000 -0.884897
    23 9.664095 0.000000 -0.000002 1.569555 0.049989 0.000000
    24 6.829857 -0.000001 0.000000 0.001241 0.000000 0.000000
    25 0.021231 -0.065060 1.351066 0.024842 0.006382 -0.003186
    26 1.089796 -0.106998 1.928624 -1.335374 -0.038786 1.563732
    27 -2.120019 0.552893 1.060325 0.522049 -2.764527 -1.418481
  time 29
    0 -2.705889 -39.322663 26.400898 -0.050628 0.234845 -1.514791
    1 -0.553386 1.703178 9.745319 -0.000032 -1.596470 -1.570765
    2 -0.000008 0.000010 5.615750 0.107952 3.328055 -0.274901
    3 15.693467 0.000000 0.000000 0.000000 0.000000 -0.746947
    4 22.146629 -0.000001 0.000000 0.019184 -0.053637 0.564667
    5 0.000008 -0.000006 -5.615750 0.041983 3.197766 -0.838215
    6 15.693467 0.000000 0.000000 0.000000 0.000000 -1.028979
    7 22.146629 0.000000 0.000000 0.071040 0.004104 0.427382
    8 1.384163 -0.004728 -0.035155 0.000047 0.112721 0.003136
    9 5.939814 -0.004730 0.000000 0.000036 0.083664 0.000593
    10 5.939809 -0.003975 0.000000 0.000028 0.110426 0.000590
    11 4.991439 -0.003975 0.000000 0.000023 0.104937 0.000583
    12 4.991436 -0.001575 0.000000 0.000000 0.000000 0.000000
    13 0.000005 0.001564 3.638375 -0.000010 -1.283530 3.140806
    14 0.000005 0.001585 -3.638375 -0.000010 1.283530 3.140787
    15 1.977383 0.000000 0.000000 -0.021358 -0.386068 -0.005228
    16 3.723980 2.768055 -0.395205 0.000000 -3.141591 -1.570795
    17 2.863741 -0.721077 0.000003 0.000000 0.000000 0.000000
    18 8.842831 0.000000 -0.000001 -0.368869 1.332115 -0.761175
    19 9.341934 0.000000 -0.000002 0.000000 0.000000 0.017424
    20 9.664096 0.000000 0.000003 -1.573450 -0.041366 0.103985
    21 8.842831 0.000000 0.000001 -0.365392 -0.630798 0.213592
    22 9.341934 0.000000 -0.000001 0.000000 0.000000 -0.889948
    23 9.664095 0.000000 -0.000002 1.569555 0.049989 0.000000
    24 6.829857 -0.000001 0.000000 0.001241 0.000000 0.000000
    25 0.021231 -0.065060 1.351066 0.024842 0.006382 -0.003186
    26 1.089796 -0.106998 1.928624 -1.335374 -0.038786 1.563732
    27 -2.120019 0.552893 1.060325 0.522049 -2.764527 -1.418481
  time 30
    0 -2.721514 -40.674576 26.260269 -0.039160 0.232674 -1.528180
    1 -0.545573 1.621144 9.745319 -0.000032 -1.602246 -1.570765
    2 -0.000008 0.000010 5.615750 0.125113 3.327000 -0.396270
    3 15.693467 0.000000 0.000000 0.000000 0.000000 -0.848149
    4 22.146629 -0.000001 0.000000 0.015462 -0.064369 0.599179
    5 0.000008 -0.000006 -5.615750 0.045817 3.199588 -0.804156
    6 15.693467 0.000000 0.000000 0.000000 0.000000 -1.040598
    7 22.146629 0.000000 0.000000 0.051695 -0.004897 0.470843
    8 1.384163 -0.004728 -0.042968 0.000073 0.113349 0.002560
    9 5.939814 -0.004730 0.000000 0.000036 0.079949 0.000440
    10 5.939809 -0.003975 0.000000 0.000028 0.107382 0.000440
    11 4.991439 -0.003975 0.000000 0.000023 0.101569 0.000434
    12 4.991436 -0.001575 0.000000 0.000000 0.000000 0.000000
    13 0.000005 0.001564 3.638375 -0.000010 -1.283530 3.140806
    14 0.000005 0.001585 -3.638375 -0.000010 1.283530 3.140787
    15 1.977383 0.000000 0.000000 -0.019016 -0.370799 -0.004143
    16 3.723980 2.768055 -0.395205 0.000000 -3.141591 -1.570795
    17 2.863741 -0.721077 0.000003 0.000000 0.000000 0.000000
    18 8.842831 0.000000 -0.000001 -0.404289 1.313176 -0.781631
    19 9.341934 0.000000 -0.000002 0.000000 0.000000 0.019054
    20 9.664096 0.000000 0.000003 -1.572742 -0.040262 0.092716
    21 8.842831 0.000000 0.000001 -0.386398 -0.642284 0.221311
    22 9.341934 0.000000 -0.000001 0.000000 0.000000 -0.896069
    23 9.664095 0.000000 -0.000002 1.569555 0.049989 0.000000
    24 6.829857 -0.000001 0.000000 0.001241 0.000000 0.000000
    25 0.021231 -0.065060 1.351066 0.024842 0.006382 -0.003186
    26 1.089796 -0.106998 1.928624 -1.335374 -0.038786 1.563732
    27 -2.120019 0.552893 1.060325 0.522049 -2.764527 -1.418481
  time 31
    0 -2.737139 -42.026488 26.115733 -0.028344 0.230763 -1.540708
    1 -0.537760 1.539110 9.745319 -0.000032 -1.607651 -1.570765
    2 -0.000008 0.000010 5.615750 0.142658 3.322686 -0.520823
    3 15.693467 0.000000 0.000000 0.000000 0.000000 -0.950630
    4 22.146629 -0.000001 0.000000 0.011872 -0.073901 0.631337
    5 0.000008 -0.000006 -5.615750 0.048405 3.201025 -0.766736
    6 15.693467 0.000000 0.000000 0.000000 0.000000 -1.047044
    7 22.146629 0.000000 0.000000 0.033693 -0.012313 0.512703
    8 1.384163 -0.004728 -0.050781 0.000073 0.113600 0.002023
    9 5.939814 -0.004730 0.000000 0.000036 0.076174 0.000306
    10 5.939809 -0.003975 0.000000 0.000014 0.104182 0.000301
    11 4.991439 -0.003975 0.000000 0.000023 0.098094 0.000314
    12 4.991436 -0.001575 0.000000 0.000000 0.000000 0.000000
    13 0.000005 0.001564 3.638375 -0.000010 -1.283530 3.140806
    14 0.000005 0.001585 -3.638375 -0.000010 1.283530 3.140787
    15 1.977383 0.000000 0.000000 -0.016709 -0.355218 -0.003149
    16 3.723980 2.768055 -0.395205 0.000000 -3.141591 -1.570795
    17 2.863741 -0.721077 0.000003 0.000000 0.000000 0.000000
    18 8.842831 0.000000 -0.000001 -0.436325 1.293600 -0.798731
    19 9.341934 0.000000 -0.000002 0.000000 0.000000 0.019795
    20 9.664096 0.000000 0.000003 -1.572122 -0.039255 0.081280
    21 8.842831 0.000000 0.000001 -0.408344 -0.653899 0.229661
    22 9.341934 0.000000 -0.000001 0.000000 0.000000 -0.903379
    23 9.664095 0.000000 -0.000002 1.569555 0.049989 0.000000
    24 6.829857 -0.000001 0.000000 0.001241 0.000000 0.000000
    25 0.021231 -0.065060 1.351066 0.024842 0.006382 -0.003186
    26 1.089796 -0.106998 1.928624 -1.335374 -0.038786 1.563732
    27 -2.120019 0.552893 1.060325 0.522049 -2.764527 -1.418481
  time 32
    0 -2.748859 -43.374495 25.982917 -0.018461 0.229200 -1.552281
    1 -0.533854 1.457077 9.745319 -0.000032 -1.612601 -1.570765
    2 -0.000008 0.000010 5.615750 0.158764 3.315400 -0.641738
    3 15.693467 0.000000 0.000000 0.000000 0.000000 -1.046378
    4 22.146629 -0.000001 0.000000 0.008727 -0.081997 0.655849
    5 0.000008 -0.000006 -5.615750 0.049651 3.202176 -0.725294
    6 15.693467 0.000000 0.000000 0.000000 0.000000 -1.046895
    7 22.146629 0.000000 0.000000 0.017411 -0.018167 0.552379
    8 1.384163 -0.004728 -0.054687 0.000073 0.113474 0.001563
    9 5.939814 -0.004730 0.000000 0.000036 0.072411 0.000191
    10 5.939809 -0.003975 0.000000 0.000014 0.100862 0.000188
    11 4.991439 -0.003975 0.000000 0.000023 0.094522 0.000194
    12 4.991436 -0.001575 0.000000 0.000000 0.000000 0.000000
    13 0.000005 0.001564 3.638375 -0.000010 -1.283530 3.140806
    14 0.000005 0.001585 -3.638375 -0.000010 1.283530 3.140787
    15 1.977383 0.000000 0.000000 -0.014402 -0.339482 -0.002290
    16 3.723980 2.768055 -0.395205 0.000000 -3.141591 -1.570795
    17 2.863741 -0.721077 0.000003 0.000000 0.000000 0.000000
    18 8.842831 0.000000 -0.000001 -0.464808 1.273933 -0.812477
    19 9.341934 0.000000 -0.000002 0.000000 0.000000 0.019573
    20 9.664096 0.000000 0.000003 -1.571503 -0.038443 0.069844
    21 8.842831 0.000000 0.000001 -0.431008 -0.665513 0.238713
    22 9.341934 0.000000 -0.000001 0.000000 0.000000 -0.911936
    23 9.664095 0.000000 -0.000002 1.569555 0.049989 0.000000
    24 6.829857 -0.000001 0.000000 0.001241 0.000000 0.000000
    25 0.021231 -0.065060 1.351066 0.024842 0.006382 -0.003186
    26 1.089796 -0.106998 1.928624 -1.335374 -0.038786 1.563732
    27 -2.120019 0.552893 1.060325 0.522049 -2.764527 -1.418481
  time 33
    0 -2.756671 -44.726408 25.869632 -0.009697 0.227810 -1.562514
    1 -0.529947 1.378949 9.745319 -0.000032 -1.616999 -1.570765
    2 -0.000008 0.000010 5.615750 0.171803 3.306292 -0.752441
    3 15.693467 0.000000 0.000000 0.000000 0.000000 -1.127447
    4 22.146629 -0.000001 0.000000 0.006185 -0.088422 0.667352
    5 0.000008 -0.000006 -5.615750 0.049651 3.203230 -0.679219
    6 15.693467 0.000000 0.000000 0.000000 0.000000 -1.038799
    7 22.146629 0.000000 0.000000 0.003117 -0.022574 0.588998
    8 1.384163 -0.004728 -0.062500 0.000073 0.112900 0.001180
    9 5.939814 -0.004730 0.000000 0.000036 0.068684 0.000096
    10 5.939809 -0.003975 0.000000 0.000014 0.097459 0.000100
    11 4.991439 -0.003975 0.000000 0.000023 0.090891 0.000090
    12 4.991436 -0.001575 0.000000 0.000000 0.000000 0.000000
    13 0.000005 0.001564 3.638375 -0.000010 -1.283530 3.140806
    14 0.000005 0.001585 -3.638375 -0.000010 1.283530 3.140787
    15 1.977383 0.000000 0.000000 -0.012165 -0.323746 -0.001567
    16 3.723980 2.768055 -0.395205 0.000000 -3.141591 -1.570795
    17 2.863741 -0.721077 0.000003 0.000000 0.000000 0.000000
    18 8.842831 0.000000 -0.000001 -0.489569 1.254266 -0.823114
    19 9.341934 0.000000 -0.000002 0.000000 0.000000 0.018239
    20 9.664096 0.000000 0.000003 -1.570883 -0.037826 0.058675
    21 8.842831 0.000000 0.000001 -0.454170 -0.677064 0.248326
    22 9.341934 0.000000 -0.000001 0.000000 0.000000 -0.921861
    23 9.664095 0.000000 -0.000002 1.569555 0.049989 0.000000
    24 6.829857 -0.000001 0.000000 0.001241 0.000000 0.000000
    25 0.021231 -0.065060 1.351066 0.024842 0.006382 -0.003186
    26 1.089796 -0.106998 1.928624 -1.335374 -0.038786 1.563732
    27 -2.120019 0.552893 1.060325 0.522049 -2.764527 -1.418481
  time 34
    0 -2.768390 -46.078320 25.787598 -0.002144 0.226768 -1.571313
    1 -0.526041 1.296916 9.745319 -0.000032 -1.620786 -1.570765
    2 -0.000008 0.000010 5.615750 0.180240 3.296706 -0.846260
    3 15.693467 0.000000 0.000000 0.000000 0.000000 -1.185825
    4 22.146629 -0.000001 0.000000 0.004455 -0.093105 0.660489
    5 0.000008 -0.000006 -5.615750 0.048309 3.204285 -0.627697
    6 15.693467 0.000000 0.000000 0.000000 0.000000 -1.021033
    7 22.146629 0.000000 0.000000 -0.008867 -0.025746 0.621685
    8 1.384163 -0.004728 -0.066406 0.000073 0.111896 0.000911
    9 5.939814 -0.004730 0.000000 0.000036 0.065052 0.000019
    10 5.939809 -0.003975 0.000000 0.000014 0.093971 0.000025
    11 4.991439 -0.003975 0.000000 0.000023 0.087236 0.000030
    12 4.991436 -0.001575 0.000000 0.000000 0.000000 0.000000
    13 0.000005 0.001564 3.638375 -0.000010 -1.283530 3.140806
    14 0.000005 0.001585 -3.638375 -0.000010 1.283530 3.140787
    15 1.977383 0.000000 0.000000 -0.009997 -0.308188 -0.001024
    16 3.723980 2.768055 -0.395205 0.000000 -3.141591 -1.570795
    17 2.863741 -0.721077 0.000003 0.000000 0.000000 0.000000
    18 8.842831 0.000000 -0.000001 -0.510550 1.235145 -0.830641
    19 9.341934 0.000000 -0.000002 0.000000 0.000000 0.015498
    20 9.664096 0.000000 0.000003 -1.570440 -0.037469 0.047904
    21 8.842831 0.000000 0.000001 -0.477553 -0.688423 0.258640
    22 9.341934 0.000000 -0.000001 0.000000 0.000000 -0.933271
    23 9.664095 0.000000 -0.000002 1.569555 0.049989 0.000000
    24 6.829857 -0.000001 0.000000 0.001241 0.000000 0.000000
    25 0.021231 -0.065060 1.351066 0.024842 0.006382 -0.003186
    26 1.089796 -0.106998 1.928624 -1.335374 -0.038786 1.563732
    27 -2.120019 0.552893 1.060325 0.522049 -2.764527 -1.418481
  time 35
    0 -2.768390 -47.426327 25.740722 0.003077 0.225986 -1.577529
    1 -0.526041 1.222695 9.745319 -0.000032 -1.623950 -1.570765
    2 -0.000008 0.000010 5.615750 0.182732 3.287311 -0.922590
    3 15.693467 0.000000 0.000000 0.000000 0.000000 -1.212287
    4 22.146629 -0.000001 0.000000 0.005556 -0.095012 0.614997
    5 0.000008 -0.000006 -5.615750 0.048500 3.205243 -0.599186
    6 15.693467 0.000000 0.000000 0.000000 0.000000 -1.036925
    7 22.146629 0.000000 0.000000 -0.016766 -0.032089 0.622923
    8 1.384163 -0.004728 -0.070313 0.000073 0.110498 0.000758
    9 5.939814 -0.004730 0.000000 0.000036 0.061565 0.000000
    10 5.939809 -0.003975 0.000000 0.000014 0.090448 -0.000013
    11 4.991439 -0.003975 0.000000 0.000023 0.083593 -0.000015
    12 4.991436 -0.001575 0.000000 0.000000 0.000000 0.000000
    13 0.000005 0.001564 3.638375 -0.000010 -1.283530 3.140806
    14 0.000005 0.001585 -3.638375 -0.000010 1.283530 3.140787
    15 1.977383 0.000000 0.000000 -0.007970 -0.292963 -0.000708
    16 3.723980 2.768055 -0.395205 0.000000 -3.141591 -1.570795
    17 2.863741 -0.721077 0.000003 0.000000 0.000000 0.000000
    18 8.842831 0.000000 -0.000001 -0.527640 1.216934 -0.835223
    19 9.341934 0.000000 -0.000002 0.000000 0.000000 0.011202
    20 9.664096 0.000000 0.000003 -1.569998 -0.037436 0.037731
    21 8.842831 0.000000 0.000001 -0.500991 -0.699463 0.269517
    22 9.341934 0.000000 -0.000001 0.000000 0.000000 -0.946285
    23 9.664095 0.000000 -0.000002 1.569555 0.049989 0.000000
    24 6.829857 -0.000001 0.000000 0.001241 0.000000 0.000000
    25 0.021231 -0.065060 1.351066 0.024842 0.006382 -0.003186
    26 1.089796 -0.106998 1.928624 -1.335374 -0.038786 1.563732
    27 -2.120019 0.552893 1.060325 0.522049 -2.764527 -1.418481
  time 36
    0 -2.764484 -48.774333 25.705565 0.005501 0.225726 -1.580398
    1 -0.526041 1.148474 9.745319 -0.000032 -1.626455 -1.570765
    2 -0.000008 0.000010 5.615750 0.179569 3.277820 -0.986535
    3 15.693467 0.000000 0.000000 0.000000 0.000000 -1.210065
    4 22.146629 -0.000001 0.000000 0.009487 -0.093341 0.529305
    5 0.000008 -0.000006 -5.615750 0.048405 3.207927 -0.564821
    6 15.693467 0.000000 0.000000 0.000000 0.000000 -1.042247
    7 22.146629 0.000000 0.000000 -0.020393 -0.037896 0.620302
    8 1.384163 -0.004728 -0.074219 0.000073 0.108722 0.000681
    9 5.939814 -0.004730 0.000000 0.000036 0.058269 -0.000019
    10 5.939809 -0.003975 0.000000 0.000014 0.086912 -0.000025
    11 4.991439 -0.003975 0.000000 0.000023 0.079985 -0.000030
    12 4.991436 -0.001575 0.000000 0.000000 0.000000 0.000000
    13 0.000005 0.001564 3.638375 -0.000010 -1.283530 3.140806
    14 0.000005 0.001585 -3.638375 -0.000010 1.283530 3.140787
    15 1.977383 0.000000 0.000000 -0.006047 -0.278249 -0.000572
    16 3.723980 2.768055 -0.395205 0.000000 -3.141591 -1.570795
    17 2.863741 -0.721077 0.000003 0.000000 0.000000 0.000000
    18 8.842831 0.000000 -0.000001 -0.540782 1.199908 -0.837105
    19 9.341934 0.000000 -0.000002 0.000000 0.000000 0.005127
    20 9.664096 0.000000 0.000003 -1.569555 -0.037761 0.028357
    21 8.842831 0.000000 0.000001 -0.524263 -0.710056 0.281094
    22 9.341934 0.000000 -0.000001 0.000000 0.000000 -0.960964
    23 9.664095 0.000000 -0.000002 1.569555 0.049989 0.000000
    24 6.829857 -0.000001 0.000000 0.001241 0.000000 0.000000
    25 0.021231 -0.065060 1.351066 0.024842 0.006382 -0.003186
    26 1.089796 -0.106998 1.928624 -1.335374 -0.038786 1.563732
    27 -2.120019 0.552893 1.060325 0.522049 -2.764527 -1.418481
  time 37
    0 -2.752765 -50.122340 25.678220 0.005781 0.225639 -1.580781
    1 -0.526041 1.082065 9.745319 -0.000032 -1.628181 -1.570765
    2 -0.000008 0.000010 5.615750 0.172762 3.268712 -1.040370
    3 15.693467 0.000000 0.000000 0.000000 0.000000 -1.189529
    4 22.146629 -0.000001 0.000000 0.013418 -0.088916 0.426881
    5 0.000008 -0.000006 -5.615750 0.048213 3.211666 -0.526128
    6 15.693467 0.000000 0.000000 0.000000 0.000000 -1.039474
    7 22.146629 0.000000 0.000000 -0.020877 -0.043213 0.613531
    8 1.384163 -0.004728 -0.078125 0.000099 0.106517 0.000719
    9 5.939814 -0.004730 0.000000 0.000036 0.055225 -0.000019
    10 5.939809 -0.003975 0.000000 0.000014 0.083377 -0.000013
    11 4.991439 -0.003975 0.000000 0.000023 0.076450 -0.000015
    12 4.991436 -0.001575 0.000000 0.000000 0.000000 0.000000
    13 0.000005 0.001564 3.638375 -0.000010 -1.283530 3.140806
    14 0.000005 0.001585 -3.638375 -0.000010 1.283530 3.140787
    15 1.977383 0.000000 0.000000 -0.004334 -0.264180 -0.000662
    16 3.723980 2.768055 -0.395205 0.000000 -3.141591 -1.570795
    17 2.863741 -0.721077 0.000003 0.000000 0.000000 0.000000
    18 8.842831 0.000000 -0.000001 -0.549806 1.184520 -0.836123
    19 9.341934 0.000000 -0.000002 0.000000 0.000000 -0.002799
    20 9.664096 0.000000 0.000003 -1.569378 -0.038508 0.020013
    21 8.842831 0.000000 0.000001 -0.547093 -0.720075 0.293233
    22 9.341934 0.000000 -0.000001 0.000000 0.000000 -0.977365
    23 9.664095 0.000000 -0.000002 1.569555 0.049989 0.000000
    24 6.829857 -0.000001 0.000000 0.001241 0.000000 0.000000
    25 0.021231 -0.065060 1.351066 0.024842 0.006382 -0.003186
    26 1.089796 -0.106998 1.928624 -1.335374 -0.038786 1.563732
    27 -2.120019 0.552893 1.060325 0.522049 -2.764527 -1.418481
  time 38
    0 -2.741046 -51.470346 25.658688 0.004475 0.225812 -1.579442
    1 -0.526041 1.019563 9.745319 -0.000032 -1.628996 -1.570765
    2 -0.000008 0.000010 5.615750 0.164133 3.259796 -1.086420
    3 15.693467 0.000000 0.000000 0.000000 0.000000 -1.161383
    4 22.146629 -0.000001 0.000000 0.015095 -0.083244 0.330732
    5 0.000008 -0.000006 -5.615750 0.047542 3.215884 -0.484890
    6 15.693467 0.000000 0.000000 0.000000 0.000000 -1.031303
    7 22.146629 0.000000 0.000000 -0.019211 -0.048180 0.602320
    8 1.384163 -0.004728 -0.078125 0.000099 0.103791 0.000873
    9 5.939814 -0.004730 0.000000 0.000036 0.052445 0.000019
    10 5.939809 -0.003975 0.000000 0.000028 0.079877 0.000025
    11 4.991439 -0.003975 0.000000 0.000023 0.073022 0.000015
    12 4.991436 -0.001575 0.000000 0.000000 0.000000 0.000000
    13 0.000005 0.001564 3.638375 -0.000010 -1.283530 3.140806
    14 0.000005 0.001585 -3.638375 -0.000010 1.283530 3.140787
    15 1.977383 0.000000 0.000000 -0.002796 -0.250955 -0.000979
    16 3.723980 2.768055 -0.395205 0.000000 -3.141591 -1.570795
    17 2.863741 -0.721077 0.000003 0.000000 0.000000 0.000000
    18 8.842831 0.000000 -0.000001 -0.554488 1.171044 -0.832441
    19 9.341934 0.000000 -0.000002 0.000000 0.000000 -0.012874
    20 9.664096 0.000000 0.000003 -1.569201 -0.039677 0.012832
    21 8.842831 0.000000 0.000001 -0.569205 -0.729456 0.305934
    22 9.341934 0.000000 -0.000001 0.000000 0.000000 -0.995728
    23 9.664095 0.000000 -0.000002 1.569555 0.049989 0.000000
    24 6.829857 -0.000001 0.000000 0.001241 0.000000 0.000000
    25 0.021231 -0.065060 1.351066 0.024842 0.006382 -0.003186
    26 1.089796 -0.106998 1.928624 -1.335374 -0.038786 1.563732
    27 -2.120019 0.552893 1.060325 0.522049 -2.764527 -1.418481
  time 39
    0 -2.721514 -52.818353 25.639156 0.002424 0.226073 -1.577051
    1 -0.529947 0.964874 9.745319 -0.000032 -1.628792 -1.570765
    2 -0.000008 0.000010 5.615750 0.155409 3.250881 -1.126860
    3 15.693467 0.000000 0.000000 0.000000 0.000000 -1.136133
    4 22.146629 -0.000001 0.000000 0.012973 -0.078231 0.264127
    5 0.000008 -0.000006 -5.615750 0.046584 3.219910 -0.442837
    6 15.693467 0.000000 0.000000 0.000000 0.000000 -1.020359
    7 22.146629 0.000000 0.000000 -0.016282 -0.052961 0.586595
    8 1.384163 -0.004728 -0.078125 0.000125 0.100527 0.001218
    9 5.939814 -0.004730 0.000000 0.000036 0.050012 0.000096
    10 5.939809 -0.003975 0.000000 0.000028 0.076438 0.000100
    11 4.991439 -0.003975 0.000000 0.000023 0.069726 0.000105
    12 4.991436 -0.001575 0.000000 0.000000 0.000000 0.000000
    13 0.000005 0.001564 3.638375 -0.000010 -1.283530 3.140806
    14 0.000005 0.001585 -3.638375 -0.000010 1.283530 3.140787
    15 1.977383 0.000000 0.000000 -0.001468 -0.238709 -0.001567
    16 3.723980 2.768055 -0.395205 0.000000 -3.141591 -1.570795
    17 2.863741 -0.721077 0.000003 0.000000 0.000000 0.000000
    18 8.842831 0.000000 -0.000001 -0.554544 1.159936 -0.825814
    19 9.341934 0.000000 -0.000002 0.000000 0.000000 -0.025246
    20 9.664096 0.000000 0.000003 -1.569112 -0.041366 0.007048
    21 8.842831 0.000000 0.000001 -0.590321 -0.738071 0.319196
    22 9.341934 0.000000 -0.000001 0.000000 0.000000 -1.015993
    23 9.664095 0.000000 -0.000002 1.569555 0.049989 0.000000
    24 6.829857 -0.000001 0.000000 0.001241 0.000000 0.000000
    25 0.021231 -0.065060 1.351066 0.024842 0.006382 -0.003186
    26 1.089796 -0.106998 1.928624 -1.335374 -0.038786 1.563732
    27 -2.120019 0.552893 1.060325 0.522049 -2.764527 -1.418481
  time 40
    0 -2.701982 -54.166359 25.623531 0.000186 0.226334 -1.574373
    1 -0.533854 0.914091 9.745319 -0.000032 -1.627438 -1.570765
    2 -0.000008 0.000010 5.615750 0.146972 3.240719 -1.152134
    3 15.693467 0.000000 0.000000 0.000000 0.000000 -1.099773
    4 22.146629 -0.000001 0.000000 0.003984 -0.073689 0.242492
    5 0.000008 -0.000006 -5.615750 0.045242 3.222978 -0.401701
    6 15.693467 0.000000 0.000000 0.000000 0.000000 -1.009490
    7 22.146629 0.000000 0.000000 -0.012870 -0.057812 0.566357
    8 1.384163 -0.004728 -0.078125 0.000150 0.096618 0.001755
    9 5.939814 -0.004730 0.000000 0.000036 0.047962 0.000229
    10 5.939809 -0.003975 0.000000 0.000028 0.073082 0.000239
    11 4.991439 -0.003975 0.000000 0.000023 0.066598 0.000239
    12 4.991436 -0.001575 0.000000 0.000000 0.000000 0.000000
    13 0.000005 0.001564 3.638375 -0.000010 -1.283530 3.140806
    14 0.000005 0.001585 -3.638375 -0.000010 1.283530 3.140787
    15 1.977383 0.000000 0.000000 -0.000419 -0.227618 -0.002516
    16 3.723980 2.768055 -0.395205 0.000000 -3.141591 -1.570795
    17 2.863741 -0.721077 0.000003 0.000000 0.000000 0.000000
    18 8.842831 0.000000 -0.000001 -0.549524 1.151468 -0.815913
    19 9.341934 0.000000 -0.000002 0.000000 0.000000 -0.040062
    20 9.664096 0.000000 0.000003 -1.569112 -0.043639 0.002859
    21 8.842831 0.000000 0.000001 -0.610277 -0.745857 0.333019
    22 9.341934 0.000000 -0.000001 0.000000 0.000000 -1.038338
    23 9.664095 0.000000 -0.000002 1.569555 0.049989 0.000000
    24 6.829857 -0.000001 0.000000 0.001241 0.000000 0.000000
    25 0.021231 -0.065060 1.351066 0.024842 0.006382 -0.003186
    26 1.089796 -0.106998 1.928624 -1.335374 -0.038786 1.563732
    27 -2.120019 0.552893 1.060325 0.522049 -2.764527 -1.418481
  time 41
    0 -2.682450 -55.518272 25.600093 -0.001492 0.226594 -1.572269
    1 -0.545573 0.875028 9.745319 -0.000032 -1.624813 -1.570765
    2 -0.000008 0.000010 5.615750 0.137385 3.230844 -1.157998
    3 15.693467 0.000000 0.000000 0.000000 0.000000 -1.051900
    4 22.146629 -0.000001 0.000000 -0.008701 -0.068958 0.259617
    5 0.000008 -0.000006 -5.615750 0.043325 3.224224 -0.363212
    6 15.693467 0.000000 0.000000 0.000000 0.000000 -1.001619
    7 22.146629 0.000000 0.000000 -0.009565 -0.062919 0.541532
    8 1.384163 -0.004728 -0.074219 0.000176 0.092009 0.002445
    9 5.939814 -0.004730 0.000000 0.000036 0.046344 0.000402
    10 5.939809 -0.003975 0.000000 0.000042 0.069846 0.000402
    11 4.991439 -0.003975 0.000000 0.000023 0.063674 0.000404
    12 4.991436 -0.001575 0.000000 0.000000 0.000000 0.000000
    13 0.000005 0.001564 3.638375 -0.000010 -1.283530 3.140806
    14 0.000005 0.001585 -3.638375 -0.000010 1.283530 3.140787
    15 1.977383 0.000000 0.000000 0.000280 -0.217861 -0.003736
    16 3.723980 2.768055 -0.395205 0.000000 -3.141591 -1.570795
    17 2.863741 -0.721077 0.000003 0.000000 0.000000 0.000000
    18 8.842831 0.000000 -0.000001 -0.538808 1.145914 -0.802577
    19 9.341934 0.000000 -0.000002 0.000000 0.000000 -0.057544
    20 9.664096 0.000000 0.000003 -1.569289 -0.046498 0.000432
    21 8.842831 0.000000 0.000001 -0.628740 -0.752621 0.347333
    22 9.341934 0.000000 -0.000001 0.000000 0.000000 -1.062940
    23 9.664095 0.000000 -0.000002 1.569555 0.049989 0.000000
    24 6.829857 -0.000001 0.000000 0.001241 0.000000 0.000000
    25 0.021231 -0.065060 1.351066 0.024842 0.006382 -0.003186
    26 1.089796 -0.106998 1.928624 -1.335374 -0.038786 1.563732
    27 -2.120019 0.552893 1.060325 0.522049 -2.764527 -1.418481
  time 42
    0 -2.670731 -56.866278 25.521965 -0.002144 0.226768 -1.571313
    1 -0.553386 1.132848 9.745319 -0.000032 -1.620786 -1.570765
    2 -0.000008 0.000010 5.615750 0.116677 3.222408 -1.159717
    3 15.693467 0.000000 0.000000 0.000000 0.000000 -1.042675
    4 22.146629 -0.000001 0.000000 -0.022224 -0.061521 0.430672
    5 0.000008 -0.000006 -5.615750 0.030481 3.218568 -0.315915
    6 15.693467 0.000000 0.000000 0.000000 0.000000 -0.975008
    7 22.146629 0.000000 0.000000 -0.001773 -0.054244 0.536946
    8 1.384163 -0.004728 -0.066406 0.000845 0.129990 0.015679
    9 5.939814 -0.004730 0.000000 0.000024 0.032203 0.003691
    10 5.939809 -0.003975 0.000000 0.000028 0.045062 0.003706
    11 4.991439 -0.003975 0.000000 0.000023 0.047974 0.003708
    12 4.991436 -0.001575 0.000000 0.000000 0.000000 0.000000
    13 0.000005 0.001564 3.638375 -0.000010 -1.283530 3.140806
    14 0.000005 0.001585 -3.638375 -0.000010 1.283530 3.140787
    15 1.977383 0.000000 0.000000 0.004055 -0.205192 -0.027199
    16 3.723980 2.768055 -0.395205 0.000000 -3.141591 -1.570795
    17 2.863741 -0.721077 0.000003 0.000000 0.000000 0.000000
    18 8.842831 0.000000 -0.000001 -0.549637 1.125336 -0.813131
    19 9.341934 0.000000 -0.000002 0.000000 0.000000 -0.077842
    20 9.664096 0.000000 0.000003 -1.569555 -0.049973 0.000000
    21 8.842831 0.000000 0.000001 -0.622106 -0.769149 0.336808
    22 9.341934 0.000000 -0.000001 0.000000 0.000000 -1.089742
    23 9.664095 0.000000 -0.000002 1.569555 0.049989 0.000000
    24 6.829857 -0.000001 0.000000 0.001241 0.000000 0.000000
    25 0.021231 -0.065060 1.351066 0.024842 0.006382 -0.003186
    26 1.089796 -0.106998 1.928624 -1.335374 -0.038786 1.563732
    27 -2.120019 0.552893 1.060325 0.522049 -2.764527 -1.418481
end
