version 1
nodes
  0 "Bip01" -1
  1 "Bip01 Pelvis" 0
  2 "Bip01 L Thigh" 1
  3 "Bip01 L Calf" 2
  4 "Bip01 L Foot" 3
  5 "Bip01 R Thigh" 1
  6 "Bip01 R Calf" 5
  7 "Bip01 R Foot" 6
  8 "Bip01 Spine" 1
  9 "Bip01 Spine1" 8
  10 "Bip01 Spine2" 9
  11 "Bip01 Spine3" 10
  12 "Bip01 Neck" 11
  13 "Bip01 L Clavicle" 12
  14 "Bip01 R Clavicle" 12
  15 "Bip01 Head" 12
  16 "Bone05" 15
  17 "Bone06" 16
  18 "Bip01 L UpperArm" 13
  19 "Bip01 L Forearm" 18
  20 "Bip01 L Hand" 19
  21 "Bip01 R UpperArm" 14
  22 "Bip01 R Forearm" 21
  23 "Bip01 R Hand" 22
  24 "Bip01 R Finger0" 23
  25 "p_desert_eagle" 24
  26 "GLOCK_model" 24
  27 "Cylinder02" 24
end
skeleton
  time 0
    0 0.235607 -0.093753 31.264328 0.000000 0.000000 -1.562131
    1 -1.783892 0.000001 9.745319 -1.570795 -1.570451 0.000000
    2 -0.000008 0.000010 5.615750 0.034419 3.159998 -0.127549
    3 15.693467 0.000000 0.000000 0.000000 0.000000 -0.196229
    4 22.146629 -0.000001 0.000000 -0.031790 -0.022711 0.069345
    5 0.000008 -0.000006 -5.615750 0.020513 3.099220 -0.037990
    6 15.693467 0.000000 0.000000 0.000000 0.000000 -0.049481
    7 22.146629 0.000000 0.000000 -0.022167 0.041557 0.010674
    8 1.384163 -0.004728 0.000002 -0.000004 -0.000001 0.087947
    9 5.939814 -0.004730 0.000000 0.000000 0.000000 0.069777
    10 5.939809 -0.003975 0.000000 0.000000 0.000000 0.000000
    11 4.991439 -0.003975 0.000000 0.000000 0.000000 0.000000
    12 4.991436 -0.001575 0.000000 0.000000 0.000000 0.000000
    13 0.000005 0.001564 3.638375 -0.000010 -1.283530 3.140806
    14 0.000005 0.001585 -3.638375 -0.000010 1.300966 3.140787
    15 1.977383 0.000000 0.000000 0.000000 0.000000 -0.114131
    16 3.723980 2.768055 -0.395205 0.000000 -3.141591 -1.570795
    17 2.863741 -0.721077 0.000003 0.000000 0.000000 0.000000
    18 8.842831 0.000000 -0.000001 0.046419 0.937314 0.274262
    19 9.341934 0.000000 -0.000002 0.000000 0.000000 -0.618403
    20 9.664096 0.000000 0.000003 -1.569555 0.349021 0.000000
    21 8.842831 0.000000 0.000001 -0.054560 -0.954086 0.280884
    22 9.341934 0.000000 -0.000001 0.000000 0.000000 -0.618367
    23 9.664095 0.000000 -0.000002 1.569555 -0.349003 0.000000
    24 6.829857 -0.000001 0.000000 0.001241 0.000000 0.000000
    25 0.021231 -0.065060 1.351066 0.024842 0.006382 -0.003186
    26 1.089796 -0.106998 1.928624 -1.335374 -0.038786 1.563732
    27 -2.120019 0.552893 1.060325 0.522049 -2.764527 -1.418481
  time 1
    0 0.137948 0.476577 29.361926 0.000000 0.089891 -1.562131
    1 -2.498757 0.062503 9.745319 -1.570795 -1.570451 0.000000
    2 -0.000008 0.000010 5.615750 0.040651 3.151370 -0.493173
    3 15.693467 0.000000 0.000000 0.000000 0.000000 -0.644062
    4 22.146629 -0.000001 0.000000 -0.033572 -0.024994 0.241381
    5 0.000008 -0.000006 -5.615750 0.001055 3.095290 -0.472722
    6 15.693467 0.000000 0.000000 0.000000 0.000000 -0.615352
    7 22.146629 0.000000 0.000000 -0.018324 0.042560 0.232132
    8 1.384163 -0.004728 0.000002 -0.000004 -0.000001 0.150088
    9 5.939814 -0.004730 0.000000 -0.014609 0.007191 0.081824
    10 5.939809 -0.003975 0.000000 -0.001472 0.008485 0.014949
    11 4.991439 -0.003975 0.000000 0.000000 0.000000 0.004620
    12 4.991436 -0.001575 0.000000 0.000000 0.000000 0.000000
    13 0.000005 0.001564 3.638375 -0.000010 -1.283530 3.140806
    14 0.000005 0.001585 -3.638375 -0.000010 1.300966 3.140787
    15 1.977383 0.000000 0.000000 0.015520 -0.011380 -0.203098
    16 3.723980 2.768055 -0.395205 0.000000 -3.141591 -1.570795
    17 2.863741 -0.721077 0.000003 0.000000 0.000000 0.000000
    18 8.842831 0.000000 -0.000001 -0.247492 1.046030 -0.027328
    19 9.341934 0.000000 -0.000002 0.000000 0.000000 -0.612995
    20 9.664096 0.000000 0.000003 -1.705261 0.349021 0.000000
    21 8.842831 0.000000 0.000001 0.207350 -0.910628 -0.103709
    22 9.341934 0.000000 -0.000001 0.000000 0.000000 -0.562030
    23 9.664095 0.000000 -0.000002 1.760066 -0.349003 0.000000
    24 6.829857 -0.000001 0.000000 0.001241 0.000000 0.000000
    25 0.021231 -0.065060 1.351066 0.024842 0.006382 -0.003186
    26 1.089796 -0.106998 1.928624 -1.335374 -0.038786 1.563732
    27 -2.120019 0.552893 1.060325 0.522049 -2.764527 -1.418481
  time 2
    0 0.036383 1.062532 27.342333 0.000000 0.186643 -1.562131
    1 -3.295657 0.140630 9.745319 -1.570795 -1.570451 0.000000
    2 -0.000008 0.000010 5.615750 0.044198 3.145713 -0.754968
    3 15.693467 0.000000 0.000000 0.000000 0.000000 -0.898043
    4 22.146629 -0.000001 0.000000 -0.035039 -0.027277 0.330340
    5 0.000008 -0.000006 -5.615750 -0.011117 3.096728 -0.739244
    6 15.693467 0.000000 0.000000 0.000000 0.000000 -0.877561
    7 22.146629 0.000000 0.000000 -0.014052 0.044123 0.324952
    8 1.384163 -0.004728 0.000002 -0.000004 -0.000001 0.220668
    9 5.939814 -0.004730 0.000000 -0.030968 0.015975 0.095668
    10 5.939809 -0.003975 0.000000 -0.002986 0.018097 0.031518
    11 4.991439 -0.003975 0.000000 0.000000 0.000000 0.009644
    12 4.991436 -0.001575 0.000000 0.000000 0.000000 0.000000
    13 0.000005 0.001564 3.638375 -0.000010 -1.283530 3.140806
    14 0.000005 0.001585 -3.638375 -0.000010 1.300966 3.140787
    15 1.977383 0.000000 0.000000 0.034536 -0.021693 -0.303954
    16 3.723980 2.768055 -0.395205 0.000000 -3.141591 -1.570795
    17 2.863741 -0.721077 0.000003 0.000000 0.000000 0.000000
    18 8.842831 0.000000 -0.000001 -0.672593 1.086093 -0.464085
    19 9.341934 0.000000 -0.000002 0.000000 0.000000 -0.607365
    20 9.664096 0.000000 0.000003 -1.847076 0.349021 0.000000
    21 8.842831 0.000000 0.000001 0.420560 -0.797994 -0.448025
    22 9.341934 0.000000 -0.000001 0.000000 0.000000 -0.503078
    23 9.664095 0.000000 -0.000002 1.959281 -0.349003 0.000000
    24 6.829857 -0.000001 0.000000 0.001241 0.000000 0.000000
    25 0.021231 -0.065060 1.351066 0.024842 0.006382 -0.003186
    26 1.089796 -0.106998 1.928624 -1.335374 -0.038786 1.563732
    27 -2.120019 0.552893 1.060325 0.522049 -2.764527 -1.418481
  time 3
    0 -0.069089 1.652394 25.228988 0.000000 0.287303 -1.562131
    1 -4.123807 0.226570 9.745319 -1.570795 -1.570451 0.000000
    2 -0.000008 0.000010 5.615750 0.046595 3.140824 -0.991640
    3 15.693467 0.000000 0.000000 0.000000 0.000000 -1.100177
    4 22.146629 -0.000001 0.000000 -0.036088 -0.029560 0.396357
    5 0.000008 -0.000006 -5.615750 -0.022140 3.099891 -0.977967
    6 15.693467 0.000000 0.000000 0.000000 0.000000 -1.083325
    7 22.146629 0.000000 0.000000 -0.009485 0.046268 0.392947
    8 1.384163 -0.004728 0.000002 -0.000004 -0.000001 0.296042
    9 5.939814 -0.004730 0.000000 -0.048226 0.025815 0.110431
    10 5.939809 -0.003975 0.000000 -0.004429 0.028356 0.049005
    11 4.991439 -0.003975 0.000000 0.000000 0.000000 0.014921
    12 4.991436 -0.001575 0.000000 0.000000 0.000000 0.000000
    13 0.000005 0.001564 3.638375 -0.000010 -1.283530 3.140806
    14 0.000005 0.001585 -3.638375 -0.000010 1.300966 3.140787
    15 1.977383 0.000000 0.000000 0.056174 -0.029005 -0.411320
    16 3.723980 2.768055 -0.395205 0.000000 -3.141591 -1.570795
    17 2.863741 -0.721077 0.000003 0.000000 0.000000 0.000000
    18 8.842831 0.000000 -0.000001 -1.095157 1.025088 -0.903543
    19 9.341934 0.000000 -0.000002 0.000000 0.000000 -0.601587
    20 9.664096 0.000000 0.000003 -1.992520 0.349021 0.000000
    21 8.842831 0.000000 0.000001 0.552455 -0.634244 -0.721190
    22 9.341934 0.000000 -0.000001 0.000000 0.000000 -0.442641
    23 9.664095 0.000000 -0.000002 2.163417 -0.349003 0.000000
    24 6.829857 -0.000001 0.000000 0.001241 0.000000 0.000000
    25 0.021231 -0.065060 1.351066 0.024842 0.006382 -0.003186
    26 1.089796 -0.106998 1.928624 -1.335374 -0.038786 1.563732
    27 -2.120019 0.552893 1.060325 0.522049 -2.764527 -1.418481
  time 4
    0 -0.170655 2.246162 23.060953 0.000000 0.388919 -1.562131
    1 -4.928519 0.320323 9.745319 -1.570795 -1.570451 0.000000
    2 -0.000008 0.000010 5.615750 0.048224 3.136414 -1.213097
    3 15.693467 0.000000 0.000000 0.000000 0.000000 -1.274166
    4 22.146629 -0.000001 0.000000 -0.036638 -0.031867 0.450543
    5 0.000008 -0.000006 -5.615750 -0.032108 3.104397 -1.200348
    6 15.693467 0.000000 0.000000 0.000000 0.000000 -1.259480
    7 22.146629 0.000000 0.000000 -0.004863 0.048950 0.448566
    8 1.384163 -0.004728 0.000002 -0.000004 -0.000001 0.372645
    9 5.939814 -0.004730 0.000000 -0.065616 0.036110 0.125308
    10 5.939809 -0.003975 0.000000 -0.005705 0.038794 0.066705
    11 4.991439 -0.003975 0.000000 0.000000 0.000000 0.020244
    12 4.991436 -0.001575 0.000000 0.000000 0.000000 0.000000
    13 0.000005 0.001564 3.638375 -0.000010 -1.283530 3.140806
    14 0.000005 0.001585 -3.638375 -0.000010 1.300966 3.140787
    15 1.977383 0.000000 0.000000 0.079035 -0.032095 -0.519771
    16 3.723980 2.768055 -0.395205 0.000000 -3.141591 -1.570795
    17 2.863741 -0.721077 0.000003 0.000000 0.000000 0.000000
    18 8.842831 0.000000 -0.000001 -1.383765 0.886507 -1.215606
    19 9.341934 0.000000 -0.000002 0.000000 0.000000 -0.595734
    20 9.664096 0.000000 0.000003 -2.138760 0.349021 0.000000
    21 8.842831 0.000000 0.000001 0.612930 -0.442861 -0.935554
    22 9.341934 0.000000 -0.000001 0.000000 0.000000 -0.381906
    23 9.664095 0.000000 -0.000002 2.368754 -0.349003 0.000000
    24 6.829857 -0.000001 0.000000 0.001241 0.000000 0.000000
    25 0.021231 -0.065060 1.351066 0.024842 0.006382 -0.003186
    26 1.089796 -0.106998 1.928624 -1.335374 -0.038786 1.563732
    27 -2.120019 0.552893 1.060325 0.522049 -2.764527 -1.418481
  time 5
    0 -0.272221 2.832118 20.900730 0.000000 0.488623 -1.562131
    1 -5.666823 0.410170 9.745319 -1.570795 -1.570451 0.000000
    2 -0.000008 0.000010 5.615750 0.049375 3.132579 -1.420855
    3 15.693467 0.000000 0.000000 0.000000 0.000000 -1.429369
    4 22.146629 -0.000001 0.000000 -0.036690 -0.034267 0.497604
    5 0.000008 -0.000006 -5.615750 -0.041118 3.109765 -1.408474
    6 15.693467 0.000000 0.000000 0.000000 0.000000 -1.416071
    7 22.146629 0.000000 0.000000 -0.000376 0.052005 0.496906
    8 1.384163 -0.004728 0.000002 -0.000004 -0.000001 0.446830
    9 5.939814 -0.004730 0.000000 -0.082346 0.046237 0.139477
    10 5.939809 -0.003975 0.000000 -0.006770 0.048945 0.083940
    11 4.991439 -0.003975 0.000000 0.000000 0.000000 0.025447
    12 4.991436 -0.001575 0.000000 0.000000 0.000000 0.000000
    13 0.000005 0.001564 3.638375 -0.000010 -1.283530 3.140806
    14 0.000005 0.001585 -3.638375 -0.000010 1.300966 3.140787
    15 1.977383 0.000000 0.000000 0.101371 -0.030561 -0.623927
    16 3.723980 2.768055 -0.395205 0.000000 -3.141591 -1.570795
    17 2.863741 -0.721077 0.000003 0.000000 0.000000 0.000000
    18 8.842831 0.000000 -0.000001 -1.550490 0.712688 -1.413530
    19 9.341934 0.000000 -0.000002 0.000000 0.000000 -0.590030
    20 9.664096 0.000000 0.000003 -2.283319 0.349021 0.000000
    21 8.842831 0.000000 0.000001 0.620448 -0.244013 -1.112800
    22 9.341934 0.000000 -0.000001 0.000000 0.000000 -0.321885
    23 9.664095 0.000000 -0.000002 2.571630 -0.349003 0.000000
    24 6.829857 -0.000001 0.000000 0.001241 0.000000 0.000000
    25 0.021231 -0.065060 1.351066 0.024842 0.006382 -0.003186
    26 1.089796 -0.106998 1.928624 -1.335374 -0.038786 1.563732
    27 -2.120019 0.552893 1.060325 0.522049 -2.764527 -1.418481
  time 6
    0 -0.369880 3.414167 18.806917 0.000000 0.583465 -1.562131
    1 -6.307467 0.496110 9.745319 -1.570795 -1.570451 0.000000
    2 -0.000008 0.000010 5.615750 -3.091187 0.012264 1.527336
    3 15.693467 0.000000 0.000000 0.000000 0.000000 -1.570230
    4 22.146629 -0.000001 0.000000 -0.036323 -0.036903 0.539894
    5 0.000008 -0.000006 -5.615750 3.092466 0.025888 1.539704
    6 15.693467 0.000000 0.000000 0.000000 0.000000 -1.557895
    7 22.146629 0.000000 0.000000 0.003788 0.055270 0.540294
    8 1.384163 -0.004728 0.000002 -0.000004 -0.000001 0.514993
    9 5.939814 -0.004730 0.000000 -0.097686 0.055501 0.152174
    10 5.939809 -0.003975 0.000000 -0.007597 0.058317 0.100020
    11 4.991439 -0.003975 0.000000 0.000000 0.000000 0.030366
    12 4.991436 -0.001575 0.000000 0.000000 0.000000 0.000000
    13 0.000005 0.001564 3.638375 -0.000010 -1.283530 3.140806
    14 0.000005 0.001585 -3.638375 -0.000010 1.300966 3.140787
    15 1.977383 0.000000 0.000000 0.121121 -0.025027 -0.718454
    16 3.723980 2.768055 -0.395205 0.000000 -3.141591 -1.570795
    17 2.863741 -0.721077 0.000003 0.000000 0.000000 0.000000
    18 8.842831 0.000000 -0.000001 -1.642086 0.532132 -1.544770
    19 9.341934 0.000000 -0.000002 0.000000 0.000000 -0.584474
    20 9.664096 0.000000 0.000003 -2.423363 0.349021 0.000000
    21 8.842831 0.000000 0.000001 0.588884 -0.053396 -1.269135
    22 9.341934 0.000000 -0.000001 0.000000 0.000000 -0.263646
    23 9.664095 0.000000 -0.000002 2.768383 -0.349003 0.000000
    24 6.829857 -0.000001 0.000000 0.001241 0.000000 0.000000
    25 0.021231 -0.065060 1.351066 0.024842 0.006382 -0.003186
    26 1.089796 -0.106998 1.928624 -1.335374 -0.038786 1.563732
    27 -2.120019 0.552893 1.060325 0.522049 -2.764527 -1.418481
  time 7
    0 -0.467539 3.984497 16.838107 0.000000 0.670403 -1.562131
    1 -6.819202 0.566425 9.745319 -1.570795 -1.570787 0.000000
    2 -0.000008 0.000010 5.615750 -3.089941 0.014757 1.349554
    3 15.693467 0.000000 0.000000 0.000000 0.000000 -1.698971
    4 22.146629 -0.000001 0.000000 -0.035642 -0.040033 0.577805
    5 0.000008 -0.000006 -5.615750 3.085853 0.019370 1.362176
    6 15.693467 0.000000 0.000000 0.000000 0.000000 -1.687350
    7 22.146629 0.000000 0.000000 0.007523 0.058441 0.579243
    8 1.384163 -0.004728 0.000002 -0.000004 -0.000001 0.573529
    9 5.939814 -0.004730 0.000000 -0.110929 0.063183 0.162711
    10 5.939809 -0.003975 0.000000 -0.008172 0.066443 0.114253
    11 4.991439 -0.003975 0.000000 0.000000 0.000000 0.034806
    12 4.991436 -0.001575 0.000000 0.000000 0.000000 0.000000
    13 0.000005 0.001564 3.638375 -0.000010 -1.283530 3.140806
    14 0.000005 0.001585 -3.638375 -0.000010 1.300966 3.140787
    15 1.977383 0.000000 0.000000 0.136467 -0.016914 -0.798063
    16 3.723980 2.768055 -0.395205 0.000000 -3.141591 -1.570795
    17 2.863741 -0.721077 0.000003 0.000000 0.000000 0.000000
    18 8.842831 0.000000 -0.000001 1.452181 2.779114 1.501405
    19 9.341934 0.000000 -0.000002 0.000000 0.000000 -0.579141
    20 9.664096 0.000000 0.000003 -2.556502 0.349021 0.000000
    21 8.842831 0.000000 0.000001 0.528077 0.116353 -1.414243
    22 9.341934 0.000000 -0.000001 0.000000 0.000000 -0.208379
    23 9.664095 0.000000 -0.000002 2.955233 -0.349003 0.000000
    24 6.829857 -0.000001 0.000000 0.001241 0.000000 0.000000
    25 0.021231 -0.065060 1.351066 0.024842 0.006382 -0.003186
    26 1.089796 -0.106998 1.928624 -1.335374 -0.038786 1.563732
    27 -2.120019 0.552893 1.060325 0.522049 -2.764527 -1.418481
  time 8
    0 -0.561292 4.535295 15.041177 0.000000 0.746658 -1.562131
    1 -7.198120 0.621114 9.745319 -1.570795 -1.570451 0.000000
    2 -0.000008 0.000010 5.615750 -3.088024 0.016770 1.188453
    3 15.693467 0.000000 0.000000 0.000000 0.000000 -1.816670
    4 22.146629 -0.000001 0.000000 -0.034699 -0.044011 0.610617
    5 0.000008 -0.000006 -5.615750 3.080581 0.012659 1.201499
    6 15.693467 0.000000 0.000000 0.000000 0.000000 -1.805711
    7 22.146629 0.000000 0.000000 0.010747 0.061263 0.613022
    8 1.384163 -0.004728 0.000002 -0.000004 -0.000001 0.618792
    9 5.939814 -0.004730 0.000000 -0.121392 0.068552 0.170340
    10 5.939809 -0.003975 0.000000 -0.008536 0.072842 0.125948
    11 4.991439 -0.003975 0.000000 0.000000 0.000000 0.038619
    12 4.991436 -0.001575 0.000000 0.000000 0.000000 0.000000
    13 0.000005 0.001564 3.638375 -0.000010 -1.283530 3.140806
    14 0.000005 0.001585 -3.638375 -0.000010 1.300966 3.140787
    15 1.977383 0.000000 0.000000 0.145835 -0.008201 -0.857781
    16 3.723980 2.768055 -0.395205 0.000000 -3.141591 -1.570795
    17 2.863741 -0.721077 0.000003 0.000000 0.000000 0.000000
    18 8.842831 0.000000 -0.000001 1.431481 2.925799 1.425721
    19 9.341934 0.000000 -0.000002 0.000000 0.000000 -0.574251
    20 9.664096 0.000000 0.000003 -2.679903 0.349021 0.000000
    21 8.842831 0.000000 0.000001 0.446984 0.255151 -1.551001
    22 9.341934 0.000000 -0.000001 0.000000 0.000000 -0.157153
    23 9.664095 0.000000 -0.000002 3.128518 -0.349003 0.000000
    24 6.829857 -0.000001 0.000000 0.001241 0.000000 0.000000
    25 0.021231 -0.065060 1.351066 0.024842 0.006382 -0.003186
    26 1.089796 -0.106998 1.928624 -1.335374 -0.038786 1.563732
    27 -2.120019 0.552893 1.060325 0.522049 -2.764527 -1.418481
  time 9
    0 -0.647232 5.066561 13.439565 0.000000 0.809190 -1.562131
    1 -7.420783 0.648458 9.745319 -1.570795 -1.570451 0.000000
    2 -0.000008 0.000010 5.615750 -3.084860 0.018496 1.044994
    3 15.693467 0.000000 0.000000 0.000000 0.000000 -1.923662
    4 22.146629 -0.000001 0.000000 -0.033545 -0.049212 0.636697
    5 0.000008 -0.000006 -5.615750 3.077035 0.005853 1.058489
    6 15.693467 0.000000 0.000000 0.000000 0.000000 -1.913354
    7 22.146629 0.000000 0.000000 0.013300 0.063339 0.640176
    8 1.384163 -0.004728 0.000002 -0.000004 -0.000001 0.647216
    9 5.939814 -0.004730 0.000000 -0.128367 0.070841 0.174375
    10 5.939809 -0.003975 0.000000 -0.008690 0.077037 0.134402
    11 4.991439 -0.003975 0.000000 0.000000 0.000000 0.041624
    12 4.991436 -0.001575 0.000000 0.000000 0.000000 0.000000
    13 0.000005 0.001564 3.638375 -0.000010 -1.283530 3.140806
    14 0.000005 0.001585 -3.638375 -0.000010 1.300966 3.140787
    15 1.977383 0.000000 0.000000 0.147932 -0.001045 -0.892771
    16 3.723980 2.768055 -0.395205 0.000000 -3.141591 -1.570795
    17 2.863741 -0.721077 0.000003 0.000000 0.000000 0.000000
    18 8.842831 0.000000 -0.000001 1.425898 3.040069 1.362065
    19 9.341934 0.000000 -0.000002 0.000000 0.000000 -0.569881
    20 9.664096 0.000000 0.000003 -2.791000 0.349021 0.000000
    21 8.842831 0.000000 0.000001 0.357100 0.355724 -1.675339
    22 9.341934 0.000000 -0.000001 0.000000 0.000000 -0.110978
    23 9.664095 0.000000 -0.000002 3.284516 -0.349003 0.000000
    24 6.829857 -0.000001 0.000000 0.001241 0.000000 0.000000
    25 0.021231 -0.065060 1.351066 0.024842 0.006382 -0.003186
    26 1.089796 -0.106998 1.928624 -1.335374 -0.038786 1.563732
    27 -2.120019 0.552893 1.060325 0.522049 -2.764527 -1.418481
  time 10
    0 -0.725359 5.570482 12.056711 0.000000 0.855134 -1.562131
    1 -7.483285 0.648458 9.745319 -1.570795 -1.570451 0.000000
    2 -0.000008 0.000010 5.615750 -3.080066 0.020030 0.920288
    3 15.693467 0.000000 0.000000 0.000000 0.000000 -2.020016
    4 22.146629 -0.000001 0.000000 -0.032078 -0.056131 0.654214
    5 0.000008 -0.000006 -5.615750 3.075597 6.282314 0.934062
    6 15.693467 0.000000 0.000000 0.000000 0.000000 -2.010501
    7 22.146629 0.000000 0.000000 0.015127 0.064202 0.658667
    8 1.384163 -0.004728 0.000002 -0.000004 -0.000001 0.655194
    9 5.939814 -0.004730 0.000000 -0.131159 0.069319 0.174088
    10 5.939809 -0.003975 0.000000 -0.008690 0.078535 0.138937
    11 4.991439 -0.003975 0.000000 0.000000 0.000000 0.043628
    12 4.991436 -0.001575 0.000000 0.000000 0.000000 0.000000
    13 0.000005 0.001564 3.638375 -0.000010 -1.283530 3.140806
    14 0.000005 0.001585 -3.638375 -0.000010 1.300966 3.140787
    15 1.977383 0.000000 0.000000 0.141570 0.002800 -0.898150
    16 3.723980 2.768055 -0.395205 0.000000 -3.141591 -1.570795
    17 2.863741 -0.721077 0.000003 0.000000 0.000000 0.000000
    18 8.842831 0.000000 -0.000001 1.426462 3.114186 1.308145
    19 9.341934 0.000000 -0.000002 0.000000 0.000000 -0.566028
    20 9.664096 0.000000 0.000003 -2.887225 0.349021 0.000000
    21 8.842831 0.000000 0.000001 0.273574 0.414371 -1.777013
    22 9.341934 0.000000 -0.000001 0.000000 0.000000 -0.070984
    23 9.664095 0.000000 -0.000002 3.419567 -0.349003 0.000000
    24 6.829857 -0.000001 0.000000 0.001241 0.000000 0.000000
    25 0.021231 -0.065060 1.351066 0.024842 0.006382 -0.003186
    26 1.089796 -0.106998 1.928624 -1.335374 -0.038786 1.563732
    27 -2.120019 0.552893 1.060325 0.522049 -2.764527 -1.418481
  time 11
    0 -0.756610 5.984558 11.275437 0.000466 0.885011 -1.561940
    1 -7.428595 0.625020 9.745319 -1.570795 -1.570451 0.000000
    2 -0.000008 0.000010 5.615750 -3.076327 0.021180 0.838601
    3 15.693467 0.000000 0.000000 0.000000 0.000000 -2.078731
    4 22.146629 -0.000001 0.000000 -0.031003 -0.061521 0.661078
    5 0.000008 -0.000006 -5.615750 3.075118 6.277808 0.852247
    6 15.693467 0.000000 0.000000 0.000000 0.000000 -2.070019
    7 22.146629 0.000000 0.000000 0.016067 0.064318 0.666093
    8 1.384163 -0.004728 0.000002 -0.000004 -0.000001 0.648558
    9 5.939814 -0.004730 0.000000 -0.131387 0.065052 0.170665
    10 5.939809 -0.003975 0.000000 -0.008746 0.078152 0.140708
    11 4.991439 -0.003975 0.000000 0.000000 0.000000 0.044958
    12 4.991436 -0.001575 0.000000 0.000000 0.000000 0.000000
    13 0.000005 0.001564 3.638375 -0.000010 -1.283530 3.140806
    14 0.000005 0.001585 -3.638375 -0.000010 1.300966 3.140787
    15 1.977383 0.000000 0.000000 0.129825 0.004623 -0.882599
    16 3.723980 2.768055 -0.395205 0.000000 -3.141591 -1.570795
    17 2.863741 -0.721077 0.000003 0.000000 0.000000 0.000000
    18 8.842831 0.000000 -0.000001 1.426631 3.143686 1.270017
    19 9.341934 0.000000 -0.000002 0.000000 0.000000 -0.557954
    20 9.664096 0.000000 0.000003 -2.936356 0.349021 0.000000
    21 8.842831 0.000000 0.000001 0.211330 0.436898 -1.848304
    22 9.341934 0.000000 -0.000001 0.000000 0.000000 -0.022729
    23 9.664095 0.000000 -0.000002 3.496876 -0.349003 0.000000
    24 6.829857 -0.000001 0.000000 0.001241 0.000000 0.000000
    25 0.021231 -0.065060 1.351066 0.024842 0.006382 -0.003186
    26 1.089796 -0.106998 1.928624 -1.335374 -0.038786 1.563732
    27 -2.120019 0.552893 1.060325 0.522049 -2.764527 -1.418481
  time 12
    0 -0.740985 6.230659 11.197309 0.001678 0.902121 -1.561366
    1 -7.327030 0.589863 9.745319 -1.570795 -1.570451 0.000000
    2 -0.000008 0.000010 5.615750 -3.075560 0.021372 0.811102
    3 15.693467 0.000000 0.000000 0.000000 0.000000 -2.091928
    4 22.146629 -0.000001 0.000000 -0.031082 -0.063380 0.663888
    5 0.000008 -0.000006 -5.615750 3.074830 6.276466 0.823940
    6 15.693467 0.000000 0.000000 0.000000 0.000000 -2.084037
    7 22.146629 0.000000 0.000000 0.016363 0.063759 0.668859
    8 1.384163 -0.004728 0.000002 -0.000004 -0.000001 0.636053
    9 5.939814 -0.004730 0.000000 -0.131171 0.059671 0.165885
    10 5.939809 -0.003975 0.000000 -0.009097 0.077025 0.141437
    11 4.991439 -0.003975 0.000000 0.000000 0.000000 0.046050
    12 4.991436 -0.001575 0.000000 0.000000 0.000000 0.000000
    13 0.000005 0.001564 3.638375 -0.000010 -1.283530 3.140806
    14 0.000005 0.001585 -3.638375 -0.000010 1.300966 3.140787
    15 1.977383 0.000000 0.000000 0.116787 0.006357 -0.858595
    16 3.723980 2.768055 -0.395205 0.000000 -3.141591 -1.570795
    17 2.863741 -0.721077 0.000003 0.000000 0.000000 0.000000
    18 8.842831 0.000000 -0.000001 1.424375 3.136129 1.253243
    19 9.341934 0.000000 -0.000002 0.000000 0.000000 -0.546027
    20 9.664096 0.000000 0.000003 -2.929185 0.349021 0.000000
    21 8.842831 0.000000 0.000001 0.180761 0.434728 -1.883599
    22 9.341934 0.000000 -0.000001 0.000000 0.000000 0.030042
    23 9.664095 0.000000 -0.000002 3.503418 -0.349003 0.000000
    24 6.829857 -0.000001 0.000000 0.001241 0.000000 0.000000
    25 0.021231 -0.065060 1.351066 0.024842 0.006382 -0.003186
    26 1.089796 -0.106998 1.928624 -1.335374 -0.038786 1.563732
    27 -2.120019 0.552893 1.060325 0.522049 -2.764527 -1.418481
  time 13
    0 -0.725359 6.254097 11.416066 0.003357 0.907679 -1.560505
    1 -7.182494 0.550799 9.745319 -1.570795 -1.570451 0.000000
    2 -0.000008 0.000010 5.615750 -3.074793 0.020988 0.817269
    3 15.693467 0.000000 0.000000 0.000000 0.000000 -2.086474
    4 22.146629 -0.000001 0.000000 -0.032052 -0.064887 0.670228
    5 0.000008 -0.000006 -5.615750 3.075980 6.276466 0.828828
    6 15.693467 0.000000 0.000000 0.000000 0.000000 -2.079464
    7 22.146629 0.000000 0.000000 0.016282 0.061450 0.674756
    8 1.384163 -0.004728 0.000002 -0.000004 -0.000001 0.618178
    9 5.939814 -0.004730 0.000000 -0.130452 0.053272 0.159880
    10 5.939809 -0.003975 0.000000 -0.009672 0.075203 0.141186
    11 4.991439 -0.003975 0.000000 0.000000 0.000000 0.046932
    12 4.991436 -0.001575 0.000000 0.000000 0.000000 0.000000
    13 0.000005 0.001564 3.638375 -0.000010 -1.283530 3.140806
    14 0.000005 0.001585 -3.638375 -0.000010 1.300966 3.140787
    15 1.977383 0.000000 0.000000 0.102664 0.008201 -0.826905
    16 3.723980 2.768055 -0.395205 0.000000 -3.141591 -1.570795
    17 2.863741 -0.721077 0.000003 0.000000 0.000000 0.000000
    18 8.842831 0.000000 -0.000001 1.420709 3.102167 1.257580
    19 9.341934 0.000000 -0.000002 0.000000 0.000000 -0.538100
    20 9.664096 0.000000 0.000003 -2.897494 0.349021 0.000000
    21 8.842831 0.000000 0.000001 0.188390 0.413414 -1.875600
    22 9.341934 0.000000 -0.000001 0.000000 0.000000 0.058686
    23 9.664095 0.000000 -0.000002 3.471306 -0.349003 0.000000
    24 6.829857 -0.000001 0.000000 0.001241 0.000000 0.000000
    25 0.021231 -0.065060 1.351066 0.024842 0.006382 -0.003186
    26 1.089796 -0.106998 1.928624 -1.335374 -0.038786 1.563732
    27 -2.120019 0.552893 1.060325 0.522049 -2.764527 -1.418481
  time 14
    0 -0.729266 6.152532 11.775452 0.005128 0.903076 -1.559740
    1 -6.991082 0.500016 9.745319 -1.570795 -1.570787 0.000000
    2 -0.000008 0.000010 5.615750 -3.072780 0.019934 0.842948
    3 15.693467 0.000000 0.000000 0.000000 0.000000 -2.072199
    4 22.146629 -0.000001 0.000000 -0.033310 -0.067428 0.677157
    5 0.000008 -0.000006 -5.615750 3.078856 6.276945 0.852756
    6 15.693467 0.000000 0.000000 0.000000 0.000000 -2.066421
    7 22.146629 0.000000 0.000000 0.015933 0.057205 0.681090
    8 1.384163 -0.004728 0.000002 -0.000004 -0.000001 0.595393
    9 5.939814 -0.004730 0.000000 -0.129170 0.045949 0.152748
    10 5.939809 -0.003975 0.000000 -0.010428 0.072770 0.140043
    11 4.991439 -0.003975 0.000000 0.000000 0.000000 0.047590
    12 4.991436 -0.001575 0.000000 0.000000 0.000000 0.000000
    13 0.000005 0.001564 3.638375 -0.000010 -1.283530 3.140806
    14 0.000005 0.001585 -3.638375 -0.000010 1.300966 3.140787
    15 1.977383 0.000000 0.000000 0.087773 0.010268 -0.788343
    16 3.723980 2.768055 -0.395205 0.000000 -3.141591 -1.570795
    17 2.863741 -0.721077 0.000003 0.000000 0.000000 0.000000
    18 8.842831 0.000000 -0.000001 1.418735 3.052361 1.282535
    19 9.341934 0.000000 -0.000002 0.000000 0.000000 -0.542101
    20 9.664096 0.000000 0.000003 -2.872884 0.349021 0.000000
    21 8.842831 0.000000 0.000001 0.235929 0.374167 -1.820447
    22 9.341934 0.000000 -0.000001 0.000000 0.000000 0.034559
    23 9.664095 0.000000 -0.000002 3.432652 -0.349003 0.000000
    24 6.829857 -0.000001 0.000000 0.001241 0.000000 0.000000
    25 0.021231 -0.065060 1.351066 0.024842 0.006382 -0.003186
    26 1.089796 -0.106998 1.928624 -1.335374 -0.038786 1.563732
    27 -2.120019 0.552893 1.060325 0.522049 -2.764527 -1.418481
  time 15
    0 -0.740985 6.035340 12.310625 0.006620 0.889614 -1.559071
    1 -6.760606 0.445327 9.745319 -1.570795 -1.570451 0.000000
    2 -0.000008 0.000010 5.615750 -3.070671 0.018304 0.884398
    3 15.693467 0.000000 0.000000 0.000000 0.000000 -2.045872
    4 22.146629 -0.000001 0.000000 -0.034410 -0.069900 0.678922
    5 0.000008 -0.000006 -5.615750 3.082786 6.277904 0.892569
    6 15.693467 0.000000 0.000000 0.000000 0.000000 -2.041385
    7 22.146629 0.000000 0.000000 0.015261 0.052075 0.682255
    8 1.384163 -0.004728 0.000002 -0.000004 -0.000001 0.568235
    9 5.939814 -0.004730 0.000000 -0.127288 0.037811 0.144640
    10 5.939809 -0.003975 0.000000 -0.011283 0.069774 0.138108
    11 4.991439 -0.003975 0.000000 0.000000 0.000000 0.048068
    12 4.991436 -0.001575 0.000000 0.000000 0.000000 0.000000
    13 0.000005 0.001564 3.638375 -0.000010 -1.283530 3.140806
    14 0.000005 0.001585 -3.638375 -0.000010 1.300966 3.140787
    15 1.977383 0.000000 0.000000 0.072393 0.012736 -0.743770
    16 3.723980 2.768055 -0.395205 0.000000 -3.141591 -1.570795
    17 2.863741 -0.721077 0.000003 0.000000 0.000000 0.000000
    18 8.842831 0.000000 -0.000001 1.422796 2.997457 1.328027
    19 9.341934 0.000000 -0.000002 0.000000 0.000000 -0.566028
    20 9.664096 0.000000 0.000003 -2.887225 0.349021 0.000000
    21 8.842831 0.000000 0.000001 0.320727 0.313096 -1.717089
    22 9.341934 0.000000 -0.000001 0.000000 0.000000 -0.070984
    23 9.664095 0.000000 -0.000002 3.419567 -0.349003 0.000000
    24 6.829857 -0.000001 0.000000 0.001241 0.000000 0.000000
    25 0.021231 -0.065060 1.351066 0.024842 0.006382 -0.003186
    26 1.089796 -0.106998 1.928624 -1.335374 -0.038786 1.563732
    27 -2.120019 0.552893 1.060325 0.522049 -2.764527 -1.418481
  time 16
    0 -0.752704 5.886898 12.935644 0.007552 0.868423 -1.558784
    1 -6.483254 0.382825 9.745319 -1.570795 -1.570451 0.000000
    2 -0.000008 0.000010 5.615750 -3.068466 0.016291 0.936666
    3 15.693467 0.000000 0.000000 0.000000 0.000000 -2.013754
    4 22.146629 -0.000001 0.000000 -0.035301 -0.072159 0.678007
    5 0.000008 -0.000006 -5.615750 3.087290 6.279054 0.943480
    6 15.693467 0.000000 0.000000 0.000000 0.000000 -2.010276
    7 22.146629 0.000000 0.000000 0.014428 0.046828 0.680944
    8 1.384163 -0.004728 0.000002 -0.000004 -0.000001 0.537241
    9 5.939814 -0.004730 0.000000 -0.124748 0.028979 0.135653
    10 5.939809 -0.003975 0.000000 -0.012209 0.066275 0.135470
    11 4.991439 -0.003975 0.000000 0.000000 0.000000 0.048382
    12 4.991436 -0.001575 0.000000 0.000000 0.000000 0.000000
    13 0.000005 0.001564 3.638375 -0.000010 -1.283530 3.140806
    14 0.000005 0.001585 -3.638375 -0.000010 1.300966 3.140787
    15 1.977383 0.000000 0.000000 0.056803 0.015736 -0.693907
    16 3.723980 2.768055 -0.395205 0.000000 -3.141591 -1.570795
    17 2.863741 -0.721077 0.000003 0.000000 0.000000 0.000000
    18 8.842831 0.000000 -0.000001 1.438137 2.938182 1.407966
    19 9.341934 0.000000 -0.000002 0.000000 0.000000 -0.619292
    20 9.664096 0.000000 0.000003 -2.976103 0.349021 0.000000
    21 8.842831 0.000000 0.000001 0.461743 0.193378 -1.522934
    22 9.341934 0.000000 -0.000001 0.000000 0.000000 -0.325332
    23 9.664095 0.000000 -0.000002 3.442495 -0.349003 0.000000
    24 6.829857 -0.000001 0.000000 0.001241 0.000000 0.000000
    25 0.021231 -0.065060 1.351066 0.024842 0.006382 -0.003186
    26 1.089796 -0.106998 1.928624 -1.335374 -0.038786 1.563732
    27 -2.120019 0.552893 1.060325 0.522049 -2.764527 -1.418481
  time 17
    0 -0.764423 5.683767 13.560663 0.007459 0.840891 -1.558975
    1 -6.166838 0.320323 9.745319 -1.570795 -1.570451 0.000000
    2 -0.000008 0.000010 5.615750 -3.066165 0.014278 0.994950
    3 15.693467 0.000000 0.000000 0.000000 0.000000 -1.982040
    4 22.146629 -0.000001 0.000000 -0.036009 -0.074065 0.677222
    5 0.000008 -0.000006 -5.615750 3.091891 6.280301 1.001112
    6 15.693467 0.000000 0.000000 0.000000 0.000000 -1.979168
    7 22.146629 0.000000 0.000000 0.013569 0.042024 0.679852
    8 1.384163 -0.004728 0.000002 -0.000004 -0.000001 0.502872
    9 5.939814 -0.004730 0.000000 -0.121500 0.019559 0.125900
    10 5.939809 -0.003975 0.000000 -0.013120 0.062332 0.132191
    11 4.991439 -0.003975 0.000000 0.000000 0.000000 0.048532
    12 4.991436 -0.001575 0.000000 0.000000 0.000000 0.000000
    13 0.000005 0.001564 3.638375 -0.000010 -1.283530 3.140806
    14 0.000005 0.001585 -3.638375 -0.000010 1.300966 3.140787
    15 1.977383 0.000000 0.000000 0.041317 0.019448 -0.639613
    16 3.723980 2.768055 -0.395205 0.000000 -3.141591 -1.570795
    17 2.863741 -0.721077 0.000003 0.000000 0.000000 0.000000
    18 8.842831 0.000000 -0.000001 1.471414 2.870986 1.524642
    19 9.341934 0.000000 -0.000002 0.000000 0.000000 -0.696705
    20 9.664096 0.000000 0.000003 -3.118537 0.349021 0.000000
    21 8.842831 0.000000 0.000001 0.614754 -0.012235 -1.264714
    22 9.341934 0.000000 -0.000001 0.000000 0.000000 -0.709528
    23 9.664095 0.000000 -0.000002 3.480069 -0.349003 0.000000
    24 6.829857 -0.000001 0.000000 0.001241 0.000000 0.000000
    25 0.021231 -0.065060 1.351066 0.024842 0.006382 -0.003186
    26 1.089796 -0.106998 1.928624 -1.335374 -0.038786 1.563732
    27 -2.120019 0.552893 1.060325 0.522049 -2.764527 -1.418481
  time 18
    0 -0.764423 5.406415 14.099742 0.006340 0.808322 -1.559549
    1 -5.815265 0.250009 9.745319 -1.570795 -1.570451 0.000000
    2 -0.000008 0.000010 5.615750 -3.063480 0.012456 1.054750
    3 15.693467 0.000000 0.000000 0.000000 0.000000 -1.957127
    4 22.146629 -0.000001 0.000000 -0.036481 -0.075548 0.679575
    5 0.000008 -0.000006 -5.615750 3.096492 6.281451 1.060984
    6 15.693467 0.000000 0.000000 0.000000 0.000000 -1.954132
    7 22.146629 0.000000 0.000000 0.012763 0.038176 0.682109
    8 1.384163 -0.004728 0.000002 -0.000004 -0.000001 0.465664
    9 5.939814 -0.004730 0.000000 -0.117497 0.009672 0.115517
    10 5.939809 -0.003975 0.000000 -0.013975 0.058017 0.128360
    11 4.991439 -0.003975 0.000000 0.000000 0.000000 0.048547
    12 4.991436 -0.001575 0.000000 0.000000 0.000000 0.000000
    13 0.000005 0.001564 3.638375 -0.000010 -1.283530 3.140806
    14 0.000005 0.001585 -3.638375 -0.000010 1.300966 3.140787
    15 1.977383 0.000000 0.000000 0.026217 0.023938 -0.581658
    16 3.723980 2.768055 -0.395205 0.000000 -3.141591 -1.570795
    17 2.863741 -0.721077 0.000003 0.000000 0.000000 0.000000
    18 8.842831 0.000000 -0.000001 -1.615239 0.340650 -1.480050
    19 9.341934 0.000000 -0.000002 0.000000 0.000000 -0.783971
    20 9.664096 0.000000 0.000003 -3.260705 0.349021 0.000000
    21 8.842831 0.000000 0.000001 0.713372 -0.259520 -1.012459
    22 9.341934 0.000000 -0.000001 0.000000 0.000000 -1.122249
    23 9.664095 0.000000 -0.000002 3.516563 -0.349003 0.000000
    24 6.829857 -0.000001 0.000000 0.001241 0.000000 0.000000
    25 0.021231 -0.065060 1.351066 0.024842 0.006382 -0.003186
    26 1.089796 -0.106998 1.928624 -1.335374 -0.038786 1.563732
    27 -2.120019 0.552893 1.060325 0.522049 -2.764527 -1.418481
  time 19
    0 -0.752704 5.031404 14.459128 0.003916 0.771931 -1.560601
    1 -5.424628 0.175788 9.745319 -1.570795 -1.570451 0.000000
    2 -0.000008 0.000010 5.615750 -3.060413 0.011114 1.111668
    3 15.693467 0.000000 0.000000 0.000000 0.000000 -1.945411
    4 22.146629 -0.000001 0.000000 -0.036769 -0.076536 0.688465
    5 0.000008 -0.000006 -5.615750 3.100805 6.282601 1.118921
    6 15.693467 0.000000 0.000000 0.000000 0.000000 -1.941463
    7 22.146629 0.000000 0.000000 0.012091 0.035611 0.690918
    8 1.384163 -0.004728 0.000002 -0.000004 -0.000001 0.426155
    9 5.939814 -0.004730 0.000000 -0.112703 -0.000575 0.104598
    10 5.939809 -0.003975 0.000000 -0.014718 0.053379 0.124076
    11 4.991439 -0.003975 0.000000 0.000000 0.000000 0.048442
    12 4.991436 -0.001575 0.000000 0.000000 0.000000 0.000000
    13 0.000005 0.001564 3.638375 -0.000010 -1.283530 3.140806
    14 0.000005 0.001585 -3.638375 -0.000010 1.300966 3.140787
    15 1.977383 0.000000 0.000000 0.011780 0.029294 -0.520901
    16 3.723980 2.768055 -0.395205 0.000000 -3.141591 -1.570795
    17 2.863741 -0.721077 0.000003 0.000000 0.000000 0.000000
    18 8.842831 0.000000 -0.000001 -1.539773 0.408939 -1.340300
    19 9.341934 0.000000 -0.000002 0.000000 0.000000 -0.866793
    20 9.664096 0.000000 0.000003 -3.349229 0.349021 0.000000
    21 8.842831 0.000000 0.000001 0.744493 -0.473237 -0.804761
    22 9.341934 0.000000 -0.000001 0.000000 0.000000 -1.462409
    23 9.664095 0.000000 -0.000002 3.536310 -0.349003 0.000000
    24 6.829857 -0.000001 0.000000 0.001241 0.000000 0.000000
    25 0.021231 -0.065060 1.351066 0.024842 0.006382 -0.003186
    26 1.089796 -0.106998 1.928624 -1.335374 -0.038786 1.563732
    27 -2.120019 0.552893 1.060325 0.522049 -2.764527 -1.418481
  time 20
    0 -0.725359 4.547014 14.545068 0.000000 0.733022 -1.562131
    1 -5.006646 0.097660 9.745319 -1.570795 -1.570451 0.000000
    2 -0.000008 0.000010 5.615750 -3.056674 0.010635 1.161510
    3 15.693467 0.000000 0.000000 0.000000 0.000000 -1.953222
    4 22.146629 -0.000001 0.000000 -0.037005 -0.077054 0.707159
    5 0.000008 -0.000006 -5.615750 3.104927 0.000485 1.170952
    6 15.693467 0.000000 0.000000 0.000000 0.000000 -1.947160
    7 22.146629 0.000000 0.000000 0.011527 0.034748 0.709773
    8 1.384163 -0.004728 0.000002 -0.000004 -0.000001 0.384804
    9 5.939814 -0.004730 0.000000 -0.107082 -0.011074 0.093278
    10 5.939809 -0.003975 0.000000 -0.015292 0.048490 0.119416
    11 4.991439 -0.003975 0.000000 0.000000 0.000000 0.048218
    12 4.991436 -0.001575 0.000000 0.000000 0.000000 0.000000
    13 0.000005 0.001564 3.638375 -0.000010 -1.283530 3.140806
    14 0.000005 0.001585 -3.638375 -0.000010 1.300966 3.140787
    15 1.977383 0.000000 0.000000 -0.001643 0.035562 -0.458063
    16 3.723980 2.768055 -0.395205 0.000000 -3.141591 -1.570795
    17 2.863741 -0.721077 0.000003 0.000000 0.000000 0.000000
    18 8.842831 0.000000 -0.000001 -1.450320 0.474860 -1.216915
    19 9.341934 0.000000 -0.000002 0.000000 0.000000 -0.930872
    20 9.664096 0.000000 0.000003 -3.330462 0.349021 0.000000
    21 8.842831 0.000000 0.000001 0.740458 -0.583000 -0.701894
    22 9.341934 0.000000 -0.000001 0.000000 0.000000 -1.628864
    23 9.664095 0.000000 -0.000002 3.523465 -0.349003 0.000000
    24 6.829857 -0.000001 0.000000 0.001241 0.000000 0.000000
    25 0.021231 -0.065060 1.351066 0.024842 0.006382 -0.003186
    26 1.089796 -0.106998 1.928624 -1.335374 -0.038786 1.563732
    27 -2.120019 0.552893 1.060325 0.522049 -2.764527 -1.418481
  time 21
    0 -0.682389 3.933714 13.455191 -0.008578 0.658070 -1.564522
    1 -4.561320 0.019533 9.745319 -1.570795 -1.570451 0.000000
    2 -0.000008 0.000010 5.615750 -3.048333 0.013511 1.179051
    3 15.693467 0.000000 0.000000 0.000000 0.000000 -2.035233
    4 22.146629 -0.000001 0.000000 -0.034725 -0.079549 0.731604
    5 0.000008 -0.000006 -5.615750 3.109048 0.001060 1.194524
    6 15.693467 0.000000 0.000000 0.000000 0.000000 -2.023994
    7 22.146629 0.000000 0.000000 0.010909 0.038316 0.735326
    8 1.384163 -0.004728 0.000002 -0.000004 -0.000001 0.342149
    9 5.939814 -0.004730 0.000000 -0.100587 -0.021704 0.081633
    10 5.939809 -0.003975 0.000000 -0.015629 0.043408 0.114466
    11 4.991439 -0.003975 0.000000 0.000000 0.000000 0.047904
    12 4.991436 -0.001575 0.000000 0.000000 0.000000 0.000000
    13 0.000005 0.001564 3.638375 -0.000010 -1.283530 3.140806
    14 0.000005 0.001585 -3.638375 -0.000010 1.300966 3.140787
    15 1.977383 0.000000 0.000000 -0.013947 0.042741 -0.394051
    16 3.723980 2.768055 -0.395205 0.000000 -3.141591 -1.570795
    17 2.863741 -0.721077 0.000003 0.000000 0.000000 0.000000
    18 8.842831 0.000000 -0.000001 -1.332045 0.565002 -1.121267
    19 9.341934 0.000000 -0.000002 0.000000 0.000000 -0.973393
    20 9.664096 0.000000 0.000003 -2.990355 0.349021 0.000000
    21 8.842831 0.000000 0.000001 0.742006 -0.614014 -0.702104
    22 9.341934 0.000000 -0.000001 0.000000 0.000000 -1.648237
    23 9.664095 0.000000 -0.000002 3.492494 -0.349003 0.000000
    24 6.829857 -0.000001 0.000000 0.001241 0.000000 0.000000
    25 0.021231 -0.065060 1.351066 0.024842 0.006382 -0.003186
    26 1.089796 -0.106998 1.928624 -1.335374 -0.038786 1.563732
    27 -2.120019 0.552893 1.060325 0.522049 -2.764527 -1.418481
  time 22
    0 -0.639419 3.214942 11.369190 -0.022377 0.536826 -1.566913
    1 -4.092556 -0.054688 9.745319 -1.570795 -1.570451 0.000000
    2 -0.000008 0.000010 5.615750 -3.033952 0.021564 1.170609
    3 15.693467 0.000000 0.000000 0.000000 0.000000 -2.178182
    4 22.146629 -0.000001 0.000000 -0.029274 -0.084327 0.744220
    5 0.000008 -0.000006 -5.615750 3.113361 0.002115 1.197732
    6 15.693467 0.000000 0.000000 0.000000 0.000000 -2.158022
    7 22.146629 0.000000 0.000000 0.009270 0.047481 0.751269
    8 1.384163 -0.004728 0.000002 -0.000004 -0.000001 0.298651
    9 5.939814 -0.004730 0.000000 -0.093204 -0.032346 0.069815
    10 5.939809 -0.003975 0.000000 -0.015685 0.038207 0.109291
    11 4.991439 -0.003975 0.000000 0.000000 0.000000 0.047515
    12 4.991436 -0.001575 0.000000 0.000000 0.000000 0.000000
    13 0.000005 0.001564 3.638375 -0.000010 -1.283530 3.140806
    14 0.000005 0.001585 -3.638375 -0.000010 1.300966 3.140787
    15 1.977383 0.000000 0.000000 -0.024853 0.050809 -0.329677
    16 3.723980 2.768055 -0.395205 0.000000 -3.141591 -1.570795
    17 2.863741 -0.721077 0.000003 0.000000 0.000000 0.000000
    18 8.842831 0.000000 -0.000001 -1.197526 0.665705 -1.041738
    19 9.341934 0.000000 -0.000002 0.000000 0.000000 -0.990432
    20 9.664096 0.000000 0.000003 -2.451425 0.349021 0.000000
    21 8.842831 0.000000 0.000001 0.754223 -0.629138 -0.738662
    22 9.341934 0.000000 -0.000001 0.000000 0.000000 -1.620663
    23 9.664095 0.000000 -0.000002 3.465544 -0.349003 0.000000
    24 6.829857 -0.000001 0.000000 0.001241 0.000000 0.000000
    25 0.021231 -0.065060 1.351066 0.024842 0.006382 -0.003186
    26 1.089796 -0.106998 1.928624 -1.335374 -0.038786 1.563732
    27 -2.120019 0.552893 1.060325 0.522049 -2.764527 -1.418481
  time 23
    0 -0.596449 2.421949 9.763672 -0.038227 0.404986 -1.567965
    1 -3.615979 -0.128909 9.745319 -1.570795 -1.570451 0.000000
    2 -0.000008 0.000010 5.615750 -3.019188 0.030863 1.187037
    3 15.693467 0.000000 0.000000 0.000000 0.000000 -2.292379
    4 22.146629 -0.000001 0.000000 -0.024032 -0.086445 0.742128
    5 0.000008 -0.000006 -5.615750 3.118058 0.004895 1.229500
    6 15.693467 0.000000 0.000000 0.000000 0.000000 -2.260567
    7 22.146629 0.000000 0.000000 0.005911 0.058978 0.753671
    8 1.384163 -0.004728 0.000002 -0.000004 -0.000001 0.254922
    9 5.939814 -0.004730 0.000000 -0.084899 -0.042893 0.057921
    10 5.939809 -0.003975 0.000000 -0.015404 0.032946 0.103989
    11 4.991439 -0.003975 0.000000 0.000000 0.000000 0.047081
    12 4.991436 -0.001575 0.000000 0.000000 0.000000 0.000000
    13 0.000005 0.001564 3.638375 -0.000010 -1.283530 3.140806
    14 0.000005 0.001585 -3.638375 -0.000010 1.300966 3.140787
    15 1.977383 0.000000 0.000000 -0.034221 0.059722 -0.265664
    16 3.723980 2.768055 -0.395205 0.000000 -3.141591 -1.570795
    17 2.863741 -0.721077 0.000003 0.000000 0.000000 0.000000
    18 8.842831 0.000000 -0.000001 -1.115123 0.724798 -0.988718
    19 9.341934 0.000000 -0.000002 0.000000 0.000000 -0.966060
    20 9.664096 0.000000 0.000003 -2.164698 0.349021 0.000000
    21 8.842831 0.000000 0.000001 0.776555 -0.628628 -0.806515
    22 9.341934 0.000000 -0.000001 0.000000 0.000000 -1.554937
    23 9.664095 0.000000 -0.000002 3.438474 -0.349003 0.000000
    24 6.829857 -0.000001 0.000000 0.001241 0.000000 0.000000
    25 0.021231 -0.065060 1.351066 0.024842 0.006382 -0.003186
    26 1.089796 -0.106998 1.928624 -1.335374 -0.038786 1.563732
    27 -2.120019 0.552893 1.060325 0.522049 -2.764527 -1.418481
  time 24
    0 -0.545666 1.578173 10.005867 -0.054264 0.298420 -1.568443
    1 -3.127683 -0.207037 9.745319 -1.570795 -1.570451 0.000000
    2 -0.000008 0.000010 5.615750 -3.009792 0.029233 1.305020
    3 15.693467 0.000000 0.000000 0.000000 0.000000 -2.293322
    4 22.146629 -0.000001 0.000000 -0.023718 -0.078843 0.754155
    5 0.000008 -0.000006 -5.615750 3.128505 0.009592 1.359579
    6 15.693467 0.000000 0.000000 0.000000 0.000000 -2.248199
    7 22.146629 0.000000 0.000000 0.001236 0.065648 0.764591
    8 1.384163 -0.004728 0.000002 -0.000004 -0.000001 0.211385
    9 5.939814 -0.004730 0.000000 -0.075647 -0.053224 0.046046
    10 5.939809 -0.003975 0.000000 -0.014746 0.027696 0.098625
    11 4.991439 -0.003975 0.000000 0.000000 0.000000 0.046588
    12 4.991436 -0.001575 0.000000 0.000000 0.000000 0.000000
    13 0.000005 0.001564 3.638375 -0.000010 -1.283530 3.140806
    14 0.000005 0.001585 -3.638375 -0.000010 1.300966 3.140787
    15 1.977383 0.000000 0.000000 -0.041947 0.069412 -0.202917
    16 3.723980 2.768055 -0.395205 0.000000 -3.141591 -1.570795
    17 2.863741 -0.721077 0.000003 0.000000 0.000000 0.000000
    18 8.842831 0.000000 -0.000001 -1.095946 0.736362 -0.970718
    19 9.341934 0.000000 -0.000002 0.000000 0.000000 -0.894721
    20 9.664096 0.000000 0.000003 -2.224008 0.349021 0.000000
    21 8.842831 0.000000 0.000001 0.806129 -0.612100 -0.898856
    22 9.341934 0.000000 -0.000001 0.000000 0.000000 -1.459616
    23 9.664095 0.000000 -0.000002 3.407262 -0.349003 0.000000
    24 6.829857 -0.000001 0.000000 0.001241 0.000000 0.000000
    25 0.021231 -0.065060 1.351066 0.024842 0.006382 -0.003186
    26 1.089796 -0.106998 1.928624 -1.335374 -0.038786 1.563732
    27 -2.120019 0.552893 1.060325 0.522049 -2.764527 -1.418481
  time 25
    0 -0.487071 0.703146 12.326250 -0.073098 0.215390 -1.569304
    1 -2.639387 -0.281258 9.745319 -1.570795 -1.570451 0.000000
    2 -0.000008 0.000010 5.615750 -3.004519 0.011785 1.534413
    3 15.693467 0.000000 0.000000 0.000000 0.000000 -2.162830
    4 22.146629 -0.000001 0.000000 -0.027387 -0.061286 0.770757
    5 0.000008 -0.000006 -5.615750 0.007765 3.129896 -1.545273
    6 15.693467 0.000000 0.000000 0.000000 0.000000 -2.100678
    7 22.146629 0.000000 0.000000 -0.004809 0.066627 0.770488
    8 1.384163 -0.004728 0.000002 -0.000004 -0.000001 0.168538
    9 5.939814 -0.004730 0.000000 -0.065460 -0.063231 0.034343
    10 5.939809 -0.003975 0.000000 -0.013652 0.022507 0.093299
    11 4.991439 -0.003975 0.000000 0.000000 0.000000 0.046065
    12 4.991436 -0.001575 0.000000 0.000000 0.000000 0.000000
    13 0.000005 0.001564 3.638375 -0.000010 -1.283530 3.140806
    14 0.000005 0.001585 -3.638375 -0.000010 1.300966 3.140787
    15 1.977383 0.000000 0.000000 -0.047959 0.079792 -0.142250
    16 3.723980 2.768055 -0.395205 0.000000 -3.141591 -1.570795
    17 2.863741 -0.721077 0.000003 0.000000 0.000000 0.000000
    18 8.842831 0.000000 -0.000001 -1.094593 0.732720 -0.972109
    19 9.341934 0.000000 -0.000002 0.000000 0.000000 -0.792935
    20 9.664096 0.000000 0.000003 -2.391317 0.349021 0.000000
    21 8.842831 0.000000 0.000001 0.838357 -0.578788 -1.007688
    22 9.341934 0.000000 -0.000001 0.000000 0.000000 -1.343614
    23 9.664095 0.000000 -0.000002 3.367887 -0.349003 0.000000
    24 6.829857 -0.000001 0.000000 0.001241 0.000000 0.000000
    25 0.021231 -0.065060 1.351066 0.024842 0.006382 -0.003186
    26 1.089796 -0.106998 1.928624 -1.335374 -0.038786 1.563732
    27 -2.120019 0.552893 1.060325 0.522049 -2.764527 -1.418481
  time 26
    0 -0.420663 -0.164068 15.732604 -0.096034 0.133750 -1.569495
    1 -2.158903 -0.355479 9.745319 -1.570795 -1.570451 0.000000
    2 -0.000008 0.000010 5.615750 0.141891 3.156163 -1.336539
    3 15.693467 0.000000 0.000000 0.000000 0.000000 -1.956521
    4 22.146629 -0.000001 0.000000 -0.032104 -0.042410 0.754351
    5 0.000008 -0.000006 -5.615750 0.033548 3.136798 -1.266126
    6 15.693467 0.000000 0.000000 0.000000 0.000000 -1.871001
    7 22.146629 0.000000 0.000000 -0.013273 0.066860 0.737655
    8 1.384163 -0.004728 0.000002 -0.000004 -0.000001 0.126996
    9 5.939814 -0.004730 0.000000 -0.054302 -0.072806 0.022908
    10 5.939809 -0.003975 0.000000 -0.012068 0.017462 0.088073
    11 4.991439 -0.003975 0.000000 0.000000 0.000000 0.045541
    12 4.991436 -0.001575 0.000000 0.000000 0.000000 0.000000
    13 0.000005 0.001564 3.638375 -0.000010 -1.283530 3.140806
    14 0.000005 0.001585 -3.638375 -0.000010 1.300966 3.140787
    15 1.977383 0.000000 0.000000 -0.052328 0.090727 -0.084476
    16 3.723980 2.768055 -0.395205 0.000000 -3.141591 -1.570795
    17 2.863741 -0.721077 0.000003 0.000000 0.000000 0.000000
    18 8.842831 0.000000 -0.000001 -1.108467 0.719517 -0.986263
    19 9.341934 0.000000 -0.000002 0.000000 0.000000 -0.677889
    20 9.664096 0.000000 0.000003 -2.620504 0.349021 0.000000
    21 8.842831 0.000000 0.000001 0.868041 -0.528502 -1.124658
    22 9.341934 0.000000 -0.000001 0.000000 0.000000 -1.215549
    23 9.664095 0.000000 -0.000002 3.316148 -0.349003 0.000000
    24 6.829857 -0.000001 0.000000 0.001241 0.000000 0.000000
    25 0.021231 -0.065060 1.351066 0.024842 0.006382 -0.003186
    26 1.089796 -0.106998 1.928624 -1.335374 -0.038786 1.563732
    27 -2.120019 0.552893 1.060325 0.522049 -2.764527 -1.418481
  time 27
    0 -0.346442 -1.007843 19.721007 -0.119530 0.057930 -1.568539
    1 -1.697952 -0.421887 9.745319 -1.570795 -1.570451 0.000000
    2 -0.000008 0.000010 5.615750 0.143617 3.188854 -1.053563
    3 15.693467 0.000000 0.000000 0.000000 0.000000 -1.693248
    4 22.146629 -0.000001 0.000000 -0.038132 -0.026760 0.699642
    5 0.000008 -0.000006 -5.615750 0.056360 3.154628 -0.970891
    6 15.693467 0.000000 0.000000 0.000000 0.000000 -1.576785
    7 22.146629 0.000000 0.000000 -0.023644 0.066767 0.662380
    8 1.384163 -0.004728 0.000002 -0.000004 -0.000001 0.087141
    9 5.939814 -0.004730 0.000000 -0.042186 -0.081831 0.011894
    10 5.939809 -0.003975 0.000000 -0.009952 0.012620 0.083036
    11 4.991439 -0.003975 0.000000 0.000000 0.000000 0.045018
    12 4.991436 -0.001575 0.000000 0.000000 0.000000 0.000000
    13 0.000005 0.001564 3.638375 -0.000010 -1.283530 3.140806
    14 0.000005 0.001585 -3.638375 -0.000010 1.300966 3.140787
    15 1.977383 0.000000 0.000000 -0.055020 0.102174 -0.030408
    16 3.723980 2.768055 -0.395205 0.000000 -3.141591 -1.570795
    17 2.863741 -0.721077 0.000003 0.000000 0.000000 0.000000
    18 8.842831 0.000000 -0.000001 -1.133848 0.701944 -1.005573
    19 9.341934 0.000000 -0.000002 0.000000 0.000000 -0.566621
    20 9.664096 0.000000 0.000003 -2.865006 0.349021 0.000000
    21 8.842831 0.000000 0.000001 0.889987 -0.461815 -1.242260
    22 9.341934 0.000000 -0.000001 0.000000 0.000000 -1.084275
    23 9.664095 0.000000 -0.000002 3.248022 -0.349003 0.000000
    24 6.829857 -0.000001 0.000000 0.001241 0.000000 0.000000
    25 0.021231 -0.065060 1.351066 0.024842 0.006382 -0.003186
    26 1.089796 -0.106998 1.928624 -1.335374 -0.038786 1.563732
    27 -2.120019 0.552893 1.060325 0.522049 -2.764527 -1.418481
  time 28
    0 -0.260501 -1.800836 23.768005 -0.140042 -0.007209 -1.566435
    1 -1.256532 -0.484389 9.745319 -1.570795 -1.570451 0.000000
    2 -0.000008 0.000010 5.615750 0.137193 3.224517 -0.771447
    3 15.693467 0.000000 0.000000 0.000000 0.000000 -1.387421
    4 22.146629 -0.000001 0.000000 -0.045024 -0.015227 0.611924
    5 0.000008 -0.000006 -5.615750 0.068820 3.180607 -0.668884
    6 15.693467 0.000000 0.000000 0.000000 0.000000 -1.227323
    7 22.146629 0.000000 0.000000 -0.034634 0.066487 0.549467
    8 1.384163 -0.004728 0.000002 -0.000004 -0.000001 0.049588
    9 5.939814 -0.004730 0.000000 -0.029099 -0.090232 0.001396
    10 5.939809 -0.003975 0.000000 -0.007275 0.008054 0.078250
    11 4.991439 -0.003975 0.000000 0.000000 0.000000 0.044510
    12 4.991436 -0.001575 0.000000 0.000000 0.000000 0.000000
    13 0.000005 0.001564 3.638375 -0.000010 -1.283530 3.140806
    14 0.000005 0.001585 -3.638375 -0.000010 1.300966 3.140787
    15 1.977383 0.000000 0.000000 -0.056244 0.113976 0.019003
    16 3.723980 2.768055 -0.395205 0.000000 -3.141591 -1.570795
    17 2.863741 -0.721077 0.000003 0.000000 0.000000 0.000000
    18 8.842831 0.000000 -0.000001 -1.167351 0.684644 -1.022264
    19 9.341934 0.000000 -0.000002 0.000000 0.000000 -0.476244
    20 9.664096 0.000000 0.000003 -3.078613 0.349021 0.000000
    21 8.842831 0.000000 0.000001 0.900214 -0.380386 -1.354389
    22 9.341934 0.000000 -0.000001 0.000000 0.000000 -0.958408
    23 9.664095 0.000000 -0.000002 3.159489 -0.349003 0.000000
    24 6.829857 -0.000001 0.000000 0.001241 0.000000 0.000000
    25 0.021231 -0.065060 1.351066 0.024842 0.006382 -0.003186
    26 1.089796 -0.106998 1.928624 -1.335374 -0.038786 1.563732
    27 -2.120019 0.552893 1.060325 0.522049 -2.764527 -1.418481
  time 29
    0 -0.158936 -2.511795 27.357959 -0.153748 -0.057148 -1.563948
    1 -0.846363 -0.542984 9.745319 -1.570795 -1.570451 0.000000
    2 -0.000008 0.000010 5.615750 0.119361 3.257208 -0.498430
    3 15.693467 0.000000 0.000000 0.000000 0.000000 -1.053112
    4 22.146629 -0.000001 0.000000 -0.051393 -0.007437 0.500742
    5 0.000008 -0.000006 -5.615750 0.066041 3.208119 -0.358324
    6 15.693467 0.000000 0.000000 0.000000 0.000000 -0.819917
    7 22.146629 0.000000 0.000000 -0.044306 0.065997 0.402266
    8 1.384163 -0.004728 0.000002 -0.000004 -0.000001 0.014759
    9 5.939814 -0.004730 0.000000 -0.015065 -0.097890 -0.008433
    10 5.939809 -0.003975 0.000000 -0.003967 0.003823 0.073815
    11 4.991439 -0.003975 0.000000 0.000000 0.000000 0.044046
    12 4.991436 -0.001575 0.000000 0.000000 0.000000 0.000000
    13 0.000005 0.001564 3.638375 -0.000010 -1.283530 3.140806
    14 0.000005 0.001585 -3.638375 -0.000010 1.300966 3.140787
    15 1.977383 0.000000 0.000000 -0.056139 0.126022 0.063034
    16 3.723980 2.768055 -0.395205 0.000000 -3.141591 -1.570795
    17 2.863741 -0.721077 0.000003 0.000000 0.000000 0.000000
    18 8.842831 0.000000 -0.000001 -1.205761 0.672899 -1.029137
    19 9.341934 0.000000 -0.000002 0.000000 0.000000 -0.423795
    20 9.664096 0.000000 0.000003 -3.214939 0.349021 0.000000
    21 8.842831 0.000000 0.000001 0.896012 -0.286705 -1.456765
    22 9.341934 0.000000 -0.000001 0.000000 0.000000 -0.846745
    23 9.664095 0.000000 -0.000002 3.046407 -0.349003 0.000000
    24 6.829857 -0.000001 0.000000 0.001241 0.000000 0.000000
    25 0.021231 -0.065060 1.351066 0.024842 0.006382 -0.003186
    26 1.089796 -0.106998 1.928624 -1.335374 -0.038786 1.563732
    27 -2.120019 0.552893 1.060325 0.522049 -2.764527 -1.418481
  time 30
    0 -0.041745 -3.121189 29.975226 -0.157011 -0.087198 -1.562131
    1 -0.475258 -0.597673 9.745319 -1.570795 -1.570451 0.000000
    2 -0.000008 0.000010 5.615750 0.092038 3.278491 -0.249020
    3 15.693467 0.000000 0.000000 0.000000 0.000000 -0.715974
    4 22.146629 -0.000001 0.000000 -0.055533 -0.003060 0.381650
    5 0.000008 -0.000006 -5.615750 0.044379 3.229401 0.002383
    6 15.693467 0.000000 0.000000 0.000000 0.000000 -0.285229
    7 22.146629 0.000000 0.000000 -0.050567 0.065111 0.197115
    8 1.384163 -0.004728 0.000002 -0.000004 -0.000001 -0.016734
    9 5.939814 -0.004730 0.000000 -0.000084 -0.104709 -0.017478
    10 5.939809 -0.003975 0.000000 0.000000 0.000000 0.069808
    11 4.991439 -0.003975 0.000000 0.000000 0.000000 0.043628
    12 4.991436 -0.001575 0.000000 0.000000 0.000000 0.000000
    13 0.000005 0.001564 3.638375 -0.000010 -1.283530 3.140806
    14 0.000005 0.001585 -3.638375 -0.000010 1.300966 3.140787
    15 1.977383 0.000000 0.000000 -0.054950 0.138158 0.100736
    16 3.723980 2.768055 -0.395205 0.000000 -3.141591 -1.570795
    17 2.863741 -0.721077 0.000003 0.000000 0.000000 0.000000
    18 8.842831 0.000000 -0.000001 -1.246145 0.671806 -1.019564
    19 9.341934 0.000000 -0.000002 0.000000 0.000000 -0.426388
    20 9.664096 0.000000 0.000003 -3.227597 0.349021 0.000000
    21 8.842831 0.000000 0.000001 0.876223 -0.183962 -1.546580
    22 9.341934 0.000000 -0.000001 0.000000 0.000000 -0.758020
    23 9.664095 0.000000 -0.000002 2.904694 -0.349003 0.000000
    24 6.829857 -0.000001 0.000000 0.001241 0.000000 0.000000
    25 0.021231 -0.065060 1.351066 0.024842 0.006382 -0.003186
    26 1.089796 -0.106998 1.928624 -1.335374 -0.038786 1.563732
    27 -2.120019 0.552893 1.060325 0.522049 -2.764527 -1.418481
  time 31
    0 0.192637 -3.488388 31.108073 -0.151324 -0.100660 -1.561271
    1 -0.256501 -0.625018 9.745319 -1.570795 -1.570451 0.000000
    2 -0.000008 0.000010 5.615750 0.069316 3.279545 -0.092165
    3 15.693467 0.000000 0.000000 0.000000 0.000000 -0.492630
    4 22.146629 -0.000001 0.000000 -0.056058 0.001883 0.300273
    5 0.000008 -0.000006 -5.615750 0.030002 3.227579 0.191671
    6 15.693467 0.000000 0.000000 0.000000 0.000000 -0.001882
    7 22.146629 0.000000 0.000000 -0.052232 0.067606 0.088862
    8 1.384163 -0.004728 0.000002 -0.000004 -0.000001 -0.035338
    9 5.939814 -0.004730 0.000000 0.060606 -0.106195 -0.021665
    10 5.939809 -0.003975 0.000000 0.024683 -0.002744 0.065160
    11 4.991439 -0.003975 0.000000 0.000000 0.000000 0.042133
    12 4.991436 -0.001575 0.000000 0.000000 0.000000 0.000000
    13 0.000005 0.001564 3.638375 -0.000010 -1.283530 3.140806
    14 0.000005 0.001585 -3.638375 -0.000010 1.300966 3.140787
    15 1.977383 0.000000 0.000000 0.015345 0.143648 0.030440
    16 3.723980 2.768055 -0.395205 0.000000 -3.141591 -1.570795
    17 2.863741 -0.721077 0.000003 0.000000 0.000000 0.000000
    18 8.842831 0.000000 -0.000001 -1.345694 0.705768 -1.022101
    19 9.341934 0.000000 -0.000002 0.000000 0.000000 -0.670926
    20 9.664096 0.000000 0.000003 -2.792505 0.349021 0.000000
    21 8.842831 0.000000 0.000001 0.719176 0.117629 -1.656885
    22 9.341934 0.000000 -0.000001 0.000000 0.000000 -0.703288
    23 9.664095 0.000000 -0.000002 2.494501 -0.349003 0.000000
    24 6.829857 -0.000001 0.000000 0.001241 0.000000 0.000000
    25 0.021231 -0.065060 1.351066 0.024842 0.006382 -0.003186
    26 1.089796 -0.106998 1.928624 -1.335374 -0.038786 1.563732
    27 -2.120019 0.552893 1.060325 0.522049 -2.764527 -1.418481
  time 32
    0 0.544211 -3.546983 31.076822 -0.141441 -0.104829 -1.561175
    1 -0.236970 -0.613299 9.745319 -1.570795 -1.570451 0.000000
    2 -0.000008 0.000010 5.615750 0.063564 3.263248 -0.082864
    3 15.693467 0.000000 0.000000 0.000000 0.000000 -0.485897
    4 22.146629 -0.000001 0.000000 -0.053725 0.009226 0.298050
    5 0.000008 -0.000006 -5.615750 0.030098 3.210803 0.196763
    6 15.693467 0.000000 0.000000 0.000000 0.000000 -0.001882
    7 22.146629 0.000000 0.000000 -0.050379 0.074369 0.089881
    8 1.384163 -0.004728 0.000002 -0.000004 -0.000001 -0.036719
    9 5.939814 -0.004730 0.000000 0.156986 -0.100503 -0.018281
    10 5.939809 -0.003975 0.000000 0.066019 -0.003895 0.059105
    11 4.991439 -0.003975 0.000000 0.000000 0.000000 0.038948
    12 4.991436 -0.001575 0.000000 0.000000 0.000000 0.000000
    13 0.000005 0.001564 3.638375 -0.000010 -1.283530 3.140806
    14 0.000005 0.001585 -3.638375 -0.000010 1.300966 3.140787
    15 1.977383 0.000000 0.000000 0.143947 0.134868 -0.141074
    16 3.723980 2.768055 -0.395205 0.000000 -3.141591 -1.570795
    17 2.863741 -0.721077 0.000003 0.000000 0.000000 0.000000
    18 8.842831 0.000000 -0.000001 -1.470286 0.785075 -1.030856
    19 9.341934 0.000000 -0.000002 0.000000 0.000000 -1.091106
    20 9.664096 0.000000 0.000003 -2.020582 0.349021 0.000000
    21 8.842831 0.000000 0.000001 0.344220 0.476910 -1.851813
    22 9.341934 0.000000 -0.000001 0.000000 0.000000 -0.676843
    23 9.664095 0.000000 -0.000002 1.872188 -0.349003 0.000000
    24 6.829857 -0.000001 0.000000 0.001241 0.000000 0.000000
    25 0.021231 -0.065060 1.351066 0.024842 0.006382 -0.003186
    26 1.089796 -0.106998 1.928624 -1.335374 -0.038786 1.563732
    27 -2.120019 0.552893 1.060325 0.522049 -2.764527 -1.418481
  time 33
    0 0.872346 -3.394635 30.592432 -0.128015 -0.101268 -1.561558
    1 -0.342442 -0.566423 9.745319 -1.570795 -1.570451 0.000000
    2 -0.000008 0.000010 5.615750 0.063468 3.240815 -0.144736
    3 15.693467 0.000000 0.000000 0.000000 0.000000 -0.575719
    4 22.146629 -0.000001 0.000000 -0.049899 0.015674 0.329229
    5 0.000008 -0.000006 -5.615750 0.029714 3.190576 0.188719
    6 15.693467 0.000000 0.000000 0.000000 0.000000 -0.001882
    7 22.146629 0.000000 0.000000 -0.046509 0.081039 0.085586
    8 1.384163 -0.004728 0.000002 -0.000004 -0.000001 -0.028510
    9 5.939814 -0.004730 0.000000 0.207034 -0.091622 -0.009752
    10 5.939809 -0.003975 0.000000 0.087857 -0.003895 0.052296
    11 4.991439 -0.003975 0.000000 0.000000 0.000000 0.034806
    12 4.991436 -0.001575 0.000000 0.000000 0.000000 0.000000
    13 0.000005 0.001564 3.638375 -0.000010 -1.283530 3.140806
    14 0.000005 0.001585 -3.638375 -0.000010 1.300966 3.140787
    15 1.977383 0.000000 0.000000 0.219171 0.116532 -0.246496
    16 3.723980 2.768055 -0.395205 0.000000 -3.141591 -1.570795
    17 2.863741 -0.721077 0.000003 0.000000 0.000000 0.000000
    18 8.842831 0.000000 -0.000001 -1.480720 0.873486 -0.986509
    19 9.341934 0.000000 -0.000002 0.000000 0.000000 -1.324532
    20 9.664096 0.000000 0.000003 -1.518123 0.349021 0.000000
    21 8.842831 0.000000 0.000001 0.120452 0.573144 -1.911596
    22 9.341934 0.000000 -0.000001 0.000000 0.000000 -0.662402
    23 9.664095 0.000000 -0.000002 1.477901 -0.349003 0.000000
    24 6.829857 -0.000001 0.000000 0.001241 0.000000 0.000000
    25 0.021231 -0.065060 1.351066 0.024842 0.006382 -0.003186
    26 1.089796 -0.106998 1.928624 -1.335374 -0.038786 1.563732
    27 -2.120019 0.552893 1.060325 0.522049 -2.764527 -1.418481
  time 34
    0 1.032507 -3.121189 30.365863 -0.111885 -0.091801 -1.562227
    1 -0.502603 -0.503921 9.745319 -1.570795 -1.570451 0.000000
    2 -0.000008 0.000010 5.615750 0.059537 3.222695 -0.182193
    3 15.693467 0.000000 0.000000 0.000000 0.000000 -0.607366
    4 22.146629 -0.000001 0.000000 -0.045784 0.017181 0.332889
    5 0.000008 -0.000006 -5.615750 0.032398 3.169295 0.057469
    6 15.693467 0.000000 0.000000 0.000000 0.000000 -0.196027
    7 22.146629 0.000000 0.000000 -0.041942 0.082555 0.158386
    8 1.384163 -0.004728 0.000002 -0.000004 -0.000001 -0.016389
    9 5.939814 -0.004730 0.000000 0.198776 -0.081435 0.000784
    10 5.939809 -0.003975 0.000000 0.084535 -0.003440 0.045199
    11 4.991439 -0.003975 0.000000 0.000000 0.000000 0.030291
    12 4.991436 -0.001575 0.000000 0.000000 0.000000 0.000000
    13 0.000005 0.001564 3.638375 -0.000010 -1.283530 3.140806
    14 0.000005 0.001585 -3.638375 -0.000010 1.300966 3.140787
    15 1.977383 0.000000 0.000000 0.217249 0.098106 -0.254453
    16 3.723980 2.768055 -0.395205 0.000000 -3.141591 -1.570795
    17 2.863741 -0.721077 0.000003 0.000000 0.000000 0.000000
    18 8.842831 0.000000 -0.000001 -1.357651 0.942413 -0.872942
    19 9.341934 0.000000 -0.000002 0.000000 0.000000 -1.311864
    20 9.664096 0.000000 0.000003 -1.398262 0.349021 0.000000
    21 8.842831 0.000000 0.000001 0.238306 0.485844 -1.690355
    22 9.341934 0.000000 -0.000001 0.000000 0.000000 -0.650457
    23 9.664095 0.000000 -0.000002 1.383305 -0.349003 0.000000
    24 6.829857 -0.000001 0.000000 0.001241 0.000000 0.000000
    25 0.021231 -0.065060 1.351066 0.024842 0.006382 -0.003186
    26 1.089796 -0.106998 1.928624 -1.335374 -0.038786 1.563732
    27 -2.120019 0.552893 1.060325 0.522049 -2.764527 -1.418481
  time 35
    0 1.012975 -2.757897 30.506492 -0.093797 -0.077818 -1.562896
    1 -0.690108 -0.429700 9.745319 -1.570795 -1.570451 0.000000
    2 -0.000008 0.000010 5.615750 0.053497 3.210233 -0.184822
    3 15.693467 0.000000 0.000000 0.000000 0.000000 -0.567370
    4 22.146629 -0.000001 0.000000 -0.041958 0.013250 0.304325
    5 0.000008 -0.000006 -5.615750 0.029810 3.155491 0.034915
    6 15.693467 0.000000 0.000000 0.000000 0.000000 -0.192129
    7 22.146629 0.000000 0.000000 -0.037374 0.078264 0.146446
    8 1.384163 -0.004728 0.000002 -0.000004 -0.000001 -0.001506
    9 5.939814 -0.004730 0.000000 0.177312 -0.069942 0.012372
    10 5.939809 -0.003975 0.000000 0.075578 -0.002804 0.037875
    11 4.991439 -0.003975 0.000000 0.000000 0.000000 0.025492
    12 4.991436 -0.001575 0.000000 0.000000 0.000000 0.000000
    13 0.000005 0.001564 3.638375 -0.000010 -1.283530 3.140806
    14 0.000005 0.001585 -3.638375 -0.000010 1.300966 3.140787
    15 1.977383 0.000000 0.000000 0.198443 0.078836 -0.244824
    16 3.723980 2.768055 -0.395205 0.000000 -3.141591 -1.570795
    17 2.863741 -0.721077 0.000003 0.000000 0.000000 0.000000
    18 8.842831 0.000000 -0.000001 -1.176093 0.999229 -0.717238
    19 9.341934 0.000000 -0.000002 0.000000 0.000000 -1.245341
    20 9.664096 0.000000 0.000003 -1.356125 0.349021 0.000000
    21 8.842831 0.000000 0.000001 0.382418 0.319541 -1.430873
    22 9.341934 0.000000 -0.000001 0.000000 0.000000 -0.641959
    23 9.664095 0.000000 -0.000002 1.354495 -0.349003 0.000000
    24 6.829857 -0.000001 0.000000 0.001241 0.000000 0.000000
    25 0.021231 -0.065060 1.351066 0.024842 0.006382 -0.003186
    26 1.089796 -0.106998 1.928624 -1.335374 -0.038786 1.563732
    27 -2.120019 0.552893 1.060325 0.522049 -2.764527 -1.418481
  time 36
    0 0.911409 -2.293039 30.654934 -0.074496 -0.061143 -1.563375
    1 -0.904959 -0.347666 9.745319 -1.570795 -1.570451 0.000000
    2 -0.000008 0.000010 5.615750 0.048320 3.198728 -0.188512
    3 15.693467 0.000000 0.000000 0.000000 0.000000 -0.520237
    4 22.146629 -0.000001 0.000000 -0.038525 0.007037 0.270336
    5 0.000008 -0.000006 -5.615750 0.027126 3.142646 0.006863
    6 15.693467 0.000000 0.000000 0.000000 0.000000 -0.188606
    7 22.146629 0.000000 0.000000 -0.032941 0.071804 0.132032
    8 1.384163 -0.004728 0.000002 -0.000004 -0.000001 0.015334
    9 5.939814 -0.004730 0.000000 0.146320 -0.057262 0.024476
    10 5.939809 -0.003975 0.000000 0.062528 -0.002085 0.030400
    11 4.991439 -0.003975 0.000000 0.000000 0.000000 0.020483
    12 4.991436 -0.001575 0.000000 0.000000 0.000000 0.000000
    13 0.000005 0.001564 3.638375 -0.000010 -1.283530 3.140806
    14 0.000005 0.001585 -3.638375 -0.000010 1.300966 3.140787
    15 1.977383 0.000000 0.000000 0.166563 0.059833 -0.223079
    16 3.723980 2.768055 -0.395205 0.000000 -3.141591 -1.570795
    17 2.863741 -0.721077 0.000003 0.000000 0.000000 0.000000
    18 8.842831 0.000000 -0.000001 -0.942477 1.036105 -0.521769
    19 9.341934 0.000000 -0.000002 0.000000 0.000000 -1.139555
    20 9.664096 0.000000 0.000003 -1.370555 0.349021 0.000000
    21 8.842831 0.000000 0.000001 0.497066 0.074107 -1.175109
    22 9.341934 0.000000 -0.000001 0.000000 0.000000 -0.636016
    23 9.664095 0.000000 -0.000002 1.373582 -0.349003 0.000000
    24 6.829857 -0.000001 0.000000 0.001241 0.000000 0.000000
    25 0.021231 -0.065060 1.351066 0.024842 0.006382 -0.003186
    26 1.089796 -0.106998 1.928624 -1.335374 -0.038786 1.563732
    27 -2.120019 0.552893 1.060325 0.522049 -2.764527 -1.418481
  time 37
    0 0.755155 -1.757866 30.807283 -0.054730 -0.043425 -1.563470
    1 -1.127622 -0.257819 9.745319 -1.570795 -1.570451 0.000000
    2 -0.000008 0.000010 5.615750 0.043910 3.187895 -0.189826
    3 15.693467 0.000000 0.000000 0.000000 0.000000 -0.464215
    4 22.146629 -0.000001 0.000000 -0.035747 -0.000471 0.231053
    5 0.000008 -0.000006 -5.615750 0.024538 3.130663 -0.021444
    6 15.693467 0.000000 0.000000 0.000000 0.000000 -0.180510
    7 22.146629 0.000000 0.000000 -0.029018 0.064062 0.113905
    8 1.384163 -0.004728 0.000002 -0.000004 -0.000001 0.033478
    9 5.939814 -0.004730 0.000000 0.109467 -0.043576 0.036600
    10 5.939809 -0.003975 0.000000 0.046900 -0.001378 0.022813
    11 4.991439 -0.003975 0.000000 0.000000 0.000000 0.015370
    12 4.991436 -0.001575 0.000000 0.000000 0.000000 0.000000
    13 0.000005 0.001564 3.638375 -0.000010 -1.283530 3.140806
    14 0.000005 0.001585 -3.638375 -0.000010 1.300966 3.140787
    15 1.977383 0.000000 0.000000 0.125945 0.042007 -0.194373
    16 3.723980 2.768055 -0.395205 0.000000 -3.141591 -1.570795
    17 2.863741 -0.721077 0.000003 0.000000 0.000000 0.000000
    18 8.842831 0.000000 -0.000001 -0.676090 1.047122 -0.301590
    19 9.341934 0.000000 -0.000002 0.000000 0.000000 -1.009248
    20 9.664096 0.000000 0.000003 -1.420305 0.349021 0.000000
    21 8.842831 0.000000 0.000001 0.548420 -0.226017 -0.924959
    22 9.341934 0.000000 -0.000001 0.000000 0.000000 -0.631619
    23 9.664095 0.000000 -0.000002 1.422560 -0.349003 0.000000
    24 6.829857 -0.000001 0.000000 0.001241 0.000000 0.000000
    25 0.021231 -0.065060 1.351066 0.024842 0.006382 -0.003186
    26 1.089796 -0.106998 1.928624 -1.335374 -0.038786 1.563732
    27 -2.120019 0.552893 1.060325 0.522049 -2.764527 -1.418481
  time 38
    0 0.571555 -1.191443 30.963538 -0.035244 -0.026142 -1.563279
    1 -1.358098 -0.171879 9.745319 -1.570795 -1.570451 0.000000
    2 -0.000008 0.000010 5.615750 0.040075 3.177733 -0.184620
    3 15.693467 0.000000 0.000000 0.000000 0.000000 -0.396680
    4 22.146629 -0.000001 0.000000 -0.033703 -0.008496 0.186083
    5 0.000008 -0.000006 -5.615750 0.022142 3.119351 -0.044863
    6 15.693467 0.000000 0.000000 0.000000 0.000000 -0.163045
    7 22.146629 0.000000 0.000000 -0.025874 0.055900 0.090682
    8 1.384163 -0.004728 0.000002 -0.000004 -0.000001 0.052158
    9 5.939814 -0.004730 0.000000 0.070386 -0.029182 0.048322
    10 5.939809 -0.003975 0.000000 0.030234 -0.000779 0.015175
    11 4.991439 -0.003975 0.000000 0.000000 0.000000 0.010197
    12 4.991436 -0.001575 0.000000 0.000000 0.000000 0.000000
    13 0.000005 0.001564 3.638375 -0.000010 -1.283530 3.140806
    14 0.000005 0.001585 -3.638375 -0.000010 1.300966 3.140787
    15 1.977383 0.000000 0.000000 0.081272 0.026049 -0.163542
    16 3.723980 2.768055 -0.395205 0.000000 -3.141591 -1.570795
    17 2.863741 -0.721077 0.000003 0.000000 0.000000 0.000000
    18 8.842831 0.000000 -0.000001 -0.406827 1.030824 -0.082720
    19 9.341934 0.000000 -0.000002 0.000000 0.000000 -0.869163
    20 9.664096 0.000000 0.000003 -1.484219 0.349021 0.000000
    21 8.842831 0.000000 0.000001 0.506850 -0.539925 -0.643935
    22 9.341934 0.000000 -0.000001 0.000000 0.000000 -0.627815
    23 9.664095 0.000000 -0.000002 1.483543 -0.349003 0.000000
    24 6.829857 -0.000001 0.000000 0.001241 0.000000 0.000000
    25 0.021231 -0.065060 1.351066 0.024842 0.006382 -0.003186
    26 1.089796 -0.106998 1.928624 -1.335374 -0.038786 1.563732
    27 -2.120019 0.552893 1.060325 0.522049 -2.764527 -1.418481
  time 39
    0 0.391862 -0.625019 31.115886 -0.016783 -0.011117 -1.562801
    1 -1.576854 -0.082033 9.745319 -1.570795 -1.570451 0.000000
    2 -0.000008 0.000010 5.615750 0.036912 3.168434 -0.167686
    3 15.693467 0.000000 0.000000 0.000000 0.000000 -0.312446
    4 22.146629 -0.000001 0.000000 -0.032419 -0.016169 0.134054
    5 0.000008 -0.000006 -5.615750 0.020513 3.108806 -0.056776
    6 15.693467 0.000000 0.000000 0.000000 0.000000 -0.129013
    7 22.146629 0.000000 0.000000 -0.023564 0.048134 0.059960
    8 1.384163 -0.004728 0.000002 -0.000004 -0.000001 0.070532
    9 5.939814 -0.004730 0.000000 0.032706 -0.014489 0.059432
    10 5.939809 -0.003975 0.000000 0.014087 -0.000300 0.007550
    11 4.991439 -0.003975 0.000000 0.000000 0.000000 0.005039
    12 4.991436 -0.001575 0.000000 0.000000 0.000000 0.000000
    13 0.000005 0.001564 3.638375 -0.000010 -1.283530 3.140806
    14 0.000005 0.001585 -3.638375 -0.000010 1.300966 3.140787
    15 1.977383 0.000000 0.000000 0.037542 0.012135 -0.135288
    16 3.723980 2.768055 -0.395205 0.000000 -3.141591 -1.570795
    17 2.863741 -0.721077 0.000003 0.000000 0.000000 0.000000
    18 8.842831 0.000000 -0.000001 -0.161592 0.991672 0.112176
    19 9.341934 0.000000 -0.000002 0.000000 0.000000 -0.733967
    20 9.664096 0.000000 0.000003 -1.541051 0.349021 0.000000
    21 8.842831 0.000000 0.000001 0.319345 -0.809545 -0.260605
    22 9.341934 0.000000 -0.000001 0.000000 0.000000 -0.623715
    23 9.664095 0.000000 -0.000002 1.538523 -0.349003 0.000000
    24 6.829857 -0.000001 0.000000 0.001241 0.000000 0.000000
    25 0.021231 -0.065060 1.351066 0.024842 0.006382 -0.003186
    26 1.089796 -0.106998 1.928624 -1.335374 -0.038786 1.563732
    27 -2.120019 0.552893 1.060325 0.522049 -2.764527 -1.418481
  time 40
    0 0.235607 -0.093753 31.264328 0.000000 0.000000 -1.562131
    1 -1.783892 0.000001 9.745319 -1.570795 -1.570451 0.000000
    2 -0.000008 0.000010 5.615750 0.034419 3.159998 -0.127549
    3 15.693467 0.000000 0.000000 0.000000 0.000000 -0.196229
    4 22.146629 -0.000001 0.000000 -0.031790 -0.022711 0.069345
    5 0.000008 -0.000006 -5.615750 0.020513 3.099220 -0.037990
    6 15.693467 0.000000 0.000000 0.000000 0.000000 -0.049481
    7 22.146629 0.000000 0.000000 -0.022167 0.041557 0.010674
    8 1.384163 -0.004728 0.000002 -0.000004 -0.000001 0.087947
    9 5.939814 -0.004730 0.000000 0.000000 0.000000 0.069777
    10 5.939809 -0.003975 0.000000 0.000000 0.000000 0.000000
    11 4.991439 -0.003975 0.000000 0.000000 0.000000 0.000000
    12 4.991436 -0.001575 0.000000 0.000000 0.000000 0.000000
    13 0.000005 0.001564 3.638375 -0.000010 -1.283530 3.140806
    14 0.000005 0.001585 -3.638375 -0.000010 1.300966 3.140787
    15 1.977383 0.000000 0.000000 0.000000 0.000000 -0.114131
    16 3.723980 2.768055 -0.395205 0.000000 -3.141591 -1.570795
    17 2.863741 -0.721077 0.000003 0.000000 0.000000 0.000000
    18 8.842831 0.000000 -0.000001 0.046419 0.937314 0.274262
    19 9.341934 0.000000 -0.000002 0.000000 0.000000 -0.618403
    20 9.664096 0.000000 0.000003 -1.569555 0.349021 0.000000
    21 8.842831 0.000000 0.000001 -0.054560 -0.954086 0.280884
    22 9.341934 0.000000 -0.000001 0.000000 0.000000 -0.618367
    23 9.664095 0.000000 -0.000002 1.569555 -0.349003 0.000000
    24 6.829857 -0.000001 0.000000 0.001241 0.000000 0.000000
    25 0.021231 -0.065060 1.351066 0.024842 0.006382 -0.003186
    26 1.089796 -0.106998 1.928624 -1.335374 -0.038786 1.563732
    27 -2.120019 0.552893 1.060325 0.522049 -2.764527 -1.418481
end
