version 1
nodes
  0 "Bip01" -1
  1 "Bip01 Pelvis" 0
  2 "Bip01 L Thigh" 1
  3 "Bip01 L Calf" 2
  4 "Bip01 L Foot" 3
  5 "Bip01 R Thigh" 1
  6 "Bip01 R Calf" 5
  7 "Bip01 R Foot" 6
  8 "Bip01 Spine" 1
  9 "Bip01 Spine1" 8
  10 "Bip01 Spine2" 9
  11 "Bip01 Spine3" 10
  12 "Bip01 Neck" 11
  13 "Bip01 L Clavicle" 12
  14 "Bip01 R Clavicle" 12
  15 "Bip01 Head" 12
  16 "Bone05" 15
  17 "Bone06" 16
  18 "Bip01 L UpperArm" 13
  19 "Bip01 L Forearm" 18
  20 "Bip01 L Hand" 19
  21 "Bip01 R UpperArm" 14
  22 "Bip01 R Forearm" 21
  23 "Bip01 R Hand" 22
  24 "Bip01 R Finger0" 23
  25 "p_desert_eagle" 24
  26 "GLOCK_model" 24
  27 "Cylinder02" 24
end
skeleton
  time 0
    0 -0.315191 5.129063 29.397084 0.000000 0.348880 -1.570834
    1 -0.526041 0.000001 9.745319 -1.570795 -1.570451 0.000000
    2 -0.000008 0.000010 5.615750 0.000001 3.141591 -0.809056
    3 15.693467 0.000000 0.000000 0.000000 0.000000 -0.713887
    4 22.146629 -0.000001 0.000000 0.000000 0.000000 0.253669
    5 0.000008 -0.000006 -5.615750 0.000001 3.141591 -0.809094
    6 15.693467 0.000000 0.000000 0.000000 0.000000 -0.713924
    7 22.146629 0.000000 0.000000 0.000000 0.000000 0.253681
    8 1.384163 -0.004728 0.000002 -0.000004 -0.000001 0.000796
    9 5.939814 -0.004730 0.000000 0.000000 0.000000 0.000000
    10 5.939809 -0.003975 0.000000 0.000000 0.000000 0.000000
    11 4.991439 -0.003975 0.000000 0.000000 0.000000 0.000000
    12 4.991436 -0.001575 0.000000 0.000000 0.000000 0.000000
    13 0.000005 0.001564 3.638375 0.909056 -1.122648 2.282718
    14 0.000005 0.001585 -3.638375 -0.460252 1.252282 2.700816
    15 1.977383 0.000000 0.000000 0.000000 0.000000 -0.192655
    16 3.723980 2.768055 -0.395205 0.000000 -3.141591 -1.570795
    17 2.863741 -0.721077 0.000003 0.000000 0.000000 0.000000
    18 8.842831 0.000000 -0.000001 -0.514442 0.561724 -1.008109
    19 9.341934 0.000000 -0.000002 0.000000 0.000000 -0.984950
    20 9.664096 0.000000 0.000003 -1.569555 0.349021 0.000000
    21 8.842831 0.000000 0.000001 0.332557 -0.300553 -1.055893
    22 9.341934 0.000000 -0.000001 0.000000 0.000000 -0.758198
    23 9.664095 0.000000 -0.000002 1.569555 -0.261799 0.000000
    24 6.829857 -0.000001 0.000000 0.001241 0.000000 0.000000
    25 0.021231 -0.065060 1.351066 0.024842 0.006382 -0.003186
    26 1.089796 -0.106998 1.928624 -1.335374 -0.038786 1.563732
    27 -2.120019 0.552893 1.060325 0.522049 -2.764527 -1.418481
  time 1
    0 -0.315191 4.945463 28.014229 0.000000 0.348880 -1.570834
    1 -0.795580 0.000001 9.745319 -1.570795 -1.570451 0.000000
    2 -0.000008 0.000010 5.615750 0.000001 3.141591 -0.915665
    3 15.693467 0.000000 0.000000 0.000000 0.000000 -0.894138
    4 22.146629 -0.000001 0.000000 0.000000 0.000000 0.327333
    5 0.000008 -0.000006 -5.615750 0.000001 3.141591 -0.915703
    6 15.693467 0.000000 0.000000 0.000000 0.000000 -0.894127
    7 22.146629 0.000000 0.000000 0.000000 0.000000 0.327282
    8 1.384163 -0.004728 0.000002 -0.000004 -0.000001 0.000796
    9 5.939814 -0.004730 0.000000 0.000000 0.000000 0.030309
    10 5.939809 -0.003975 0.000000 0.000000 0.000000 0.037272
    11 4.991439 -0.003975 0.000000 0.000000 0.000000 0.000000
    12 4.991436 -0.001575 0.000000 0.000000 0.000000 0.000000
    13 0.000005 0.001564 3.638375 0.909056 -1.122648 2.282718
    14 0.000005 0.001585 -3.638375 -0.460252 1.252282 2.700816
    15 1.977383 0.000000 0.000000 0.000000 0.000000 -0.220954
    16 3.723980 2.768055 -0.395205 0.000000 -3.141591 -1.570795
    17 2.863741 -0.721077 0.000003 0.000000 0.000000 0.000000
    18 8.842831 0.000000 -0.000001 -0.528543 0.497714 -1.033228
    19 9.341934 0.000000 -0.000002 0.000000 0.000000 -0.984950
    20 9.664096 0.000000 0.000003 -1.569555 0.349021 0.000000
    21 8.842831 0.000000 0.000001 0.356050 -0.239737 -1.081154
    22 9.341934 0.000000 -0.000001 0.000000 0.000000 -0.758198
    23 9.664095 0.000000 -0.000002 1.569555 -0.261799 0.000000
    24 6.829857 -0.000001 0.000000 0.001241 0.000000 0.000000
    25 0.021231 -0.065060 1.351066 0.024842 0.006382 -0.003186
    26 1.089796 -0.106998 1.928624 -1.335374 -0.038786 1.563732
    27 -2.120019 0.552893 1.060325 0.522049 -2.764527 -1.418481
  time 2
    0 -0.315191 4.507950 25.646969 0.000000 0.348880 -1.570834
    1 -1.190124 0.000001 9.745319 -1.570795 -1.570451 0.000000
    2 -0.000008 0.000010 5.615750 0.000001 3.141591 -1.061803
    3 15.693467 0.000000 0.000000 0.000000 0.000000 -1.145695
    4 22.146629 -0.000001 0.000000 0.000000 0.000000 0.432764
    5 0.000008 -0.000006 -5.615750 0.000001 3.141591 -1.061818
    6 15.693467 0.000000 0.000000 0.000000 0.000000 -1.145691
    7 22.146629 0.000000 0.000000 0.000000 0.000000 0.432769
    8 1.384163 -0.004728 0.000002 -0.000004 -0.000001 0.000796
    9 5.939814 -0.004730 0.000000 0.000000 0.000000 0.074481
    10 5.939809 -0.003975 0.000000 0.000000 0.000000 0.091578
    11 4.991439 -0.003975 0.000000 0.000000 0.000000 0.000000
    12 4.991436 -0.001575 0.000000 0.000000 0.000000 0.000000
    13 0.000005 0.001564 3.638375 0.909056 -1.122648 2.282718
    14 0.000005 0.001585 -3.638375 -0.460252 1.252282 2.700816
    15 1.977383 0.000000 0.000000 0.000000 0.000000 -0.262138
    16 3.723980 2.768055 -0.395205 0.000000 -3.141591 -1.570795
    17 2.863741 -0.721077 0.000003 0.000000 0.000000 0.000000
    18 8.842831 0.000000 -0.000001 -0.545181 0.403931 -1.066693
    19 9.341934 0.000000 -0.000002 0.000000 0.000000 -0.984950
    20 9.664096 0.000000 0.000003 -1.569555 0.349021 0.000000
    21 8.842831 0.000000 0.000001 0.387061 -0.150268 -1.114835
    22 9.341934 0.000000 -0.000001 0.000000 0.000000 -0.758198
    23 9.664095 0.000000 -0.000002 1.569555 -0.261799 0.000000
    24 6.829857 -0.000001 0.000000 0.001241 0.000000 0.000000
    25 0.021231 -0.065060 1.351066 0.024842 0.006382 -0.003186
    26 1.089796 -0.106998 1.928624 -1.335374 -0.038786 1.563732
    27 -2.120019 0.552893 1.060325 0.522049 -2.764527 -1.418481
  time 3
    0 -0.315191 4.043092 23.416432 0.000000 0.348880 -1.570834
    1 -1.662794 0.000001 9.745319 -1.570795 -1.570451 0.000000
    2 -0.000008 0.000010 5.615750 0.000001 3.141591 -1.175488
    3 15.693467 0.000000 0.000000 0.000000 0.000000 -1.341163
    4 22.146629 -0.000001 0.000000 0.000000 0.000000 0.514599
    5 0.000008 -0.000006 -5.615750 0.000001 3.141591 -1.175503
    6 15.693467 0.000000 0.000000 0.000000 0.000000 -1.341186
    7 22.146629 0.000000 0.000000 0.000000 0.000000 0.514596
    8 1.384163 -0.004728 0.000002 -0.000004 -0.000001 0.000796
    9 5.939814 -0.004730 0.000000 0.000000 0.000000 0.128138
    10 5.939809 -0.003975 0.000000 0.000000 0.000000 0.157479
    11 4.991439 -0.003975 0.000000 0.000000 0.000000 0.000000
    12 4.991436 -0.001575 0.000000 0.000000 0.000000 0.000000
    13 0.000005 0.001564 3.638375 0.909056 -1.122648 2.282718
    14 0.000005 0.001585 -3.638375 -0.460252 1.252282 2.700816
    15 1.977383 0.000000 0.000000 0.000000 0.000000 -0.312136
    16 3.723980 2.768055 -0.395205 0.000000 -3.141591 -1.570795
    17 2.863741 -0.721077 0.000003 0.000000 0.000000 0.000000
    18 8.842831 0.000000 -0.000001 -0.560184 0.289569 -1.103676
    19 9.341934 0.000000 -0.000002 0.000000 0.000000 -0.984950
    20 9.664096 0.000000 0.000003 -1.569555 0.349021 0.000000
    21 8.842831 0.000000 0.000001 0.420229 -0.040314 -1.151603
    22 9.341934 0.000000 -0.000001 0.000000 0.000000 -0.758198
    23 9.664095 0.000000 -0.000002 1.569555 -0.261799 0.000000
    24 6.829857 -0.000001 0.000000 0.001241 0.000000 0.000000
    25 0.021231 -0.065060 1.351066 0.024842 0.006382 -0.003186
    26 1.089796 -0.106998 1.928624 -1.335374 -0.038786 1.563732
    27 -2.120019 0.552893 1.060325 0.522049 -2.764527 -1.418481
  time 4
    0 -0.315191 3.617298 21.529656 0.000000 0.348880 -1.570834
    1 -2.174529 0.000001 9.745319 -1.570795 -1.570451 0.000000
    2 -0.000008 0.000010 5.615750 0.000001 3.141591 -1.260613
    3 15.693467 0.000000 0.000000 0.000000 0.000000 -1.486535
    4 22.146629 -0.000001 0.000000 0.000000 0.000000 0.574798
    5 0.000008 -0.000006 -5.615750 0.000001 3.141591 -1.260627
    6 15.693467 0.000000 0.000000 0.000000 0.000000 -1.486533
    7 22.146629 0.000000 0.000000 0.000000 0.000000 0.574802
    8 1.384163 -0.004728 0.000002 -0.000004 -0.000001 0.000796
    9 5.939814 -0.004730 0.000000 0.000000 0.000000 0.188296
    10 5.939809 -0.003975 0.000000 0.000000 0.000000 0.231080
    11 4.991439 -0.003975 0.000000 0.000000 0.000000 0.000000
    12 4.991436 -0.001575 0.000000 0.000000 0.000000 0.000000
    13 0.000005 0.001564 3.638375 0.909056 -1.122648 2.282718
    14 0.000005 0.001585 -3.638375 -0.460252 1.252282 2.700816
    15 1.977383 0.000000 0.000000 0.000000 0.000000 -0.368193
    16 3.723980 2.768055 -0.395205 0.000000 -3.141591 -1.570795
    17 2.863741 -0.721077 0.000003 0.000000 0.000000 0.000000
    18 8.842831 0.000000 -0.000001 -0.571465 0.161095 -1.141886
    19 9.341934 0.000000 -0.000002 0.000000 0.000000 -0.984950
    20 9.664096 0.000000 0.000003 -1.569555 0.349021 0.000000
    21 8.842831 0.000000 0.000001 0.452622 0.083871 -1.188441
    22 9.341934 0.000000 -0.000001 0.000000 0.000000 -0.758198
    23 9.664095 0.000000 -0.000002 1.569555 -0.261799 0.000000
    24 6.829857 -0.000001 0.000000 0.001241 0.000000 0.000000
    25 0.021231 -0.065060 1.351066 0.024842 0.006382 -0.003186
    26 1.089796 -0.106998 1.928624 -1.335374 -0.038786 1.563732
    27 -2.120019 0.552893 1.060325 0.522049 -2.764527 -1.418481
  time 5
    0 -0.315191 3.382916 20.201490 0.000000 0.348880 -1.570834
    1 -2.627668 0.000001 9.745319 -1.570795 -1.570451 0.000000
    2 -0.000008 0.000010 5.615750 0.000001 3.141591 -1.318998
    3 15.693467 0.000000 0.000000 0.000000 0.000000 -1.580128
    4 22.146629 -0.000001 0.000000 0.000000 0.000000 0.610029
    5 0.000008 -0.000006 -5.615750 0.000001 3.141591 -1.318972
    6 15.693467 0.000000 0.000000 0.000000 0.000000 -1.580158
    7 22.146629 0.000000 0.000000 0.000000 0.000000 0.610037
    8 1.384163 -0.004728 0.000002 -0.000004 -0.000001 0.000796
    9 5.939814 -0.004730 0.000000 0.000000 0.000000 0.244209
    10 5.939809 -0.003975 0.000000 0.000000 0.000000 0.296554
    11 4.991439 -0.003975 0.000000 0.000000 0.000000 0.000000
    12 4.991436 -0.001575 0.000000 0.000000 0.000000 0.000000
    13 0.000005 0.001564 3.638375 0.909056 -1.122648 2.282718
    14 0.000005 0.001585 -3.638375 -0.460252 1.252282 2.700816
    15 1.977383 0.000000 0.000000 0.000000 0.000000 -0.419457
    16 3.723980 2.768055 -0.395205 0.000000 -3.141591 -1.570795
    17 2.863741 -0.721077 0.000003 0.000000 0.000000 0.000000
    18 8.842831 0.000000 -0.000001 -0.577330 0.044275 -1.174860
    19 9.341934 0.000000 -0.000002 0.000000 0.000000 -0.984950
    20 9.664096 0.000000 0.000003 -1.569555 0.349021 0.000000
    21 8.842831 0.000000 0.000001 0.478492 0.197526 -1.218894
    22 9.341934 0.000000 -0.000001 0.000000 0.000000 -0.758198
    23 9.664095 0.000000 -0.000002 1.569555 -0.261799 0.000000
    24 6.829857 -0.000001 0.000000 0.001241 0.000000 0.000000
    25 0.021231 -0.065060 1.351066 0.024842 0.006382 -0.003186
    26 1.089796 -0.106998 1.928624 -1.335374 -0.038786 1.563732
    27 -2.120019 0.552893 1.060325 0.522049 -2.764527 -1.418481
  time 6
    0 -0.315191 3.382916 20.709318 0.000000 0.348880 -1.570834
    1 -1.135435 0.000001 9.745319 -1.570795 -1.570451 0.000000
    2 -0.000008 0.000010 5.615750 0.000001 3.141591 -1.303479
    3 15.693467 0.000000 0.000000 0.000000 0.000000 -1.580196
    4 22.146629 -0.000001 0.000000 0.000000 0.000000 0.625585
    5 0.000008 -0.000006 -5.615750 0.000001 3.141591 -1.303444
    6 15.693467 0.000000 0.000000 0.000000 0.000000 -1.580158
    7 22.146629 0.000000 0.000000 0.000000 0.000000 0.625543
    8 1.384163 -0.004728 0.000002 -0.000004 -0.000001 -0.105956
    9 5.939814 -0.004730 0.000000 0.000000 0.000000 0.201873
    10 5.939809 -0.003975 0.000000 0.000000 0.000000 0.211873
    11 4.991439 -0.003975 0.000000 0.000000 0.000000 -0.038440
    12 4.991436 -0.001575 0.000000 0.000000 0.000000 0.000000
    13 0.000005 0.001564 3.638375 0.909056 -1.122648 2.282718
    14 0.000005 0.001585 -3.638375 -0.460252 1.252282 2.700816
    15 1.977383 0.000000 0.000000 0.000000 0.000000 -0.226063
    16 3.723980 2.768055 -0.395205 0.000000 -3.141591 -1.570795
    17 2.863741 -0.721077 0.000003 0.000000 0.000000 0.000000
    18 8.842831 0.000000 -0.000001 -0.558323 0.305959 -1.098603
    19 9.341934 0.000000 -0.000002 0.000000 0.000000 -0.984950
    20 9.664096 0.000000 0.000003 -1.569555 0.349021 0.000000
    21 8.842831 0.000000 0.000001 0.415751 -0.056140 -1.146551
    22 9.341934 0.000000 -0.000001 0.000000 0.000000 -0.758198
    23 9.664095 0.000000 -0.000002 1.569555 -0.261799 0.000000
    24 6.829857 -0.000001 0.000000 0.001241 0.000000 0.000000
    25 0.021231 -0.065060 1.351066 0.024842 0.006382 -0.003186
    26 1.089796 -0.106998 1.928624 -1.335374 -0.038786 1.563732
    27 -2.120019 0.552893 1.060325 0.522049 -2.764527 -1.418481
  time 7
    0 -0.315191 3.382916 21.799195 0.000000 0.348880 -1.570834
    1 2.044350 0.000001 9.745319 -1.570795 -1.570451 0.000000
    2 -0.000008 0.000010 5.615750 0.000001 3.141591 -1.269207
    3 15.693467 0.000000 0.000000 0.000000 0.000000 -1.578580
    4 22.146629 -0.000001 0.000000 0.000000 0.000000 0.658267
    5 0.000008 -0.000006 -5.615750 0.000001 3.141591 -1.269180
    6 15.693467 0.000000 0.000000 0.000000 0.000000 -1.578584
    7 22.146629 0.000000 0.000000 0.000000 0.000000 0.658303
    8 1.384163 -0.004728 0.000002 -0.000004 -0.000001 -0.296598
    9 5.939814 -0.004730 0.000000 0.000000 0.000000 0.075571
    10 5.939809 -0.003975 0.000000 0.000000 0.000000 -0.000829
    11 4.991439 -0.003975 0.000000 0.000000 0.000000 -0.107051
    12 4.991436 -0.001575 0.000000 0.000000 0.000000 0.000000
    13 0.000005 0.001564 3.638375 0.909056 -1.122648 2.282718
    14 0.000005 0.001585 -3.638375 -0.460252 1.252282 2.700816
    15 1.977383 0.000000 0.000000 0.000000 0.000000 0.166195
    16 3.723980 2.768055 -0.395205 0.000000 -3.141591 -1.570795
    17 2.863741 -0.721077 0.000003 0.000000 0.000000 0.000000
    18 8.842831 0.000000 -0.000001 -0.397352 0.867112 -0.841850
    19 9.341934 0.000000 -0.000002 0.000000 0.000000 -0.984950
    20 9.664096 0.000000 0.000003 -1.569555 0.349021 0.000000
    21 8.842831 0.000000 0.000001 0.181038 -0.586191 -0.896892
    22 9.341934 0.000000 -0.000001 0.000000 0.000000 -0.758198
    23 9.664095 0.000000 -0.000002 1.569555 -0.261799 0.000000
    24 6.829857 -0.000001 0.000000 0.001241 0.000000 0.000000
    25 0.021231 -0.065060 1.351066 0.024842 0.006382 -0.003186
    26 1.089796 -0.106998 1.928624 -1.335374 -0.038786 1.563732
    27 -2.120019 0.552893 1.060325 0.522049 -2.764527 -1.418481
  time 8
    0 -0.315191 3.382916 22.537499 0.000000 0.348880 -1.570834
    1 4.204572 0.000001 9.745319 -1.570795 -1.570451 0.000000
    2 -0.000008 0.000010 5.615750 0.000001 3.141591 -1.245145
    3 15.693467 0.000000 0.000000 0.000000 0.000000 -1.576223
    4 22.146629 -0.000001 0.000000 0.000000 0.000000 0.679902
    5 0.000008 -0.000006 -5.615750 0.000001 3.141591 -1.245150
    6 15.693467 0.000000 0.000000 0.000000 0.000000 -1.576185
    7 22.146629 0.000000 0.000000 0.000000 0.000000 0.679925
    8 1.384163 -0.004728 0.000002 -0.000004 -0.000001 -0.435303
    9 5.939814 -0.004730 0.000000 0.000000 0.000000 -0.017439
    10 5.939809 -0.003975 0.000000 0.000000 0.000000 -0.156989
    11 4.991439 -0.003975 0.000000 0.000000 0.000000 -0.156988
    12 4.991436 -0.001575 0.000000 0.000000 0.000000 0.000000
    13 0.000005 0.001564 3.638375 0.909056 -1.122648 2.282718
    14 0.000005 0.001585 -3.638375 -0.460252 1.252282 2.700816
    15 1.977383 0.000000 0.000000 0.000000 0.000000 0.452715
    16 3.723980 2.768055 -0.395205 0.000000 -3.141591 -1.570795
    17 2.863741 -0.721077 0.000003 0.000000 0.000000 0.000000
    18 8.842831 0.000000 -0.000001 0.107164 1.213657 -0.279499
    19 9.341934 0.000000 -0.000002 0.000000 0.000000 -0.984950
    20 9.664096 0.000000 0.000003 -1.569555 0.349021 0.000000
    21 8.842831 0.000000 0.000001 -0.196018 -0.906161 -0.511247
    22 9.341934 0.000000 -0.000001 0.000000 0.000000 -0.758198
    23 9.664095 0.000000 -0.000002 1.569555 -0.261799 0.000000
    24 6.829857 -0.000001 0.000000 0.001241 0.000000 0.000000
    25 0.021231 -0.065060 1.351066 0.024842 0.006382 -0.003186
    26 1.089796 -0.106998 1.928624 -1.335374 -0.038786 1.563732
    27 -2.120019 0.552893 1.060325 0.522049 -2.764527 -1.418481
  time 9
    0 -0.315191 3.382916 22.021858 0.036922 0.277749 -1.417527
    1 4.103007 -0.136722 9.745319 -1.570795 -1.570451 0.000000
    2 -0.000008 0.000010 5.615750 0.000001 3.141591 -1.185800
    3 15.693467 0.000000 0.000000 0.000000 0.000000 -1.482428
    4 22.146629 -0.000001 0.000000 0.000000 0.000000 0.543555
    5 0.000008 -0.000006 -5.615750 0.000001 3.141591 -1.219796
    6 15.693467 0.000000 0.000000 0.000000 0.000000 -1.482410
    7 22.146629 0.000000 0.000000 0.000000 0.000000 0.531558
    8 1.384163 -0.004728 0.000002 -0.019920 -0.009254 -0.435188
    9 5.939814 -0.004730 0.000000 -0.037955 -0.000348 -0.010020
    10 5.939809 -0.003975 0.000000 -0.033654 -0.004566 -0.135772
    11 4.991439 -0.003975 0.000000 0.000000 0.000000 -0.129837
    12 4.991436 -0.001575 0.000000 0.000000 0.000000 0.000000
    13 0.000005 0.001564 3.638375 0.909056 -1.122648 2.282718
    14 0.000005 0.001585 -3.638375 -0.460252 1.252282 2.700816
    15 1.977383 0.000000 0.000000 -0.024434 -0.023382 0.441459
    16 3.723980 2.768055 -0.395205 0.000000 -3.141591 -1.570795
    17 2.863741 -0.721077 0.000003 0.000000 0.000000 0.000000
    18 8.842831 0.000000 -0.000001 -0.180768 1.116049 -0.459994
    19 9.341934 0.000000 -0.000002 0.000000 0.000000 -0.984950
    20 9.664096 0.000000 0.000003 -1.569555 0.349021 0.000000
    21 8.842831 0.000000 0.000001 -0.146986 -0.846940 -0.523947
    22 9.341934 0.000000 -0.000001 0.000000 0.000000 -0.743223
    23 9.664095 0.000000 -0.000002 1.569555 -0.261799 0.000000
    24 6.829857 -0.000001 0.000000 0.001241 0.000000 0.000000
    25 0.021231 -0.065060 1.351066 0.024842 0.006382 -0.003186
    26 1.089796 -0.106998 1.928624 -1.335374 -0.038786 1.563732
    27 -2.120019 0.552893 1.060325 0.522049 -2.764527 -1.418481
  time 10
    0 -0.315191 3.382916 21.510124 0.062749 0.197760 -1.261254
    1 3.935033 -0.250007 9.745319 -1.570795 -1.570451 0.000000
    2 -0.000008 0.000010 5.615750 0.000001 3.141591 -1.125343
    3 15.693467 0.000000 0.000000 0.000000 0.000000 -1.384525
    4 22.146629 -0.000001 0.000000 0.000000 0.000000 0.399690
    5 0.000008 -0.000006 -5.615750 0.000001 3.141591 -1.194799
    6 15.693467 0.000000 0.000000 0.000000 0.000000 -1.384513
    7 22.146629 0.000000 0.000000 0.000000 0.000000 0.375111
    8 1.384163 -0.004728 0.000002 -0.040763 -0.018937 -0.434920
    9 5.939814 -0.004730 0.000000 -0.077624 0.000324 0.003480
    10 5.939809 -0.003975 0.000000 -0.069088 -0.007143 -0.103675
    11 4.991439 -0.003975 0.000000 0.000000 0.000000 -0.098334
    12 4.991436 -0.001575 0.000000 0.000000 0.000000 0.000000
    13 0.000005 0.001564 3.638375 0.909056 -1.122648 2.282718
    14 0.000005 0.001585 -3.638375 -0.460252 1.252282 2.700816
    15 1.977383 0.000000 0.000000 -0.049008 -0.049964 0.412210
    16 3.723980 2.768055 -0.395205 0.000000 -3.141591 -1.570795
    17 2.863741 -0.721077 0.000003 0.000000 0.000000 0.000000
    18 8.842831 0.000000 -0.000001 -0.414554 0.982020 -0.582480
    19 9.341934 0.000000 -0.000002 0.000000 0.000000 -0.984950
    20 9.664096 0.000000 0.000003 -1.569555 0.349021 0.000000
    21 8.842831 0.000000 0.000001 -0.076837 -0.776297 -0.554961
    22 9.341934 0.000000 -0.000001 0.000000 0.000000 -0.727891
    23 9.664095 0.000000 -0.000002 1.569555 -0.261799 0.000000
    24 6.829857 -0.000001 0.000000 0.001241 0.000000 0.000000
    25 0.021231 -0.065060 1.351066 0.024842 0.006382 -0.003186
    26 1.089796 -0.106998 1.928624 -1.335374 -0.038786 1.563732
    27 -2.120019 0.552893 1.060325 0.522049 -2.764527 -1.418481
  time 11
    0 -0.428475 2.660237 21.045266 0.075709 0.111517 -1.103261
    1 3.794403 -0.308602 9.745319 -1.570795 -1.570451 0.000000
    2 -0.000008 0.000010 5.615750 0.000001 3.141591 -1.074946
    3 15.693467 0.000000 0.000000 0.000000 0.000000 -1.302850
    4 22.146629 -0.000001 0.000000 0.000000 0.000000 0.279553
    5 0.000008 -0.000006 -5.615750 0.000001 3.141591 -1.174027
    6 15.693467 0.000000 0.000000 0.000000 0.000000 -1.302882
    7 22.146629 0.000000 0.000000 0.000000 0.000000 0.244581
    8 1.384163 -0.004728 0.000002 -0.058132 -0.027007 -0.434498
    9 5.939814 -0.004730 0.000000 -0.110678 0.002864 0.014896
    10 5.939809 -0.003975 0.000000 -0.098902 -0.005201 -0.076704
    11 4.991439 -0.003975 0.000000 0.000000 0.000000 -0.071871
    12 4.991436 -0.001575 0.000000 0.000000 0.000000 0.000000
    13 0.000005 0.001564 3.638375 0.909056 -1.122648 2.282718
    14 0.000005 0.001585 -3.638375 -0.460252 1.252282 2.700816
    15 1.977383 0.000000 0.000000 -0.094695 -0.080503 0.398151
    16 3.723980 2.768055 -0.395205 0.000000 -3.141591 -1.570795
    17 2.863741 -0.721077 0.000003 0.000000 0.000000 0.000000
    18 8.842831 0.000000 -0.000001 -0.586185 0.851269 -0.652354
    19 9.341934 0.000000 -0.000002 0.000000 0.000000 -0.984950
    20 9.664096 0.000000 0.000003 -1.569555 0.349021 0.000000
    21 8.842831 0.000000 0.000001 -0.022001 -0.704951 -0.550190
    22 9.341934 0.000000 -0.000001 0.000000 0.000000 -0.712321
    23 9.664095 0.000000 -0.000002 1.569555 -0.261799 0.000000
    24 6.829857 -0.000001 0.000000 0.001241 0.000000 0.000000
    25 0.021231 -0.065060 1.351066 0.024842 0.006382 -0.003186
    26 1.089796 -0.106998 1.928624 -1.335374 -0.038786 1.563732
    27 -2.120019 0.552893 1.060325 0.522049 -2.764527 -1.418481
  time 12
    0 -0.545666 1.910215 20.650723 0.074683 0.022408 -0.943737
    1 3.657680 -0.351572 9.745319 -1.570795 -1.570787 0.000000
    2 -0.000008 0.000010 5.615750 0.000001 3.141591 -1.023587
    3 15.693467 0.000000 0.000000 0.000000 0.000000 -1.219694
    4 22.146629 -0.000001 0.000000 0.000000 0.000000 0.157193
    5 0.000008 -0.000006 -5.615750 0.000001 3.141591 -1.152848
    6 15.693467 0.000000 0.000000 0.000000 0.000000 -1.219677
    7 22.146629 0.000000 0.000000 0.000000 0.000000 0.111575
    8 1.384163 -0.004728 0.000002 -0.075861 -0.035220 -0.433961
    9 5.939814 -0.004730 0.000000 -0.144342 0.005513 0.024687
    10 5.939809 -0.003975 0.000000 -0.129220 -0.002193 -0.049294
    11 4.991439 -0.003975 0.000000 0.000000 0.000000 -0.044914
    12 4.991436 -0.001575 0.000000 0.000000 0.000000 0.000000
    13 0.000005 0.001564 3.638375 0.909056 -1.122648 2.282718
    14 0.000005 0.001585 -3.638375 -0.460252 1.252282 2.700816
    15 1.977383 0.000000 0.000000 -0.143003 -0.111909 0.386894
    16 3.723980 2.768055 -0.395205 0.000000 -3.141591 -1.570795
    17 2.863741 -0.721077 0.000003 0.000000 0.000000 0.000000
    18 8.842831 0.000000 -0.000001 -0.725160 0.712961 -0.684019
    19 9.341934 0.000000 -0.000002 0.000000 0.000000 -0.984950
    20 9.664096 0.000000 0.000003 -1.569555 0.349021 0.000000
    21 8.842831 0.000000 0.000001 0.034881 -0.636988 -0.541489
    22 9.341934 0.000000 -0.000001 0.000000 0.000000 -0.696394
    23 9.664095 0.000000 -0.000002 1.569555 -0.261799 0.000000
    24 6.829857 -0.000001 0.000000 0.001241 0.000000 0.000000
    25 0.021231 -0.065060 1.351066 0.024842 0.006382 -0.003186
    26 1.089796 -0.106998 1.928624 -1.335374 -0.038786 1.563732
    27 -2.120019 0.552893 1.060325 0.522049 -2.764527 -1.418481
  time 13
    0 -0.662857 1.140660 20.342120 0.059299 -0.065920 -0.782682
    1 3.524864 -0.382823 9.745319 -1.570795 -1.570451 0.000000
    2 -0.000008 0.000010 5.615750 0.000001 3.141591 -0.972078
    3 15.693467 0.000000 0.000000 0.000000 0.000000 -1.136133
    4 22.146629 -0.000001 0.000000 0.000000 0.000000 0.034375
    5 0.000008 -0.000006 -5.615750 0.000001 3.141591 -1.131618
    6 15.693467 0.000000 0.000000 0.000000 0.000000 -1.136172
    7 22.146629 0.000000 0.000000 0.000000 0.000000 -0.021940
    8 1.384163 -0.004728 0.000002 -0.093641 -0.043469 -0.433270
    9 5.939814 -0.004730 0.000000 -0.178115 0.008389 0.033770
    10 5.939809 -0.003975 0.000000 -0.159552 0.001798 -0.021883
    11 4.991439 -0.003975 0.000000 0.000000 0.000000 -0.017837
    12 4.991436 -0.001575 0.000000 0.000000 0.000000 0.000000
    13 0.000005 0.001564 3.638375 0.909056 -1.122648 2.282718
    14 0.000005 0.001585 -3.638375 -0.460252 1.252282 2.700816
    15 1.977383 0.000000 0.000000 -0.195087 -0.143781 0.377763
    16 3.723980 2.768055 -0.395205 0.000000 -3.141591 -1.570795
    17 2.863741 -0.721077 0.000003 0.000000 0.000000 0.000000
    18 8.842831 0.000000 -0.000001 -0.844337 0.571193 -0.690073
    19 9.341934 0.000000 -0.000002 0.000000 0.000000 -0.984950
    20 9.664096 0.000000 0.000003 -1.569555 0.349021 0.000000
    21 8.842831 0.000000 0.000001 0.094582 -0.572789 -0.528508
    22 9.341934 0.000000 -0.000001 0.000000 0.000000 -0.680349
    23 9.664095 0.000000 -0.000002 1.569555 -0.261799 0.000000
    24 6.829857 -0.000001 0.000000 0.001241 0.000000 0.000000
    25 0.021231 -0.065060 1.351066 0.024842 0.006382 -0.003186
    26 1.089796 -0.106998 1.928624 -1.335374 -0.038786 1.563732
    27 -2.120019 0.552893 1.060325 0.522049 -2.764527 -1.418481
  time 14
    0 -0.783955 0.355480 20.131176 0.029929 -0.150078 -0.619907
    1 3.392047 -0.390636 9.745319 -1.570795 -1.570787 0.000000
    2 -0.000008 0.000010 5.615750 0.000001 3.141591 -0.921174
    3 15.693467 0.000000 0.000000 0.000000 0.000000 -1.053583
    4 22.146629 -0.000001 0.000000 0.000000 0.000000 -0.087069
    5 0.000008 -0.000006 -5.615750 0.000001 3.141591 -1.110642
    6 15.693467 0.000000 0.000000 0.000000 0.000000 -1.053641
    7 22.146629 0.000000 0.000000 0.000000 0.000000 -0.153926
    8 1.384163 -0.004728 0.000002 -0.111267 -0.051592 -0.432426
    9 5.939814 -0.004730 0.000000 -0.211456 0.011697 0.043006
    10 5.939809 -0.003975 0.000000 -0.189436 0.006663 0.005075
    11 4.991439 -0.003975 0.000000 0.000000 0.000000 0.008911
    12 4.991436 -0.001575 0.000000 0.000000 0.000000 0.000000
    13 0.000005 0.001564 3.638375 0.909056 -1.122648 2.282718
    14 0.000005 0.001585 -3.638375 -0.460252 1.252282 2.700816
    15 1.977383 0.000000 0.000000 -0.251960 -0.175275 0.370077
    16 3.723980 2.768055 -0.395205 0.000000 -3.141591 -1.570795
    17 2.863741 -0.721077 0.000003 0.000000 0.000000 0.000000
    18 8.842831 0.000000 -0.000001 -0.951501 0.429607 -0.677800
    19 9.341934 0.000000 -0.000002 0.000000 0.000000 -0.984950
    20 9.664096 0.000000 0.000003 -1.569555 0.349021 0.000000
    21 8.842831 0.000000 0.000001 0.157876 -0.512739 -0.511106
    22 9.341934 0.000000 -0.000001 0.000000 0.000000 -0.664066
    23 9.664095 0.000000 -0.000002 1.569555 -0.261799 0.000000
    24 6.829857 -0.000001 0.000000 0.001241 0.000000 0.000000
    25 0.021231 -0.065060 1.351066 0.024842 0.006382 -0.003186
    26 1.089796 -0.106998 1.928624 -1.335374 -0.038786 1.563732
    27 -2.120019 0.552893 1.060325 0.522049 -2.764527 -1.418481
  time 15
    0 -0.908959 -0.437513 20.025704 -0.012214 -0.226768 -0.455888
    1 3.263137 -0.382823 9.745319 -1.570795 -1.570451 0.000000
    2 -0.000008 0.000010 5.615750 0.000001 3.141591 -0.871585
    3 15.693467 0.000000 0.000000 0.000000 0.000000 -0.973322
    4 22.146629 -0.000001 0.000000 0.000000 0.000000 -0.205181
    5 0.000008 -0.000006 -5.615750 0.000001 3.141591 -1.090227
    6 15.693467 0.000000 0.000000 0.000000 0.000000 -0.973284
    7 22.146629 0.000000 0.000000 0.000000 0.000000 -0.282346
    8 1.384163 -0.004728 0.000002 -0.128405 -0.059482 -0.431467
    9 5.939814 -0.004730 0.000000 -0.243838 0.015640 0.053274
    10 5.939809 -0.003975 0.000000 -0.218366 0.012236 0.031167
    11 4.991439 -0.003975 0.000000 0.000000 0.000000 0.034956
    12 4.991436 -0.001575 0.000000 0.000000 0.000000 0.000000
    13 0.000005 0.001564 3.638375 0.909056 -1.122648 2.282718
    14 0.000005 0.001585 -3.638375 -0.460252 1.252282 2.700816
    15 1.977383 0.000000 0.000000 -0.314390 -0.205170 0.363342
    16 3.723980 2.768055 -0.395205 0.000000 -3.141591 -1.570795
    17 2.863741 -0.721077 0.000003 0.000000 0.000000 0.000000
    18 8.842831 0.000000 -0.000001 -1.051501 0.291026 -0.651700
    19 9.341934 0.000000 -0.000002 0.000000 0.000000 -0.984950
    20 9.664096 0.000000 0.000003 -1.569555 0.349021 0.000000
    21 8.842831 0.000000 0.000001 0.225371 -0.457667 -0.488933
    22 9.341934 0.000000 -0.000001 0.000000 0.000000 -0.647723
    23 9.664095 0.000000 -0.000002 1.569555 -0.261799 0.000000
    24 6.829857 -0.000001 0.000000 0.001241 0.000000 0.000000
    25 0.021231 -0.065060 1.351066 0.024842 0.006382 -0.003186
    26 1.089796 -0.106998 1.928624 -1.335374 -0.038786 1.563732
    27 -2.120019 0.552893 1.060325 0.522049 -2.764527 -1.418481
  time 16
    0 -1.033963 -1.238319 20.021797 -0.065546 -0.293035 -0.291869
    1 3.130321 -0.355479 9.745319 -1.570795 -1.570787 0.000000
    2 -0.000008 0.000010 5.615750 0.000001 3.141591 -0.824221
    3 15.693467 0.000000 0.000000 0.000000 0.000000 -0.896495
    4 22.146629 -0.000001 0.000000 0.000000 0.000000 -0.318194
    5 0.000008 -0.000006 -5.615750 0.000001 3.141591 -1.070677
    6 15.693467 0.000000 0.000000 0.000000 0.000000 -0.896450
    7 22.146629 0.000000 0.000000 0.000000 0.000000 -0.405159
    8 1.384163 -0.004728 0.000002 -0.144821 -0.067014 -0.430432
    9 5.939814 -0.004730 0.000000 -0.274723 0.020518 0.065474
    10 5.939809 -0.003975 0.000000 -0.245895 0.018288 0.055952
    11 4.991439 -0.003975 0.000000 0.000000 0.000000 0.059880
    12 4.991436 -0.001575 0.000000 0.000000 0.000000 0.000000
    13 0.000005 0.001564 3.638375 0.909056 -1.122648 2.282718
    14 0.000005 0.001585 -3.638375 -0.460252 1.252282 2.700816
    15 1.977383 0.000000 0.000000 -0.382903 -0.231952 0.356968
    16 3.723980 2.768055 -0.395205 0.000000 -3.141591 -1.570795
    17 2.863741 -0.721077 0.000003 0.000000 0.000000 0.000000
    18 8.842831 0.000000 -0.000001 -1.147385 0.157908 -0.614635
    19 9.341934 0.000000 -0.000002 0.000000 0.000000 -0.984950
    20 9.664096 0.000000 0.000003 -1.569555 0.349021 0.000000
    21 8.842831 0.000000 0.000001 0.297897 -0.408784 -0.461848
    22 9.341934 0.000000 -0.000001 0.000000 0.000000 -0.631381
    23 9.664095 0.000000 -0.000002 1.569555 -0.261799 0.000000
    24 6.829857 -0.000001 0.000000 0.001241 0.000000 0.000000
    25 0.021231 -0.065060 1.351066 0.024842 0.006382 -0.003186
    26 1.089796 -0.106998 1.928624 -1.335374 -0.038786 1.563732
    27 -2.120019 0.552893 1.060325 0.522049 -2.764527 -1.418481
  time 17
    0 -1.158966 -2.043031 20.111644 -0.126989 -0.346970 -0.130432
    1 2.993598 -0.308602 9.745319 -1.570795 -1.570451 0.000000
    2 -0.000008 0.000010 5.615750 0.000001 3.141591 -0.779737
    3 15.693467 0.000000 0.000000 0.000000 0.000000 -0.824381
    4 22.146629 -0.000001 0.000000 0.000000 0.000000 -0.424213
    5 0.000008 -0.000006 -5.615750 0.000001 3.141591 -1.052349
    6 15.693467 0.000000 0.000000 0.000000 0.000000 -0.824414
    7 22.146629 0.000000 0.000000 0.000000 0.000000 -0.520402
    8 1.384163 -0.004728 0.000002 -0.160235 -0.074061 -0.429358
    9 5.939814 -0.004730 0.000000 -0.303558 0.026606 0.080409
    10 5.939809 -0.003975 0.000000 -0.271587 0.024556 0.079054
    11 4.991439 -0.003975 0.000000 0.000000 0.000000 0.083248
    12 4.991436 -0.001575 0.000000 0.000000 0.000000 0.000000
    13 0.000005 0.001564 3.638375 0.909056 -1.122648 2.282718
    14 0.000005 0.001585 -3.638375 -0.460252 1.252282 2.700816
    15 1.977383 0.000000 0.000000 -0.457638 -0.253845 0.350413
    16 3.723980 2.768055 -0.395205 0.000000 -3.141591 -1.570795
    17 2.863741 -0.721077 0.000003 0.000000 0.000000 0.000000
    18 8.842831 0.000000 -0.000001 -1.240956 0.032347 -0.568816
    19 9.341934 0.000000 -0.000002 0.000000 0.000000 -0.984950
    20 9.664096 0.000000 0.000003 -1.569555 0.349021 0.000000
    21 8.842831 0.000000 0.000001 0.376006 -0.367495 -0.429781
    22 9.341934 0.000000 -0.000001 0.000000 0.000000 -0.614979
    23 9.664095 0.000000 -0.000002 1.569555 -0.261799 0.000000
    24 6.829857 -0.000001 0.000000 0.001241 0.000000 0.000000
    25 0.021231 -0.065060 1.351066 0.024842 0.006382 -0.003186
    26 1.089796 -0.106998 1.928624 -1.335374 -0.038786 1.563732
    27 -2.120019 0.552893 1.060325 0.522049 -2.764527 -1.418481
  time 18
    0 -1.283970 -2.847743 20.279618 -0.192535 -0.387876 -6.258240
    1 2.852968 -0.238288 9.745319 -1.570795 -1.570787 0.000000
    2 -0.000008 0.000010 5.615750 0.000001 3.141591 -0.738994
    3 15.693467 0.000000 0.000000 0.000000 0.000000 -0.758394
    4 22.146629 -0.000001 0.000000 0.000000 0.000000 -0.521408
    5 0.000008 -0.000006 -5.615750 0.000001 3.141591 -1.035548
    6 15.693467 0.000000 0.000000 0.000000 0.000000 -0.758375
    7 22.146629 0.000000 0.000000 0.000000 0.000000 -0.626035
    8 1.384163 -0.004728 0.000002 -0.174361 -0.080499 -0.428245
    9 5.939814 -0.004730 0.000000 -0.329732 0.034252 0.098957
    10 5.939809 -0.003975 0.000000 -0.294995 0.030764 0.100083
    11 4.991439 -0.003975 0.000000 0.000000 0.000000 0.104659
    12 4.991436 -0.001575 0.000000 0.000000 0.000000 0.000000
    13 0.000005 0.001564 3.638375 0.909056 -1.122648 2.282718
    14 0.000005 0.001585 -3.638375 -0.460252 1.252282 2.700816
    15 1.977383 0.000000 0.000000 -0.538421 -0.268981 0.343180
    16 3.723980 2.768055 -0.395205 0.000000 -3.141591 -1.570795
    17 2.863741 -0.721077 0.000003 0.000000 0.000000 0.000000
    18 8.842831 0.000000 -0.000001 -1.333229 -0.084199 -0.516287
    19 9.341934 0.000000 -0.000002 0.000000 0.000000 -0.984950
    20 9.664096 0.000000 0.000003 -1.569555 0.349021 0.000000
    21 8.842831 0.000000 0.000001 0.460029 -0.335524 -0.392662
    22 9.341934 0.000000 -0.000001 0.000000 0.000000 -0.598637
    23 9.664095 0.000000 -0.000002 1.569555 -0.261799 0.000000
    24 6.829857 -0.000001 0.000000 0.001241 0.000000 0.000000
    25 0.021231 -0.065060 1.351066 0.024842 0.006382 -0.003186
    26 1.089796 -0.106998 1.928624 -1.335374 -0.038786 1.563732
    27 -2.120019 0.552893 1.060325 0.522049 -2.764527 -1.418481
  time 19
    0 -1.408974 -3.648549 20.443685 -0.209224 -0.396127 -6.220463
    1 2.595148 -0.089845 9.745319 -1.570795 -1.570451 0.000000
    2 -0.000008 0.000010 5.615750 0.000001 3.141591 -0.729340
    3 15.693467 0.000000 0.000000 0.000000 0.000000 -0.742706
    4 22.146629 -0.000001 0.000000 0.000000 0.000000 -0.544416
    5 0.000008 -0.000006 -5.615750 0.000001 3.141591 -1.031577
    6 15.693467 0.000000 0.000000 0.000000 0.000000 -0.742708
    7 22.146629 0.000000 0.000000 0.000000 0.000000 -0.651078
    8 1.384163 -0.004728 0.000002 -0.177706 -0.082023 -0.427977
    9 5.939814 -0.004730 0.000000 -0.333999 0.051318 0.147451
    10 5.939809 -0.003975 0.000000 -0.300532 0.032286 0.105057
    11 4.991439 -0.003975 0.000000 0.000000 0.000000 0.109727
    12 4.991436 -0.001575 0.000000 0.000000 0.000000 0.000000
    13 0.000005 0.001564 3.638375 0.909056 -1.122648 2.282718
    14 0.000005 0.001585 -3.638375 -0.460252 1.252282 2.700816
    15 1.977383 0.000000 0.000000 -0.658633 -0.247710 0.344717
    16 3.723980 2.768055 -0.395205 0.000000 -3.141591 -1.570795
    17 2.863741 -0.721077 0.000003 0.000000 0.000000 0.000000
    18 8.842831 0.000000 -0.000001 -1.374459 -0.153308 -0.507205
    19 9.341934 0.000000 -0.000002 0.000000 0.000000 -0.984950
    20 9.664096 0.000000 0.000003 -1.569555 0.349021 0.000000
    21 8.842831 0.000000 0.000001 0.567436 -0.325313 -0.318073
    22 9.341934 0.000000 -0.000001 0.000000 0.000000 -0.582413
    23 9.664095 0.000000 -0.000002 1.569555 -0.261799 0.000000
    24 6.829857 -0.000001 0.000000 0.001241 0.000000 0.000000
    25 0.021231 -0.065060 1.351066 0.024842 0.006382 -0.003186
    26 1.089796 -0.106998 1.928624 -1.335374 -0.038786 1.563732
    27 -2.120019 0.552893 1.060325 0.522049 -2.764527 -1.418481
  time 20
    0 -1.530071 -4.437635 20.564783 -0.192535 -0.387876 -6.258240
    1 2.255294 0.097660 9.745319 -1.570795 -1.570787 0.000000
    2 -0.000008 0.000010 5.615750 0.000001 3.141591 -0.738994
    3 15.693467 0.000000 0.000000 0.000000 0.000000 -0.758394
    4 22.146629 -0.000001 0.000000 0.000000 0.000000 -0.521408
    5 0.000008 -0.000006 -5.615750 0.000001 3.141591 -1.035548
    6 15.693467 0.000000 0.000000 0.000000 0.000000 -0.758375
    7 22.146629 0.000000 0.000000 0.000000 0.000000 -0.626035
    8 1.384163 -0.004728 0.000002 -0.174361 -0.080499 -0.428245
    9 5.939814 -0.004730 0.000000 -0.323488 0.073478 0.214780
    10 5.939809 -0.003975 0.000000 -0.294995 0.030764 0.100083
    11 4.991439 -0.003975 0.000000 0.000000 0.000000 0.104659
    12 4.991436 -0.001575 0.000000 0.000000 0.000000 0.000000
    13 0.000005 0.001564 3.638375 0.909056 -1.122648 2.282718
    14 0.000005 0.001585 -3.638375 -0.460252 1.252282 2.700816
    15 1.977383 0.000000 0.000000 -0.799189 -0.198635 0.347836
    16 3.723980 2.768055 -0.395205 0.000000 -3.141591 -1.570795
    17 2.863741 -0.721077 0.000003 0.000000 0.000000 0.000000
    18 8.842831 0.000000 -0.000001 -1.380381 -0.195101 -0.530360
    19 9.341934 0.000000 -0.000002 0.000000 0.000000 -0.984950
    20 9.664096 0.000000 0.000003 -1.569555 0.349021 0.000000
    21 8.842831 0.000000 0.000001 0.687667 -0.340757 -0.222293
    22 9.341934 0.000000 -0.000001 0.000000 0.000000 -0.566308
    23 9.664095 0.000000 -0.000002 1.569555 -0.261799 0.000000
    24 6.829857 -0.000001 0.000000 0.001241 0.000000 0.000000
    25 0.021231 -0.065060 1.351066 0.024842 0.006382 -0.003186
    26 1.089796 -0.106998 1.928624 -1.335374 -0.038786 1.563732
    27 -2.120019 0.552893 1.060325 0.522049 -2.764527 -1.418481
end
