"Resource\OptionsSubAdvanced.res"
{
	"ContentlockButton"
	{
		"visible"		"0"
		"enabled"		"0"
	}
	"ContentlockLabel"
	{
		"ControlName"		"Label"
		"fieldName"		"ContentlockLabel"
		"xpos"		"72"
		"ypos"		"34"
		"wide"		"320"
		"tall"		"80"
		"autoResize"		"0"
		"pinCorner"		"0"
		"visible"		"1"
		"enabled"		"1"
		"tabPosition"		"0"
		"labelText"		"#Knockout_CreditsAndThanks"
		"textAlignment"		"west"
		"dulltext"		"1"
		"wrap"		"1"
		"brighttext"		"0"
	}
}
