"Resource\OptionsSubVideo.res"
{
	"Brightness"
	{
		"ControlName"		"CCvarSlider"
		"fieldName"		"Brightness"
		"xpos"		"40"
		"ypos"		"227"
		"wide"		"160"
		"tall"		"50"
		"autoResize"		"0"
		"pinCorner"		"0"
		"visible"		"1"
		"enabled"		"1"
		"tabPosition"		"6"
		"leftText"		"#GameUI_DARK"
		"rightText"		"#GameUI_LIGHT"
	}
	"Gamma"
	{
		"ControlName"		"CCvarSlider"
		"fieldName"		"Gamma"
		"xpos"		"248"
		"ypos"		"227"
		"wide"		"160"
		"tall"		"50"
		"autoResize"		"0"
		"pinCorner"		"0"
		"visible"		"1"
		"enabled"		"1"
		"tabPosition"		"7"
		"leftText"		"#GameUI_LOW"
		"rightText"		"#GameUI_HIGH"
	}
	"Resolution"
	{
		"ControlName"		"ComboBox"
		"fieldName"		"Resolution"
		"xpos"		"40"
		"ypos"		"105"
		"wide"		"160"
		"tall"		"24"
		"autoResize"		"0"
		"pinCorner"		"0"
		"visible"		"1"
		"enabled"		"1"
		"tabPosition"		"2"
		"textHidden"		"0"
		"editable"		"0"
		"maxchars"		"-1"
	}
	"AspectRatio"
	{
		"ControlName"		"ComboBox"
		"fieldName"		"AspectRatio"
		"xpos"		"40"
		"ypos"		"160"
		"wide"		"160"
		"tall"		"24"
		"autoResize"		"0"
		"pinCorner"		"0"
		"visible"		"1"
		"enabled"		"0"
		"tabPosition"		"3"
		"textHidden"		"0"
		"editable"		"0"
		"maxchars"		"-1"
	}
	"Renderer"
	{
		"ControlName"		"ComboBox"
		"fieldName"		"Renderer"
		"xpos"		"40"
		"ypos"		"52"
		"wide"		"160"
		"tall"		"24"
		"autoResize"		"0"
		"pinCorner"		"0"
		"visible"		"1"
		"enabled"		"1"
		"tabPosition"		"1"
		"textHidden"		"0"
		"editable"		"0"
		"maxchars"		"-1"
	}
	"VSync"
	{
		"ControlName"		"CheckButton"
		"fieldName"		"VSync"
		"xpos"		"248"
		"ypos"		"78"
		"wide"		"280"
		"tall"		"24"
		"autoResize"		"0"
		"pinCorner"		"0"
		"visible"		"1"
		"enabled"		"1"
		"tabPosition"		"4"
		"textHidden"		"0"
	}
	"Windowed"
	{
		"ControlName"		"CheckButton"
		"fieldName"		"Windowed"
		"xpos"		"248"
		"ypos"		"52"
 		"wide"		"200"
		"tall"		"24"
		"autoResize"		"0"
		"pinCorner"		"0"
		"visible"		"1"
		"enabled"		"1"
		"tabPosition"		"5"
		"labelText"		"#GameUI_Windowed"
		"textAlignment"		"west"
		"dulltext"		"0"
		"brighttext"		"0"
		"Default"		"0"
	}
	"brightness label"
	{
		"ControlName"		"Label"
		"fieldName"		"brightness label"
		"xpos"		"40"
		"ypos"		"205"
		"wide"		"140"
		"tall"		"24"
		"autoResize"		"0"
		"pinCorner"		"0"
		"visible"		"1"
		"enabled"		"1"
		"tabPosition"		"0"
		"labelText"		"#GameUI_Brightness"
		"textAlignment"		"west"
		"associate"		"Brightness"
		"dulltext"		"0"
		"brighttext"		"0"
	}
	"Gamma label"
	{
		"ControlName"		"Label"
		"fieldName"		"Gamma label"
		"xpos"		"248"
		"ypos"		"205"
		"wide"		"140"
		"tall"		"24"
		"autoResize"		"0"
		"pinCorner"		"0"
		"visible"		"1"
		"enabled"		"1"
		"tabPosition"		"0"
		"labelText"		"#GameUI_Gamma"
		"textAlignment"		"west"
		"associate"		"Gamma"
		"dulltext"		"0"
		"brighttext"		"0"
	}
	"Label1"
	{
		"ControlName"		"Label"
		"fieldName"		"Label1"
		"xpos"		"40"
		"ypos"		"80"
		"wide"		"160"
		"tall"		"24"
		"autoResize"		"0"
		"pinCorner"		"0"
		"visible"		"1"
		"enabled"		"1"
		"tabPosition"		"0"
		"labelText"		"#GameUI_Resolution"
		"textAlignment"		"west"
		"associate"		"Resolution"
		"dulltext"		"0"
		"brighttext"		"0"
	}
	"Label2"
	{
		"ControlName"		"Label"
		"fieldName"		"Label2"
		"xpos"		"40"
		"ypos"		"28"
		"wide"		"160"
		"tall"		"24"
		"autoResize"		"0"
		"pinCorner"		"0"
		"visible"		"1"
		"enabled"		"1"
		"tabPosition"		"0"
		"labelText"		"#GameUI_Renderer"
		"textAlignment"		"west"
		"associate"		"Renderer"
		"dulltext"		"0"
		"brighttext"		"0"
	}
	"Label4"
	{
		"ControlName"		"Label"
		"fieldName"		"Label4"
		"xpos"		"40"
		"ypos"		"134"
		"wide"		"160"
		"tall"		"24"
		"autoResize"		"0"
		"pinCorner"		"0"
		"visible"		"1"
		"enabled"		"1"
		"tabPosition"		"0"
		"labelText"		"#GameUI_DisplayMode"
		"textAlignment"		"west"
		"associate"		"AspectRatio"
		"dulltext"		"0"
		"brighttext"		"0"
	}
	"Label5"
	{
		"ControlName"		"Label"
		"fieldName"		"Label5"
		"xpos"		"40"
		"ypos"		"265"
		"wide"		"450"
		"tall"		"60"
		"autoResize"		"0"
		"pinCorner"		"0"
		"visible"		"1"
		"enabled"		"1"
		"tabPosition"		"0"
		"labelText"		"#GameUI_VideoRestart"
		"textAlignment"		"west"
		"dulltext"		"1"
		"brighttext"		"0"
		"wrap"			"1"
	}
	"DetailTextures"
	{
		"visible"		"0"
		"enabled"		"0"
	}
	"HDModels"
	{
		"visible"		"0"
		"enabled"		"0"
	}
	"AddonsFolder"
	{
		"ControlName"		"CheckButton"
		"fieldName"		"AddonsFolder"
		"xpos"		"248"
		"ypos"		"128"
		"wide"		"280"
		"tall"		"24"
		"autoResize"		"0"
		"pinCorner"		"0"
		"visible"		"1"
		"enabled"		"1"
		"tabPosition"		"5"
		"labelText"		"#GameUI_AddonsFolder"
		"textAlignment"		"west"
		"dulltext"		"0"
		"brighttext"		"0"
		"Default"		"0"
	}
	"LowVideoDetail"
	{
		"visible"		"0"
		"enabled"		"0"
	}
}
