versioninfo
{
	"editorname" "J.A.C.K. 1.1.2800"
	"editorversion" "400"
	"editorbuild" "2959"
	"mapversion" "1"
	"formatversion" "100"
	"prefab" "0"
}
viewsettings
{
	"bSnapToGrid" "1"
	"bShowGrid" "1"
	"bShow3DGrid" "0"
	"nGridSpacing" "8"
	"bIgnoreGrouping" "0"
}
world
{
	"id" "0"
	"mapversion" "1"
	"classname" "worldspawn"
	"_generator" "J.A.C.K. 1.1.2800 (vpHalfLife)"
	"LeapingJump" "0"
	"NoJump" "0"
	"Tripmine_Flip" "1"
	"Sporelauncher_Flip" "1"
	"Sniper_Flip" "1"
	"Snark_Flip" "1"
	"Shotgun_Flip" "1"
	"Shockroach_Flip" "1"
	"Satchel_FlipRadio" "1"
	"Satchel_Flip" "1"
	"RPG_Flip" "1"
	"Pipewrench_Flip" "1"
	"Penguin_Flip" "1"
	"M249_Flip" "1"
	"Knife_Flip" "1"
	"Hivehand_Flip" "1"
	"Grapple_Flip" "1"
	"Gauss_Flip" "1"
	"HandGrenade_Flip" "1"
	"Egon_Flip" "1"
	"Eagle_Flip" "1"
	"XenGravity" "0.6"
	"XenReturn" "1"
	"Displacer_Flip" "1"
	"Crowbar_Flip" "1"
	"Crossbow_Flip" "1"
	"RevolverIsMP" "0"
	"357_Flip" "1"
	"Glock_Flip" "1"
	"MP5_Flip" "1"
	"CrosshairColor" "0"
	"PlayerHudColor" "255 255 255"
	"HudColor" "0"
	"JumpSound" "player/plyrjmp8.wav"
	"PlayJumpSound" "0"
	"CSPainSounds" "1"
	"FlashlightType" "0"
	"PowerupTimerCombine" "0"
	"SlimeDamage" "4"
	"LavaDamage" "10"
	"StripKeycards" "0"
	"IsKnockoutCollab" "0"
	"timed_damage" "1"
	"defaultteam" "0"
	"newunit" "0"
	"gametitle" "0"
	"startdark" "0"
	"MaxRange" "4096"
	"WaveHeight" "0.0"
	"sounds" "1"
	"MP5_Sound" "User/Rykah/weapons/ak47-1.wav"
	"MP5_SoundLaunch" "User/Rykah/radio/ct_fireinhole.wav"
	"Glock_Sound" "User/Rykah/weapons/glock18-2.wav"
	"357_Sound" "User/Rykah/weapons/galil-1.wav"
	"Eagle_Sound" "User/Rykah/weapons/deagle-1.wav"
	"M249_Sound" "User/Rykah/weapons/m249-1.wav"
	"Shotgun_SoundPri" "User/Rykah/weapons/m3-1.wav"
	"Shotgun_SoundAlt" "User/Rykah/weapons/m3-1.wav"
	"Shotgun_SoundPump" "common/null.wav"
	"Shotgun_SoundReload" "common/null.wav"
	"Sniper_Sound" "User/Rykah/weapons/scout_fire-1.wav"
	"Tripmine_View" "models/User/Rykah/qmap/v_c4.mdl"
	"Sporelauncher_View" "models/User/Rykah/qmap/v_gasgrenade.mdl"
	"Sniper_View" "models/User/Rykah/qmap/v_awp.mdl"
	"Snark_View" "models/User/Rykah/qmap/v_flashbang.mdl"
	"Shotgun_View" "models/User/Rykah/qmap/v_m3.mdl"
	"Shockroach_View" "models/User/Rykah/qmap/v_tmp.mdl"
	"Satchel_ViewRadio" "models/User/Rykah/qmap/v_rcontrolbomb2.mdl"
	"Satchel_View" "models/User/Rykah/qmap/v_rcontrolbomb.mdl"
	"RPG_View" "models/User/Rykah/qmap/v_law.mdl"
	"Pipewrench_View" "models/User/Rykah/qmap/v_briefcase.mdl"
	"Penguin_View" "models/User/Rykah/qmap/v_smokegrenade.mdl"
	"M249_View" "models/User/Rykah/qmap/v_m60.mdl"
	"Knife_View" "models/User/Rykah/qmap/v_knife.mdl"
	"Hivehand_View" "models/User/Rykah/qmap/v_sg552.mdl"
	"Grapple_View" "models/User/Rykah/qmap/v_zipline.mdl"
	"Gauss_View" "models/User/Rykah/qmap/v_focamera.mdl"
	"HandGrenade_View" "models/User/Rykah/qmap/v_hegrenade.mdl"
	"Egon_View" "models/User/Rykah/qmap/v_btorch.mdl"
	"Eagle_View" "models/User/Rykah/qmap/v_deagle.mdl"
	"Displacer_View" "models/User/Rykah/qmap/v_radio.mdl"
	"Crowbar_View" "models/User/Rykah/qmap/v_machete.mdl"
	"Crossbow_View" "models/User/Rykah/qmap/v_syringegun.mdl"
	"357_View" "models/User/Rykah/qmap/v_p228.mdl"
	"Glock_View" "models/User/Rykah/qmap/v_glock18.mdl"
	"MP5_View" "models/User/Rykah/qmap/v_ak47.mdl"
	"Tripmine_World" "models/User/Rykah/qmap/w_c4.mdl"
	"Sporelauncher_World" "models/User/Rykah/qmap/w_gasgrenade.mdl"
	"Sniper_World" "models/User/Rykah/qmap/w_awp.mdl"
	"Snark_World" "models/User/Rykah/qmap/w_flashbang.mdl"
	"Shotgun_World" "models/User/Rykah/qmap/w_m3.mdl"
	"Shockroach_World" "models/User/Rykah/qmap/w_tmp.mdl"
	"Satchel_World" "models/User/Rykah/qmap/w_rcontrolbomb_bomb.mdl"
	"RPG_World" "models/User/Rykah/qmap/w_law.mdl"
	"Pipewrench_World" "models/User/Rykah/qmap/w_briefcase.mdl"
	"Penguin_World" "models/User/Rykah/qmap/w_smokegrenade.mdl"
	"M249_World" "models/User/Rykah/qmap/w_m60.mdl"
	"Knife_World" "models/User/Rykah/qmap/w_knife.mdl"
	"Hivehand_World" "models/User/Rykah/qmap/w_sg552.mdl"
	"Grapple_World" "models/User/Rykah/qmap/w_zipline.mdl"
	"Gauss_World" "models/User/Rykah/qmap/w_focamera.mdl"
	"HandGrenade_World" "models/User/Rykah/qmap/w_hegrenade.mdl"
	"Egon_World" "models/User/Rykah/qmap/w_btorch.mdl"
	"Eagle_World" "models/User/Rykah/qmap/w_deagle.mdl"
	"Displacer_World" "models/User/Rykah/qmap/w_radio.mdl"
	"Crowbar_World" "models/User/Rykah/qmap/w_machete.mdl"
	"Crossbow_World" "models/User/Rykah/qmap/w_syringegun.mdl"
	"357_World" "models/User/Rykah/qmap/w_p228.mdl"
	"Glock_World" "models/User/Rykah/qmap/w_glock18.mdl"
	"MP5_World" "models/User/Rykah/qmap/w_ak47.mdl"
	"MP5_Thrown" "models/User/Rykah/qmap/w_hegrenade.mdl"
	"Hornet_Model" "models/saw_shell.mdl"
	"Penguin_Thrown" "models/User/Rykah/qmap/w_smokegrenade.mdl"
	"Snark_Thrown" "models/User/Rykah/qmap/w_flashbang.mdl"
	"Sporelauncher_Thrown" "models/User/Rykah/qmap/w_gasgrenade.mdl"
	"RPG_Thrown" "models/rpgrocket_hd.mdl"
	solid
	{
		"id" "1"
		side
		{
			"id" "2"
			"plane" "(511 -512 160) (511 -512 -0) (511 512 160)"
			"material" "C1A0_WX"
			"uaxis" "[0 1 0 0] 1"
			"vaxis" "[0 0 -1 0] 1"
			"rotation" "0"
			"lightmapscale" "0"
			"smoothing_groups" "0"
		}
		side
		{
			"id" "3"
			"plane" "(512 512 160) (512 512 -0) (512 -512 160)"
			"material" "NULL"
			"uaxis" "[0 1 0 0] 1"
			"vaxis" "[0 0 -1 0] 1"
			"rotation" "0"
			"lightmapscale" "0"
			"smoothing_groups" "0"
		}
		side
		{
			"id" "4"
			"plane" "(511 512 160) (511 512 -0) (512 512 160)"
			"material" "NULL"
			"uaxis" "[1 0 0 0] 1"
			"vaxis" "[0 0 -1 0] 1"
			"rotation" "0"
			"lightmapscale" "0"
			"smoothing_groups" "0"
		}
		side
		{
			"id" "5"
			"plane" "(512 -512 160) (512 -512 -0) (511 -512 160)"
			"material" "NULL"
			"uaxis" "[1 0 0 0] 1"
			"vaxis" "[0 0 -1 0] 1"
			"rotation" "0"
			"lightmapscale" "0"
			"smoothing_groups" "0"
		}
		side
		{
			"id" "6"
			"plane" "(511 512 0) (511 -512 0) (512 512 0)"
			"material" "NULL"
			"uaxis" "[1 0 0 0] 1"
			"vaxis" "[0 -1 0 0] 1"
			"rotation" "0"
			"lightmapscale" "0"
			"smoothing_groups" "0"
		}
		side
		{
			"id" "7"
			"plane" "(511 -512 160) (511 512 160) (512 -512 160)"
			"material" "NULL"
			"uaxis" "[1 0 0 0] 1"
			"vaxis" "[0 -1 0 0] 1"
			"rotation" "0"
			"lightmapscale" "0"
			"smoothing_groups" "0"
		}
		editor
		{
			"color" "78 8 25"
		}
	}
	solid
	{
		"id" "8"
		side
		{
			"id" "9"
			"plane" "(-512 -512 160) (-512 -512 0) (-512 512 160)"
			"material" "NULL"
			"uaxis" "[0 1 0 0] 1"
			"vaxis" "[0 0 -1 0] 1"
			"rotation" "0"
			"lightmapscale" "0"
			"smoothing_groups" "0"
		}
		side
		{
			"id" "10"
			"plane" "(-511 512 160) (-511 512 0) (-511 -512 160)"
			"material" "C1A0_WX"
			"uaxis" "[0 1 0 0] 1"
			"vaxis" "[0 0 -1 0] 1"
			"rotation" "0"
			"lightmapscale" "0"
			"smoothing_groups" "0"
		}
		side
		{
			"id" "11"
			"plane" "(-512 512 160) (-512 512 0) (-511 512 160)"
			"material" "NULL"
			"uaxis" "[1 0 0 0] 1"
			"vaxis" "[0 0 -1 0] 1"
			"rotation" "0"
			"lightmapscale" "0"
			"smoothing_groups" "0"
		}
		side
		{
			"id" "12"
			"plane" "(-511 -512 160) (-511 -512 0) (-512 -512 160)"
			"material" "NULL"
			"uaxis" "[1 0 0 0] 1"
			"vaxis" "[0 0 -1 0] 1"
			"rotation" "0"
			"lightmapscale" "0"
			"smoothing_groups" "0"
		}
		side
		{
			"id" "13"
			"plane" "(-512 512 0) (-512 -512 0) (-511 512 0)"
			"material" "NULL"
			"uaxis" "[1 0 0 0] 1"
			"vaxis" "[0 -1 0 0] 1"
			"rotation" "0"
			"lightmapscale" "0"
			"smoothing_groups" "0"
		}
		side
		{
			"id" "14"
			"plane" "(-512 -512 160) (-512 512 160) (-511 -512 160)"
			"material" "NULL"
			"uaxis" "[1 0 0 0] 1"
			"vaxis" "[0 -1 0 0] 1"
			"rotation" "0"
			"lightmapscale" "0"
			"smoothing_groups" "0"
		}
		editor
		{
			"color" "8 170 40"
		}
	}
	solid
	{
		"id" "15"
		side
		{
			"id" "16"
			"plane" "(-512 512 160) (-512 512 -0) (-512 513 160)"
			"material" "NULL"
			"uaxis" "[0 1 0 -0] 1"
			"vaxis" "[0 0 -1 0] 1"
			"rotation" "0"
			"lightmapscale" "0"
			"smoothing_groups" "0"
		}
		side
		{
			"id" "17"
			"plane" "(512 513 160) (512 513 -0) (512 512 160)"
			"material" "NULL"
			"uaxis" "[0 1 0 -0] 1"
			"vaxis" "[0 0 -1 0] 1"
			"rotation" "0"
			"lightmapscale" "0"
			"smoothing_groups" "0"
		}
		side
		{
			"id" "18"
			"plane" "(-512 513 160) (-512 513 -0) (512 513 160)"
			"material" "NULL"
			"uaxis" "[1 0 0 0] 1"
			"vaxis" "[0 0 -1 0] 1"
			"rotation" "0"
			"lightmapscale" "0"
			"smoothing_groups" "0"
		}
		side
		{
			"id" "19"
			"plane" "(512 512 160) (512 512 -0) (-512 512 160)"
			"material" "C1A0_WX"
			"uaxis" "[1 0 0 0] 1"
			"vaxis" "[0 0 -1 0] 1"
			"rotation" "0"
			"lightmapscale" "0"
			"smoothing_groups" "0"
		}
		side
		{
			"id" "20"
			"plane" "(-512 513 0) (-512 512 0) (512 513 0)"
			"material" "NULL"
			"uaxis" "[1 0 0 0] 1"
			"vaxis" "[0 -1 0 0] 1"
			"rotation" "0"
			"lightmapscale" "0"
			"smoothing_groups" "0"
		}
		side
		{
			"id" "21"
			"plane" "(-512 512 160) (-512 513 160) (512 512 160)"
			"material" "NULL"
			"uaxis" "[1 0 0 0] 1"
			"vaxis" "[0 -1 0 0] 1"
			"rotation" "0"
			"lightmapscale" "0"
			"smoothing_groups" "0"
		}
		editor
		{
			"color" "16 107 223"
		}
	}
	solid
	{
		"id" "22"
		side
		{
			"id" "23"
			"plane" "(-512 -512 160) (-512 -512 0) (-512 -511 160)"
			"material" "NULL"
			"uaxis" "[0 1 0 0] 1"
			"vaxis" "[0 0 -1 0] 1"
			"rotation" "0"
			"lightmapscale" "0"
			"smoothing_groups" "0"
		}
		side
		{
			"id" "24"
			"plane" "(512 -511 160) (512 -511 0) (512 -512 160)"
			"material" "NULL"
			"uaxis" "[0 1 0 0] 1"
			"vaxis" "[0 0 -1 0] 1"
			"rotation" "0"
			"lightmapscale" "0"
			"smoothing_groups" "0"
		}
		side
		{
			"id" "25"
			"plane" "(-512 -511 160) (-512 -511 0) (512 -511 160)"
			"material" "C1A0_WX"
			"uaxis" "[1 0 0 0] 1"
			"vaxis" "[0 0 -1 0] 1"
			"rotation" "0"
			"lightmapscale" "0"
			"smoothing_groups" "0"
		}
		side
		{
			"id" "26"
			"plane" "(512 -512 160) (512 -512 0) (-512 -512 160)"
			"material" "NULL"
			"uaxis" "[1 0 0 0] 1"
			"vaxis" "[0 0 -1 0] 1"
			"rotation" "0"
			"lightmapscale" "0"
			"smoothing_groups" "0"
		}
		side
		{
			"id" "27"
			"plane" "(-512 -511 0) (-512 -512 0) (512 -511 0)"
			"material" "NULL"
			"uaxis" "[1 0 0 0] 1"
			"vaxis" "[0 -1 0 0] 1"
			"rotation" "0"
			"lightmapscale" "0"
			"smoothing_groups" "0"
		}
		side
		{
			"id" "28"
			"plane" "(-512 -512 160) (-512 -511 160) (512 -512 160)"
			"material" "NULL"
			"uaxis" "[1 0 0 0] 1"
			"vaxis" "[0 -1 0 0] 1"
			"rotation" "0"
			"lightmapscale" "0"
			"smoothing_groups" "0"
		}
		editor
		{
			"color" "236 70 113"
		}
	}
	solid
	{
		"id" "29"
		side
		{
			"id" "30"
			"plane" "(-512 -512 192) (-512 -512 160) (-512 512 192)"
			"material" "NULL"
			"uaxis" "[0 1 0 0] 1"
			"vaxis" "[0 0 -1 0] 1"
			"rotation" "0"
			"lightmapscale" "0"
			"smoothing_groups" "0"
		}
		side
		{
			"id" "31"
			"plane" "(512 512 192) (512 512 160) (512 -512 192)"
			"material" "NULL"
			"uaxis" "[0 1 0 0] 1"
			"vaxis" "[0 0 -1 0] 1"
			"rotation" "0"
			"lightmapscale" "0"
			"smoothing_groups" "0"
		}
		side
		{
			"id" "32"
			"plane" "(-512 512 192) (-512 512 160) (512 512 192)"
			"material" "NULL"
			"uaxis" "[1 0 0 0] 1"
			"vaxis" "[0 0 -1 0] 1"
			"rotation" "0"
			"lightmapscale" "0"
			"smoothing_groups" "0"
		}
		side
		{
			"id" "33"
			"plane" "(512 -512 192) (512 -512 160) (-512 -512 192)"
			"material" "NULL"
			"uaxis" "[1 0 0 0] 1"
			"vaxis" "[0 0 -1 0] 1"
			"rotation" "0"
			"lightmapscale" "0"
			"smoothing_groups" "0"
		}
		side
		{
			"id" "34"
			"plane" "(-512 512 160) (-512 -512 160) (512 512 160)"
			"material" "C2A4E_W1"
			"uaxis" "[1 0 0 0] 1"
			"vaxis" "[0 -1 0 0] 1"
			"rotation" "0"
			"lightmapscale" "0"
			"smoothing_groups" "0"
		}
		side
		{
			"id" "35"
			"plane" "(-512 -512 192) (-512 512 192) (512 -512 192)"
			"material" "NULL"
			"uaxis" "[1 0 0 0] 1"
			"vaxis" "[0 -1 0 0] 1"
			"rotation" "0"
			"lightmapscale" "0"
			"smoothing_groups" "0"
		}
		editor
		{
			"color" "183 182 227"
		}
	}
	solid
	{
		"id" "36"
		side
		{
			"id" "37"
			"plane" "(-512 -512 0) (-512 -512 -32) (-512 512 0)"
			"material" "NULL"
			"uaxis" "[0 1 0 0] 1"
			"vaxis" "[0 0 -1 0] 1"
			"rotation" "0"
			"lightmapscale" "0"
			"smoothing_groups" "0"
		}
		side
		{
			"id" "38"
			"plane" "(512 512 0) (512 512 -32) (512 -512 0)"
			"material" "NULL"
			"uaxis" "[0 1 0 0] 1"
			"vaxis" "[0 0 -1 0] 1"
			"rotation" "0"
			"lightmapscale" "0"
			"smoothing_groups" "0"
		}
		side
		{
			"id" "39"
			"plane" "(-512 512 0) (-512 512 -32) (512 512 0)"
			"material" "NULL"
			"uaxis" "[1 0 0 0] 1"
			"vaxis" "[0 0 -1 0] 1"
			"rotation" "0"
			"lightmapscale" "0"
			"smoothing_groups" "0"
		}
		side
		{
			"id" "40"
			"plane" "(512 -512 0) (512 -512 -32) (-512 -512 0)"
			"material" "NULL"
			"uaxis" "[1 0 0 0] 1"
			"vaxis" "[0 0 -1 0] 1"
			"rotation" "0"
			"lightmapscale" "0"
			"smoothing_groups" "0"
		}
		side
		{
			"id" "41"
			"plane" "(-512 512 -32) (-512 -512 -32) (512 512 -32)"
			"material" "NULL"
			"uaxis" "[1 0 0 0] 1"
			"vaxis" "[0 -1 0 0] 1"
			"rotation" "0"
			"lightmapscale" "0"
			"smoothing_groups" "0"
		}
		side
		{
			"id" "42"
			"plane" "(-512 -512 0) (-512 512 0) (512 -512 0)"
			"material" "C1A0_LABFLRC"
			"uaxis" "[1 0 0 0] 1"
			"vaxis" "[0 -1 0 0] 1"
			"rotation" "0"
			"lightmapscale" "0"
			"smoothing_groups" "0"
		}
		editor
		{
			"color" "165 229 195"
		}
	}
	solid
	{
		"id" "43"
		side
		{
			"id" "44"
			"plane" "(31041 30447 160) (31041 30447 -0) (31041 30959 160)"
			"material" "C1A0_WX"
			"uaxis" "[0 1 0 -111] 1"
			"vaxis" "[0 0 -1 0] 1"
			"rotation" "0"
			"lightmapscale" "0"
			"smoothing_groups" "0"
		}
		side
		{
			"id" "45"
			"plane" "(31073 30959 160) (31073 30959 -0) (31073 30447 160)"
			"material" "NULL"
			"uaxis" "[0 1 0 -15] 1"
			"vaxis" "[0 0 -1 0] 1"
			"rotation" "0"
			"lightmapscale" "0"
			"smoothing_groups" "0"
		}
		side
		{
			"id" "46"
			"plane" "(31041 30959 160) (31041 30959 -0) (31073 30959 160)"
			"material" "NULL"
			"uaxis" "[1 0 0 -1] 1"
			"vaxis" "[0 0 -1 0] 1"
			"rotation" "0"
			"lightmapscale" "0"
			"smoothing_groups" "0"
		}
		side
		{
			"id" "47"
			"plane" "(31073 30447 160) (31073 30447 -0) (31041 30447 160)"
			"material" "NULL"
			"uaxis" "[1 0 0 -1] 1"
			"vaxis" "[0 0 -1 0] 1"
			"rotation" "0"
			"lightmapscale" "0"
			"smoothing_groups" "0"
		}
		side
		{
			"id" "48"
			"plane" "(31041 30959 0) (31041 30447 0) (31073 30959 0)"
			"material" "NULL"
			"uaxis" "[1 0 0 -1] 1"
			"vaxis" "[0 -1 0 15] 1"
			"rotation" "0"
			"lightmapscale" "0"
			"smoothing_groups" "0"
		}
		side
		{
			"id" "49"
			"plane" "(31041 30447 160) (31041 30959 160) (31073 30447 160)"
			"material" "NULL"
			"uaxis" "[1 0 0 -1] 1"
			"vaxis" "[0 -1 0 15] 1"
			"rotation" "0"
			"lightmapscale" "0"
			"smoothing_groups" "0"
		}
		editor
		{
			"color" "218 52 134"
		}
	}
	solid
	{
		"id" "50"
		side
		{
			"id" "51"
			"plane" "(30497 30447 160) (30497 30447 -0) (30497 30959 160)"
			"material" "NULL"
			"uaxis" "[0 1 0 -15] 1"
			"vaxis" "[0 0 -1 0] 1"
			"rotation" "0"
			"lightmapscale" "0"
			"smoothing_groups" "0"
		}
		side
		{
			"id" "52"
			"plane" "(30529 30959 160) (30529 30959 -0) (30529 30447 160)"
			"material" "C1A0_WX"
			"uaxis" "[0 1 0 -111] 1"
			"vaxis" "[0 0 -1 0] 1"
			"rotation" "0"
			"lightmapscale" "0"
			"smoothing_groups" "0"
		}
		side
		{
			"id" "53"
			"plane" "(30497 30959 160) (30497 30959 -0) (30529 30959 160)"
			"material" "NULL"
			"uaxis" "[1 0 0 -1] 1"
			"vaxis" "[0 0 -1 0] 1"
			"rotation" "0"
			"lightmapscale" "0"
			"smoothing_groups" "0"
		}
		side
		{
			"id" "54"
			"plane" "(30529 30447 160) (30529 30447 -0) (30497 30447 160)"
			"material" "NULL"
			"uaxis" "[1 0 0 -1] 1"
			"vaxis" "[0 0 -1 0] 1"
			"rotation" "0"
			"lightmapscale" "0"
			"smoothing_groups" "0"
		}
		side
		{
			"id" "55"
			"plane" "(30497 30959 0) (30497 30447 0) (30529 30959 0)"
			"material" "NULL"
			"uaxis" "[1 0 0 -1] 1"
			"vaxis" "[0 -1 0 15] 1"
			"rotation" "0"
			"lightmapscale" "0"
			"smoothing_groups" "0"
		}
		side
		{
			"id" "56"
			"plane" "(30497 30447 160) (30497 30959 160) (30529 30447 160)"
			"material" "NULL"
			"uaxis" "[1 0 0 -1] 1"
			"vaxis" "[0 -1 0 15] 1"
			"rotation" "0"
			"lightmapscale" "0"
			"smoothing_groups" "0"
		}
		editor
		{
			"color" "96 149 216"
		}
	}
	solid
	{
		"id" "57"
		side
		{
			"id" "58"
			"plane" "(30529 30959 160) (30529 30959 -0) (30529 30991 160)"
			"material" "NULL"
			"uaxis" "[0 1 0 -15] 1"
			"vaxis" "[0 0 -1 0] 1"
			"rotation" "0"
			"lightmapscale" "0"
			"smoothing_groups" "0"
		}
		side
		{
			"id" "59"
			"plane" "(31041 30991 160) (31041 30991 -0) (31041 30959 160)"
			"material" "NULL"
			"uaxis" "[0 1 0 -15] 1"
			"vaxis" "[0 0 -1 0] 1"
			"rotation" "0"
			"lightmapscale" "0"
			"smoothing_groups" "0"
		}
		side
		{
			"id" "60"
			"plane" "(30529 30991 160) (30529 30991 -0) (31041 30991 160)"
			"material" "NULL"
			"uaxis" "[1 0 0 -1] 1"
			"vaxis" "[0 0 -1 0] 1"
			"rotation" "0"
			"lightmapscale" "0"
			"smoothing_groups" "0"
		}
		side
		{
			"id" "61"
			"plane" "(31041 30959 160) (31041 30959 -0) (30529 30959 160)"
			"material" "C1A0_WX"
			"uaxis" "[1 0 0 -65] 1"
			"vaxis" "[0 0 -1 0] 1"
			"rotation" "0"
			"lightmapscale" "0"
			"smoothing_groups" "0"
		}
		side
		{
			"id" "62"
			"plane" "(30529 30991 0) (30529 30959 0) (31041 30991 0)"
			"material" "NULL"
			"uaxis" "[1 0 0 -1] 1"
			"vaxis" "[0 -1 0 15] 1"
			"rotation" "0"
			"lightmapscale" "0"
			"smoothing_groups" "0"
		}
		side
		{
			"id" "63"
			"plane" "(30529 30959 160) (30529 30991 160) (31041 30959 160)"
			"material" "NULL"
			"uaxis" "[1 0 0 -1] 1"
			"vaxis" "[0 -1 0 15] 1"
			"rotation" "0"
			"lightmapscale" "0"
			"smoothing_groups" "0"
		}
		editor
		{
			"color" "194 107 24"
		}
	}
	solid
	{
		"id" "64"
		side
		{
			"id" "65"
			"plane" "(30529 30415 160) (30529 30415 -0) (30529 30447 160)"
			"material" "NULL"
			"uaxis" "[0 1 0 -15] 1"
			"vaxis" "[0 0 -1 0] 1"
			"rotation" "0"
			"lightmapscale" "0"
			"smoothing_groups" "0"
		}
		side
		{
			"id" "66"
			"plane" "(31041 30447 160) (31041 30447 -0) (31041 30415 160)"
			"material" "NULL"
			"uaxis" "[0 1 0 -15] 1"
			"vaxis" "[0 0 -1 0] 1"
			"rotation" "0"
			"lightmapscale" "0"
			"smoothing_groups" "0"
		}
		side
		{
			"id" "67"
			"plane" "(30529 30447 160) (30529 30447 -0) (31041 30447 160)"
			"material" "C1A0_WX"
			"uaxis" "[1 0 0 -65] 1"
			"vaxis" "[0 0 -1 0] 1"
			"rotation" "0"
			"lightmapscale" "0"
			"smoothing_groups" "0"
		}
		side
		{
			"id" "68"
			"plane" "(31041 30415 160) (31041 30415 -0) (30529 30415 160)"
			"material" "NULL"
			"uaxis" "[1 0 0 -1] 1"
			"vaxis" "[0 0 -1 0] 1"
			"rotation" "0"
			"lightmapscale" "0"
			"smoothing_groups" "0"
		}
		side
		{
			"id" "69"
			"plane" "(30529 30447 0) (30529 30415 0) (31041 30447 0)"
			"material" "NULL"
			"uaxis" "[1 0 0 -1] 1"
			"vaxis" "[0 -1 0 15] 1"
			"rotation" "0"
			"lightmapscale" "0"
			"smoothing_groups" "0"
		}
		side
		{
			"id" "70"
			"plane" "(30529 30415 160) (30529 30447 160) (31041 30415 160)"
			"material" "NULL"
			"uaxis" "[1 0 0 -1] 1"
			"vaxis" "[0 -1 0 15] 1"
			"rotation" "0"
			"lightmapscale" "0"
			"smoothing_groups" "0"
		}
		editor
		{
			"color" "115 123 171"
		}
	}
	solid
	{
		"id" "71"
		side
		{
			"id" "72"
			"plane" "(30529 30447 192) (30529 30447 160) (30529 30959 192)"
			"material" "NULL"
			"uaxis" "[0 1 0 -15] 1"
			"vaxis" "[0 0 -1 0] 1"
			"rotation" "0"
			"lightmapscale" "0"
			"smoothing_groups" "0"
		}
		side
		{
			"id" "73"
			"plane" "(31041 30959 192) (31041 30959 160) (31041 30447 192)"
			"material" "NULL"
			"uaxis" "[0 1 0 -15] 1"
			"vaxis" "[0 0 -1 0] 1"
			"rotation" "0"
			"lightmapscale" "0"
			"smoothing_groups" "0"
		}
		side
		{
			"id" "74"
			"plane" "(30529 30959 192) (30529 30959 160) (31041 30959 192)"
			"material" "NULL"
			"uaxis" "[1 0 0 -1] 1"
			"vaxis" "[0 0 -1 0] 1"
			"rotation" "0"
			"lightmapscale" "0"
			"smoothing_groups" "0"
		}
		side
		{
			"id" "75"
			"plane" "(31041 30447 192) (31041 30447 160) (30529 30447 192)"
			"material" "NULL"
			"uaxis" "[1 0 0 -1] 1"
			"vaxis" "[0 0 -1 0] 1"
			"rotation" "0"
			"lightmapscale" "0"
			"smoothing_groups" "0"
		}
		side
		{
			"id" "76"
			"plane" "(30529 30959 160) (30529 30447 160) (31041 30959 160)"
			"material" "C2A4E_W1"
			"uaxis" "[1 0 0 -65] 1"
			"vaxis" "[0 -1 0 143] 1"
			"rotation" "0"
			"lightmapscale" "0"
			"smoothing_groups" "0"
		}
		side
		{
			"id" "77"
			"plane" "(30529 30447 192) (30529 30959 192) (31041 30447 192)"
			"material" "NULL"
			"uaxis" "[1 0 0 -1] 1"
			"vaxis" "[0 -1 0 15] 1"
			"rotation" "0"
			"lightmapscale" "0"
			"smoothing_groups" "0"
		}
		editor
		{
			"color" "12 115 204"
		}
	}
	solid
	{
		"id" "78"
		side
		{
			"id" "79"
			"plane" "(30529 30447 0) (30529 30447 -32) (30529 30959 0)"
			"material" "NULL"
			"uaxis" "[0 1 0 -15] 1"
			"vaxis" "[0 0 -1 0] 1"
			"rotation" "0"
			"lightmapscale" "0"
			"smoothing_groups" "0"
		}
		side
		{
			"id" "80"
			"plane" "(31041 30959 0) (31041 30959 -32) (31041 30447 0)"
			"material" "NULL"
			"uaxis" "[0 1 0 -15] 1"
			"vaxis" "[0 0 -1 0] 1"
			"rotation" "0"
			"lightmapscale" "0"
			"smoothing_groups" "0"
		}
		side
		{
			"id" "81"
			"plane" "(30529 30959 0) (30529 30959 -32) (31041 30959 0)"
			"material" "NULL"
			"uaxis" "[1 0 0 -1] 1"
			"vaxis" "[0 0 -1 0] 1"
			"rotation" "0"
			"lightmapscale" "0"
			"smoothing_groups" "0"
		}
		side
		{
			"id" "82"
			"plane" "(31041 30447 0) (31041 30447 -32) (30529 30447 0)"
			"material" "NULL"
			"uaxis" "[1 0 0 -1] 1"
			"vaxis" "[0 0 -1 0] 1"
			"rotation" "0"
			"lightmapscale" "0"
			"smoothing_groups" "0"
		}
		side
		{
			"id" "83"
			"plane" "(30529 30959 -32) (30529 30447 -32) (31041 30959 -32)"
			"material" "NULL"
			"uaxis" "[1 0 0 -1] 1"
			"vaxis" "[0 -1 0 15] 1"
			"rotation" "0"
			"lightmapscale" "0"
			"smoothing_groups" "0"
		}
		side
		{
			"id" "84"
			"plane" "(30529 30447 0) (30529 30959 0) (31041 30447 0)"
			"material" "C1A0_LABFLRC"
			"uaxis" "[1 0 0 -65] 1"
			"vaxis" "[0 -1 0 111] 1"
			"rotation" "0"
			"lightmapscale" "0"
			"smoothing_groups" "0"
		}
		editor
		{
			"color" "168 22 6"
		}
	}
	solid
	{
		"id" "85"
		side
		{
			"id" "86"
			"plane" "(-29805 31937 -31451) (-29805 31937 -31611) (-29805 31425 -31451)"
			"material" "NULL"
			"uaxis" "[0 1 0 15] 1"
			"vaxis" "[0 0 -1 -11] 1"
			"rotation" "0"
			"lightmapscale" "0"
			"smoothing_groups" "0"
		}
		side
		{
			"id" "87"
			"plane" "(-29837 31425 -31451) (-29837 31425 -31611) (-29837 31937 -31451)"
			"material" "C1A0_WX"
			"uaxis" "[0 1 0 63] 1"
			"vaxis" "[0 0 -1 -91] 1"
			"rotation" "0"
			"lightmapscale" "0"
			"smoothing_groups" "0"
		}
		side
		{
			"id" "88"
			"plane" "(-29805 31425 -31451) (-29805 31425 -31611) (-29837 31425 -31451)"
			"material" "NULL"
			"uaxis" "[1 0 0 13] 1"
			"vaxis" "[0 0 -1 -11] 1"
			"rotation" "0"
			"lightmapscale" "0"
			"smoothing_groups" "0"
		}
		side
		{
			"id" "89"
			"plane" "(-29837 31937 -31451) (-29837 31937 -31611) (-29805 31937 -31451)"
			"material" "NULL"
			"uaxis" "[1 0 0 13] 1"
			"vaxis" "[0 0 -1 -11] 1"
			"rotation" "0"
			"lightmapscale" "0"
			"smoothing_groups" "0"
		}
		side
		{
			"id" "90"
			"plane" "(-29837 31425 -31451) (-29837 31937 -31451) (-29805 31425 -31451)"
			"material" "NULL"
			"uaxis" "[1 0 0 13] 1"
			"vaxis" "[0 -1 0 -15] 1"
			"rotation" "0"
			"lightmapscale" "0"
			"smoothing_groups" "0"
		}
		side
		{
			"id" "91"
			"plane" "(-29837 31937 -31611) (-29837 31425 -31611) (-29805 31937 -31611)"
			"material" "NULL"
			"uaxis" "[1 0 0 13] 1"
			"vaxis" "[0 -1 0 -15] 1"
			"rotation" "0"
			"lightmapscale" "0"
			"smoothing_groups" "0"
		}
		editor
		{
			"color" "212 173 98"
		}
	}
	solid
	{
		"id" "92"
		side
		{
			"id" "93"
			"plane" "(-30349 31937 -31451) (-30349 31937 -31611) (-30349 31425 -31451)"
			"material" "C1A0_WX"
			"uaxis" "[0 1 0 63] 1"
			"vaxis" "[0 0 -1 -91] 1"
			"rotation" "0"
			"lightmapscale" "0"
			"smoothing_groups" "0"
		}
		side
		{
			"id" "94"
			"plane" "(-30381 31425 -31451) (-30381 31425 -31611) (-30381 31937 -31451)"
			"material" "NULL"
			"uaxis" "[0 1 0 15] 1"
			"vaxis" "[0 0 -1 -11] 1"
			"rotation" "0"
			"lightmapscale" "0"
			"smoothing_groups" "0"
		}
		side
		{
			"id" "95"
			"plane" "(-30349 31425 -31451) (-30349 31425 -31611) (-30381 31425 -31451)"
			"material" "NULL"
			"uaxis" "[1 0 0 13] 1"
			"vaxis" "[0 0 -1 -11] 1"
			"rotation" "0"
			"lightmapscale" "0"
			"smoothing_groups" "0"
		}
		side
		{
			"id" "96"
			"plane" "(-30381 31937 -31451) (-30381 31937 -31611) (-30349 31937 -31451)"
			"material" "NULL"
			"uaxis" "[1 0 0 13] 1"
			"vaxis" "[0 0 -1 -11] 1"
			"rotation" "0"
			"lightmapscale" "0"
			"smoothing_groups" "0"
		}
		side
		{
			"id" "97"
			"plane" "(-30381 31425 -31451) (-30381 31937 -31451) (-30349 31425 -31451)"
			"material" "NULL"
			"uaxis" "[1 0 0 13] 1"
			"vaxis" "[0 -1 0 -15] 1"
			"rotation" "0"
			"lightmapscale" "0"
			"smoothing_groups" "0"
		}
		side
		{
			"id" "98"
			"plane" "(-30381 31937 -31611) (-30381 31425 -31611) (-30349 31937 -31611)"
			"material" "NULL"
			"uaxis" "[1 0 0 13] 1"
			"vaxis" "[0 -1 0 -15] 1"
			"rotation" "0"
			"lightmapscale" "0"
			"smoothing_groups" "0"
		}
		editor
		{
			"color" "253 181 29"
		}
	}
	solid
	{
		"id" "99"
		side
		{
			"id" "100"
			"plane" "(-29837 31969 -31451) (-29837 31969 -31611) (-29837 31937 -31451)"
			"material" "NULL"
			"uaxis" "[0 1 0 15] 1"
			"vaxis" "[0 0 -1 -11] 1"
			"rotation" "0"
			"lightmapscale" "0"
			"smoothing_groups" "0"
		}
		side
		{
			"id" "101"
			"plane" "(-30349 31937 -31451) (-30349 31937 -31611) (-30349 31969 -31451)"
			"material" "NULL"
			"uaxis" "[0 1 0 15] 1"
			"vaxis" "[0 0 -1 -11] 1"
			"rotation" "0"
			"lightmapscale" "0"
			"smoothing_groups" "0"
		}
		side
		{
			"id" "102"
			"plane" "(-29837 31937 -31451) (-29837 31937 -31611) (-30349 31937 -31451)"
			"material" "C1A0_WX"
			"uaxis" "[1 0 0 13] 1"
			"vaxis" "[0 0 -1 -91] 1"
			"rotation" "0"
			"lightmapscale" "0"
			"smoothing_groups" "0"
		}
		side
		{
			"id" "103"
			"plane" "(-30349 31969 -31451) (-30349 31969 -31611) (-29837 31969 -31451)"
			"material" "NULL"
			"uaxis" "[1 0 0 13] 1"
			"vaxis" "[0 0 -1 -11] 1"
			"rotation" "0"
			"lightmapscale" "0"
			"smoothing_groups" "0"
		}
		side
		{
			"id" "104"
			"plane" "(-30349 31937 -31451) (-30349 31969 -31451) (-29837 31937 -31451)"
			"material" "NULL"
			"uaxis" "[1 0 0 13] 1"
			"vaxis" "[0 -1 0 -15] 1"
			"rotation" "0"
			"lightmapscale" "0"
			"smoothing_groups" "0"
		}
		side
		{
			"id" "105"
			"plane" "(-30349 31969 -31611) (-30349 31937 -31611) (-29837 31969 -31611)"
			"material" "NULL"
			"uaxis" "[1 0 0 13] 1"
			"vaxis" "[0 -1 0 -15] 1"
			"rotation" "0"
			"lightmapscale" "0"
			"smoothing_groups" "0"
		}
		editor
		{
			"color" "14 197 230"
		}
	}
	solid
	{
		"id" "106"
		side
		{
			"id" "107"
			"plane" "(-29837 31425 -31451) (-29837 31425 -31611) (-29837 31393 -31451)"
			"material" "NULL"
			"uaxis" "[0 1 0 15] 1"
			"vaxis" "[0 0 -1 -11] 1"
			"rotation" "0"
			"lightmapscale" "0"
			"smoothing_groups" "0"
		}
		side
		{
			"id" "108"
			"plane" "(-30349 31393 -31451) (-30349 31393 -31611) (-30349 31425 -31451)"
			"material" "NULL"
			"uaxis" "[0 1 0 15] 1"
			"vaxis" "[0 0 -1 -11] 1"
			"rotation" "0"
			"lightmapscale" "0"
			"smoothing_groups" "0"
		}
		side
		{
			"id" "109"
			"plane" "(-29837 31393 -31451) (-29837 31393 -31611) (-30349 31393 -31451)"
			"material" "NULL"
			"uaxis" "[1 0 0 13] 1"
			"vaxis" "[0 0 -1 -11] 1"
			"rotation" "0"
			"lightmapscale" "0"
			"smoothing_groups" "0"
		}
		side
		{
			"id" "110"
			"plane" "(-30349 31425 -31451) (-30349 31425 -31611) (-29837 31425 -31451)"
			"material" "C1A0_WX"
			"uaxis" "[1 0 0 13] 1"
			"vaxis" "[0 0 -1 -91] 1"
			"rotation" "0"
			"lightmapscale" "0"
			"smoothing_groups" "0"
		}
		side
		{
			"id" "111"
			"plane" "(-30349 31393 -31451) (-30349 31425 -31451) (-29837 31393 -31451)"
			"material" "NULL"
			"uaxis" "[1 0 0 13] 1"
			"vaxis" "[0 -1 0 -15] 1"
			"rotation" "0"
			"lightmapscale" "0"
			"smoothing_groups" "0"
		}
		side
		{
			"id" "112"
			"plane" "(-30349 31425 -31611) (-30349 31393 -31611) (-29837 31425 -31611)"
			"material" "NULL"
			"uaxis" "[1 0 0 13] 1"
			"vaxis" "[0 -1 0 -15] 1"
			"rotation" "0"
			"lightmapscale" "0"
			"smoothing_groups" "0"
		}
		editor
		{
			"color" "162 225 137"
		}
	}
	solid
	{
		"id" "113"
		side
		{
			"id" "114"
			"plane" "(-29837 31937 -31419) (-29837 31937 -31451) (-29837 31425 -31419)"
			"material" "NULL"
			"uaxis" "[0 1 0 15] 1"
			"vaxis" "[0 0 -1 -11] 1"
			"rotation" "0"
			"lightmapscale" "0"
			"smoothing_groups" "0"
		}
		side
		{
			"id" "115"
			"plane" "(-30349 31425 -31419) (-30349 31425 -31451) (-30349 31937 -31419)"
			"material" "NULL"
			"uaxis" "[0 1 0 15] 1"
			"vaxis" "[0 0 -1 -11] 1"
			"rotation" "0"
			"lightmapscale" "0"
			"smoothing_groups" "0"
		}
		side
		{
			"id" "116"
			"plane" "(-29837 31425 -31419) (-29837 31425 -31451) (-30349 31425 -31419)"
			"material" "NULL"
			"uaxis" "[1 0 0 13] 1"
			"vaxis" "[0 0 -1 -11] 1"
			"rotation" "0"
			"lightmapscale" "0"
			"smoothing_groups" "0"
		}
		side
		{
			"id" "117"
			"plane" "(-30349 31937 -31419) (-30349 31937 -31451) (-29837 31937 -31419)"
			"material" "NULL"
			"uaxis" "[1 0 0 13] 1"
			"vaxis" "[0 0 -1 -11] 1"
			"rotation" "0"
			"lightmapscale" "0"
			"smoothing_groups" "0"
		}
		side
		{
			"id" "118"
			"plane" "(-30349 31425 -31419) (-30349 31937 -31419) (-29837 31425 -31419)"
			"material" "NULL"
			"uaxis" "[1 0 0 13] 1"
			"vaxis" "[0 -1 0 -15] 1"
			"rotation" "0"
			"lightmapscale" "0"
			"smoothing_groups" "0"
		}
		side
		{
			"id" "119"
			"plane" "(-30349 31937 -31451) (-30349 31425 -31451) (-29837 31937 -31451)"
			"material" "C2A4E_W1"
			"uaxis" "[1 0 0 13] 1"
			"vaxis" "[0 -1 0 -159] 1"
			"rotation" "0"
			"lightmapscale" "0"
			"smoothing_groups" "0"
		}
		editor
		{
			"color" "248 196 240"
		}
	}
	solid
	{
		"id" "120"
		side
		{
			"id" "121"
			"plane" "(-29837 31937 -31611) (-29837 31937 -31643) (-29837 31425 -31611)"
			"material" "NULL"
			"uaxis" "[0 1 0 15] 1"
			"vaxis" "[0 0 -1 -11] 1"
			"rotation" "0"
			"lightmapscale" "0"
			"smoothing_groups" "0"
		}
		side
		{
			"id" "122"
			"plane" "(-30349 31425 -31611) (-30349 31425 -31643) (-30349 31937 -31611)"
			"material" "NULL"
			"uaxis" "[0 1 0 15] 1"
			"vaxis" "[0 0 -1 -11] 1"
			"rotation" "0"
			"lightmapscale" "0"
			"smoothing_groups" "0"
		}
		side
		{
			"id" "123"
			"plane" "(-29837 31425 -31611) (-29837 31425 -31643) (-30349 31425 -31611)"
			"material" "NULL"
			"uaxis" "[1 0 0 13] 1"
			"vaxis" "[0 0 -1 -11] 1"
			"rotation" "0"
			"lightmapscale" "0"
			"smoothing_groups" "0"
		}
		side
		{
			"id" "124"
			"plane" "(-30349 31937 -31611) (-30349 31937 -31643) (-29837 31937 -31611)"
			"material" "NULL"
			"uaxis" "[1 0 0 13] 1"
			"vaxis" "[0 0 -1 -11] 1"
			"rotation" "0"
			"lightmapscale" "0"
			"smoothing_groups" "0"
		}
		side
		{
			"id" "125"
			"plane" "(-30349 31425 -31611) (-30349 31937 -31611) (-29837 31425 -31611)"
			"material" "C1A0_LABFLRC"
			"uaxis" "[1 0 0 13] 1"
			"vaxis" "[0 -1 0 -63] 1"
			"rotation" "0"
			"lightmapscale" "0"
			"smoothing_groups" "0"
		}
		side
		{
			"id" "126"
			"plane" "(-30349 31937 -31643) (-30349 31425 -31643) (-29837 31937 -31643)"
			"material" "NULL"
			"uaxis" "[1 0 0 13] 1"
			"vaxis" "[0 -1 0 -15] 1"
			"rotation" "0"
			"lightmapscale" "0"
			"smoothing_groups" "0"
		}
		editor
		{
			"color" "229 159 212"
		}
	}
	solid
	{
		"id" "127"
		side
		{
			"id" "128"
			"plane" "(-754 -1499 31221) (-754 -1499 31061) (-754 -2011 31221)"
			"material" "NULL"
			"uaxis" "[0 1 0 11] 1"
			"vaxis" "[0 0 -1 -11] 1"
			"rotation" "0"
			"lightmapscale" "0"
			"smoothing_groups" "0"
		}
		side
		{
			"id" "129"
			"plane" "(-786 -2011 31221) (-786 -2011 31061) (-786 -1499 31221)"
			"material" "C1A0_WX"
			"uaxis" "[0 1 0 91] 1"
			"vaxis" "[0 0 -1 21] 1"
			"rotation" "0"
			"lightmapscale" "0"
			"smoothing_groups" "0"
		}
		side
		{
			"id" "130"
			"plane" "(-754 -2011 31221) (-754 -2011 31061) (-786 -2011 31221)"
			"material" "NULL"
			"uaxis" "[1 0 0 2] 1"
			"vaxis" "[0 0 -1 -11] 1"
			"rotation" "0"
			"lightmapscale" "0"
			"smoothing_groups" "0"
		}
		side
		{
			"id" "131"
			"plane" "(-786 -1499 31221) (-786 -1499 31061) (-754 -1499 31221)"
			"material" "NULL"
			"uaxis" "[1 0 0 2] 1"
			"vaxis" "[0 0 -1 -11] 1"
			"rotation" "0"
			"lightmapscale" "0"
			"smoothing_groups" "0"
		}
		side
		{
			"id" "132"
			"plane" "(-786 -2011 31221) (-786 -1499 31221) (-754 -2011 31221)"
			"material" "NULL"
			"uaxis" "[1 0 0 2] 1"
			"vaxis" "[0 -1 0 -11] 1"
			"rotation" "0"
			"lightmapscale" "0"
			"smoothing_groups" "0"
		}
		side
		{
			"id" "133"
			"plane" "(-786 -1499 31061) (-786 -2011 31061) (-754 -1499 31061)"
			"material" "NULL"
			"uaxis" "[1 0 0 2] 1"
			"vaxis" "[0 -1 0 -11] 1"
			"rotation" "0"
			"lightmapscale" "0"
			"smoothing_groups" "0"
		}
		editor
		{
			"color" "145 254 89"
		}
	}
	solid
	{
		"id" "134"
		side
		{
			"id" "135"
			"plane" "(-1298 -1499 31221) (-1298 -1499 31061) (-1298 -2011 31221)"
			"material" "C1A0_WX"
			"uaxis" "[0 1 0 91] 1"
			"vaxis" "[0 0 -1 21] 1"
			"rotation" "0"
			"lightmapscale" "0"
			"smoothing_groups" "0"
		}
		side
		{
			"id" "136"
			"plane" "(-1330 -2011 31221) (-1330 -2011 31061) (-1330 -1499 31221)"
			"material" "NULL"
			"uaxis" "[0 1 0 11] 1"
			"vaxis" "[0 0 -1 -11] 1"
			"rotation" "0"
			"lightmapscale" "0"
			"smoothing_groups" "0"
		}
		side
		{
			"id" "137"
			"plane" "(-1298 -2011 31221) (-1298 -2011 31061) (-1330 -2011 31221)"
			"material" "NULL"
			"uaxis" "[1 0 0 2] 1"
			"vaxis" "[0 0 -1 -11] 1"
			"rotation" "0"
			"lightmapscale" "0"
			"smoothing_groups" "0"
		}
		side
		{
			"id" "138"
			"plane" "(-1330 -1499 31221) (-1330 -1499 31061) (-1298 -1499 31221)"
			"material" "NULL"
			"uaxis" "[1 0 0 2] 1"
			"vaxis" "[0 0 -1 -11] 1"
			"rotation" "0"
			"lightmapscale" "0"
			"smoothing_groups" "0"
		}
		side
		{
			"id" "139"
			"plane" "(-1330 -2011 31221) (-1330 -1499 31221) (-1298 -2011 31221)"
			"material" "NULL"
			"uaxis" "[1 0 0 2] 1"
			"vaxis" "[0 -1 0 -11] 1"
			"rotation" "0"
			"lightmapscale" "0"
			"smoothing_groups" "0"
		}
		side
		{
			"id" "140"
			"plane" "(-1330 -1499 31061) (-1330 -2011 31061) (-1298 -1499 31061)"
			"material" "NULL"
			"uaxis" "[1 0 0 2] 1"
			"vaxis" "[0 -1 0 -11] 1"
			"rotation" "0"
			"lightmapscale" "0"
			"smoothing_groups" "0"
		}
		editor
		{
			"color" "218 218 252"
		}
	}
	solid
	{
		"id" "141"
		side
		{
			"id" "142"
			"plane" "(-786 -1467 31221) (-786 -1467 31061) (-786 -1499 31221)"
			"material" "NULL"
			"uaxis" "[0 1 0 11] 1"
			"vaxis" "[0 0 -1 -11] 1"
			"rotation" "0"
			"lightmapscale" "0"
			"smoothing_groups" "0"
		}
		side
		{
			"id" "143"
			"plane" "(-1298 -1499 31221) (-1298 -1499 31061) (-1298 -1467 31221)"
			"material" "NULL"
			"uaxis" "[0 1 0 11] 1"
			"vaxis" "[0 0 -1 -11] 1"
			"rotation" "0"
			"lightmapscale" "0"
			"smoothing_groups" "0"
		}
		side
		{
			"id" "144"
			"plane" "(-786 -1499 31221) (-786 -1499 31061) (-1298 -1499 31221)"
			"material" "C1A0_WX"
			"uaxis" "[1 0 0 18] 1"
			"vaxis" "[0 0 -1 21] 1"
			"rotation" "0"
			"lightmapscale" "0"
			"smoothing_groups" "0"
		}
		side
		{
			"id" "145"
			"plane" "(-1298 -1467 31221) (-1298 -1467 31061) (-786 -1467 31221)"
			"material" "NULL"
			"uaxis" "[1 0 0 2] 1"
			"vaxis" "[0 0 -1 -11] 1"
			"rotation" "0"
			"lightmapscale" "0"
			"smoothing_groups" "0"
		}
		side
		{
			"id" "146"
			"plane" "(-1298 -1499 31221) (-1298 -1467 31221) (-786 -1499 31221)"
			"material" "NULL"
			"uaxis" "[1 0 0 2] 1"
			"vaxis" "[0 -1 0 -11] 1"
			"rotation" "0"
			"lightmapscale" "0"
			"smoothing_groups" "0"
		}
		side
		{
			"id" "147"
			"plane" "(-1298 -1467 31061) (-1298 -1499 31061) (-786 -1467 31061)"
			"material" "NULL"
			"uaxis" "[1 0 0 2] 1"
			"vaxis" "[0 -1 0 -11] 1"
			"rotation" "0"
			"lightmapscale" "0"
			"smoothing_groups" "0"
		}
		editor
		{
			"color" "12 6 6"
		}
	}
	solid
	{
		"id" "148"
		side
		{
			"id" "149"
			"plane" "(-786 -2011 31221) (-786 -2011 31061) (-786 -2043 31221)"
			"material" "NULL"
			"uaxis" "[0 1 0 11] 1"
			"vaxis" "[0 0 -1 -11] 1"
			"rotation" "0"
			"lightmapscale" "0"
			"smoothing_groups" "0"
		}
		side
		{
			"id" "150"
			"plane" "(-1298 -2043 31221) (-1298 -2043 31061) (-1298 -2011 31221)"
			"material" "NULL"
			"uaxis" "[0 1 0 11] 1"
			"vaxis" "[0 0 -1 -11] 1"
			"rotation" "0"
			"lightmapscale" "0"
			"smoothing_groups" "0"
		}
		side
		{
			"id" "151"
			"plane" "(-786 -2043 31221) (-786 -2043 31061) (-1298 -2043 31221)"
			"material" "NULL"
			"uaxis" "[1 0 0 2] 1"
			"vaxis" "[0 0 -1 -11] 1"
			"rotation" "0"
			"lightmapscale" "0"
			"smoothing_groups" "0"
		}
		side
		{
			"id" "152"
			"plane" "(-1298 -2011 31221) (-1298 -2011 31061) (-786 -2011 31221)"
			"material" "C1A0_WX"
			"uaxis" "[1 0 0 18] 1"
			"vaxis" "[0 0 -1 21] 1"
			"rotation" "0"
			"lightmapscale" "0"
			"smoothing_groups" "0"
		}
		side
		{
			"id" "153"
			"plane" "(-1298 -2043 31221) (-1298 -2011 31221) (-786 -2043 31221)"
			"material" "NULL"
			"uaxis" "[1 0 0 2] 1"
			"vaxis" "[0 -1 0 -11] 1"
			"rotation" "0"
			"lightmapscale" "0"
			"smoothing_groups" "0"
		}
		side
		{
			"id" "154"
			"plane" "(-1298 -2011 31061) (-1298 -2043 31061) (-786 -2011 31061)"
			"material" "NULL"
			"uaxis" "[1 0 0 2] 1"
			"vaxis" "[0 -1 0 -11] 1"
			"rotation" "0"
			"lightmapscale" "0"
			"smoothing_groups" "0"
		}
		editor
		{
			"color" "49 152 3"
		}
	}
	solid
	{
		"id" "155"
		side
		{
			"id" "156"
			"plane" "(-786 -1499 31253) (-786 -1499 31221) (-786 -2011 31253)"
			"material" "NULL"
			"uaxis" "[0 1 0 11] 1"
			"vaxis" "[0 0 -1 -11] 1"
			"rotation" "0"
			"lightmapscale" "0"
			"smoothing_groups" "0"
		}
		side
		{
			"id" "157"
			"plane" "(-1298 -2011 31253) (-1298 -2011 31221) (-1298 -1499 31253)"
			"material" "NULL"
			"uaxis" "[0 1 0 11] 1"
			"vaxis" "[0 0 -1 -11] 1"
			"rotation" "0"
			"lightmapscale" "0"
			"smoothing_groups" "0"
		}
		side
		{
			"id" "158"
			"plane" "(-786 -2011 31253) (-786 -2011 31221) (-1298 -2011 31253)"
			"material" "NULL"
			"uaxis" "[1 0 0 2] 1"
			"vaxis" "[0 0 -1 -11] 1"
			"rotation" "0"
			"lightmapscale" "0"
			"smoothing_groups" "0"
		}
		side
		{
			"id" "159"
			"plane" "(-1298 -1499 31253) (-1298 -1499 31221) (-786 -1499 31253)"
			"material" "NULL"
			"uaxis" "[1 0 0 2] 1"
			"vaxis" "[0 0 -1 -11] 1"
			"rotation" "0"
			"lightmapscale" "0"
			"smoothing_groups" "0"
		}
		side
		{
			"id" "160"
			"plane" "(-1298 -2011 31253) (-1298 -1499 31253) (-786 -2011 31253)"
			"material" "NULL"
			"uaxis" "[1 0 0 2] 1"
			"vaxis" "[0 -1 0 -11] 1"
			"rotation" "0"
			"lightmapscale" "0"
			"smoothing_groups" "0"
		}
		side
		{
			"id" "161"
			"plane" "(-1298 -1499 31221) (-1298 -2011 31221) (-786 -1499 31221)"
			"material" "C2A4E_W1"
			"uaxis" "[1 0 0 18] 1"
			"vaxis" "[0 -1 0 -155] 1"
			"rotation" "0"
			"lightmapscale" "0"
			"smoothing_groups" "0"
		}
		editor
		{
			"color" "154 93 68"
		}
	}
	solid
	{
		"id" "162"
		side
		{
			"id" "163"
			"plane" "(-786 -1499 31061) (-786 -1499 31029) (-786 -2011 31061)"
			"material" "NULL"
			"uaxis" "[0 1 0 11] 1"
			"vaxis" "[0 0 -1 -11] 1"
			"rotation" "0"
			"lightmapscale" "0"
			"smoothing_groups" "0"
		}
		side
		{
			"id" "164"
			"plane" "(-1298 -2011 31061) (-1298 -2011 31029) (-1298 -1499 31061)"
			"material" "NULL"
			"uaxis" "[0 1 0 11] 1"
			"vaxis" "[0 0 -1 -11] 1"
			"rotation" "0"
			"lightmapscale" "0"
			"smoothing_groups" "0"
		}
		side
		{
			"id" "165"
			"plane" "(-786 -2011 31061) (-786 -2011 31029) (-1298 -2011 31061)"
			"material" "NULL"
			"uaxis" "[1 0 0 2] 1"
			"vaxis" "[0 0 -1 -11] 1"
			"rotation" "0"
			"lightmapscale" "0"
			"smoothing_groups" "0"
		}
		side
		{
			"id" "166"
			"plane" "(-1298 -1499 31061) (-1298 -1499 31029) (-786 -1499 31061)"
			"material" "NULL"
			"uaxis" "[1 0 0 2] 1"
			"vaxis" "[0 0 -1 -11] 1"
			"rotation" "0"
			"lightmapscale" "0"
			"smoothing_groups" "0"
		}
		side
		{
			"id" "167"
			"plane" "(-1298 -2011 31061) (-1298 -1499 31061) (-786 -2011 31061)"
			"material" "C1A0_LABFLRC"
			"uaxis" "[1 0 0 18] 1"
			"vaxis" "[0 -1 0 -91] 1"
			"rotation" "0"
			"lightmapscale" "0"
			"smoothing_groups" "0"
		}
		side
		{
			"id" "168"
			"plane" "(-1298 -1499 31029) (-1298 -2011 31029) (-786 -1499 31029)"
			"material" "NULL"
			"uaxis" "[1 0 0 2] 1"
			"vaxis" "[0 -1 0 -11] 1"
			"rotation" "0"
			"lightmapscale" "0"
			"smoothing_groups" "0"
		}
		editor
		{
			"color" "216 231 219"
		}
	}
	solid
	{
		"id" "169"
		side
		{
			"id" "170"
			"plane" "(-26780 -27356 -22304) (-26780 -27356 -22464) (-26780 -26844 -22304)"
			"material" "C1A0_WX"
			"uaxis" "[0 1 0 92] 1"
			"vaxis" "[0 0 -1 96] 1"
			"rotation" "0"
			"lightmapscale" "0"
			"smoothing_groups" "0"
		}
		side
		{
			"id" "171"
			"plane" "(-26748 -26844 -22304) (-26748 -26844 -22464) (-26748 -27356 -22304)"
			"material" "NULL"
			"uaxis" "[0 1 0 12] 1"
			"vaxis" "[0 0 -1 0] 1"
			"rotation" "0"
			"lightmapscale" "0"
			"smoothing_groups" "0"
		}
		side
		{
			"id" "172"
			"plane" "(-26780 -26844 -22304) (-26780 -26844 -22464) (-26748 -26844 -22304)"
			"material" "NULL"
			"uaxis" "[1 0 0 12] 1"
			"vaxis" "[0 0 -1 0] 1"
			"rotation" "0"
			"lightmapscale" "0"
			"smoothing_groups" "0"
		}
		side
		{
			"id" "173"
			"plane" "(-26748 -27356 -22304) (-26748 -27356 -22464) (-26780 -27356 -22304)"
			"material" "NULL"
			"uaxis" "[1 0 0 12] 1"
			"vaxis" "[0 0 -1 0] 1"
			"rotation" "0"
			"lightmapscale" "0"
			"smoothing_groups" "0"
		}
		side
		{
			"id" "174"
			"plane" "(-26780 -26844 -22464) (-26780 -27356 -22464) (-26748 -26844 -22464)"
			"material" "NULL"
			"uaxis" "[1 0 0 12] 1"
			"vaxis" "[0 -1 0 -12] 1"
			"rotation" "0"
			"lightmapscale" "0"
			"smoothing_groups" "0"
		}
		side
		{
			"id" "175"
			"plane" "(-26780 -27356 -22304) (-26780 -26844 -22304) (-26748 -27356 -22304)"
			"material" "NULL"
			"uaxis" "[1 0 0 12] 1"
			"vaxis" "[0 -1 0 -12] 1"
			"rotation" "0"
			"lightmapscale" "0"
			"smoothing_groups" "0"
		}
		editor
		{
			"color" "95 97 46"
		}
	}
	solid
	{
		"id" "176"
		side
		{
			"id" "177"
			"plane" "(-27324 -27356 -22304) (-27324 -27356 -22464) (-27324 -26844 -22304)"
			"material" "NULL"
			"uaxis" "[0 1 0 12] 1"
			"vaxis" "[0 0 -1 0] 1"
			"rotation" "0"
			"lightmapscale" "0"
			"smoothing_groups" "0"
		}
		side
		{
			"id" "178"
			"plane" "(-27292 -26844 -22304) (-27292 -26844 -22464) (-27292 -27356 -22304)"
			"material" "C1A0_WX"
			"uaxis" "[0 1 0 92] 1"
			"vaxis" "[0 0 -1 96] 1"
			"rotation" "0"
			"lightmapscale" "0"
			"smoothing_groups" "0"
		}
		side
		{
			"id" "179"
			"plane" "(-27324 -26844 -22304) (-27324 -26844 -22464) (-27292 -26844 -22304)"
			"material" "NULL"
			"uaxis" "[1 0 0 12] 1"
			"vaxis" "[0 0 -1 0] 1"
			"rotation" "0"
			"lightmapscale" "0"
			"smoothing_groups" "0"
		}
		side
		{
			"id" "180"
			"plane" "(-27292 -27356 -22304) (-27292 -27356 -22464) (-27324 -27356 -22304)"
			"material" "NULL"
			"uaxis" "[1 0 0 12] 1"
			"vaxis" "[0 0 -1 0] 1"
			"rotation" "0"
			"lightmapscale" "0"
			"smoothing_groups" "0"
		}
		side
		{
			"id" "181"
			"plane" "(-27324 -26844 -22464) (-27324 -27356 -22464) (-27292 -26844 -22464)"
			"material" "NULL"
			"uaxis" "[1 0 0 12] 1"
			"vaxis" "[0 -1 0 -12] 1"
			"rotation" "0"
			"lightmapscale" "0"
			"smoothing_groups" "0"
		}
		side
		{
			"id" "182"
			"plane" "(-27324 -27356 -22304) (-27324 -26844 -22304) (-27292 -27356 -22304)"
			"material" "NULL"
			"uaxis" "[1 0 0 12] 1"
			"vaxis" "[0 -1 0 -12] 1"
			"rotation" "0"
			"lightmapscale" "0"
			"smoothing_groups" "0"
		}
		editor
		{
			"color" "51 118 58"
		}
	}
	solid
	{
		"id" "183"
		side
		{
			"id" "184"
			"plane" "(-27292 -26844 -22304) (-27292 -26844 -22464) (-27292 -26812 -22304)"
			"material" "NULL"
			"uaxis" "[0 1 0 12] 1"
			"vaxis" "[0 0 -1 0] 1"
			"rotation" "0"
			"lightmapscale" "0"
			"smoothing_groups" "0"
		}
		side
		{
			"id" "185"
			"plane" "(-26780 -26812 -22304) (-26780 -26812 -22464) (-26780 -26844 -22304)"
			"material" "NULL"
			"uaxis" "[0 1 0 12] 1"
			"vaxis" "[0 0 -1 0] 1"
			"rotation" "0"
			"lightmapscale" "0"
			"smoothing_groups" "0"
		}
		side
		{
			"id" "186"
			"plane" "(-27292 -26812 -22304) (-27292 -26812 -22464) (-26780 -26812 -22304)"
			"material" "NULL"
			"uaxis" "[1 0 0 12] 1"
			"vaxis" "[0 0 -1 0] 1"
			"rotation" "0"
			"lightmapscale" "0"
			"smoothing_groups" "0"
		}
		side
		{
			"id" "187"
			"plane" "(-26780 -26844 -22304) (-26780 -26844 -22464) (-27292 -26844 -22304)"
			"material" "C1A0_WX"
			"uaxis" "[1 0 0 28] 1"
			"vaxis" "[0 0 -1 96] 1"
			"rotation" "0"
			"lightmapscale" "0"
			"smoothing_groups" "0"
		}
		side
		{
			"id" "188"
			"plane" "(-27292 -26812 -22464) (-27292 -26844 -22464) (-26780 -26812 -22464)"
			"material" "NULL"
			"uaxis" "[1 0 0 12] 1"
			"vaxis" "[0 -1 0 -12] 1"
			"rotation" "0"
			"lightmapscale" "0"
			"smoothing_groups" "0"
		}
		side
		{
			"id" "189"
			"plane" "(-27292 -26844 -22304) (-27292 -26812 -22304) (-26780 -26844 -22304)"
			"material" "NULL"
			"uaxis" "[1 0 0 12] 1"
			"vaxis" "[0 -1 0 -12] 1"
			"rotation" "0"
			"lightmapscale" "0"
			"smoothing_groups" "0"
		}
		editor
		{
			"color" "90 67 77"
		}
	}
	solid
	{
		"id" "190"
		side
		{
			"id" "191"
			"plane" "(-27292 -27388 -22304) (-27292 -27388 -22464) (-27292 -27356 -22304)"
			"material" "NULL"
			"uaxis" "[0 1 0 12] 1"
			"vaxis" "[0 0 -1 0] 1"
			"rotation" "0"
			"lightmapscale" "0"
			"smoothing_groups" "0"
		}
		side
		{
			"id" "192"
			"plane" "(-26780 -27356 -22304) (-26780 -27356 -22464) (-26780 -27388 -22304)"
			"material" "NULL"
			"uaxis" "[0 1 0 12] 1"
			"vaxis" "[0 0 -1 0] 1"
			"rotation" "0"
			"lightmapscale" "0"
			"smoothing_groups" "0"
		}
		side
		{
			"id" "193"
			"plane" "(-27292 -27356 -22304) (-27292 -27356 -22464) (-26780 -27356 -22304)"
			"material" "C1A0_WX"
			"uaxis" "[1 0 0 28] 1"
			"vaxis" "[0 0 -1 96] 1"
			"rotation" "0"
			"lightmapscale" "0"
			"smoothing_groups" "0"
		}
		side
		{
			"id" "194"
			"plane" "(-26780 -27388 -22304) (-26780 -27388 -22464) (-27292 -27388 -22304)"
			"material" "NULL"
			"uaxis" "[1 0 0 12] 1"
			"vaxis" "[0 0 -1 0] 1"
			"rotation" "0"
			"lightmapscale" "0"
			"smoothing_groups" "0"
		}
		side
		{
			"id" "195"
			"plane" "(-27292 -27356 -22464) (-27292 -27388 -22464) (-26780 -27356 -22464)"
			"material" "NULL"
			"uaxis" "[1 0 0 12] 1"
			"vaxis" "[0 -1 0 -12] 1"
			"rotation" "0"
			"lightmapscale" "0"
			"smoothing_groups" "0"
		}
		side
		{
			"id" "196"
			"plane" "(-27292 -27388 -22304) (-27292 -27356 -22304) (-26780 -27388 -22304)"
			"material" "NULL"
			"uaxis" "[1 0 0 12] 1"
			"vaxis" "[0 -1 0 -12] 1"
			"rotation" "0"
			"lightmapscale" "0"
			"smoothing_groups" "0"
		}
		editor
		{
			"color" "14 2 139"
		}
	}
	solid
	{
		"id" "197"
		side
		{
			"id" "198"
			"plane" "(-27292 -27356 -22272) (-27292 -27356 -22304) (-27292 -26844 -22272)"
			"material" "NULL"
			"uaxis" "[0 1 0 12] 1"
			"vaxis" "[0 0 -1 0] 1"
			"rotation" "0"
			"lightmapscale" "0"
			"smoothing_groups" "0"
		}
		side
		{
			"id" "199"
			"plane" "(-26780 -26844 -22272) (-26780 -26844 -22304) (-26780 -27356 -22272)"
			"material" "NULL"
			"uaxis" "[0 1 0 12] 1"
			"vaxis" "[0 0 -1 0] 1"
			"rotation" "0"
			"lightmapscale" "0"
			"smoothing_groups" "0"
		}
		side
		{
			"id" "200"
			"plane" "(-27292 -26844 -22272) (-27292 -26844 -22304) (-26780 -26844 -22272)"
			"material" "NULL"
			"uaxis" "[1 0 0 12] 1"
			"vaxis" "[0 0 -1 0] 1"
			"rotation" "0"
			"lightmapscale" "0"
			"smoothing_groups" "0"
		}
		side
		{
			"id" "201"
			"plane" "(-26780 -27356 -22272) (-26780 -27356 -22304) (-27292 -27356 -22272)"
			"material" "NULL"
			"uaxis" "[1 0 0 12] 1"
			"vaxis" "[0 0 -1 0] 1"
			"rotation" "0"
			"lightmapscale" "0"
			"smoothing_groups" "0"
		}
		side
		{
			"id" "202"
			"plane" "(-27292 -26844 -22304) (-27292 -27356 -22304) (-26780 -26844 -22304)"
			"material" "C2A4E_W1"
			"uaxis" "[1 0 0 28] 1"
			"vaxis" "[0 -1 0 -60] 1"
			"rotation" "0"
			"lightmapscale" "0"
			"smoothing_groups" "0"
		}
		side
		{
			"id" "203"
			"plane" "(-27292 -27356 -22272) (-27292 -26844 -22272) (-26780 -27356 -22272)"
			"material" "NULL"
			"uaxis" "[1 0 0 12] 1"
			"vaxis" "[0 -1 0 -12] 1"
			"rotation" "0"
			"lightmapscale" "0"
			"smoothing_groups" "0"
		}
		editor
		{
			"color" "154 78 75"
		}
	}
	solid
	{
		"id" "204"
		side
		{
			"id" "205"
			"plane" "(-27292 -27356 -22464) (-27292 -27356 -22496) (-27292 -26844 -22464)"
			"material" "NULL"
			"uaxis" "[0 1 0 12] 1"
			"vaxis" "[0 0 -1 0] 1"
			"rotation" "0"
			"lightmapscale" "0"
			"smoothing_groups" "0"
		}
		side
		{
			"id" "206"
			"plane" "(-26780 -26844 -22464) (-26780 -26844 -22496) (-26780 -27356 -22464)"
			"material" "NULL"
			"uaxis" "[0 1 0 12] 1"
			"vaxis" "[0 0 -1 0] 1"
			"rotation" "0"
			"lightmapscale" "0"
			"smoothing_groups" "0"
		}
		side
		{
			"id" "207"
			"plane" "(-27292 -26844 -22464) (-27292 -26844 -22496) (-26780 -26844 -22464)"
			"material" "NULL"
			"uaxis" "[1 0 0 12] 1"
			"vaxis" "[0 0 -1 0] 1"
			"rotation" "0"
			"lightmapscale" "0"
			"smoothing_groups" "0"
		}
		side
		{
			"id" "208"
			"plane" "(-26780 -27356 -22464) (-26780 -27356 -22496) (-27292 -27356 -22464)"
			"material" "NULL"
			"uaxis" "[1 0 0 12] 1"
			"vaxis" "[0 0 -1 0] 1"
			"rotation" "0"
			"lightmapscale" "0"
			"smoothing_groups" "0"
		}
		side
		{
			"id" "209"
			"plane" "(-27292 -26844 -22496) (-27292 -27356 -22496) (-26780 -26844 -22496)"
			"material" "NULL"
			"uaxis" "[1 0 0 12] 1"
			"vaxis" "[0 -1 0 -12] 1"
			"rotation" "0"
			"lightmapscale" "0"
			"smoothing_groups" "0"
		}
		side
		{
			"id" "210"
			"plane" "(-27292 -27356 -22464) (-27292 -26844 -22464) (-26780 -27356 -22464)"
			"material" "C1A0_LABFLRC"
			"uaxis" "[1 0 0 28] 1"
			"vaxis" "[0 -1 0 -92] 1"
			"rotation" "0"
			"lightmapscale" "0"
			"smoothing_groups" "0"
		}
		editor
		{
			"color" "161 20 74"
		}
	}
	editor
	{
		"color" "255 255 255"
	}
}
entity
{
	"id" "211"
	"classname" "info_player_start"
	"origin" "-192 -4.76837e-07 96"
	"angles" "0 0 0"
	"spawnflags" "0"
	"skill" "0"
	editor
	{
		"color" "0 255 0"
	}
}
entity
{
	"id" "212"
	"classname" "light"
	"origin" "0 0 128"
	"_falloff" "2"
	"m_iTurnOffStyle" "0"
	"m_iTurnOffTime" "0"
	"m_iTurnOnStyle" "0"
	"m_iTurnOnTime" "0"
	"m_iOffStyle" "0"
	"m_iOnStyle" "0"
	"style" "0"
	"_light" "255 255 128 200"
	editor
	{
		"color" "255 255 128"
	}
}
entity
{
	"id" "213"
	"classname" "monster_scientist"
	"origin" "96 35 0"
	"sequence" "13"
	"CanNotHeal" "0"
	"suspicious" "0"
	"body" "-1"
	"m_iPlayerReact" "0"
	"m_iClass" "0"
	"spawnflags" "0"
	"skill" "0"
	"rendercolor" "0 0 0"
	"renderamt" "0"
	"rendermode" "0"
	"renderfx" "0"
	"angles" "0 0 0"
	editor
	{
		"color" "0 200 200"
	}
}
entity
{
	"id" "214"
	"classname" "monster_human_grunt_ally_extended"
	"origin" "120 -88 0"
	"PlayerBullets" "0"
	"FriendToSci" "1"
	"UsingCustomModel" "0"
	"body" "-5"
	"Skintone" "0"
	"VoicePreset" "-1"
	"GruntType" "0"
	"Grenade" "2"
	"roachdrop" "1"
	"NewWeapons" "0"
	"m_iPlayerReact" "0"
	"m_iClass" "0"
	"skin" "3"
	"model" "models/editormodels/_match_type.mdl"
	"spawnflags" "0"
	"skill" "0"
	"rendercolor" "0 0 0"
	"renderamt" "0"
	"rendermode" "0"
	"renderfx" "0"
	"angles" "0 0 0"
	editor
	{
		"color" "0 200 200"
	}
}
entity
{
	"id" "215"
	"classname" "monster_barney_extended"
	"origin" "96 104 0"
	"VoicePreset" "-1"
	"body" "-1"
	"KevlarStrength" "-1"
	"HelmetStrength" "0"
	"HasHelmet" "-3"
	"PlayerBullets" "0"
	"weapons" "-1"
	"suspicious" "0"
	"m_iPlayerReact" "0"
	"m_iClass" "0"
	"model" "models/editormodels/_random_all.mdl"
	"spawnflags" "0"
	"skill" "0"
	"rendercolor" "0 0 0"
	"renderamt" "0"
	"rendermode" "0"
	"renderfx" "0"
	"angles" "0 0 0"
	editor
	{
		"color" "0 200 200"
	}
}
entity
{
	"id" "216"
	"classname" "light"
	"origin" "30785 30703 128"
	"_falloff" "2"
	"m_iTurnOffStyle" "0"
	"m_iTurnOffTime" "0"
	"m_iTurnOnStyle" "0"
	"m_iTurnOnTime" "0"
	"m_iOffStyle" "0"
	"m_iOnStyle" "0"
	"style" "0"
	"_light" "255 255 128 200"
	editor
	{
		"color" "255 255 128"
	}
}
entity
{
	"id" "217"
	"classname" "monster_scientist"
	"origin" "30881 30738 0"
	"sequence" "13"
	"CanNotHeal" "0"
	"suspicious" "0"
	"body" "-1"
	"m_iPlayerReact" "0"
	"m_iClass" "0"
	"spawnflags" "0"
	"skill" "0"
	"rendercolor" "0 0 0"
	"renderamt" "0"
	"rendermode" "0"
	"renderfx" "0"
	"angles" "0 0 0"
	editor
	{
		"color" "0 200 200"
	}
}
entity
{
	"id" "218"
	"classname" "monster_human_grunt_ally_extended"
	"origin" "30905 30615 0"
	"PlayerBullets" "0"
	"FriendToSci" "1"
	"UsingCustomModel" "0"
	"body" "-5"
	"Skintone" "0"
	"VoicePreset" "-1"
	"GruntType" "0"
	"Grenade" "2"
	"roachdrop" "1"
	"NewWeapons" "0"
	"m_iPlayerReact" "0"
	"m_iClass" "0"
	"skin" "3"
	"model" "models/editormodels/_match_type.mdl"
	"spawnflags" "0"
	"skill" "0"
	"rendercolor" "0 0 0"
	"renderamt" "0"
	"rendermode" "0"
	"renderfx" "0"
	"angles" "0 0 0"
	editor
	{
		"color" "0 200 200"
	}
}
entity
{
	"id" "219"
	"classname" "monster_barney_extended"
	"origin" "30881 30807 0"
	"VoicePreset" "-1"
	"body" "-1"
	"KevlarStrength" "-1"
	"HelmetStrength" "0"
	"HasHelmet" "-3"
	"PlayerBullets" "0"
	"weapons" "-1"
	"suspicious" "0"
	"m_iPlayerReact" "0"
	"m_iClass" "0"
	"model" "models/editormodels/_random_all.mdl"
	"spawnflags" "0"
	"skill" "0"
	"rendercolor" "0 0 0"
	"renderamt" "0"
	"rendermode" "0"
	"renderfx" "0"
	"angles" "0 0 0"
	editor
	{
		"color" "0 200 200"
	}
}
entity
{
	"id" "220"
	"classname" "trigger_quake_teleport"
	"delay" "0"
	"target" "back_to_start"
	solid
	{
		"id" "221"
		side
		{
			"id" "222"
			"plane" "(30547 30472 111) (30547 30472 12) (30547 30534 111)"
			"material" "AAATRIGGER"
			"uaxis" "[0 1 0 5] 1"
			"vaxis" "[0 0 -1 11] 1"
			"rotation" "0"
			"lightmapscale" "0"
			"smoothing_groups" "0"
		}
		side
		{
			"id" "223"
			"plane" "(30636 30534 111) (30636 30534 12) (30636 30472 111)"
			"material" "AAATRIGGER"
			"uaxis" "[0 1 0 -5] 1"
			"vaxis" "[0 0 -1 11] 1"
			"rotation" "0"
			"lightmapscale" "0"
			"smoothing_groups" "0"
		}
		side
		{
			"id" "224"
			"plane" "(30547 30534 111) (30547 30534 12) (30636 30534 111)"
			"material" "AAATRIGGER"
			"uaxis" "[1 0 0 12] 1"
			"vaxis" "[0 0 -1 11] 1"
			"rotation" "0"
			"lightmapscale" "0"
			"smoothing_groups" "0"
		}
		side
		{
			"id" "225"
			"plane" "(30636 30472 111) (30636 30472 12) (30547 30472 111)"
			"material" "AAATRIGGER"
			"uaxis" "[1 0 0 -12] 1"
			"vaxis" "[0 0 -1 11] 1"
			"rotation" "0"
			"lightmapscale" "0"
			"smoothing_groups" "0"
		}
		side
		{
			"id" "226"
			"plane" "(30547 30472 111) (30547 30534 111) (30636 30472 111)"
			"material" "AAATRIGGER"
			"uaxis" "[1 0 0 -12] 1"
			"vaxis" "[0 -1 0 5] 1"
			"rotation" "0"
			"lightmapscale" "0"
			"smoothing_groups" "0"
		}
		side
		{
			"id" "227"
			"plane" "(30547 30534 12) (30547 30472 12) (30636 30534 12)"
			"material" "AAATRIGGER"
			"uaxis" "[1 0 0 12] 1"
			"vaxis" "[0 -1 0 5] 1"
			"rotation" "0"
			"lightmapscale" "0"
			"smoothing_groups" "0"
		}
		editor
		{
			"color" "133 96 4"
		}
	}
	editor
	{
		"color" "220 30 220"
	}
}
entity
{
	"id" "228"
	"classname" "info_target"
	"origin" "-192 -1 77"
	"targetname" "back_to_start"
	editor
	{
		"color" "200 100 50"
	}
}
entity
{
	"id" "229"
	"classname" "env_sprite"
	"origin" "30586 30505 71"
	"model" "sprites/fire.spr"
	"frags" "0"
	"framerate" "10.0"
	"rendercolor" "255 255 255"
	"renderamt" "255"
	"rendermode" "3"
	"renderfx" "0"
	"angles" "0 0 0"
	editor
	{
		"color" "220 30 220"
	}
}
entity
{
	"id" "230"
	"classname" "info_target"
	"origin" "30608 30718 77"
	"targetname" "to_spotA"
	editor
	{
		"color" "200 100 50"
	}
}
entity
{
	"id" "231"
	"classname" "light"
	"origin" "-30093 31681 -31483"
	"_falloff" "2"
	"m_iTurnOffStyle" "0"
	"m_iTurnOffTime" "0"
	"m_iTurnOnStyle" "0"
	"m_iTurnOnTime" "0"
	"m_iOffStyle" "0"
	"m_iOnStyle" "0"
	"style" "0"
	"_light" "255 255 128 200"
	editor
	{
		"color" "255 255 128"
	}
}
entity
{
	"id" "232"
	"classname" "monster_scientist"
	"origin" "-29997 31716 -31611"
	"sequence" "13"
	"CanNotHeal" "0"
	"suspicious" "0"
	"body" "-1"
	"m_iPlayerReact" "0"
	"m_iClass" "0"
	"spawnflags" "0"
	"skill" "0"
	"rendercolor" "0 0 0"
	"renderamt" "0"
	"rendermode" "0"
	"renderfx" "0"
	"angles" "0 0 0"
	editor
	{
		"color" "0 200 200"
	}
}
entity
{
	"id" "233"
	"classname" "monster_human_grunt_ally_extended"
	"origin" "-29973 31593 -31611"
	"PlayerBullets" "0"
	"FriendToSci" "1"
	"UsingCustomModel" "0"
	"body" "-5"
	"Skintone" "0"
	"VoicePreset" "-1"
	"GruntType" "0"
	"Grenade" "2"
	"roachdrop" "1"
	"NewWeapons" "0"
	"m_iPlayerReact" "0"
	"m_iClass" "0"
	"skin" "3"
	"model" "models/editormodels/_match_type.mdl"
	"spawnflags" "0"
	"skill" "0"
	"rendercolor" "0 0 0"
	"renderamt" "0"
	"rendermode" "0"
	"renderfx" "0"
	"angles" "0 0 0"
	editor
	{
		"color" "0 200 200"
	}
}
entity
{
	"id" "234"
	"classname" "monster_barney_extended"
	"origin" "-29997 31785 -31611"
	"VoicePreset" "-1"
	"body" "-1"
	"KevlarStrength" "-1"
	"HelmetStrength" "0"
	"HasHelmet" "-3"
	"PlayerBullets" "0"
	"weapons" "-1"
	"suspicious" "0"
	"m_iPlayerReact" "0"
	"m_iClass" "0"
	"model" "models/editormodels/_random_all.mdl"
	"spawnflags" "0"
	"skill" "0"
	"rendercolor" "0 0 0"
	"renderamt" "0"
	"rendermode" "0"
	"renderfx" "0"
	"angles" "0 0 0"
	editor
	{
		"color" "0 200 200"
	}
}
entity
{
	"id" "235"
	"classname" "trigger_quake_teleport"
	"delay" "0"
	"target" "back_to_start"
	solid
	{
		"id" "236"
		side
		{
			"id" "237"
			"plane" "(-30242 31512 -31500) (-30242 31512 -31599) (-30242 31450 -31500)"
			"material" "AAATRIGGER"
			"uaxis" "[0 1 0 9] 1"
			"vaxis" "[0 0 -1 -0] 1"
			"rotation" "0"
			"lightmapscale" "0"
			"smoothing_groups" "0"
		}
		side
		{
			"id" "238"
			"plane" "(-30331 31450 -31500) (-30331 31450 -31599) (-30331 31512 -31500)"
			"material" "AAATRIGGER"
			"uaxis" "[0 1 0 -9] 1"
			"vaxis" "[0 0 -1 -0] 1"
			"rotation" "0"
			"lightmapscale" "0"
			"smoothing_groups" "0"
		}
		side
		{
			"id" "239"
			"plane" "(-30242 31450 -31500) (-30242 31450 -31599) (-30331 31450 -31500)"
			"material" "AAATRIGGER"
			"uaxis" "[1 0 0 2] 1"
			"vaxis" "[0 0 -1 -0] 1"
			"rotation" "0"
			"lightmapscale" "0"
			"smoothing_groups" "0"
		}
		side
		{
			"id" "240"
			"plane" "(-30331 31512 -31500) (-30331 31512 -31599) (-30242 31512 -31500)"
			"material" "AAATRIGGER"
			"uaxis" "[1 0 0 -2] 1"
			"vaxis" "[0 0 -1 -0] 1"
			"rotation" "0"
			"lightmapscale" "0"
			"smoothing_groups" "0"
		}
		side
		{
			"id" "241"
			"plane" "(-30331 31512 -31599) (-30331 31450 -31599) (-30242 31512 -31599)"
			"material" "AAATRIGGER"
			"uaxis" "[1 0 0 -2] 1"
			"vaxis" "[0 -1 0 -9] 1"
			"rotation" "0"
			"lightmapscale" "0"
			"smoothing_groups" "0"
		}
		side
		{
			"id" "242"
			"plane" "(-30331 31450 -31500) (-30331 31512 -31500) (-30242 31450 -31500)"
			"material" "AAATRIGGER"
			"uaxis" "[1 0 0 2] 1"
			"vaxis" "[0 -1 0 -9] 1"
			"rotation" "0"
			"lightmapscale" "0"
			"smoothing_groups" "0"
		}
		editor
		{
			"color" "248 64 58"
		}
	}
	editor
	{
		"color" "220 30 220"
	}
}
entity
{
	"id" "243"
	"classname" "env_sprite"
	"origin" "-30292 31483 -31540"
	"model" "sprites/fire.spr"
	"frags" "0"
	"framerate" "10.0"
	"rendercolor" "255 255 255"
	"renderamt" "255"
	"rendermode" "3"
	"renderfx" "0"
	"angles" "0 0 0"
	editor
	{
		"color" "220 30 220"
	}
}
entity
{
	"id" "244"
	"classname" "info_target"
	"origin" "-30270 31696 -31534"
	"targetname" "to_spotB"
	editor
	{
		"color" "200 100 50"
	}
}
entity
{
	"id" "245"
	"classname" "light"
	"origin" "-1042 -1755 31189"
	"_falloff" "2"
	"m_iTurnOffStyle" "0"
	"m_iTurnOffTime" "0"
	"m_iTurnOnStyle" "0"
	"m_iTurnOnTime" "0"
	"m_iOffStyle" "0"
	"m_iOnStyle" "0"
	"style" "0"
	"_light" "255 255 128 200"
	editor
	{
		"color" "255 255 128"
	}
}
entity
{
	"id" "246"
	"classname" "monster_scientist"
	"origin" "-946 -1720 31061"
	"sequence" "13"
	"CanNotHeal" "0"
	"suspicious" "0"
	"body" "-1"
	"m_iPlayerReact" "0"
	"m_iClass" "0"
	"spawnflags" "0"
	"skill" "0"
	"rendercolor" "0 0 0"
	"renderamt" "0"
	"rendermode" "0"
	"renderfx" "0"
	"angles" "0 0 0"
	editor
	{
		"color" "0 200 200"
	}
}
entity
{
	"id" "247"
	"classname" "monster_human_grunt_ally_extended"
	"origin" "-922 -1843 31061"
	"PlayerBullets" "0"
	"FriendToSci" "1"
	"UsingCustomModel" "0"
	"body" "-5"
	"Skintone" "0"
	"VoicePreset" "-1"
	"GruntType" "0"
	"Grenade" "2"
	"roachdrop" "1"
	"NewWeapons" "0"
	"m_iPlayerReact" "0"
	"m_iClass" "0"
	"skin" "3"
	"model" "models/editormodels/_match_type.mdl"
	"spawnflags" "0"
	"skill" "0"
	"rendercolor" "0 0 0"
	"renderamt" "0"
	"rendermode" "0"
	"renderfx" "0"
	"angles" "0 0 0"
	editor
	{
		"color" "0 200 200"
	}
}
entity
{
	"id" "248"
	"classname" "monster_barney_extended"
	"origin" "-946 -1651 31061"
	"VoicePreset" "-1"
	"body" "-1"
	"KevlarStrength" "-1"
	"HelmetStrength" "0"
	"HasHelmet" "-3"
	"PlayerBullets" "0"
	"weapons" "-1"
	"suspicious" "0"
	"m_iPlayerReact" "0"
	"m_iClass" "0"
	"model" "models/editormodels/_random_all.mdl"
	"spawnflags" "0"
	"skill" "0"
	"rendercolor" "0 0 0"
	"renderamt" "0"
	"rendermode" "0"
	"renderfx" "0"
	"angles" "0 0 0"
	editor
	{
		"color" "0 200 200"
	}
}
entity
{
	"id" "249"
	"classname" "trigger_quake_teleport"
	"delay" "0"
	"target" "back_to_start"
	solid
	{
		"id" "250"
		side
		{
			"id" "251"
			"plane" "(-1191 -1924 31172) (-1191 -1924 31073) (-1191 -1986 31172)"
			"material" "AAATRIGGER"
			"uaxis" "[0 1 0 5] 1"
			"vaxis" "[0 0 -1 0] 1"
			"rotation" "0"
			"lightmapscale" "0"
			"smoothing_groups" "0"
		}
		side
		{
			"id" "252"
			"plane" "(-1280 -1986 31172) (-1280 -1986 31073) (-1280 -1924 31172)"
			"material" "AAATRIGGER"
			"uaxis" "[0 1 0 -5] 1"
			"vaxis" "[0 0 -1 0] 1"
			"rotation" "0"
			"lightmapscale" "0"
			"smoothing_groups" "0"
		}
		side
		{
			"id" "253"
			"plane" "(-1191 -1986 31172) (-1191 -1986 31073) (-1280 -1986 31172)"
			"material" "AAATRIGGER"
			"uaxis" "[1 0 0 7] 1"
			"vaxis" "[0 0 -1 0] 1"
			"rotation" "0"
			"lightmapscale" "0"
			"smoothing_groups" "0"
		}
		side
		{
			"id" "254"
			"plane" "(-1280 -1924 31172) (-1280 -1924 31073) (-1191 -1924 31172)"
			"material" "AAATRIGGER"
			"uaxis" "[1 0 0 -7] 1"
			"vaxis" "[0 0 -1 0] 1"
			"rotation" "0"
			"lightmapscale" "0"
			"smoothing_groups" "0"
		}
		side
		{
			"id" "255"
			"plane" "(-1280 -1924 31073) (-1280 -1986 31073) (-1191 -1924 31073)"
			"material" "AAATRIGGER"
			"uaxis" "[1 0 0 -7] 1"
			"vaxis" "[0 -1 0 -5] 1"
			"rotation" "0"
			"lightmapscale" "0"
			"smoothing_groups" "0"
		}
		side
		{
			"id" "256"
			"plane" "(-1280 -1986 31172) (-1280 -1924 31172) (-1191 -1986 31172)"
			"material" "AAATRIGGER"
			"uaxis" "[1 0 0 7] 1"
			"vaxis" "[0 -1 0 -5] 1"
			"rotation" "0"
			"lightmapscale" "0"
			"smoothing_groups" "0"
		}
		editor
		{
			"color" "68 54 64"
		}
	}
	editor
	{
		"color" "220 30 220"
	}
}
entity
{
	"id" "257"
	"classname" "env_sprite"
	"origin" "-1241 -1953 31132"
	"model" "sprites/fire.spr"
	"frags" "0"
	"framerate" "10.0"
	"rendercolor" "255 255 255"
	"renderamt" "255"
	"rendermode" "3"
	"renderfx" "0"
	"angles" "0 0 0"
	editor
	{
		"color" "220 30 220"
	}
}
entity
{
	"id" "258"
	"classname" "info_target"
	"origin" "-1219 -1740 31138"
	"targetname" "to_spotC"
	editor
	{
		"color" "200 100 50"
	}
}
entity
{
	"id" "259"
	"classname" "light"
	"origin" "-27036 -27100 -22336"
	"_falloff" "2"
	"m_iTurnOffStyle" "0"
	"m_iTurnOffTime" "0"
	"m_iTurnOnStyle" "0"
	"m_iTurnOnTime" "0"
	"m_iOffStyle" "0"
	"m_iOnStyle" "0"
	"style" "0"
	"_light" "255 255 128 200"
	editor
	{
		"color" "255 255 128"
	}
}
entity
{
	"id" "260"
	"classname" "monster_scientist"
	"origin" "-26940 -27065 -22464"
	"sequence" "13"
	"CanNotHeal" "0"
	"suspicious" "0"
	"body" "-1"
	"m_iPlayerReact" "0"
	"m_iClass" "0"
	"spawnflags" "0"
	"skill" "0"
	"rendercolor" "0 0 0"
	"renderamt" "0"
	"rendermode" "0"
	"renderfx" "0"
	"angles" "0 0 0"
	editor
	{
		"color" "0 200 200"
	}
}
entity
{
	"id" "261"
	"classname" "monster_human_grunt_ally_extended"
	"origin" "-26916 -27188 -22464"
	"model" "models/editormodels/_match_type.mdl"
	"PlayerBullets" "0"
	"FriendToSci" "1"
	"UsingCustomModel" "0"
	"body" "-5"
	"Skintone" "0"
	"VoicePreset" "-1"
	"GruntType" "0"
	"Grenade" "2"
	"roachdrop" "1"
	"NewWeapons" "0"
	"m_iPlayerReact" "0"
	"m_iClass" "0"
	"skin" "3"
	"spawnflags" "0"
	"skill" "0"
	"rendercolor" "0 0 0"
	"renderamt" "0"
	"rendermode" "0"
	"renderfx" "0"
	"angles" "0 0 0"
	editor
	{
		"color" "0 200 200"
	}
}
entity
{
	"id" "262"
	"classname" "monster_barney_extended"
	"origin" "-26940 -26996 -22464"
	"model" "models/editormodels/_random_all.mdl"
	"VoicePreset" "-1"
	"body" "-1"
	"KevlarStrength" "-1"
	"HelmetStrength" "0"
	"HasHelmet" "-3"
	"PlayerBullets" "0"
	"weapons" "-1"
	"suspicious" "0"
	"m_iPlayerReact" "0"
	"m_iClass" "0"
	"spawnflags" "0"
	"skill" "0"
	"rendercolor" "0 0 0"
	"renderamt" "0"
	"rendermode" "0"
	"renderfx" "0"
	"angles" "0 0 0"
	editor
	{
		"color" "0 200 200"
	}
}
entity
{
	"id" "263"
	"classname" "trigger_quake_teleport"
	"delay" "0"
	"target" "back_to_start"
	solid
	{
		"id" "264"
		side
		{
			"id" "265"
			"plane" "(-27274 -27331 -22353) (-27274 -27331 -22452) (-27274 -27269 -22353)"
			"material" "AAATRIGGER"
			"uaxis" "[0 1 0 -6] 1"
			"vaxis" "[0 0 -1 11] 1"
			"rotation" "0"
			"lightmapscale" "0"
			"smoothing_groups" "0"
		}
		side
		{
			"id" "266"
			"plane" "(-27185 -27269 -22353) (-27185 -27269 -22452) (-27185 -27331 -22353)"
			"material" "AAATRIGGER"
			"uaxis" "[0 1 0 6] 1"
			"vaxis" "[0 0 -1 11] 1"
			"rotation" "0"
			"lightmapscale" "0"
			"smoothing_groups" "0"
		}
		side
		{
			"id" "267"
			"plane" "(-27274 -27269 -22353) (-27274 -27269 -22452) (-27185 -27269 -22353)"
			"material" "AAATRIGGER"
			"uaxis" "[1 0 0 -1] 1"
			"vaxis" "[0 0 -1 11] 1"
			"rotation" "0"
			"lightmapscale" "0"
			"smoothing_groups" "0"
		}
		side
		{
			"id" "268"
			"plane" "(-27185 -27331 -22353) (-27185 -27331 -22452) (-27274 -27331 -22353)"
			"material" "AAATRIGGER"
			"uaxis" "[1 0 0 1] 1"
			"vaxis" "[0 0 -1 11] 1"
			"rotation" "0"
			"lightmapscale" "0"
			"smoothing_groups" "0"
		}
		side
		{
			"id" "269"
			"plane" "(-27274 -27331 -22353) (-27274 -27269 -22353) (-27185 -27331 -22353)"
			"material" "AAATRIGGER"
			"uaxis" "[1 0 0 1] 1"
			"vaxis" "[0 -1 0 -6] 1"
			"rotation" "0"
			"lightmapscale" "0"
			"smoothing_groups" "0"
		}
		side
		{
			"id" "270"
			"plane" "(-27274 -27269 -22452) (-27274 -27331 -22452) (-27185 -27269 -22452)"
			"material" "AAATRIGGER"
			"uaxis" "[1 0 0 -1] 1"
			"vaxis" "[0 -1 0 -6] 1"
			"rotation" "0"
			"lightmapscale" "0"
			"smoothing_groups" "0"
		}
		editor
		{
			"color" "188 137 157"
		}
	}
	editor
	{
		"color" "220 30 220"
	}
}
entity
{
	"id" "271"
	"classname" "env_sprite"
	"origin" "-27235 -27298 -22393"
	"model" "sprites/fire.spr"
	"frags" "0"
	"framerate" "10.0"
	"rendercolor" "255 255 255"
	"renderamt" "255"
	"rendermode" "3"
	"renderfx" "0"
	"angles" "0 0 0"
	editor
	{
		"color" "220 30 220"
	}
}
entity
{
	"id" "272"
	"classname" "info_target"
	"origin" "-27213 -27085 -22387"
	"targetname" "to_spotD"
	editor
	{
		"color" "200 100 50"
	}
}
entity
{
	"id" "273"
	"classname" "trigger_teleport"
	"target" "to_spotC"
	solid
	{
		"id" "274"
		side
		{
			"id" "275"
			"plane" "(-360 456 144) (-360 456 16) (-360 360 144)"
			"material" "AAATRIGGER"
			"uaxis" "[0 1 0 0] 1"
			"vaxis" "[0 0 -1 0] 1"
			"rotation" "0"
			"lightmapscale" "0"
			"smoothing_groups" "0"
		}
		side
		{
			"id" "276"
			"plane" "(-464 360 144) (-464 360 16) (-464 456 144)"
			"material" "AAATRIGGER"
			"uaxis" "[0 1 0 0] 1"
			"vaxis" "[0 0 -1 0] 1"
			"rotation" "0"
			"lightmapscale" "0"
			"smoothing_groups" "0"
		}
		side
		{
			"id" "277"
			"plane" "(-360 360 144) (-360 360 16) (-464 360 144)"
			"material" "AAATRIGGER"
			"uaxis" "[1 0 0 0] 1"
			"vaxis" "[0 0 -1 0] 1"
			"rotation" "0"
			"lightmapscale" "0"
			"smoothing_groups" "0"
		}
		side
		{
			"id" "278"
			"plane" "(-464 456 144) (-464 456 16) (-360 456 144)"
			"material" "AAATRIGGER"
			"uaxis" "[1 0 0 0] 1"
			"vaxis" "[0 0 -1 0] 1"
			"rotation" "0"
			"lightmapscale" "0"
			"smoothing_groups" "0"
		}
		side
		{
			"id" "279"
			"plane" "(-464 456 16) (-464 360 16) (-360 456 16)"
			"material" "AAATRIGGER"
			"uaxis" "[1 0 0 0] 1"
			"vaxis" "[0 -1 0 0] 1"
			"rotation" "0"
			"lightmapscale" "0"
			"smoothing_groups" "0"
		}
		side
		{
			"id" "280"
			"plane" "(-464 360 144) (-464 456 144) (-360 360 144)"
			"material" "AAATRIGGER"
			"uaxis" "[1 0 0 0] 1"
			"vaxis" "[0 -1 0 0] 1"
			"rotation" "0"
			"lightmapscale" "0"
			"smoothing_groups" "0"
		}
		editor
		{
			"color" "60 217 25"
		}
	}
	editor
	{
		"color" "220 30 220"
	}
}
entity
{
	"id" "281"
	"classname" "infodecal"
	"origin" "-416 408 0"
	"skill" "0"
	"texture" "{TARGET"
	editor
	{
		"color" "220 30 220"
	}
}
entity
{
	"id" "282"
	"classname" "env_sprite"
	"origin" "-416 408 88"
	"frags" "0"
	"model" "sprites/glow_ylo.spr"
	"framerate" "10.0"
	"rendercolor" "255 255 255"
	"renderamt" "255"
	"rendermode" "3"
	"renderfx" "0"
	"angles" "0 0 0"
	editor
	{
		"color" "220 30 220"
	}
}
entity
{
	"id" "283"
	"classname" "trigger_teleport"
	"target" "to_spotD"
	solid
	{
		"id" "284"
		side
		{
			"id" "285"
			"plane" "(-464 -424 144) (-464 -424 16) (-464 -328 144)"
			"material" "AAATRIGGER"
			"uaxis" "[0 1 0 0] 1"
			"vaxis" "[0 0 -1 0] 1"
			"rotation" "0"
			"lightmapscale" "0"
			"smoothing_groups" "0"
		}
		side
		{
			"id" "286"
			"plane" "(-360 -328 144) (-360 -328 16) (-360 -424 144)"
			"material" "AAATRIGGER"
			"uaxis" "[0 1 0 0] 1"
			"vaxis" "[0 0 -1 0] 1"
			"rotation" "0"
			"lightmapscale" "0"
			"smoothing_groups" "0"
		}
		side
		{
			"id" "287"
			"plane" "(-464 -328 144) (-464 -328 16) (-360 -328 144)"
			"material" "AAATRIGGER"
			"uaxis" "[1 0 0 0] 1"
			"vaxis" "[0 0 -1 0] 1"
			"rotation" "0"
			"lightmapscale" "0"
			"smoothing_groups" "0"
		}
		side
		{
			"id" "288"
			"plane" "(-360 -424 144) (-360 -424 16) (-464 -424 144)"
			"material" "AAATRIGGER"
			"uaxis" "[1 0 0 0] 1"
			"vaxis" "[0 0 -1 0] 1"
			"rotation" "0"
			"lightmapscale" "0"
			"smoothing_groups" "0"
		}
		side
		{
			"id" "289"
			"plane" "(-464 -424 144) (-464 -328 144) (-360 -424 144)"
			"material" "AAATRIGGER"
			"uaxis" "[1 0 0 0] 1"
			"vaxis" "[0 -1 0 0] 1"
			"rotation" "0"
			"lightmapscale" "0"
			"smoothing_groups" "0"
		}
		side
		{
			"id" "290"
			"plane" "(-464 -328 16) (-464 -424 16) (-360 -328 16)"
			"material" "AAATRIGGER"
			"uaxis" "[1 0 0 0] 1"
			"vaxis" "[0 -1 0 0] 1"
			"rotation" "0"
			"lightmapscale" "0"
			"smoothing_groups" "0"
		}
		editor
		{
			"color" "179 231 250"
		}
	}
	editor
	{
		"color" "220 30 220"
	}
}
entity
{
	"id" "291"
	"classname" "infodecal"
	"origin" "-416 -376 0"
	"skill" "0"
	"texture" "{TARGET"
	editor
	{
		"color" "220 30 220"
	}
}
entity
{
	"id" "292"
	"classname" "env_sprite"
	"origin" "-416 -376 88"
	"frags" "0"
	"model" "sprites/glow_red.spr"
	"framerate" "10.0"
	"rendercolor" "255 255 255"
	"renderamt" "255"
	"rendermode" "3"
	"renderfx" "0"
	"angles" "0 0 0"
	editor
	{
		"color" "220 30 220"
	}
}
entity
{
	"id" "293"
	"classname" "trigger_teleport"
	"target" "to_spotA"
	solid
	{
		"id" "294"
		side
		{
			"id" "295"
			"plane" "(400 -424 144) (400 -424 16) (400 -328 144)"
			"material" "AAATRIGGER"
			"uaxis" "[0 1 0 0] 1"
			"vaxis" "[0 0 -1 -0] 1"
			"rotation" "0"
			"lightmapscale" "0"
			"smoothing_groups" "0"
		}
		side
		{
			"id" "296"
			"plane" "(504 -328 144) (504 -328 16) (504 -424 144)"
			"material" "AAATRIGGER"
			"uaxis" "[0 1 0 -0] 1"
			"vaxis" "[0 0 -1 -0] 1"
			"rotation" "0"
			"lightmapscale" "0"
			"smoothing_groups" "0"
		}
		side
		{
			"id" "297"
			"plane" "(400 -328 144) (400 -328 16) (504 -328 144)"
			"material" "AAATRIGGER"
			"uaxis" "[1 0 0 -0] 1"
			"vaxis" "[0 0 -1 -0] 1"
			"rotation" "0"
			"lightmapscale" "0"
			"smoothing_groups" "0"
		}
		side
		{
			"id" "298"
			"plane" "(504 -424 144) (504 -424 16) (400 -424 144)"
			"material" "AAATRIGGER"
			"uaxis" "[1 0 0 0] 1"
			"vaxis" "[0 0 -1 -0] 1"
			"rotation" "0"
			"lightmapscale" "0"
			"smoothing_groups" "0"
		}
		side
		{
			"id" "299"
			"plane" "(400 -424 144) (400 -328 144) (504 -424 144)"
			"material" "AAATRIGGER"
			"uaxis" "[1 0 0 0] 1"
			"vaxis" "[0 -1 0 0] 1"
			"rotation" "0"
			"lightmapscale" "0"
			"smoothing_groups" "0"
		}
		side
		{
			"id" "300"
			"plane" "(400 -328 16) (400 -424 16) (504 -328 16)"
			"material" "AAATRIGGER"
			"uaxis" "[1 0 0 -0] 1"
			"vaxis" "[0 -1 0 0] 1"
			"rotation" "0"
			"lightmapscale" "0"
			"smoothing_groups" "0"
		}
		editor
		{
			"color" "129 40 191"
		}
	}
	editor
	{
		"color" "220 30 220"
	}
}
entity
{
	"id" "301"
	"classname" "infodecal"
	"origin" "448 -376 0"
	"skill" "0"
	"texture" "{TARGET"
	editor
	{
		"color" "220 30 220"
	}
}
entity
{
	"id" "302"
	"classname" "env_sprite"
	"origin" "448 -376 88"
	"frags" "0"
	"model" "sprites/glow_grn.spr"
	"framerate" "10.0"
	"rendercolor" "255 255 255"
	"renderamt" "255"
	"rendermode" "3"
	"renderfx" "0"
	"angles" "0 0 0"
	editor
	{
		"color" "220 30 220"
	}
}
entity
{
	"id" "303"
	"classname" "trigger_teleport"
	"target" "to_spotB"
	solid
	{
		"id" "304"
		side
		{
			"id" "305"
			"plane" "(400 360 144) (400 360 16) (400 456 144)"
			"material" "AAATRIGGER"
			"uaxis" "[0 1 0 0] 1"
			"vaxis" "[0 0 -1 0] 1"
			"rotation" "0"
			"lightmapscale" "0"
			"smoothing_groups" "0"
		}
		side
		{
			"id" "306"
			"plane" "(504 456 144) (504 456 16) (504 360 144)"
			"material" "AAATRIGGER"
			"uaxis" "[0 1 0 0] 1"
			"vaxis" "[0 0 -1 0] 1"
			"rotation" "0"
			"lightmapscale" "0"
			"smoothing_groups" "0"
		}
		side
		{
			"id" "307"
			"plane" "(400 456 144) (400 456 16) (504 456 144)"
			"material" "AAATRIGGER"
			"uaxis" "[1 0 0 0] 1"
			"vaxis" "[0 0 -1 0] 1"
			"rotation" "0"
			"lightmapscale" "0"
			"smoothing_groups" "0"
		}
		side
		{
			"id" "308"
			"plane" "(504 360 144) (504 360 16) (400 360 144)"
			"material" "AAATRIGGER"
			"uaxis" "[1 0 0 -0] 1"
			"vaxis" "[0 0 -1 0] 1"
			"rotation" "0"
			"lightmapscale" "0"
			"smoothing_groups" "0"
		}
		side
		{
			"id" "309"
			"plane" "(400 360 144) (400 456 144) (504 360 144)"
			"material" "AAATRIGGER"
			"uaxis" "[1 0 0 -0] 1"
			"vaxis" "[0 -1 0 0] 1"
			"rotation" "0"
			"lightmapscale" "0"
			"smoothing_groups" "0"
		}
		side
		{
			"id" "310"
			"plane" "(400 456 16) (400 360 16) (504 456 16)"
			"material" "AAATRIGGER"
			"uaxis" "[1 0 0 0] 1"
			"vaxis" "[0 -1 0 0] 1"
			"rotation" "0"
			"lightmapscale" "0"
			"smoothing_groups" "0"
		}
		editor
		{
			"color" "19 207 59"
		}
	}
	editor
	{
		"color" "220 30 220"
	}
}
entity
{
	"id" "311"
	"classname" "infodecal"
	"origin" "448 408 0"
	"skill" "0"
	"texture" "{TARGET"
	editor
	{
		"color" "220 30 220"
	}
}
entity
{
	"id" "312"
	"classname" "env_sprite"
	"origin" "448 408 88"
	"frags" "0"
	"model" "sprites/glow_blu.spr"
	"framerate" "10.0"
	"rendercolor" "255 255 255"
	"renderamt" "255"
	"rendermode" "3"
	"renderfx" "0"
	"angles" "0 0 0"
	editor
	{
		"color" "220 30 220"
	}
}
entity
{
	"id" "313"
	"classname" "trigger_autosave"
	solid
	{
		"id" "314"
		side
		{
			"id" "315"
			"plane" "(-128 32 24) (-128 32 0) (-128 -32 24)"
			"material" "AAATRIGGER"
			"uaxis" "[0 1 0 -0] 1"
			"vaxis" "[0 0 -1 8] 1"
			"rotation" "0"
			"lightmapscale" "0"
			"smoothing_groups" "0"
		}
		side
		{
			"id" "316"
			"plane" "(-224 -32 24) (-224 -32 0) (-224 32 24)"
			"material" "AAATRIGGER"
			"uaxis" "[0 1 0 -0] 1"
			"vaxis" "[0 0 -1 8] 1"
			"rotation" "0"
			"lightmapscale" "0"
			"smoothing_groups" "0"
		}
		side
		{
			"id" "317"
			"plane" "(-128 -32 24) (-128 -32 0) (-224 -32 24)"
			"material" "AAATRIGGER"
			"uaxis" "[1 0 0 0] 1"
			"vaxis" "[0 0 -1 8] 1"
			"rotation" "0"
			"lightmapscale" "0"
			"smoothing_groups" "0"
		}
		side
		{
			"id" "318"
			"plane" "(-224 32 24) (-224 32 0) (-128 32 24)"
			"material" "AAATRIGGER"
			"uaxis" "[1 0 0 0] 1"
			"vaxis" "[0 0 -1 8] 1"
			"rotation" "0"
			"lightmapscale" "0"
			"smoothing_groups" "0"
		}
		side
		{
			"id" "319"
			"plane" "(-224 32 0) (-224 -32 0) (-128 32 0)"
			"material" "AAATRIGGER"
			"uaxis" "[1 0 0 0] 1"
			"vaxis" "[0 -1 0 0] 1"
			"rotation" "0"
			"lightmapscale" "0"
			"smoothing_groups" "0"
		}
		side
		{
			"id" "320"
			"plane" "(-224 -32 24) (-224 32 24) (-128 -32 24)"
			"material" "AAATRIGGER"
			"uaxis" "[1 0 0 0] 1"
			"vaxis" "[0 -1 0 0] 1"
			"rotation" "0"
			"lightmapscale" "0"
			"smoothing_groups" "0"
		}
		editor
		{
			"color" "220 207 196"
		}
	}
	editor
	{
		"color" "220 30 220"
	}
}
cordon
{
	"mins" "(0 0 0)"
	"maxs" "(0 0 0)"
	"active" "0"
}
