version 1
nodes
  0 "Bip01" -1
  1 "Bip01 Pelvis" 0
  2 "Bip01 L Thigh" 1
  3 "Bip01 L Calf" 2
  4 "Bip01 L Foot" 3
  5 "Bip01 R Thigh" 1
  6 "Bip01 R Calf" 5
  7 "Bip01 R Foot" 6
  8 "Bip01 Spine" 1
  9 "Bip01 Spine1" 8
  10 "Bip01 Spine2" 9
  11 "Bip01 Spine3" 10
  12 "Bip01 Neck" 11
  13 "Bip01 L Clavicle" 12
  14 "Bip01 L UpperArm" 13
  15 "Bip01 L Forearm" 14
  16 "Bip01 L Hand" 15
  17 "Bip01 R Clavicle" 12
  18 "Bip01 R UpperArm" 17
  19 "Bip01 R Forearm" 18
  20 "Bip01 R Hand" 19
  21 "Bip01 Head" 12
  22 "Bip01 R Finger0" 20
  23 "Line01" 22
  24 "w_m40a1" 22
end
skeleton
  time 0
    0 -0.317114 -0.287846 31.139324 0.000000 0.000000 -1.570795
    1 -0.526041 0.000001 9.745319 -1.570795 -1.570451 0.000000
    2 -0.000007 0.000010 5.615750 0.000001 3.141591 -0.100000
    3 15.693467 0.000000 0.000000 0.000000 0.000000 -0.200000
    4 22.146629 0.000000 0.000000 0.000000 0.000000 0.100000
    5 0.000008 -0.000006 -5.615750 0.000001 3.141591 -0.100000
    6 15.693467 0.000000 0.000000 0.000000 0.000000 -0.200000
    7 22.146629 0.000000 0.000000 0.000000 0.000000 0.100000
    8 1.384163 -0.004728 0.000002 -0.000004 -0.000001 0.000796
    9 5.939814 -0.004730 0.000000 0.000000 0.000000 0.000000
    10 5.939809 -0.003975 0.000000 0.000000 0.000000 0.000000
    11 4.991439 -0.003975 0.000000 0.000000 0.000000 0.000000
    12 4.991436 -0.001575 0.000000 0.000000 0.000000 0.000000
    13 0.000005 0.001564 3.638375 -0.000010 -1.283530 3.140806
    14 6.703436 0.000000 0.000000 0.000000 0.747197 0.000000
    15 10.007079 0.000000 0.000002 0.000000 0.000000 -0.200000
    16 9.664095 -0.000001 -0.000002 -1.569555 0.349021 0.000000
    17 0.000005 0.001585 -3.638375 -0.000010 1.283530 3.140787
    18 6.703436 0.000000 -0.000001 0.000000 -0.747197 0.000000
    19 10.007080 0.000000 -0.000002 0.000000 0.000000 -0.200000
    20 9.664097 -0.000001 0.000001 1.569555 -0.261799 0.000000
    21 1.977383 0.000000 0.000000 0.000000 0.000000 -0.000798
    22 6.829860 -0.000001 0.000000 0.001241 0.000000 0.000000
    23 -4.603199 -0.446935 0.691439 -1.751612 -0.047171 1.544023
    24 -6.751354 0.809404 1.239717 0.422884 1.599155 -1.196952
end
triangles
Massn_head_wht2.BMP
  21 2.862915 0.218395 69.288683 0.946270 0.214393 -0.242092 0.906475 0.424000
  21 2.332911 -2.891463 68.877616 0.753416 -0.342808 -0.561112 0.791367 0.400000
  21 1.542912 -1.431297 68.398118 0.710269 -0.555875 -0.431881 0.834532 0.376000
Massn_head_wht2.BMP
  21 1.542912 -1.431297 68.398118 0.710269 -0.555875 -0.431881 0.834532 0.376000
  21 2.332911 -2.891463 68.877616 0.753416 -0.342808 -0.561112 0.791367 0.400000
  21 -0.237090 -2.791089 67.797653 -0.021599 -0.601267 -0.798756 0.640288 0.344000
Massn_head_wht2.BMP
  21 2.332911 -2.891463 68.877616 0.753416 -0.342808 -0.561112 0.791367 0.400000
  21 -0.237093 -4.751281 68.356980 -0.013900 -0.847888 -0.529993 0.640288 0.376000
  21 -0.237090 -2.791089 67.797653 -0.021599 -0.601267 -0.798756 0.640288 0.344000
Massn_head_wht2.BMP
  21 -0.237090 -2.791089 67.797653 -0.021599 -0.601267 -0.798756 0.640288 0.344000
  21 -0.237093 -4.751281 68.356980 -0.013900 -0.847888 -0.529993 0.640288 0.376000
  21 -2.627089 -2.891452 68.867621 -0.761020 -0.332709 -0.556915 0.489209 0.400000
Massn_head_wht2.BMP
  21 -0.237093 -4.751281 68.356980 -0.013900 -0.847888 -0.529993 0.640288 0.376000
  21 -2.427089 -4.512520 71.977064 -0.760513 -0.632811 -0.145502 0.539568 0.584000
  21 -2.627089 -2.891452 68.867621 -0.761020 -0.332709 -0.556915 0.489209 0.400000
Massn_head_wht2.BMP
  21 -2.627089 -2.891452 68.867621 -0.761020 -0.332709 -0.556915 0.489209 0.400000
  21 -2.427089 -4.512520 71.977064 -0.760513 -0.632811 -0.145502 0.539568 0.584000
  21 -4.007081 -0.122978 73.318573 -0.995132 -0.081302 -0.055702 0.388489 0.664000
Massn_head_wht2.BMP
  21 -2.427089 -4.512520 71.977064 -0.760513 -0.632811 -0.145502 0.539568 0.584000
  21 -2.667085 -4.373759 75.587112 -0.777376 -0.604981 0.172295 0.525180 0.800000
  21 -4.007081 -0.122978 73.318573 -0.995132 -0.081302 -0.055702 0.388489 0.664000
Massn_head_wht2.BMP
  21 -4.007081 -0.122978 73.318573 -0.995132 -0.081302 -0.055702 0.388489 0.664000
  21 -2.667085 -4.373759 75.587112 -0.777376 -0.604981 0.172295 0.525180 0.800000
  21 -3.697077 0.055713 77.128635 -0.982939 0.056902 0.174907 0.381295 0.888000
Massn_head_wht2.BMP
  21 -2.667085 -4.373759 75.587112 -0.777376 -0.604981 0.172295 0.525180 0.800000
  21 -2.927079 -2.514744 78.457751 -0.648186 -0.278094 0.708885 0.467626 0.968000
  21 -3.697077 0.055713 77.128635 -0.982939 0.056902 0.174907 0.381295 0.888000
Massn_head_wht2.BMP
  21 -3.697077 0.055713 77.128635 -0.982939 0.056902 0.174907 0.381295 0.888000
  21 -2.927079 -2.514744 78.457751 -0.648186 -0.278094 0.708885 0.467626 0.968000
  21 -2.887073 2.365533 77.649426 -0.654311 0.503308 0.564409 0.309353 0.920000
Massn_head_wht2.BMP
  21 -2.927079 -2.514744 78.457751 -0.648186 -0.278094 0.708885 0.467626 0.968000
  21 -0.267077 -1.284951 79.048170 0.004600 -0.001400 0.999988 0.618705 1.000000
  21 -2.887073 2.365533 77.649426 -0.654311 0.503308 0.564409 0.309353 0.920000
Massn_head_wht2.BMP
  21 -2.887073 2.365533 77.649426 -0.654311 0.503308 0.564409 0.309353 0.920000
  21 -0.267077 -1.284951 79.048170 0.004600 -0.001400 0.999988 0.618705 1.000000
  21 -0.257071 2.855162 78.719591 0.019400 0.592582 0.805276 0.187050 0.984000
Massn_head_wht2.BMP
  21 -0.267077 -1.284951 79.048170 0.004600 -0.001400 0.999988 0.618705 1.000000
  21 2.712926 1.845539 77.609242 0.763480 0.411589 0.497687 0.043165 0.912000
  21 -0.257071 2.855162 78.719591 0.019400 0.592582 0.805276 0.187050 0.984000
Massn_head_wht2.BMP
  21 -0.257071 2.855162 78.719591 0.019400 0.592582 0.805276 0.187050 0.984000
  21 2.712926 1.845539 77.609242 0.763480 0.411589 0.497687 0.043165 0.912000
  21 -0.257071 4.205818 76.810055 0.019699 0.984069 0.176694 0.187050 0.872000
Massn_head_wht2.BMP
  21 2.712926 1.845539 77.609242 0.763480 0.411589 0.497687 0.043165 0.912000
  21 2.772924 2.606795 73.949503 0.674395 0.735994 -0.059200 0.064748 0.704000
  21 -0.257071 4.205818 76.810055 0.019699 0.984069 0.176694 0.187050 0.872000
Massn_head_wht2.BMP
  21 -0.257071 4.205818 76.810055 0.019699 0.984069 0.176694 0.187050 0.872000
  21 2.772924 2.606795 73.949503 0.674395 0.735994 -0.059200 0.064748 0.704000
  21 -0.257075 4.097132 72.980018 -0.008300 0.996243 -0.086204 0.187050 0.648000
Massn_head_wht2.BMP
  21 2.772924 2.606795 73.949503 0.674395 0.735994 -0.059200 0.064748 0.704000
  21 -0.147079 3.398152 70.009778 -0.014000 0.999228 -0.036701 0.179856 0.472000
  21 -0.257075 4.097132 72.980018 -0.008300 0.996243 -0.086204 0.187050 0.648000
Massn_head_wht2.BMP
  21 -0.257075 4.097132 72.980018 -0.008300 0.996243 -0.086204 0.187050 0.648000
  21 -0.147079 3.398152 70.009778 -0.014000 0.999228 -0.036701 0.179856 0.472000
  21 -3.127076 2.616831 73.869513 -0.715934 0.695533 -0.060603 0.309353 0.696000
Massn_head_wht2.BMP
  21 -0.147079 3.398152 70.009778 -0.014000 0.999228 -0.036701 0.179856 0.472000
  21 -3.127085 0.218404 69.288689 -0.941959 0.220590 -0.253089 0.374101 0.424000
  21 -3.127076 2.616831 73.869513 -0.715934 0.695533 -0.060603 0.309353 0.696000
Massn_head_wht2.BMP
  21 -3.127076 2.616831 73.869513 -0.715934 0.695533 -0.060603 0.309353 0.696000
  21 -3.127085 0.218404 69.288689 -0.941959 0.220590 -0.253089 0.374101 0.424000
  21 -4.007081 -0.122978 73.318573 -0.995132 -0.081302 -0.055702 0.388489 0.664000
Massn_head_wht2.BMP
  21 -3.127085 0.218404 69.288689 -0.941959 0.220590 -0.253089 0.374101 0.424000
  21 -2.627089 -2.891452 68.867621 -0.761020 -0.332709 -0.556915 0.489209 0.400000
  21 -4.007081 -0.122978 73.318573 -0.995132 -0.081302 -0.055702 0.388489 0.664000
Massn_head_wht2.BMP
  21 -2.667085 -4.373759 75.587112 -0.777376 -0.604981 0.172295 0.525180 0.800000
  21 -0.257081 -3.824752 78.467298 0.008900 -0.783911 0.620809 0.640288 0.968000
  21 -2.927079 -2.514744 78.457751 -0.648186 -0.278094 0.708885 0.467626 0.968000
Massn_head_wht2.BMP
  21 -2.927079 -2.514744 78.457751 -0.648186 -0.278094 0.708885 0.467626 0.968000
  21 -0.257081 -3.824752 78.467298 0.008900 -0.783911 0.620809 0.640288 0.968000
  21 -0.267077 -1.284951 79.048170 0.004600 -0.001400 0.999988 0.618705 1.000000
Massn_head_wht2.BMP
  21 -0.257081 -3.824752 78.467298 0.008900 -0.783911 0.620809 0.640288 0.968000
  21 2.122921 -2.524752 78.457743 0.649301 -0.320501 0.689701 0.798561 0.968000
  21 -0.267077 -1.284951 79.048170 0.004600 -0.001400 0.999988 0.618705 1.000000
Massn_head_wht2.BMP
  21 -0.267077 -1.284951 79.048170 0.004600 -0.001400 0.999988 0.618705 1.000000
  21 2.122921 -2.524752 78.457743 0.649301 -0.320501 0.689701 0.798561 0.968000
  21 2.712926 1.845539 77.609242 0.763480 0.411589 0.497687 0.949640 0.912000
Massn_head_wht2.BMP
  21 2.122921 -2.524752 78.457743 0.649301 -0.320501 0.689701 0.798561 0.968000
  21 3.112922 -0.494259 77.018438 0.966219 -0.137303 0.218104 0.877698 0.880000
  21 2.712926 1.845539 77.609242 0.763480 0.411589 0.497687 0.949640 0.912000
Massn_head_wht2.BMP
  21 2.712926 1.845539 77.609242 0.763480 0.411589 0.497687 0.949640 0.912000
  21 3.112922 -0.494259 77.018438 0.966219 -0.137303 0.218104 0.877698 0.880000
  21 3.592919 -0.122993 73.328565 0.998235 -0.057802 -0.013600 0.884892 0.664000
Massn_head_wht2.BMP
  21 3.112922 -0.494259 77.018438 0.966219 -0.137303 0.218104 0.877698 0.880000
  21 2.162915 -4.373766 75.587107 0.765206 -0.610005 0.205802 0.748201 0.800000
  21 3.592919 -0.122993 73.328565 0.998235 -0.057802 -0.013600 0.884892 0.664000
Massn_head_wht2.BMP
  21 3.592919 -0.122993 73.328565 0.998235 -0.057802 -0.013600 0.884892 0.664000
  21 2.162915 -4.373766 75.587107 0.765206 -0.610005 0.205802 0.748201 0.800000
  21 2.062911 -4.522544 72.027056 0.753923 -0.643420 -0.132704 0.748201 0.584000
Massn_head_wht2.BMP
  21 -2.427089 -4.512520 71.977064 -0.760513 -0.632811 -0.145502 0.539568 0.584000
  21 -0.237093 -4.751281 68.356980 -0.013900 -0.847888 -0.529993 0.640288 0.376000
  21 -0.257091 -5.972592 72.176561 -0.010100 -0.977926 -0.208706 0.640288 0.600000
Massn_head_wht2.BMP
  21 -0.257091 -5.972592 72.176561 -0.010100 -0.977926 -0.208706 0.640288 0.600000
  21 -0.237093 -4.751281 68.356980 -0.013900 -0.847888 -0.529993 0.640288 0.376000
  21 2.062911 -4.522544 72.027056 0.753923 -0.643420 -0.132704 0.748201 0.584000
Massn_head_wht2.BMP
  21 -0.237093 -4.751281 68.356980 -0.013900 -0.847888 -0.529993 0.640288 0.376000
  21 2.332911 -2.891463 68.877616 0.753416 -0.342808 -0.561112 0.791367 0.400000
  21 2.062911 -4.522544 72.027056 0.753923 -0.643420 -0.132704 0.748201 0.584000
Massn_head_wht2.BMP
  21 2.062911 -4.522544 72.027056 0.753923 -0.643420 -0.132704 0.748201 0.584000
  21 2.332911 -2.891463 68.877616 0.753416 -0.342808 -0.561112 0.791367 0.400000
  21 3.592919 -0.122993 73.328565 0.998235 -0.057802 -0.013600 0.884892 0.664000
Massn_head_wht2.BMP
  21 2.332911 -2.891463 68.877616 0.753416 -0.342808 -0.561112 0.791367 0.400000
  21 2.862915 0.218395 69.288683 0.946270 0.214393 -0.242092 0.906475 0.424000
  21 3.592919 -0.122993 73.328565 0.998235 -0.057802 -0.013600 0.884892 0.664000
Massn_head_wht2.BMP
  21 3.592919 -0.122993 73.328565 0.998235 -0.057802 -0.013600 0.884892 0.664000
  21 2.862915 0.218395 69.288683 0.946270 0.214393 -0.242092 0.906475 0.424000
  21 2.772924 2.606795 73.949503 0.674395 0.735994 -0.059200 0.971223 0.704000
Massn_head_wht2.BMP
  21 -3.127085 0.218404 69.288689 -0.941959 0.220590 -0.253089 0.374101 0.424000
  21 -1.787088 -1.431268 68.328121 -0.729507 -0.542305 -0.416804 0.446043 0.368000
  21 -2.627089 -2.891452 68.867621 -0.761020 -0.332709 -0.556915 0.489209 0.400000
Massn_head_wht2.BMP
  21 -2.627089 -2.891452 68.867621 -0.761020 -0.332709 -0.556915 0.489209 0.400000
  21 -1.787088 -1.431268 68.328121 -0.729507 -0.542305 -0.416804 0.446043 0.368000
  21 -0.237090 -2.791089 67.797653 -0.021599 -0.601267 -0.798756 0.640288 0.344000
Massn_head_wht2.BMP
  21 -1.787088 -1.431268 68.328121 -0.729507 -0.542305 -0.416804 0.446043 0.368000
  12 -0.237093 -2.589311 65.058089 -0.022199 -0.995567 -0.091397 0.640288 0.176000
  21 -0.237090 -2.791089 67.797653 -0.021599 -0.601267 -0.798756 0.640288 0.344000
Massn_head_wht2.BMP
  21 -0.237090 -2.791089 67.797653 -0.021599 -0.601267 -0.798756 0.640288 0.344000
  12 -0.237093 -2.589311 65.058089 -0.022199 -0.995567 -0.091397 0.640288 0.176000
  21 1.542912 -1.431297 68.398118 0.710269 -0.555875 -0.431881 0.834532 0.376000
Massn_head_wht2.BMP
  12 -0.237093 -2.589311 65.058089 -0.022199 -0.995567 -0.091397 0.640288 0.176000
  12 3.212913 0.859346 66.232022 0.998727 0.030601 0.040101 0.920863 0.248000
  21 1.542912 -1.431297 68.398118 0.710269 -0.555875 -0.431881 0.834532 0.376000
Massn_head_wht2.BMP
  21 1.542912 -1.431297 68.398118 0.710269 -0.555875 -0.431881 0.834532 0.376000
  12 3.212913 0.859346 66.232022 0.998727 0.030601 0.040101 0.920863 0.248000
  21 2.862915 0.218395 69.288683 0.946270 0.214393 -0.242092 0.906475 0.424000
Massn_head_wht2.BMP
  21 -0.147079 3.398152 70.009778 -0.014000 0.999228 -0.036701 0.179856 0.472000
  12 -3.467087 0.869447 66.152040 -0.997451 0.007000 0.071004 0.359712 0.240000
  21 -3.127085 0.218404 69.288689 -0.941959 0.220590 -0.253089 0.374101 0.424000
Massn_head_wht2.BMP
  21 -0.147079 3.398152 70.009778 -0.014000 0.999228 -0.036701 0.179856 0.472000
  12 -0.417081 4.198824 66.695837 -0.045998 0.985752 0.161792 0.194245 0.272000
  12 -3.467087 0.869447 66.152040 -0.997451 0.007000 0.071004 0.359712 0.240000
Massn_head_wht2.BMP
  21 -0.147079 3.398152 70.009778 -0.014000 0.999228 -0.036701 0.179856 0.472000
  12 3.212913 0.859346 66.232022 0.998727 0.030601 0.040101 0.014388 0.248000
  12 -0.417081 4.198824 66.695837 -0.045998 0.985752 0.161792 0.194245 0.272000
Massn_head_wht2.BMP
  21 -0.147079 3.398152 70.009778 -0.014000 0.999228 -0.036701 0.179856 0.472000
  21 2.862915 0.218395 69.288683 0.946270 0.214393 -0.242092 0.000000 0.424000
  12 3.212913 0.859346 66.232022 0.998727 0.030601 0.040101 0.014388 0.248000
Massn_head_wht2.BMP
  21 -0.147079 3.398152 70.009778 -0.014000 0.999228 -0.036701 0.179856 0.472000
  21 2.772924 2.606795 73.949503 0.674395 0.735994 -0.059200 0.064748 0.704000
  21 2.862915 0.218395 69.288683 0.946270 0.214393 -0.242092 0.000000 0.424000
Massn_head_wht2.BMP
  21 -3.127076 2.616831 73.869513 -0.715934 0.695533 -0.060603 0.309353 0.696000
  21 -0.257071 4.205818 76.810055 0.019699 0.984069 0.176694 0.187050 0.872000
  21 -0.257075 4.097132 72.980018 -0.008300 0.996243 -0.086204 0.187050 0.648000
Massn_head_wht2.BMP
  21 -3.127076 2.616831 73.869513 -0.715934 0.695533 -0.060603 0.309353 0.696000
  21 -2.887073 2.365533 77.649426 -0.654311 0.503308 0.564409 0.309353 0.920000
  21 -0.257071 4.205818 76.810055 0.019699 0.984069 0.176694 0.187050 0.872000
Massn_head_wht2.BMP
  21 -3.127076 2.616831 73.869513 -0.715934 0.695533 -0.060603 0.309353 0.696000
  21 -3.697077 0.055713 77.128635 -0.982939 0.056902 0.174907 0.381295 0.888000
  21 -2.887073 2.365533 77.649426 -0.654311 0.503308 0.564409 0.309353 0.920000
Massn_head_wht2.BMP
  21 -3.127076 2.616831 73.869513 -0.715934 0.695533 -0.060603 0.309353 0.696000
  21 -4.007081 -0.122978 73.318573 -0.995132 -0.081302 -0.055702 0.388489 0.664000
  21 -3.697077 0.055713 77.128635 -0.982939 0.056902 0.174907 0.381295 0.888000
Massn_head_wht2.BMP
  21 -0.257087 -5.533722 75.466711 -0.006800 -0.998771 0.049099 0.640288 0.792000
  21 2.062911 -4.522544 72.027056 0.416813 -0.907729 0.047902 0.748201 0.584000
  21 2.162915 -4.373766 75.587107 0.366199 -0.930397 0.016100 0.748201 0.800000
Massn_head_wht2.BMP
  21 -0.257087 -5.533722 75.466711 -0.006800 -0.998771 0.049099 0.640288 0.792000
  21 -0.257091 -5.972592 72.176561 -0.013900 -0.995872 0.089697 0.640288 0.600000
  21 2.062911 -4.522544 72.027056 0.416813 -0.907729 0.047902 0.748201 0.584000
Massn_head_wht2.BMP
  21 -0.257087 -5.533722 75.466711 -0.006800 -0.998771 0.049099 0.640288 0.792000
  21 -2.427089 -4.512520 71.977064 -0.429512 -0.902125 0.041101 0.539568 0.584000
  21 -0.257091 -5.972592 72.176561 -0.013900 -0.995872 0.089697 0.640288 0.600000
Massn_head_wht2.BMP
  21 -0.257087 -5.533722 75.466711 -0.006800 -0.998771 0.049099 0.640288 0.792000
  21 -2.667085 -4.373759 75.587112 -0.366383 -0.930456 0.003800 0.525180 0.800000
  21 -2.427089 -4.512520 71.977064 -0.429512 -0.902125 0.041101 0.539568 0.584000
Massn_head_wht2.BMP
  21 -0.257087 -5.533722 75.466711 0.000100 -0.934409 0.356203 0.640288 0.792000
  21 2.162915 -4.373766 75.587107 0.765206 -0.610005 0.205802 0.748201 0.800000
  21 -0.257081 -3.824752 78.467298 0.008900 -0.783911 0.620809 0.640288 0.968000
Massn_head_wht2.BMP
  21 -0.257081 -3.824752 78.467298 0.008900 -0.783911 0.620809 0.640288 0.968000
  21 2.162915 -4.373766 75.587107 0.765206 -0.610005 0.205802 0.748201 0.800000
  21 2.122921 -2.524752 78.457743 0.649301 -0.320501 0.689701 0.798561 0.968000
Massn_head_wht2.BMP
  21 2.162915 -4.373766 75.587107 0.765206 -0.610005 0.205802 0.748201 0.800000
  21 3.112922 -0.494259 77.018438 0.966219 -0.137303 0.218104 0.877698 0.880000
  21 2.122921 -2.524752 78.457743 0.649301 -0.320501 0.689701 0.798561 0.968000
Massn_head_wht2.BMP
  12 -0.237093 -2.589311 65.058089 -0.022199 -0.995567 -0.091397 0.640288 0.176000
  21 -1.787088 -1.431268 68.328121 -0.729507 -0.542305 -0.416804 0.446043 0.368000
  12 -3.467087 0.869447 66.152040 -0.997451 0.007000 0.071004 0.359712 0.240000
Massn_head_wht2.BMP
  12 -3.467087 0.869447 66.152040 -0.997451 0.007000 0.071004 0.359712 0.240000
  21 -1.787088 -1.431268 68.328121 -0.729507 -0.542305 -0.416804 0.446043 0.368000
  21 -3.127085 0.218404 69.288689 -0.941959 0.220590 -0.253089 0.374101 0.424000
Massn_head_wht2.BMP
  21 -2.887073 2.365533 77.649426 -0.654311 0.503308 0.564409 0.309353 0.920000
  21 -0.257071 2.855162 78.719591 0.019400 0.592582 0.805276 0.187050 0.984000
  21 -0.257071 4.205818 76.810055 0.019699 0.984069 0.176694 0.187050 0.872000
Massn_head_wht2.BMP
  21 2.712926 1.845539 77.609242 0.763480 0.411589 0.497687 0.949640 0.912000
  21 3.592919 -0.122993 73.328565 0.998235 -0.057802 -0.013600 0.884892 0.664000
  21 2.772924 2.606795 73.949503 0.674395 0.735994 -0.059200 0.971223 0.704000
Massn_head_wht2.BMP
  21 -2.667085 -4.373759 75.587112 -0.777376 -0.604981 0.172295 0.525180 0.800000
  21 -0.257087 -5.533722 75.466711 0.000100 -0.934409 0.356203 0.640288 0.792000
  21 -0.257081 -3.824752 78.467298 0.008900 -0.783911 0.620809 0.640288 0.968000
end
