version 1
nodes
  0 "Bip01" -1
  1 "Bip01 Pelvis" 0
  2 "Bip01 L Thigh" 1
  3 "Bip01 L Calf" 2
  4 "Bip01 L Foot" 3
  5 "Bip01 R Thigh" 1
  6 "Bip01 R Calf" 5
  7 "Bip01 R Foot" 6
  8 "Bip01 Spine" 1
  9 "Bip01 Spine1" 8
  10 "Bip01 Spine2" 9
  11 "Bip01 Spine3" 10
  12 "Bip01 Neck" 11
  13 "Bip01 L Clavicle" 12
  14 "Bip01 R Clavicle" 12
  15 "Bip01 Head" 12
  16 "Bone05" 15
  17 "Bone06" 16
  18 "Bip01 L UpperArm" 13
  19 "Bip01 L Forearm" 18
  20 "Bip01 L Hand" 19
  21 "Bip01 R UpperArm" 14
  22 "Bip01 R Forearm" 21
  23 "Bip01 R Hand" 22
  24 "Bip01 R Finger0" 23
  25 "p_desert_eagle" 24
  26 "GLOCK_model" 24
  27 "Cylinder02" 24
end
skeleton
  time 0
    0 0.000000 -0.287846 31.139324 0.000000 0.000000 -1.570795
    1 -0.526041 0.000001 9.745319 -1.570795 -1.570451 0.000000
    2 -0.000008 0.000010 5.615750 0.000001 3.141591 -0.100000
    3 15.693467 0.000000 0.000000 0.000000 0.000000 -0.200000
    4 22.146629 -0.000001 0.000000 0.000000 0.000000 0.100000
    5 0.000008 -0.000006 -5.615750 0.000001 3.141591 -0.100000
    6 15.693467 0.000000 0.000000 0.000000 0.000000 -0.200000
    7 22.146629 0.000000 0.000000 0.000000 0.000000 0.100000
    8 1.384163 -0.004728 0.000002 -0.000004 -0.000001 0.000796
    9 5.939814 -0.004730 0.000000 0.000000 0.000000 0.000000
    10 5.939809 -0.003975 0.000000 0.000000 0.000000 0.000000
    11 4.991439 -0.003975 0.000000 0.000000 0.000000 0.000000
    12 4.991436 -0.001575 0.000000 0.000000 0.000000 0.000000
    13 0.000005 0.001564 3.638375 -0.000010 -1.283530 3.140806
    14 0.000005 0.001585 -3.638375 -0.000010 1.283530 3.140787
    15 1.977383 0.000000 0.000000 0.000000 0.000000 -0.000798
    16 3.723980 2.768055 -0.395205 0.000000 -3.141591 -1.570795
    17 2.863741 -0.721077 0.000003 0.000000 0.000000 0.000000
    18 8.842831 0.000000 -0.000001 0.000000 0.747197 0.000000
    19 9.341934 0.000000 -0.000002 0.000000 0.000000 -0.200000
    20 9.664096 0.000000 0.000003 -1.569555 0.349021 0.000000
    21 8.842831 0.000000 0.000001 0.000000 -0.747197 0.000000
    22 9.341934 0.000000 -0.000001 0.000000 0.000000 -0.200000
    23 9.664095 0.000000 -0.000002 1.569555 -0.261799 0.000000
    24 6.829857 -0.000001 0.000000 0.001241 0.000000 0.000000
    25 0.021231 -0.065060 1.351066 0.024842 0.006382 -0.003186
    26 1.089796 -0.106998 1.928624 -1.335374 -0.038786 1.563732
    27 -2.120019 0.552893 1.060325 0.522049 -2.764527 -1.418481
end
triangles
Desert_Eagle.bmp
  5 -10.695747 -1.898160 40.525421 -0.357779 -0.838751 0.410476 0.732283 1.000000
  5 -9.095748 -0.066307 41.457794 0.571794 -0.127099 0.810492 0.874016 0.870968
  5 -10.965749 0.081952 41.332424 -0.873282 0.035899 0.485890 0.874016 1.000000
Desert_Eagle.bmp
  5 -10.695747 -1.898160 40.525421 -0.357779 -0.838751 0.410476 0.732283 1.000000
  5 -9.585747 -1.995673 40.555269 0.422397 -0.829893 0.364497 0.732283 0.854839
  5 -9.095748 -0.066307 41.457794 0.571794 -0.127099 0.810492 0.874016 0.870968
Desert_Eagle.bmp
  5 -10.695747 -1.898160 40.525421 -0.357779 -0.838751 0.410476 0.732283 1.000000
  5 -9.445754 -1.260283 36.451746 0.661709 -0.616008 -0.427406 0.496063 0.870968
  5 -9.585747 -1.995673 40.555269 0.422397 -0.829893 0.364497 0.732283 0.854839
Desert_Eagle.bmp
  5 -10.695747 -1.898160 40.525421 -0.357779 -0.838751 0.410476 0.732283 1.000000
  5 -10.435754 -1.237397 36.379110 -0.655012 0.002700 -0.755614 0.496063 1.000000
  5 -9.445754 -1.260283 36.451746 0.661709 -0.616008 -0.427406 0.496063 0.870968
Desert_Eagle.bmp
  5 -10.965749 0.081952 41.332424 -0.873282 0.035899 0.485890 0.748031 0.532258
  5 -9.095748 -0.066307 41.457794 0.571794 -0.127099 0.810492 0.748031 0.532258
  5 -10.535751 1.557597 41.014032 -0.740286 0.126998 0.660188 0.740157 0.435484
Desert_Eagle.bmp
  5 -10.535751 1.557597 41.014032 -0.740286 0.126998 0.660188 0.740157 0.435484
  5 -9.095748 -0.066307 41.457794 0.571794 -0.127099 0.810492 0.748031 0.532258
  5 -9.195751 1.446154 41.105572 0.498782 -0.121496 0.858170 0.740157 0.435484
Desert_Eagle.bmp
  5 -9.095748 -0.066307 41.457794 0.571794 -0.127099 0.810492 0.748031 0.532258
  5 -8.975756 2.476052 38.640879 0.840079 0.207795 -0.501087 0.559055 0.370968
  5 -9.195751 1.446154 41.105572 0.498782 -0.121496 0.858170 0.740157 0.435484
Desert_Eagle.bmp
  5 -10.535751 1.557597 41.014032 -0.740286 0.126998 0.660188 0.984252 0.516129
  5 -9.195751 1.446154 41.105572 0.498782 -0.121496 0.858170 0.858268 0.516129
  5 -10.375755 5.225287 42.315592 -0.485597 0.172499 0.856995 0.984252 0.000000
Desert_Eagle.bmp
  5 -10.375755 5.225287 42.315592 -0.485597 0.172499 0.856995 0.984252 0.000000
  5 -9.195751 1.446154 41.105572 0.498782 -0.121496 0.858170 0.858268 0.516129
  5 -8.935754 5.124788 42.416087 0.714231 0.519423 0.469120 0.866142 0.000000
Desert_Eagle.bmp
  5 -10.145760 5.648220 39.308595 -0.585924 0.765531 -0.265811 0.858268 0.000000
  5 -8.745759 5.556677 39.398145 0.480073 0.541869 -0.689861 0.984252 0.000000
  5 -10.305756 2.577545 38.550334 -0.631896 0.333998 -0.699395 0.858268 0.516129
Desert_Eagle.bmp
  5 -10.305756 2.577545 38.550334 -0.631896 0.333998 -0.699395 0.858268 0.516129
  5 -8.745759 5.556677 39.398145 0.480073 0.541869 -0.689861 0.984252 0.000000
  5 -8.975756 2.476052 38.640879 0.840079 0.207795 -0.501087 0.984252 0.516129
Desert_Eagle.bmp
  5 -10.375755 5.225287 42.315592 -0.485597 0.172499 0.856995 0.874016 1.000000
  5 -8.935754 5.124788 42.416087 0.714231 0.519423 0.469120 0.984252 1.000000
  5 -10.145760 5.648220 39.308595 -0.585924 0.765531 -0.265811 0.874016 0.564516
Desert_Eagle.bmp
  5 -10.145760 5.648220 39.308595 -0.585924 0.765531 -0.265811 0.874016 0.564516
  5 -8.935754 5.124788 42.416087 0.714231 0.519423 0.469120 0.984252 1.000000
  5 -8.745759 5.556677 39.398145 0.480073 0.541869 -0.689861 0.984252 0.564516
Desert_Eagle.bmp
  5 -8.745759 5.556677 39.398145 0.480073 0.541869 -0.689861 0.582677 0.000000
  5 -8.935754 5.124788 42.416087 0.714231 0.519423 0.469120 0.818898 0.000000
  5 -8.975756 2.476052 38.640879 0.840079 0.207795 -0.501087 0.559055 0.370968
Desert_Eagle.bmp
  5 -8.975756 2.476052 38.640879 0.840079 0.207795 -0.501087 0.559055 0.370968
  5 -8.935754 5.124788 42.416087 0.714231 0.519423 0.469120 0.818898 0.000000
  5 -9.195751 1.446154 41.105572 0.498782 -0.121496 0.858170 0.740157 0.435484
Desert_Eagle.bmp
  5 -9.445754 -1.260283 36.451746 0.661709 -0.616008 -0.427406 0.874016 0.596774
  5 -10.435754 -1.237397 36.379110 -0.655012 0.002700 -0.755614 0.984252 0.596774
  5 -8.975756 2.476052 38.640879 0.840079 0.207795 -0.501087 0.874016 1.000000
Desert_Eagle.bmp
  5 -8.975756 2.476052 38.640879 0.840079 0.207795 -0.501087 0.874016 1.000000
  5 -10.435754 -1.237397 36.379110 -0.655012 0.002700 -0.755614 0.984252 0.596774
  5 -10.305756 2.577545 38.550334 -0.631896 0.333998 -0.699395 0.984252 1.000000
Desert_Eagle.bmp
  5 -10.375755 5.225287 42.315592 -0.485597 0.172499 0.856995 0.818898 0.000000
  5 -10.145760 5.648220 39.308595 -0.585924 0.765531 -0.265811 0.582677 0.000000
  5 -10.535751 1.557597 41.014032 -0.740286 0.126998 0.660188 0.740157 0.435484
Desert_Eagle.bmp
  5 -10.535751 1.557597 41.014032 -0.740286 0.126998 0.660188 0.740157 0.435484
  5 -10.145760 5.648220 39.308595 -0.585924 0.765531 -0.265811 0.582677 0.000000
  5 -10.305756 2.577545 38.550334 -0.631896 0.333998 -0.699395 0.559055 0.370968
Desert_Eagle.bmp
  5 -10.695747 -1.898160 40.525421 -0.357779 -0.838751 0.410476 0.732283 0.854839
  5 -10.965749 0.081952 41.332424 -0.873282 0.035899 0.485890 0.771654 0.612903
  5 -10.435754 -1.237397 36.379110 -0.655012 0.002700 -0.755614 0.496063 0.870968
Desert_Eagle.bmp
  5 -9.445754 -1.260283 36.451746 0.661709 -0.616008 -0.427406 0.496063 0.870968
  5 -9.095748 -0.066307 41.457794 0.571794 -0.127099 0.810492 0.771654 0.612903
  5 -9.585747 -1.995673 40.555269 0.422397 -0.829893 0.364497 0.732283 0.854839
Desert_Eagle.bmp
  5 -9.095748 -0.066307 41.457794 0.571794 -0.127099 0.810492 0.771654 0.612903
  5 -9.445754 -1.260283 36.451746 0.661709 -0.616008 -0.427406 0.496063 0.870968
  5 -8.975756 2.476052 38.640879 0.840079 0.207795 -0.501087 0.559055 0.370968
Desert_Eagle.bmp
  5 -10.965749 0.081952 41.332424 -0.873282 0.035899 0.485890 0.748031 0.532258
  5 -10.535751 1.557597 41.014032 -0.740286 0.126998 0.660188 0.740157 0.435484
  5 -10.305756 2.577545 38.550334 -0.631896 0.333998 -0.699395 0.559055 0.370968
Desert_Eagle.bmp
  5 -10.435754 -1.237397 36.379110 -0.655012 0.002700 -0.755614 0.496063 0.870968
  5 -10.965749 0.081952 41.332424 -0.873282 0.035899 0.485890 0.771654 0.612903
  5 -10.305756 2.577545 38.550334 -0.631896 0.333998 -0.699395 0.559055 0.370968
end
