version 1
nodes
  0 "Bip01" -1
  1 "Bip01 Pelvis" 0
  2 "Bip01 L Thigh" 1
  3 "Bip01 L Calf" 2
  4 "Bip01 L Foot" 3
  5 "Bip01 R Thigh" 1
  6 "Bip01 R Calf" 5
  7 "Bip01 R Foot" 6
  8 "Bip01 Spine" 1
  9 "Bip01 Spine1" 8
  10 "Bip01 Spine2" 9
  11 "Bip01 Spine3" 10
  12 "Bip01 Neck" 11
  13 "Bip01 Head" 12
  14 "Bone05" 13
  15 "Bone06" 14
  16 "Bip01 L Clavicle" 12
  17 "Bip01 L UpperArm" 16
  18 "Bip01 L Forearm" 17
  19 "Bip01 L Hand" 18
  20 "Bip01 R Clavicle" 12
  21 "Bip01 R UpperArm" 20
  22 "Bip01 R Forearm" 21
  23 "Bip01 R Hand" 22
  24 "Bip01 R Finger0" 23
  25 "MP5_model" 24
  26 "Shotgun" 23
  27 "saw_world" 23
end
skeleton
  time 0
    0 2.664426 -4.860162 25.486808 0.002972 -0.095883 -1.571131
    1 -4.639448 -0.773460 9.745319 -1.570795 -1.570451 0.000000
    2 -0.000008 0.000010 5.615750 0.025886 3.207644 -0.805214
    3 15.693467 0.000000 0.000000 0.000000 0.000000 -1.078159
    4 22.146629 -0.000001 0.000000 0.035721 -0.061333 0.176736
    5 0.000008 -0.000006 -5.615750 -0.058660 3.052056 -0.155853
    6 15.693467 0.000000 0.000000 0.000000 0.000000 -0.995322
    7 22.146629 0.000000 0.000000 0.034741 0.101258 0.747920
    8 1.384163 -0.004728 0.000002 -0.431530 -0.129382 0.271186
    9 5.939814 -0.004730 0.000000 -0.093624 -0.026965 0.225909
    10 5.939809 -0.003975 0.000000 -0.095444 -0.068108 0.133523
    11 4.991439 -0.003975 0.000000 -0.087226 0.060306 0.042835
    12 4.991436 -0.001575 0.000000 0.000000 0.000000 0.000000
    13 1.977383 0.000000 0.000000 0.487188 0.362931 -0.096808
    14 3.723980 2.768055 -0.395205 0.000000 -3.141591 -1.570795
    15 2.863741 -0.721077 0.000003 0.000000 0.000000 0.000000
    16 0.000005 0.001564 3.638375 -0.000010 -1.283530 3.140806
    17 8.842831 0.000000 -0.000001 0.481278 -0.765450 -1.588375
    18 9.341934 0.000000 -0.000002 0.000000 0.000000 -0.446982
    19 9.664096 0.000000 0.000003 -3.820704 -0.067348 -0.376995
    20 0.000005 0.001585 -3.638375 -0.000010 1.082926 3.140787
    21 8.842831 0.000000 0.000001 -0.059653 0.069576 -2.136064
    22 9.341934 0.000000 -0.000001 0.000000 0.000000 -0.783287
    23 9.664095 0.000000 -0.000002 2.840650 0.149945 0.479176
    24 6.829857 -0.000001 0.000000 0.001241 0.000000 0.000000
    25 7.919290 -0.636890 0.610527 -1.520273 -0.091531 1.564919
    26 2.515638 0.482270 0.379719 1.593351 0.004972 0.082565
    27 2.687324 0.164273 -1.706054 0.139179 -0.015749 1.668336
  time 1
    0 2.763941 -5.018645 25.287583 0.002972 -0.095883 -1.571131
    1 -4.701950 -0.773460 9.745319 -1.570795 -1.570451 0.000000
    2 -0.000008 0.000010 5.615750 0.025311 3.205152 -0.818660
    3 15.693467 0.000000 0.000000 0.000000 0.000000 -1.102332
    4 22.146629 -0.000001 0.000000 0.034934 -0.058814 0.187521
    5 0.000008 -0.000006 -5.615750 -0.017732 2.994251 -0.212827
    6 15.693467 0.000000 0.000000 0.000000 0.000000 -1.047644
    7 22.146629 0.000000 0.000000 0.093718 0.146057 0.731176
    8 1.384163 -0.004728 0.000002 -0.448336 -0.133560 0.275290
    9 5.939814 -0.004730 0.000000 -0.097291 -0.027660 0.232736
    10 5.939809 -0.003975 0.000000 -0.099108 -0.070697 0.133925
    11 4.991439 -0.003975 0.000000 -0.090558 0.062596 0.042551
    12 4.991436 -0.001575 0.000000 0.000000 0.000000 0.000000
    13 1.977383 0.000000 0.000000 0.508287 0.375133 -0.090355
    14 3.723980 2.768055 -0.395205 0.000000 -3.141591 -1.570795
    15 2.863741 -0.721077 0.000003 0.000000 0.000000 0.000000
    16 0.000005 0.001564 3.638375 -0.000010 -1.283530 3.140806
    17 8.842831 0.000000 -0.000001 0.604460 -0.809246 -1.694857
    18 9.341934 0.000000 -0.000002 0.000000 0.000000 -0.315120
    19 9.664096 0.000000 0.000003 -3.854874 -0.084594 -0.440232
    20 0.000005 0.001585 -3.638375 -0.000010 1.078757 3.140787
    21 8.842831 0.000000 0.000001 -0.063839 0.082467 -2.142363
    22 9.341934 0.000000 -0.000001 0.000000 0.000000 -0.768014
    23 9.664095 0.000000 -0.000002 2.858357 0.145390 0.488234
    24 6.829857 -0.000001 0.000000 0.001241 0.000000 0.000000
    25 7.919290 -0.636890 0.610527 -1.520273 -0.091531 1.564919
    26 2.515638 0.482270 0.379719 1.593351 0.004972 0.082565
    27 2.687324 0.164273 -1.706054 0.139179 -0.015749 1.668336
  time 2
    0 2.830284 -5.124301 25.158673 0.002972 -0.095883 -1.571131
    1 -4.741013 -0.773460 9.745319 -1.570795 -1.570451 0.000000
    2 -0.000008 0.000010 5.615750 0.025886 3.202659 -0.827254
    3 15.693467 0.000000 0.000000 0.000000 0.000000 -1.117886
    4 22.146629 -0.000001 0.000000 0.033100 -0.057473 0.194515
    5 0.000008 -0.000006 -5.615750 0.041217 2.904525 -0.281573
    6 15.693467 0.000000 0.000000 0.000000 0.000000 -1.090746
    7 22.146629 0.000000 0.000000 0.178703 0.204592 0.687423
    8 1.384163 -0.004728 0.000002 -0.459314 -0.136250 0.277975
    9 5.939814 -0.004730 0.000000 -0.099676 -0.028104 0.237210
    10 5.939809 -0.003975 0.000000 -0.101505 -0.072387 0.134189
    11 4.991439 -0.003975 0.000000 -0.092749 0.064094 0.042342
    12 4.991436 -0.001575 0.000000 0.000000 0.000000 0.000000
    13 1.977383 0.000000 0.000000 0.522241 0.382934 -0.085792
    14 3.723980 2.768055 -0.395205 0.000000 -3.141591 -1.570795
    15 2.863741 -0.721077 0.000003 0.000000 0.000000 0.000000
    16 0.000005 0.001564 3.638375 -0.000010 -1.283530 3.140806
    17 8.842831 0.000000 -0.000001 0.718899 -0.563952 -1.833125
    18 9.341934 0.000000 -0.000002 0.000000 0.000000 -0.002948
    19 9.664096 0.000000 0.000003 -3.867710 -0.159067 -0.580379
    20 0.000005 0.001585 -3.638375 -0.000010 1.082926 3.140787
    21 8.842831 0.000000 0.000001 -0.046767 0.067789 -2.095409
    22 9.341934 0.000000 -0.000001 0.000000 0.000000 -0.783287
    23 9.664095 0.000000 -0.000002 2.840650 0.149945 0.479176
    24 6.829857 -0.000001 0.000000 0.001241 0.000000 0.000000
    25 7.919290 -0.636890 0.610527 -1.520273 -0.091531 1.564919
    26 2.515638 0.482270 0.379719 1.593351 0.004972 0.082565
    27 2.687324 0.164273 -1.706054 0.139179 -0.015749 1.668336
  time 3
    0 2.863456 -5.184676 25.088358 0.002972 -0.095883 -1.571131
    1 -4.760545 -0.773460 9.745319 -1.570795 -1.570451 0.000000
    2 -0.000008 0.000010 5.615750 0.025599 3.201605 -0.831904
    3 15.693467 0.000000 0.000000 0.000000 0.000000 -1.126235
    4 22.146629 -0.000001 0.000000 0.032707 -0.056555 0.198241
    5 0.000008 -0.000006 -5.615750 0.102179 2.803390 -0.345834
    6 15.693467 0.000000 0.000000 0.000000 0.000000 -1.123503
    7 22.146629 0.000000 0.000000 0.265703 0.257693 0.626927
    8 1.384163 -0.004728 0.000002 -0.465287 -0.137703 0.279471
    9 5.939814 -0.004730 0.000000 -0.100982 -0.028332 0.239639
    10 5.939809 -0.003975 0.000000 -0.102800 -0.073310 0.134339
    11 4.991439 -0.003975 0.000000 -0.093938 0.064909 0.042237
    12 4.991436 -0.001575 0.000000 0.000000 0.000000 0.000000
    13 1.977383 0.000000 0.000000 0.529892 0.387113 -0.083257
    14 3.723980 2.768055 -0.395205 0.000000 -3.141591 -1.570795
    15 2.863741 -0.721077 0.000003 0.000000 0.000000 0.000000
    16 0.000005 0.001564 3.638375 -0.000010 -1.283530 3.140806
    17 8.842831 0.000000 -0.000001 0.692560 -0.602285 -1.785401
    18 9.341934 0.000000 -0.000002 0.000000 0.000000 -0.086510
    19 9.664096 0.000000 0.000003 -3.861956 -0.152246 -0.540575
    20 0.000005 0.001585 -3.638375 -0.000010 1.082926 3.140787
    21 8.842831 0.000000 0.000001 -0.045394 0.066322 -2.107147
    22 9.341934 0.000000 -0.000001 0.000000 0.000000 -0.783287
    23 9.664095 0.000000 -0.000002 2.840650 0.149945 0.479176
    24 6.829857 -0.000001 0.000000 0.001241 0.000000 0.000000
    25 7.919290 -0.636890 0.610527 -1.520273 -0.091531 1.564919
    26 2.515638 0.482270 0.379719 1.593351 0.004972 0.082565
    27 2.687324 0.164273 -1.706054 0.139179 -0.015749 1.668336
  time 4
    0 2.880042 -5.199769 25.068826 0.002972 -0.095883 -1.571131
    1 -4.768358 -0.773460 9.745319 -1.570795 -1.570451 0.000000
    2 -0.000008 0.000010 5.615750 0.025407 3.201413 -0.833320
    3 15.693467 0.000000 0.000000 0.000000 0.000000 -1.128794
    4 22.146629 -0.000001 0.000000 0.032733 -0.056249 0.199352
    5 0.000008 -0.000006 -5.615750 0.153268 2.714526 -0.393329
    6 15.693467 0.000000 0.000000 0.000000 0.000000 -1.144792
    7 22.146629 0.000000 0.000000 0.335535 0.293700 0.566139
    8 1.384163 -0.004728 0.000002 -0.467100 -0.138133 0.279932
    9 5.939814 -0.004730 0.000000 -0.101378 -0.028403 0.240385
    10 5.939809 -0.003975 0.000000 -0.103199 -0.073585 0.134390
    11 4.991439 -0.003975 0.000000 -0.094287 0.065160 0.042207
    12 4.991436 -0.001575 0.000000 0.000000 0.000000 0.000000
    13 1.977383 0.000000 0.000000 0.532199 0.388380 -0.082473
    14 3.723980 2.768055 -0.395205 0.000000 -3.141591 -1.570795
    15 2.863741 -0.721077 0.000003 0.000000 0.000000 0.000000
    16 0.000005 0.001564 3.638375 -0.000010 -1.283530 3.140806
    17 8.842831 0.000000 -0.000001 0.663400 -0.637887 -1.744770
    18 9.341934 0.000000 -0.000002 0.000000 0.000000 -0.157404
    19 9.664096 0.000000 0.000003 -3.855139 -0.141074 -0.507562
    20 0.000005 0.001585 -3.638375 -0.000010 1.082926 3.140787
    21 8.842831 0.000000 0.000001 -0.045263 0.065684 -2.114806
    22 9.341934 0.000000 -0.000001 0.000000 0.000000 -0.783287
    23 9.664095 0.000000 -0.000002 2.840650 0.149945 0.479176
    24 6.829857 -0.000001 0.000000 0.001241 0.000000 0.000000
    25 7.919290 -0.636890 0.610527 -1.520273 -0.091531 1.564919
    26 2.515638 0.482270 0.379719 1.593351 0.004972 0.082565
    27 2.687324 0.164273 -1.706054 0.139179 -0.015749 1.668336
  time 5
    0 2.863456 -5.184676 25.084452 0.002972 -0.095883 -1.571131
    1 -4.764452 -0.773460 9.745319 -1.570795 -1.570451 0.000000
    2 -0.000008 0.000010 5.615750 0.025886 3.201413 -0.832106
    3 15.693467 0.000000 0.000000 0.000000 0.000000 -1.126639
    4 22.146629 -0.000001 0.000000 0.032340 -0.056626 0.198437
    5 0.000008 -0.000006 -5.615750 0.204548 2.648669 -0.404235
    6 15.693467 0.000000 0.000000 0.000000 0.000000 -1.122229
    7 22.146629 0.000000 0.000000 0.388519 0.314292 0.498143
    8 1.384163 -0.004728 0.000002 -0.465577 -0.137774 0.279548
    9 5.939814 -0.004730 0.000000 -0.101042 -0.028344 0.239754
    10 5.939809 -0.003975 0.000000 -0.102868 -0.073346 0.134352
    11 4.991439 -0.003975 0.000000 -0.093984 0.064944 0.042222
    12 4.991436 -0.001575 0.000000 0.000000 0.000000 0.000000
    13 1.977383 0.000000 0.000000 0.530230 0.387313 -0.083118
    14 3.723980 2.768055 -0.395205 0.000000 -3.141591 -1.570795
    15 2.863741 -0.721077 0.000003 0.000000 0.000000 0.000000
    16 0.000005 0.001564 3.638375 -0.000010 -1.283530 3.140806
    17 8.842831 0.000000 -0.000001 0.629277 -0.671940 -1.703876
    18 9.341934 0.000000 -0.000002 0.000000 0.000000 -0.231039
    19 9.664096 0.000000 0.000003 -3.848412 -0.128862 -0.473290
    20 0.000005 0.001585 -3.638375 -0.000010 1.082926 3.140787
    21 8.842831 0.000000 0.000001 -0.046113 0.065684 -2.119315
    22 9.341934 0.000000 -0.000001 0.000000 0.000000 -0.783287
    23 9.664095 0.000000 -0.000002 2.840650 0.149945 0.479176
    24 6.829857 -0.000001 0.000000 0.001241 0.000000 0.000000
    25 7.919290 -0.636890 0.610527 -1.520273 -0.091531 1.564919
    26 2.515638 0.482270 0.379719 1.593351 0.004972 0.082565
    27 2.687324 0.164273 -1.706054 0.139179 -0.015749 1.668336
  time 6
    0 2.846870 -5.146942 25.131328 0.002972 -0.095883 -1.571131
    1 -4.748826 -0.773460 9.745319 -1.570795 -1.570451 0.000000
    2 -0.000008 0.000010 5.615750 0.026462 3.201700 -0.828972
    3 15.693467 0.000000 0.000000 0.000000 0.000000 -1.120983
    4 22.146629 -0.000001 0.000000 0.032130 -0.057355 0.195953
    5 0.000008 -0.000006 -5.615750 0.231195 2.629497 -0.390730
    6 15.693467 0.000000 0.000000 0.000000 0.000000 -1.086473
    7 22.146629 0.000000 0.000000 0.407650 0.319819 0.462617
    8 1.384163 -0.004728 0.000002 -0.461539 -0.136788 0.278551
    9 5.939814 -0.004730 0.000000 -0.100167 -0.028188 0.238128
    10 5.939809 -0.003975 0.000000 -0.101987 -0.072734 0.134252
    11 4.991439 -0.003975 0.000000 -0.093192 0.064393 0.042297
    12 4.991436 -0.001575 0.000000 0.000000 0.000000 0.000000
    13 1.977383 0.000000 0.000000 0.525054 0.384490 -0.084870
    14 3.723980 2.768055 -0.395205 0.000000 -3.141591 -1.570795
    15 2.863741 -0.721077 0.000003 0.000000 0.000000 0.000000
    16 0.000005 0.001564 3.638375 -0.000010 -1.283530 3.140806
    17 8.842831 0.000000 -0.000001 0.598537 -0.697070 -1.673578
    18 9.341934 0.000000 -0.000002 0.000000 0.000000 -0.286525
    19 9.664096 0.000000 0.000003 -3.842215 -0.116975 -0.447968
    20 0.000005 0.001585 -3.638375 -0.000010 1.082926 3.140787
    21 8.842831 0.000000 0.000001 -0.047683 0.066194 -2.121534
    22 9.341934 0.000000 -0.000001 0.000000 0.000000 -0.783287
    23 9.664095 0.000000 -0.000002 2.840650 0.149945 0.479176
    24 6.829857 -0.000001 0.000000 0.001241 0.000000 0.000000
    25 7.919290 -0.636890 0.610527 -1.520273 -0.091531 1.564919
    26 2.515638 0.482270 0.379719 1.593351 0.004972 0.082565
    27 2.687324 0.164273 -1.706054 0.139179 -0.015749 1.668336
  time 7
    0 2.813698 -5.094114 25.201643 0.002972 -0.095883 -1.571131
    1 -4.729294 -0.773460 9.745319 -1.570795 -1.570451 0.000000
    2 -0.000008 0.000010 5.615750 0.026749 3.202563 -0.824524
    3 15.693467 0.000000 0.000000 0.000000 0.000000 -1.112971
    4 22.146629 -0.000001 0.000000 0.032419 -0.058250 0.192358
    5 0.000008 -0.000006 -5.615750 0.184611 2.695066 -0.374423
    6 15.693467 0.000000 0.000000 0.000000 0.000000 -1.094269
    7 22.146629 0.000000 0.000000 0.357432 0.299693 0.523842
    8 1.384163 -0.004728 0.000002 -0.455832 -0.135407 0.277132
    9 5.939814 -0.004730 0.000000 -0.098921 -0.027960 0.235795
    10 5.939809 -0.003975 0.000000 -0.100747 -0.071848 0.134113
    11 4.991439 -0.003975 0.000000 -0.092050 0.063626 0.042402
    12 4.991436 -0.001575 0.000000 0.000000 0.000000 0.000000
    13 1.977383 0.000000 0.000000 0.517796 0.380467 -0.087266
    14 3.723980 2.768055 -0.395205 0.000000 -3.141591 -1.570795
    15 2.863741 -0.721077 0.000003 0.000000 0.000000 0.000000
    16 0.000005 0.001564 3.638375 -0.000010 -1.283530 3.140806
    17 8.842831 0.000000 -0.000001 0.572085 -0.714461 -1.652825
    18 9.341934 0.000000 -0.000002 0.000000 0.000000 -0.326454
    19 9.664096 0.000000 0.000003 -3.836550 -0.105868 -0.430067
    20 0.000005 0.001585 -3.638375 -0.000010 1.082926 3.140787
    21 8.842831 0.000000 0.000001 -0.049842 0.067024 -2.122321
    22 9.341934 0.000000 -0.000001 0.000000 0.000000 -0.783287
    23 9.664095 0.000000 -0.000002 2.840650 0.149945 0.479176
    24 6.829857 -0.000001 0.000000 0.001241 0.000000 0.000000
    25 7.919290 -0.636890 0.610527 -1.520273 -0.091531 1.564919
    26 2.515638 0.482270 0.379719 1.593351 0.004972 0.082565
    27 2.687324 0.164273 -1.706054 0.139179 -0.015749 1.668336
  time 8
    0 2.763941 -5.026192 25.275864 0.002972 -0.095883 -1.571131
    1 -4.705856 -0.773460 9.745319 -1.570795 -1.570451 0.000000
    2 -0.000008 0.000010 5.615750 0.026653 3.203809 -0.819419
    3 15.693467 0.000000 0.000000 0.000000 0.000000 -1.103746
    4 22.146629 -0.000001 0.000000 0.033100 -0.059144 0.188240
    5 0.000008 -0.000006 -5.615750 0.120007 2.787190 -0.343082
    6 15.693467 0.000000 0.000000 0.000000 0.000000 -1.099966
    7 22.146629 0.000000 0.000000 0.282926 0.264036 0.603995
    8 1.384163 -0.004728 0.000002 -0.449303 -0.133794 0.275520
    9 5.939814 -0.004730 0.000000 -0.097495 -0.027696 0.233137
    10 5.939809 -0.003975 0.000000 -0.099315 -0.070853 0.133950
    11 4.991439 -0.003975 0.000000 -0.090768 0.062727 0.042521
    12 4.991436 -0.001575 0.000000 0.000000 0.000000 0.000000
    13 1.977383 0.000000 0.000000 0.509525 0.375822 -0.089940
    14 3.723980 2.768055 -0.395205 0.000000 -3.141591 -1.570795
    15 2.863741 -0.721077 0.000003 0.000000 0.000000 0.000000
    16 0.000005 0.001564 3.638375 -0.000010 -1.283530 3.140806
    17 8.842831 0.000000 -0.000001 0.549129 -0.726844 -1.638551
    18 9.341934 0.000000 -0.000002 0.000000 0.000000 -0.356308
    19 9.664096 0.000000 0.000003 -3.831327 -0.095669 -0.417024
    20 0.000005 0.001585 -3.638375 -0.000010 1.082926 3.140787
    21 8.842831 0.000000 0.000001 -0.052196 0.067981 -2.122608
    22 9.341934 0.000000 -0.000001 0.000000 0.000000 -0.783287
    23 9.664095 0.000000 -0.000002 2.840650 0.149945 0.479176
    24 6.829857 -0.000001 0.000000 0.001241 0.000000 0.000000
    25 7.919290 -0.636890 0.610527 -1.520273 -0.091531 1.564919
    26 2.515638 0.482270 0.379719 1.593351 0.004972 0.082565
    27 2.687324 0.164273 -1.706054 0.139179 -0.015749 1.668336
  time 9
    0 2.730769 -4.965818 25.353991 0.002972 -0.095883 -1.571131
    1 -4.678511 -0.773460 9.745319 -1.570795 -1.570451 0.000000
    2 -0.000008 0.000010 5.615750 0.026462 3.205152 -0.814212
    3 15.693467 0.000000 0.000000 0.000000 0.000000 -1.094387
    4 22.146629 -0.000001 0.000000 0.033965 -0.059991 0.184057
    5 0.000008 -0.000006 -5.615750 0.076107 2.857744 -0.302263
    6 15.693467 0.000000 0.000000 0.000000 0.000000 -1.079952
    7 22.146629 0.000000 0.000000 0.223842 0.229918 0.649786
    8 1.384163 -0.004728 0.000002 -0.442774 -0.132180 0.273909
    9 5.939814 -0.004730 0.000000 -0.096080 -0.027433 0.230479
    10 5.939809 -0.003975 0.000000 -0.097896 -0.069846 0.133799
    11 4.991439 -0.003975 0.000000 -0.089463 0.061840 0.042641
    12 4.991436 -0.001575 0.000000 0.000000 0.000000 0.000000
    13 1.977383 0.000000 0.000000 0.501310 0.371132 -0.092521
    14 3.723980 2.768055 -0.395205 0.000000 -3.141591 -1.570795
    15 2.863741 -0.721077 0.000003 0.000000 0.000000 0.000000
    16 0.000005 0.001564 3.638375 -0.000010 -1.283530 3.140806
    17 8.842831 0.000000 -0.000001 0.528543 -0.736678 -1.627080
    18 9.341934 0.000000 -0.000002 0.000000 0.000000 -0.381051
    19 9.664096 0.000000 0.000003 -3.826724 -0.086348 -0.406319
    20 0.000005 0.001585 -3.638375 -0.000010 1.082926 3.140787
    21 8.842831 0.000000 0.000001 -0.054616 0.068874 -2.123252
    22 9.341934 0.000000 -0.000001 0.000000 0.000000 -0.783287
    23 9.664095 0.000000 -0.000002 2.840650 0.149945 0.479176
    24 6.829857 -0.000001 0.000000 0.001241 0.000000 0.000000
    25 7.919290 -0.636890 0.610527 -1.520273 -0.091531 1.564919
    26 2.515638 0.482270 0.379719 1.593351 0.004972 0.082565
    27 2.687324 0.164273 -1.706054 0.139179 -0.015749 1.668336
  time 10
    0 2.697598 -4.912990 25.420400 0.002972 -0.095883 -1.571131
    1 -4.658980 -0.773460 9.745319 -1.570795 -1.570451 0.000000
    2 -0.000008 0.000010 5.615750 0.026270 3.206398 -0.809663
    3 15.693467 0.000000 0.000000 0.000000 0.000000 -1.086239
    4 22.146629 -0.000001 0.000000 0.034751 -0.060697 0.180331
    5 0.000008 -0.000006 -5.615750 0.033166 2.924943 -0.256347
    6 15.693467 0.000000 0.000000 0.000000 0.000000 -1.053116
    7 22.146629 0.000000 0.000000 0.163603 0.191369 0.687059
    8 1.384163 -0.004728 0.000002 -0.437092 -0.130763 0.272529
    9 5.939814 -0.004730 0.000000 -0.094834 -0.027193 0.228166
    10 5.939809 -0.003975 0.000000 -0.096656 -0.068971 0.133661
    11 4.991439 -0.003975 0.000000 -0.088321 0.061061 0.042746
    12 4.991436 -0.001575 0.000000 0.000000 0.000000 0.000000
    13 1.977383 0.000000 0.000000 0.494109 0.366998 -0.094733
    14 3.723980 2.768055 -0.395205 0.000000 -3.141591 -1.570795
    15 2.863741 -0.721077 0.000003 0.000000 0.000000 0.000000
    16 0.000005 0.001564 3.638375 -0.000010 -1.283530 3.140806
    17 8.842831 0.000000 -0.000001 0.509310 -0.745783 -1.615433
    18 9.341934 0.000000 -0.000002 0.000000 0.000000 -0.404164
    19 9.664096 0.000000 0.000003 -3.822740 -0.077936 -0.396245
    20 0.000005 0.001585 -3.638375 -0.000010 1.082926 3.140787
    21 8.842831 0.000000 0.000001 -0.056840 0.069512 -2.125185
    22 9.341934 0.000000 -0.000001 0.000000 0.000000 -0.783287
    23 9.664095 0.000000 -0.000002 2.840650 0.149945 0.479176
    24 6.829857 -0.000001 0.000000 0.001241 0.000000 0.000000
    25 7.919290 -0.636890 0.610527 -1.520273 -0.091531 1.564919
    26 2.515638 0.482270 0.379719 1.593351 0.004972 0.082565
    27 2.687324 0.164273 -1.706054 0.139179 -0.015749 1.668336
  time 11
    0 2.664426 -4.875255 25.467276 0.002972 -0.095883 -1.571131
    1 -4.643354 -0.773460 9.745319 -1.570795 -1.570451 0.000000
    2 -0.000008 0.000010 5.615750 0.026078 3.207261 -0.806427
    3 15.693467 0.000000 0.000000 0.000000 0.000000 -1.080381
    4 22.146629 -0.000001 0.000000 0.035354 -0.061192 0.177717
    5 0.000008 -0.000006 -5.615750 -0.011022 2.989458 -0.207068
    6 15.693467 0.000000 0.000000 0.000000 0.000000 -1.023582
    7 22.146629 0.000000 0.000000 0.100945 0.148459 0.718873
    8 1.384163 -0.004728 0.000002 -0.433054 -0.129759 0.271570
    9 5.939814 -0.004730 0.000000 -0.093959 -0.027025 0.226521
    10 5.939809 -0.003975 0.000000 -0.095775 -0.068348 0.133561
    11 4.991439 -0.003975 0.000000 -0.087529 0.060510 0.042820
    12 4.991436 -0.001575 0.000000 0.000000 0.000000 0.000000
    13 1.977383 0.000000 0.000000 0.489101 0.364042 -0.096208
    14 3.723980 2.768055 -0.395205 0.000000 -3.141591 -1.570795
    15 2.863741 -0.721077 0.000003 0.000000 0.000000 0.000000
    16 0.000005 0.001564 3.638375 -0.000010 -1.283530 3.140806
    17 8.842831 0.000000 -0.000001 0.491656 -0.755162 -1.602211
    18 9.341934 0.000000 -0.000002 0.000000 0.000000 -0.426610
    19 9.664096 0.000000 0.000003 -3.819465 -0.070596 -0.386350
    20 0.000005 0.001585 -3.638375 -0.000010 1.082926 3.140787
    21 8.842831 0.000000 0.000001 -0.058606 0.069832 -2.129121
    22 9.341934 0.000000 -0.000001 0.000000 0.000000 -0.783287
    23 9.664095 0.000000 -0.000002 2.840650 0.149945 0.479176
    24 6.829857 -0.000001 0.000000 0.001241 0.000000 0.000000
    25 7.919290 -0.636890 0.610527 -1.520273 -0.091531 1.564919
    26 2.515638 0.482270 0.379719 1.593351 0.004972 0.082565
    27 2.687324 0.164273 -1.706054 0.139179 -0.015749 1.668336
  time 12
    0 2.664426 -4.860162 25.486808 0.002972 -0.095883 -1.571131
    1 -4.639448 -0.773460 9.745319 -1.570795 -1.570451 0.000000
    2 -0.000008 0.000010 5.615750 0.025886 3.207644 -0.805214
    3 15.693467 0.000000 0.000000 0.000000 0.000000 -1.078159
    4 22.146629 -0.000001 0.000000 0.035721 -0.061333 0.176736
    5 0.000008 -0.000006 -5.615750 -0.058660 3.052056 -0.155853
    6 15.693467 0.000000 0.000000 0.000000 0.000000 -0.995322
    7 22.146629 0.000000 0.000000 0.034741 0.101258 0.747920
    8 1.384163 -0.004728 0.000002 -0.431530 -0.129382 0.271186
    9 5.939814 -0.004730 0.000000 -0.093624 -0.026965 0.225909
    10 5.939809 -0.003975 0.000000 -0.095444 -0.068108 0.133523
    11 4.991439 -0.003975 0.000000 -0.087226 0.060306 0.042835
    12 4.991436 -0.001575 0.000000 0.000000 0.000000 0.000000
    13 1.977383 0.000000 0.000000 0.487188 0.362931 -0.096808
    14 3.723980 2.768055 -0.395205 0.000000 -3.141591 -1.570795
    15 2.863741 -0.721077 0.000003 0.000000 0.000000 0.000000
    16 0.000005 0.001564 3.638375 -0.000010 -1.283530 3.140806
    17 8.842831 0.000000 -0.000001 0.476878 -0.764631 -1.587762
    18 9.341934 0.000000 -0.000002 0.000000 0.000000 -0.446982
    19 9.664096 0.000000 0.000003 -3.817252 -0.065043 -0.377219
    20 0.000005 0.001585 -3.638375 -0.000010 1.082926 3.140787
    21 8.842831 0.000000 0.000001 -0.059653 0.069576 -2.136064
    22 9.341934 0.000000 -0.000001 0.000000 0.000000 -0.783287
    23 9.664095 0.000000 -0.000002 2.840650 0.149945 0.479176
    24 6.829857 -0.000001 0.000000 0.001241 0.000000 0.000000
    25 7.919290 -0.636890 0.610527 -1.520273 -0.091531 1.564919
    26 2.515638 0.482270 0.379719 1.593351 0.004972 0.082565
    27 2.687324 0.164273 -1.706054 0.139179 -0.015749 1.668336
end
