version 1
nodes
  0 "Bip01" -1
  1 "Bip01 Pelvis" 0
  2 "Bip01 L Thigh" 1
  3 "Bip01 L Calf" 2
  4 "Bip01 L Foot" 3
  5 "Bip01 R Thigh" 1
  6 "Bip01 R Calf" 5
  7 "Bip01 R Foot" 6
  8 "Bip01 Spine" 1
  9 "Bip01 Spine1" 8
  10 "Bip01 Spine2" 9
  11 "Bip01 Spine3" 10
  12 "Bip01 Neck" 11
  13 "Bip01 Head" 12
  14 "Bone05" 13
  15 "Bone06" 14
  16 "Bip01 L Clavicle" 12
  17 "Bip01 L UpperArm" 16
  18 "Bip01 L Forearm" 17
  19 "Bip01 L Hand" 18
  20 "Bip01 R Clavicle" 12
  21 "Bip01 R UpperArm" 20
  22 "Bip01 R Forearm" 21
  23 "Bip01 R Hand" 22
  24 "Bip01 R Finger0" 23
  25 "MP5_model" 24
  26 "Shotgun" 23
  27 "saw_world" 23
end
skeleton
  time 0
    0 0.408758 0.000000 30.256485 0.000000 0.000000 -1.570844
    1 0.739623 0.000001 9.745319 -1.570795 -1.570451 0.000000
    2 -0.000008 0.000010 5.615750 -0.213122 3.222695 -0.285971
    3 15.693467 0.000000 0.000000 0.000000 0.000000 -0.671130
    4 22.146629 -0.000001 0.000000 0.188064 0.129467 -0.291591
    5 0.000008 -0.000006 -5.615750 0.073040 3.054261 -0.195551
    6 15.693467 0.000000 0.000000 0.000000 0.000000 -1.141943
    7 22.146629 0.000000 0.000000 -0.106937 -0.039225 -0.083893
    8 1.384163 -0.004728 0.000002 -0.000004 -0.000001 -0.060233
    9 5.939814 -0.004730 0.000000 0.000000 0.000000 -0.209330
    10 5.939809 -0.003975 0.000000 0.000000 0.000000 0.200605
    11 4.991439 -0.003975 0.000000 0.000000 0.000000 0.000000
    12 4.991436 -0.001575 0.000000 0.000000 0.000000 0.000000
    13 1.977383 0.000000 0.000000 0.000000 0.000000 0.042805
    14 3.723980 2.768055 -0.395205 0.000000 -3.141591 -1.570795
    15 2.863741 -0.721077 0.000003 0.000000 0.000000 0.000000
    16 0.000005 0.001564 3.638375 -0.000010 -1.283530 3.140806
    17 8.842831 0.000000 -0.000001 -0.099888 0.347296 -1.291961
    18 9.341934 0.000000 -0.000002 0.000000 0.000000 -2.057774
    19 9.664096 0.000000 0.000003 -1.569555 0.000011 0.000000
    20 0.000005 0.001585 -3.638375 -0.000010 1.283530 3.140787
    21 8.842831 0.000000 0.000001 0.595940 -0.169221 -1.007299
    22 9.341934 0.000000 -0.000001 0.000000 0.000000 -1.274057
    23 9.664095 0.000000 -0.000002 1.569555 0.165706 0.000000
    24 6.829857 -0.000001 0.000000 0.001241 0.000000 0.000000
    25 7.919290 -0.636890 0.610527 -1.520273 -0.091531 1.564919
    26 2.515638 0.482270 0.379719 1.593351 0.004972 0.082565
    27 2.687324 0.164273 -1.706054 0.139179 -0.015749 1.668336
  time 1
    0 0.408758 0.000000 30.256485 0.000000 0.000000 -1.570844
    1 0.735716 -0.269538 9.745319 -1.570795 -1.570451 0.000000
    2 -0.000008 0.000010 5.615750 -0.078134 3.273122 -0.379184
    3 15.693467 0.000000 0.000000 0.000000 0.000000 -0.679547
    4 22.146629 -0.000001 0.000000 0.189506 0.136975 -0.117921
    5 0.000008 -0.000006 -5.615750 0.069781 3.006234 -0.100561
    6 15.693467 0.000000 0.000000 0.000000 0.000000 -1.132274
    7 22.146629 0.000000 0.000000 -0.067709 -0.067070 -0.171471
    8 1.384163 -0.004728 0.000002 -0.000004 -0.000001 -0.060233
    9 5.939814 -0.004730 0.000000 -0.000024 -0.039094 -0.209330
    10 5.939809 -0.003975 0.000000 -0.000069 -0.019211 0.201572
    11 4.991439 -0.003975 0.000000 0.000000 0.000000 0.000000
    12 4.991436 -0.001575 0.000000 0.000000 0.000000 0.000000
    13 1.977383 0.000000 0.000000 0.010296 0.057121 0.042021
    14 3.723980 2.768055 -0.395205 0.000000 -3.141591 -1.570795
    15 2.863741 -0.721077 0.000003 0.000000 0.000000 0.000000
    16 0.000005 0.001564 3.638375 -0.000010 -1.283530 3.140806
    17 8.842831 0.000000 -0.000001 -0.031529 0.319981 -1.242224
    18 9.341934 0.000000 -0.000002 0.000000 0.000000 -2.057774
    19 9.664096 0.000000 0.000003 -1.569555 0.000011 0.000000
    20 0.000005 0.001585 -3.638375 -0.000010 1.283530 3.140787
    21 8.842831 0.000000 0.000001 0.644996 -0.200618 -1.024191
    22 9.341934 0.000000 -0.000001 0.000000 0.000000 -1.274057
    23 9.664095 0.000000 -0.000002 1.569555 0.165706 0.000000
    24 6.829857 -0.000001 0.000000 0.001241 0.000000 0.000000
    25 7.919290 -0.636890 0.610527 -1.520273 -0.091531 1.564919
    26 2.515638 0.482270 0.379719 1.593351 0.004972 0.082565
    27 2.687324 0.164273 -1.706054 0.139179 -0.015749 1.668336
  time 2
    0 0.408758 0.000000 30.256485 0.000000 0.000000 -1.570844
    1 0.723997 -0.589861 9.745319 -1.570795 -1.570451 0.000000
    2 -0.000008 0.000010 5.615750 0.072959 3.312716 -0.489786
    3 15.693467 0.000000 0.000000 0.000000 0.000000 -0.697996
    4 22.146629 -0.000001 0.000000 0.173100 0.155168 0.077384
    5 0.000008 -0.000006 -5.615750 0.071890 2.954948 0.005641
    6 15.693467 0.000000 0.000000 0.000000 0.000000 -1.110985
    7 22.146629 0.000000 0.000000 -0.022650 -0.093562 -0.276594
    8 1.384163 -0.004728 0.000002 -0.000004 -0.000001 -0.060233
    9 5.939814 -0.004730 0.000000 -0.000060 -0.084983 -0.209330
    10 5.939809 -0.003975 0.000000 -0.000262 -0.042294 0.203720
    11 4.991439 -0.003975 0.000000 0.000000 0.000000 0.000000
    12 4.991436 -0.001575 0.000000 0.000000 0.000000 0.000000
    13 1.977383 0.000000 0.000000 0.022562 0.124711 0.040731
    14 3.723980 2.768055 -0.395205 0.000000 -3.141591 -1.570795
    15 2.863741 -0.721077 0.000003 0.000000 0.000000 0.000000
    16 0.000005 0.001564 3.638375 -0.000010 -1.283530 3.140806
    17 8.842831 0.000000 -0.000001 0.044388 0.282467 -1.190209
    18 9.341934 0.000000 -0.000002 0.000000 0.000000 -2.057774
    19 9.664096 0.000000 0.000003 -1.569555 0.000011 0.000000
    20 0.000005 0.001585 -3.638375 -0.000010 1.283530 3.140787
    21 8.842831 0.000000 0.000001 0.704780 -0.235589 -1.046738
    22 9.341934 0.000000 -0.000001 0.000000 0.000000 -1.274057
    23 9.664095 0.000000 -0.000002 1.569555 0.165706 0.000000
    24 6.829857 -0.000001 0.000000 0.001241 0.000000 0.000000
    25 7.919290 -0.636890 0.610527 -1.520273 -0.091531 1.564919
    26 2.515638 0.482270 0.379719 1.593351 0.004972 0.082565
    27 2.687324 0.164273 -1.706054 0.139179 -0.015749 1.668336
  time 3
    0 0.408758 0.000000 30.256485 0.000000 0.000000 -1.570844
    1 0.708372 -0.910183 9.745319 -1.570795 -1.570451 0.000000
    2 -0.000008 0.000010 5.615750 0.228463 3.335149 -0.605847
    3 15.693467 0.000000 0.000000 0.000000 0.000000 -0.716446
    4 22.146629 -0.000001 0.000000 0.145110 0.195154 0.265107
    5 0.000008 -0.000006 -5.615750 0.079558 2.904045 0.113168
    6 15.693467 0.000000 0.000000 0.000000 0.000000 -1.089622
    7 22.146629 0.000000 0.000000 0.025015 -0.115904 -0.382883
    8 1.384163 -0.004728 0.000002 -0.000004 -0.000001 -0.060233
    9 5.939814 -0.004730 0.000000 -0.000096 -0.130872 -0.209311
    10 5.939809 -0.003975 0.000000 -0.000496 -0.065388 0.205868
    11 4.991439 -0.003975 0.000000 0.000000 0.000000 0.000000
    12 4.991436 -0.001575 0.000000 0.000000 0.000000 0.000000
    13 1.977383 0.000000 0.000000 0.034940 0.192278 0.040086
    14 3.723980 2.768055 -0.395205 0.000000 -3.141591 -1.570795
    15 2.863741 -0.721077 0.000003 0.000000 0.000000 0.000000
    16 0.000005 0.001564 3.638375 -0.000010 -1.283530 3.140806
    17 8.842831 0.000000 -0.000001 0.117147 0.239491 -1.141434
    18 9.341934 0.000000 -0.000002 0.000000 0.000000 -2.057774
    19 9.664096 0.000000 0.000003 -1.569555 0.000011 0.000000
    20 0.000005 0.001585 -3.638375 -0.000010 1.283530 3.140787
    21 8.842831 0.000000 0.000001 0.765937 -0.269028 -1.071790
    22 9.341934 0.000000 -0.000001 0.000000 0.000000 -1.274057
    23 9.664095 0.000000 -0.000002 1.569555 0.165706 0.000000
    24 6.829857 -0.000001 0.000000 0.001241 0.000000 0.000000
    25 7.919290 -0.636890 0.610527 -1.520273 -0.091531 1.564919
    26 2.515638 0.482270 0.379719 1.593351 0.004972 0.082565
    27 2.687324 0.164273 -1.706054 0.139179 -0.015749 1.668336
  time 4
    0 0.408758 0.000000 30.256485 0.000000 0.000000 -1.570844
    1 0.692746 -1.175816 9.745319 -1.570795 -1.570451 0.000000
    2 -0.000008 0.000010 5.615750 0.374667 3.340134 -0.713164
    3 15.693467 0.000000 0.000000 0.000000 0.000000 -0.724862
    4 22.146629 -0.000001 0.000000 0.118484 0.257640 0.418711
    5 0.000008 -0.000006 -5.615750 0.091252 2.857361 0.211573
    6 15.693467 0.000000 0.000000 0.000000 0.000000 -1.079952
    7 22.146629 0.000000 0.000000 0.071148 -0.132788 -0.473591
    8 1.384163 -0.004728 0.000002 -0.000004 -0.000001 -0.060233
    9 5.939814 -0.004730 0.000000 -0.000132 -0.169965 -0.209311
    10 5.939809 -0.003975 0.000000 -0.000661 -0.084599 0.206848
    11 4.991439 -0.003975 0.000000 0.000000 0.000000 0.000000
    12 4.991436 -0.001575 0.000000 0.000000 0.000000 0.000000
    13 1.977383 0.000000 0.000000 0.045630 0.249377 0.040869
    14 3.723980 2.768055 -0.395205 0.000000 -3.141591 -1.570795
    15 2.863741 -0.721077 0.000003 0.000000 0.000000 0.000000
    16 0.000005 0.001564 3.638375 -0.000010 -1.283530 3.140806
    17 8.842831 0.000000 -0.000001 0.177666 0.197789 -1.099139
    18 9.341934 0.000000 -0.000002 0.000000 0.000000 -2.057774
    19 9.664096 0.000000 0.000003 -1.569555 0.000011 0.000000
    20 0.000005 0.001585 -3.638375 -0.000010 1.283530 3.140787
    21 8.842831 0.000000 0.000001 0.818461 -0.296724 -1.094623
    22 9.341934 0.000000 -0.000001 0.000000 0.000000 -1.274057
    23 9.664095 0.000000 -0.000002 1.569555 0.165706 0.000000
    24 6.829857 -0.000001 0.000000 0.001241 0.000000 0.000000
    25 7.919290 -0.636890 0.610527 -1.520273 -0.091531 1.564919
    26 2.515638 0.482270 0.379719 1.593351 0.004972 0.082565
    27 2.687324 0.164273 -1.706054 0.139179 -0.015749 1.668336
  time 5
    0 0.408758 0.000000 30.256485 0.000000 0.000000 -1.570844
    1 0.684933 -1.347696 9.745319 -1.570795 -1.570451 0.000000
    2 -0.000008 0.000010 5.615750 0.498054 3.333327 -0.798036
    3 15.693467 0.000000 0.000000 0.000000 0.000000 -0.713079
    4 22.146629 -0.000001 0.000000 0.103676 0.331376 0.516102
    5 0.000008 -0.000006 -5.615750 0.103808 2.817674 0.289645
    6 15.693467 0.000000 0.000000 0.000000 0.000000 -1.093519
    7 22.146629 0.000000 0.000000 0.111128 -0.144588 -0.531759
    8 1.384163 -0.004728 0.000002 -0.000004 -0.000001 -0.060233
    9 5.939814 -0.004730 0.000000 -0.000156 -0.195481 -0.209311
    10 5.939809 -0.003975 0.000000 -0.000565 -0.096080 0.205491
    11 4.991439 -0.003975 0.000000 0.000000 0.000000 0.000000
    12 4.991436 -0.001575 0.000000 0.000000 0.000000 0.000000
    13 1.977383 0.000000 0.000000 0.052663 0.285561 0.043635
    14 3.723980 2.768055 -0.395205 0.000000 -3.141591 -1.570795
    15 2.863741 -0.721077 0.000003 0.000000 0.000000 0.000000
    16 0.000005 0.001564 3.638375 -0.000010 -1.283530 3.140806
    17 8.842831 0.000000 -0.000001 0.218332 0.165466 -1.064725
    18 9.341934 0.000000 -0.000002 0.000000 0.000000 -2.057774
    19 9.664096 0.000000 0.000003 -1.569555 0.000011 0.000000
    20 0.000005 0.001585 -3.638375 -0.000010 1.283530 3.140787
    21 8.842831 0.000000 0.000001 0.851427 -0.315231 -1.109296
    22 9.341934 0.000000 -0.000001 0.000000 0.000000 -1.274057
    23 9.664095 0.000000 -0.000002 1.569555 0.165706 0.000000
    24 6.829857 -0.000001 0.000000 0.001241 0.000000 0.000000
    25 7.919290 -0.636890 0.610527 -1.520273 -0.091531 1.564919
    26 2.515638 0.482270 0.379719 1.593351 0.004972 0.082565
    27 2.687324 0.164273 -1.706054 0.139179 -0.015749 1.668336
  time 6
    0 0.408758 0.000000 30.256485 0.000000 0.000000 -1.570844
    1 0.696653 -1.375041 9.745319 -1.570795 -1.570451 0.000000
    2 -0.000008 0.000010 5.615750 0.586831 3.324220 -0.849040
    3 15.693467 0.000000 0.000000 0.000000 0.000000 -0.671130
    4 22.146629 -0.000001 0.000000 0.102681 0.398592 0.538914
    5 0.000008 -0.000006 -5.615750 0.112818 2.787477 0.335408
    6 15.693467 0.000000 0.000000 0.000000 0.000000 -1.141943
    7 22.146629 0.000000 0.000000 0.140308 -0.152727 -0.540131
    8 1.384163 -0.004728 0.000002 -0.000004 -0.000001 -0.060233
    9 5.939814 -0.004730 0.000000 -0.000156 -0.200598 -0.209311
    10 5.939809 -0.003975 0.000000 -0.000069 -0.095937 0.200605
    11 4.991439 -0.003975 0.000000 0.000000 0.000000 0.000000
    12 4.991436 -0.001575 0.000000 0.000000 0.000000 0.000000
    13 1.977383 0.000000 0.000000 0.053957 0.290407 0.048751
    14 3.723980 2.768055 -0.395205 0.000000 -3.141591 -1.570795
    15 2.863741 -0.721077 0.000003 0.000000 0.000000 0.000000
    16 0.000005 0.001564 3.638375 -0.000010 -1.283530 3.140806
    17 8.842831 0.000000 -0.000001 0.232432 0.151444 -1.038631
    18 9.341934 0.000000 -0.000002 0.000000 0.000000 -2.057774
    19 9.664096 0.000000 0.000003 -1.569555 0.000011 0.000000
    20 0.000005 0.001585 -3.638375 -0.000010 1.283530 3.140787
    21 8.842831 0.000000 0.000001 0.853781 -0.321740 -1.109654
    22 9.341934 0.000000 -0.000001 0.000000 0.000000 -1.274057
    23 9.664095 0.000000 -0.000002 1.569555 0.165706 0.000000
    24 6.829857 -0.000001 0.000000 0.001241 0.000000 0.000000
    25 7.919290 -0.636890 0.610527 -1.520273 -0.091531 1.564919
    26 2.515638 0.482270 0.379719 1.593351 0.004972 0.082565
    27 2.687324 0.164273 -1.706054 0.139179 -0.015749 1.668336
  time 7
    0 0.408758 0.000000 30.256485 0.000000 0.000000 -1.570844
    1 0.727904 -1.269569 9.745319 -1.570795 -1.570451 0.000000
    2 -0.000008 0.000010 5.615750 0.586544 3.332560 -0.811533
    3 15.693467 0.000000 0.000000 0.000000 0.000000 -0.491014
    4 22.146629 -0.000001 0.000000 0.119034 0.423610 0.316940
    5 0.000008 -0.000006 -5.615750 0.103521 2.779521 0.289135
    6 15.693467 0.000000 0.000000 0.000000 0.000000 -1.335789
    7 22.146629 0.000000 0.000000 0.138427 -0.157414 -0.363590
    8 1.384163 -0.004728 0.000002 -0.000004 -0.000001 -0.060233
    9 5.939814 -0.004730 0.000000 -0.000144 -0.186312 -0.209311
    10 5.939809 -0.003975 0.000000 0.000785 -0.084455 0.191849
    11 4.991439 -0.003975 0.000000 0.000000 0.000000 0.000000
    12 4.991436 -0.001575 0.000000 0.000000 0.000000 0.000000
    13 1.977383 0.000000 0.000000 0.049568 0.265091 0.056540
    14 3.723980 2.768055 -0.395205 0.000000 -3.141591 -1.570795
    15 2.863741 -0.721077 0.000003 0.000000 0.000000 0.000000
    16 0.000005 0.001564 3.638375 -0.000010 -1.283530 3.140806
    17 8.842831 0.000000 -0.000001 0.222675 0.157635 -1.019016
    18 9.341934 0.000000 -0.000002 0.000000 0.000000 -2.057774
    19 9.664096 0.000000 0.000003 -1.569555 0.000011 0.000000
    20 0.000005 0.001585 -3.638375 -0.000010 1.283530 3.140787
    21 8.842831 0.000000 0.000001 0.826113 -0.317209 -1.095696
    22 9.341934 0.000000 -0.000001 0.000000 0.000000 -1.274057
    23 9.664095 0.000000 -0.000002 1.569555 0.165706 0.000000
    24 6.829857 -0.000001 0.000000 0.001241 0.000000 0.000000
    25 7.919290 -0.636890 0.610527 -1.520273 -0.091531 1.564919
    26 2.515638 0.482270 0.379719 1.593351 0.004972 0.082565
    27 2.687324 0.164273 -1.706054 0.139179 -0.015749 1.668336
  time 8
    0 0.408758 0.000000 30.256485 0.000000 0.000000 -1.570844
    1 0.766967 -1.074251 9.745319 -1.570795 -1.570451 0.000000
    2 -0.000008 0.000010 5.615750 0.494603 3.353172 -0.685715
    3 15.693467 0.000000 0.000000 0.000000 0.000000 -0.230300
    4 22.146629 -0.000001 0.000000 0.141468 0.410619 -0.092364
    5 0.000008 -0.000006 -5.615750 0.077162 2.796680 0.153223
    6 15.693467 0.000000 0.000000 0.000000 0.000000 -1.622660
    7 22.146629 0.000000 0.000000 0.104734 -0.155758 -0.053754
    8 1.384163 -0.004728 0.000002 -0.000004 -0.000001 -0.060233
    9 5.939814 -0.004730 0.000000 -0.000120 -0.160078 -0.209311
    10 5.939809 -0.003975 0.000000 0.001749 -0.065723 0.180267
    11 4.991439 -0.003975 0.000000 0.000000 0.000000 0.000000
    12 4.991436 -0.001575 0.000000 0.000000 0.000000 0.000000
    13 1.977383 0.000000 0.000000 0.041635 0.220995 0.066588
    14 3.723980 2.768055 -0.395205 0.000000 -3.141591 -1.570795
    15 2.863741 -0.721077 0.000003 0.000000 0.000000 0.000000
    16 0.000005 0.001564 3.638375 -0.000010 -1.283530 3.140806
    17 8.842831 0.000000 -0.000001 0.198930 0.177849 -1.003429
    18 9.341934 0.000000 -0.000002 0.000000 0.000000 -2.057774
    19 9.664096 0.000000 0.000003 -1.569555 0.000011 0.000000
    20 0.000005 0.001585 -3.638375 -0.000010 1.283530 3.140787
    21 8.842831 0.000000 0.000001 0.779804 -0.305339 -1.073436
    22 9.341934 0.000000 -0.000001 0.000000 0.000000 -1.274057
    23 9.664095 0.000000 -0.000002 1.569555 0.165706 0.000000
    24 6.829857 -0.000001 0.000000 0.001241 0.000000 0.000000
    25 7.919290 -0.636890 0.610527 -1.520273 -0.091531 1.564919
    26 2.515638 0.482270 0.379719 1.593351 0.004972 0.082565
    27 2.687324 0.164273 -1.706054 0.139179 -0.015749 1.668336
  time 9
    0 0.408758 0.000000 30.256485 0.000000 0.000000 -1.570844
    1 0.813844 -0.816430 9.745319 -1.570795 -1.570451 0.000000
    2 -0.000008 0.000010 5.615750 0.381282 3.360841 -0.546199
    3 15.693467 0.000000 0.000000 0.000000 0.000000 -0.127347
    4 22.146629 -0.000001 0.000000 0.152475 0.394497 -0.364013
    5 0.000008 -0.000006 -5.615750 0.052719 2.823809 0.008291
    6 15.693467 0.000000 0.000000 0.000000 0.000000 -1.769956
    7 22.146629 0.000000 0.000000 0.065344 -0.146943 0.126572
    8 1.384163 -0.004728 0.000002 -0.000004 -0.000001 -0.060233
    9 5.939814 -0.004730 0.000000 -0.000096 -0.124855 -0.209311
    10 5.939809 -0.003975 0.000000 0.002576 -0.041634 0.166775
    11 4.991439 -0.003975 0.000000 0.000000 0.000000 0.000000
    12 4.991436 -0.001575 0.000000 0.000000 0.000000 0.000000
    13 1.977383 0.000000 0.000000 0.031001 0.162851 0.078526
    14 3.723980 2.768055 -0.395205 0.000000 -3.141591 -1.570795
    15 2.863741 -0.721077 0.000003 0.000000 0.000000 0.000000
    16 0.000005 0.001564 3.638375 -0.000010 -1.283530 3.140806
    17 8.842831 0.000000 -0.000001 0.164919 0.209262 -0.991695
    18 9.341934 0.000000 -0.000002 0.000000 0.000000 -2.057774
    19 9.664096 0.000000 0.000003 -1.569555 0.000011 0.000000
    20 0.000005 0.001585 -3.638375 -0.000010 1.283530 3.140787
    21 8.842831 0.000000 0.000001 0.720282 -0.286769 -1.046165
    22 9.341934 0.000000 -0.000001 0.000000 0.000000 -1.274057
    23 9.664095 0.000000 -0.000002 1.569555 0.165706 0.000000
    24 6.829857 -0.000001 0.000000 0.001241 0.000000 0.000000
    25 7.919290 -0.636890 0.610527 -1.520273 -0.091531 1.564919
    26 2.515638 0.482270 0.379719 1.593351 0.004972 0.082565
    27 2.687324 0.164273 -1.706054 0.139179 -0.015749 1.668336
  time 10
    0 0.408758 0.000000 30.256485 0.000000 0.000000 -1.570844
    1 0.860720 -0.511733 9.745319 -1.570795 -1.570451 0.000000
    2 -0.000008 0.000010 5.615750 0.275344 3.353939 -0.417197
    3 15.693467 0.000000 0.000000 0.000000 0.000000 -0.219325
    4 22.146629 -0.000001 0.000000 0.150116 0.382424 -0.432187
    5 0.000008 -0.000006 -5.615750 0.034220 2.852088 -0.123850
    6 15.693467 0.000000 0.000000 0.000000 0.000000 -1.748292
    7 22.146629 0.000000 0.000000 0.029985 -0.133790 0.135017
    8 1.384163 -0.004728 0.000002 -0.000004 -0.000001 -0.060233
    9 5.939814 -0.004730 0.000000 -0.000060 -0.083593 -0.209330
    10 5.939809 -0.003975 0.000000 0.003058 -0.014106 0.152278
    11 4.991439 -0.003975 0.000000 0.000000 0.000000 0.000000
    12 4.991436 -0.001575 0.000000 0.000000 0.000000 0.000000
    13 1.977383 0.000000 0.000000 0.018455 0.095439 0.091755
    14 3.723980 2.768055 -0.395205 0.000000 -3.141591 -1.570795
    15 2.863741 -0.721077 0.000003 0.000000 0.000000 0.000000
    16 0.000005 0.001564 3.638375 -0.000010 -1.283530 3.140806
    17 8.842831 0.000000 -0.000001 0.123802 0.248596 -0.983901
    18 9.341934 0.000000 -0.000002 0.000000 0.000000 -2.057774
    19 9.664096 0.000000 0.000003 -1.569555 0.000011 0.000000
    20 0.000005 0.001585 -3.638375 -0.000010 1.283530 3.140787
    21 8.842831 0.000000 0.000001 0.652845 -0.262328 -1.017320
    22 9.341934 0.000000 -0.000001 0.000000 0.000000 -1.274057
    23 9.664095 0.000000 -0.000002 1.569555 0.165706 0.000000
    24 6.829857 -0.000001 0.000000 0.001241 0.000000 0.000000
    25 7.919290 -0.636890 0.610527 -1.520273 -0.091531 1.564919
    26 2.515638 0.482270 0.379719 1.593351 0.004972 0.082565
    27 2.687324 0.164273 -1.706054 0.139179 -0.015749 1.668336
  time 11
    0 0.408758 0.000000 30.256485 0.000000 0.000000 -1.570844
    1 0.903690 -0.183598 9.745319 -1.570795 -1.570451 0.000000
    2 -0.000008 0.000010 5.615750 0.160778 3.331026 -0.278187
    3 15.693467 0.000000 0.000000 0.000000 0.000000 -0.371363
    4 22.146629 -0.000001 0.000000 0.134261 0.370491 -0.459574
    5 0.000008 -0.000006 -5.615750 0.018980 2.885927 -0.266641
    6 15.693467 0.000000 0.000000 0.000000 0.000000 -1.686601
    7 22.146629 0.000000 0.000000 -0.006744 -0.114131 0.106115
    8 1.384163 -0.004728 0.000002 -0.000004 -0.000001 -0.060233
    9 5.939814 -0.004730 0.000000 -0.000024 -0.039238 -0.209330
    10 5.939809 -0.003975 0.000000 0.003099 0.014969 0.137681
    11 4.991439 -0.003975 0.000000 0.000000 0.000000 0.000000
    12 4.991436 -0.001575 0.000000 0.000000 0.000000 0.000000
    13 1.977383 0.000000 0.000000 0.004782 0.023515 0.105767
    14 3.723980 2.768055 -0.395205 0.000000 -3.141591 -1.570795
    15 2.863741 -0.721077 0.000003 0.000000 0.000000 0.000000
    16 0.000005 0.001564 3.638375 -0.000010 -1.283530 3.140806
    17 8.842831 0.000000 -0.000001 0.078737 0.292574 -0.980048
    18 9.341934 0.000000 -0.000002 0.000000 0.000000 -2.057774
    19 9.664096 0.000000 0.000003 -1.569555 0.000011 0.000000
    20 0.000005 0.001585 -3.638375 -0.000010 1.283530 3.140787
    21 8.842831 0.000000 0.000001 0.582531 -0.233611 -0.989691
    22 9.341934 0.000000 -0.000001 0.000000 0.000000 -1.274057
    23 9.664095 0.000000 -0.000002 1.569555 0.165706 0.000000
    24 6.829857 -0.000001 0.000000 0.001241 0.000000 0.000000
    25 7.919290 -0.636890 0.610527 -1.520273 -0.091531 1.564919
    26 2.515638 0.482270 0.379719 1.593351 0.004972 0.082565
    27 2.687324 0.164273 -1.706054 0.139179 -0.015749 1.668336
  time 12
    0 0.408758 0.000000 30.256485 0.000000 0.000000 -1.570844
    1 0.938847 0.140630 9.745319 -1.570795 -1.570451 0.000000
    2 -0.000008 0.000010 5.615750 0.046786 3.291241 -0.140844
    3 15.693467 0.000000 0.000000 0.000000 0.000000 -0.562859
    4 22.146629 -0.000001 0.000000 0.104305 0.351687 -0.453888
    5 0.000008 -0.000006 -5.615750 0.009203 2.923218 -0.410095
    6 15.693467 0.000000 0.000000 0.000000 0.000000 -1.590052
    7 22.146629 0.000000 0.000000 -0.041485 -0.088525 0.043944
    8 1.384163 -0.004728 0.000002 -0.000004 -0.000001 -0.060233
    9 5.939814 -0.004730 0.000000 0.000000 0.005225 -0.209330
    10 5.939809 -0.003975 0.000000 0.002672 0.043696 0.123863
    11 4.991439 -0.003975 0.000000 0.000000 0.000000 0.000000
    12 4.991436 -0.001575 0.000000 0.000000 0.000000 0.000000
    13 1.977383 0.000000 0.000000 -0.009115 -0.048142 0.119825
    14 3.723980 2.768055 -0.395205 0.000000 -3.141591 -1.570795
    15 2.863741 -0.721077 0.000003 0.000000 0.000000 0.000000
    16 0.000005 0.001564 3.638375 -0.000010 -1.283530 3.140806
    17 8.842831 0.000000 -0.000001 0.032657 0.337372 -0.979873
    18 9.341934 0.000000 -0.000002 0.000000 0.000000 -2.057774
    19 9.664096 0.000000 0.000003 -1.569555 0.000011 0.000000
    20 0.000005 0.001585 -3.638375 -0.000010 1.283530 3.140787
    21 8.842831 0.000000 0.000001 0.514048 -0.202533 -0.965427
    22 9.341934 0.000000 -0.000001 0.000000 0.000000 -1.274057
    23 9.664095 0.000000 -0.000002 1.569555 0.165706 0.000000
    24 6.829857 -0.000001 0.000000 0.001241 0.000000 0.000000
    25 7.919290 -0.636890 0.610527 -1.520273 -0.091531 1.564919
    26 2.515638 0.482270 0.379719 1.593351 0.004972 0.082565
    27 2.687324 0.164273 -1.706054 0.139179 -0.015749 1.668336
  time 13
    0 0.408758 0.000000 30.256485 0.000000 0.000000 -1.570844
    1 0.966192 0.449233 9.745319 -1.570795 -1.570451 0.000000
    2 -0.000008 0.000010 5.615750 -0.058960 3.237939 -0.015835
    3 15.693467 0.000000 0.000000 0.000000 0.000000 -0.773207
    4 22.146629 -0.000001 0.000000 0.066226 0.320291 -0.420683
    5 0.000008 -0.000006 -5.615750 0.005848 2.961371 -0.544937
    6 15.693467 0.000000 0.000000 0.000000 0.000000 -1.463745
    7 22.146629 0.000000 0.000000 -0.071658 -0.059025 -0.047347
    8 1.384163 -0.004728 0.000002 -0.000004 -0.000001 -0.060233
    9 5.939814 -0.004730 0.000000 0.000036 0.046896 -0.209330
    10 5.939809 -0.003975 0.000000 0.001901 0.070170 0.111690
    11 4.991439 -0.003975 0.000000 0.000000 0.000000 0.000000
    12 4.991436 -0.001575 0.000000 0.000000 0.000000 0.000000
    13 1.977383 0.000000 0.000000 -0.022506 -0.114798 0.132915
    14 3.723980 2.768055 -0.395205 0.000000 -3.141591 -1.570795
    15 2.863741 -0.721077 0.000003 0.000000 0.000000 0.000000
    16 0.000005 0.001564 3.638375 -0.000010 -1.283530 3.140806
    17 8.842831 0.000000 -0.000001 -0.011280 0.379438 -0.982500
    18 9.341934 0.000000 -0.000002 0.000000 0.000000 -2.057774
    19 9.664096 0.000000 0.000003 -1.569555 0.000011 0.000000
    20 0.000005 0.001585 -3.638375 -0.000010 1.283530 3.140787
    21 8.842831 0.000000 0.000001 0.451713 -0.171710 -0.945815
    22 9.341934 0.000000 -0.000001 0.000000 0.000000 -1.274057
    23 9.664095 0.000000 -0.000002 1.569555 0.165706 0.000000
    24 6.829857 -0.000001 0.000000 0.001241 0.000000 0.000000
    25 7.919290 -0.636890 0.610527 -1.520273 -0.091531 1.564919
    26 2.515638 0.482270 0.379719 1.593351 0.004972 0.082565
    27 2.687324 0.164273 -1.706054 0.139179 -0.015749 1.668336
  time 14
    0 0.408758 0.000000 30.256485 0.000000 0.000000 -1.570844
    1 0.985724 0.710960 9.745319 -1.570795 -1.570451 0.000000
    2 -0.000008 0.000010 5.615750 -0.151093 3.177925 0.088600
    3 15.693467 0.000000 0.000000 0.000000 0.000000 -0.981873
    4 22.146629 -0.000001 0.000000 0.029457 0.276539 -0.365974
    5 0.000008 -0.000006 -5.615750 0.008628 2.997415 -0.662300
    6 15.693467 0.000000 0.000000 0.000000 0.000000 -1.312627
    7 22.146629 0.000000 0.000000 -0.095840 -0.028684 -0.162954
    8 1.384163 -0.004728 0.000002 -0.000004 -0.000001 -0.060233
    9 5.939814 -0.004730 0.000000 0.000060 0.082790 -0.209311
    10 5.939809 -0.003975 0.000000 0.000950 0.092473 0.102080
    11 4.991439 -0.003975 0.000000 0.000000 0.000000 0.000000
    12 4.991436 -0.001575 0.000000 0.000000 0.000000 0.000000
    13 1.977383 0.000000 0.000000 -0.034265 -0.171719 0.143977
    14 3.723980 2.768055 -0.395205 0.000000 -3.141591 -1.570795
    15 2.863741 -0.721077 0.000003 0.000000 0.000000 0.000000
    16 0.000005 0.001564 3.638375 -0.000010 -1.283530 3.140806
    17 8.842831 0.000000 -0.000001 -0.049916 0.415130 -0.986703
    18 9.341934 0.000000 -0.000002 0.000000 0.000000 -2.057774
    19 9.664096 0.000000 0.000003 -1.569555 0.000011 0.000000
    20 0.000005 0.001585 -3.638375 -0.000010 1.283530 3.140787
    21 8.842831 0.000000 0.000001 0.399582 -0.143886 -0.931499
    22 9.341934 0.000000 -0.000001 0.000000 0.000000 -1.274057
    23 9.664095 0.000000 -0.000002 1.569555 0.165706 0.000000
    24 6.829857 -0.000001 0.000000 0.001241 0.000000 0.000000
    25 7.919290 -0.636890 0.610527 -1.520273 -0.091531 1.564919
    26 2.515638 0.482270 0.379719 1.593351 0.004972 0.082565
    27 2.687324 0.164273 -1.706054 0.139179 -0.015749 1.668336
  time 15
    0 0.408758 0.000000 30.256485 0.000000 0.000000 -1.570844
    1 0.993537 0.906279 9.745319 -1.570795 -1.570451 0.000000
    2 -0.000008 0.000010 5.615750 -0.226831 3.119925 0.166041
    3 15.693467 0.000000 0.000000 0.000000 0.000000 -1.168319
    4 22.146629 -0.000001 0.000000 0.001494 0.227891 -0.299304
    5 0.000008 -0.000006 -5.615750 0.015912 3.028858 -0.753315
    6 15.693467 0.000000 0.000000 0.000000 0.000000 -1.141943
    7 22.146629 0.000000 0.000000 -0.113869 -0.001026 -0.298070
    8 1.384163 -0.004728 0.000002 -0.000004 -0.000001 -0.060233
    9 5.939814 -0.004730 0.000000 0.000084 0.109971 -0.209311
    10 5.939809 -0.003975 0.000000 0.000083 0.108712 0.095950
    11 4.991439 -0.003975 0.000000 0.000000 0.000000 0.000000
    12 4.991436 -0.001575 0.000000 0.000000 0.000000 0.000000
    13 1.977383 0.000000 0.000000 -0.043211 -0.214171 0.151536
    14 3.723980 2.768055 -0.395205 0.000000 -3.141591 -1.570795
    15 2.863741 -0.721077 0.000003 0.000000 0.000000 0.000000
    16 0.000005 0.001564 3.638375 -0.000010 -1.283530 3.140806
    17 8.842831 0.000000 -0.000001 -0.079358 0.440807 -0.990644
    18 9.341934 0.000000 -0.000002 0.000000 0.000000 -2.057774
    19 9.664096 0.000000 0.000003 -1.569555 0.000011 0.000000
    20 0.000005 0.001585 -3.638375 -0.000010 1.283530 3.140787
    21 8.842831 0.000000 0.000001 0.361711 -0.121806 -0.922481
    22 9.341934 0.000000 -0.000001 0.000000 0.000000 -1.274057
    23 9.664095 0.000000 -0.000002 1.569555 0.165706 0.000000
    24 6.829857 -0.000001 0.000000 0.001241 0.000000 0.000000
    25 7.919290 -0.636890 0.610527 -1.520273 -0.091531 1.564919
    26 2.515638 0.482270 0.379719 1.593351 0.004972 0.082565
    27 2.687324 0.164273 -1.706054 0.139179 -0.015749 1.668336
  time 16
    0 0.408758 0.000000 30.256485 0.000000 0.000000 -1.570844
    1 0.974005 0.910185 9.745319 -1.570795 -1.570451 0.000000
    2 -0.000008 0.000010 5.615750 -0.261153 3.106216 0.142081
    3 15.693467 0.000000 0.000000 0.000000 0.000000 -1.358468
    4 22.146629 -0.000001 0.000000 0.017664 0.202544 -0.096155
    5 0.000008 -0.000006 -5.615750 0.027510 3.044100 -0.723147
    6 15.693467 0.000000 0.000000 0.000000 0.000000 -0.745707
    7 22.146629 0.000000 0.000000 -0.121365 0.006297 -0.651442
    8 1.384163 -0.004728 0.000002 -0.000004 -0.000001 -0.060233
    9 5.939814 -0.004730 0.000000 0.000084 0.111936 -0.209311
    10 5.939809 -0.003975 0.000000 -0.000124 0.105273 0.104090
    11 4.991439 -0.003975 0.000000 0.000000 0.000000 0.000000
    12 4.991436 -0.001575 0.000000 0.000000 0.000000 0.000000
    13 1.977383 0.000000 0.000000 -0.042085 -0.212838 0.143147
    14 3.723980 2.768055 -0.395205 0.000000 -3.141591 -1.570795
    15 2.863741 -0.721077 0.000003 0.000000 0.000000 0.000000
    16 0.000005 0.001564 3.638375 -0.000010 -1.283530 3.140806
    17 8.842831 0.000000 -0.000001 -0.098309 0.440443 -1.020942
    18 9.341934 0.000000 -0.000002 0.000000 0.000000 -2.057774
    19 9.664096 0.000000 0.000003 -1.569555 0.000011 0.000000
    20 0.000005 0.001585 -3.638375 -0.000010 1.283530 3.140787
    21 8.842831 0.000000 0.000001 0.367467 -0.116701 -0.926346
    22 9.341934 0.000000 -0.000001 0.000000 0.000000 -1.274057
    23 9.664095 0.000000 -0.000002 1.569555 0.165706 0.000000
    24 6.829857 -0.000001 0.000000 0.001241 0.000000 0.000000
    25 7.919290 -0.636890 0.610527 -1.520273 -0.091531 1.564919
    26 2.515638 0.482270 0.379719 1.593351 0.004972 0.082565
    27 2.687324 0.164273 -1.706054 0.139179 -0.015749 1.668336
  time 17
    0 0.408758 0.000000 30.256485 0.000000 0.000000 -1.570844
    1 0.919316 0.714867 9.745319 -1.570795 -1.570451 0.000000
    2 -0.000008 0.000010 5.615750 -0.266618 3.127594 0.048160
    3 15.693467 0.000000 0.000000 0.000000 0.000000 -1.474954
    4 22.146629 -0.000001 0.000000 0.063448 0.191176 0.124969
    5 0.000008 -0.000006 -5.615750 0.040450 3.049468 -0.606702
    6 15.693467 0.000000 0.000000 0.000000 0.000000 -0.339500
    7 22.146629 0.000000 0.000000 -0.122440 -0.001446 -1.009327
    8 1.384163 -0.004728 0.000002 -0.000004 -0.000001 -0.060233
    9 5.939814 -0.004730 0.000000 0.000060 0.088530 -0.209311
    10 5.939809 -0.003975 0.000000 0.000069 0.081567 0.127468
    11 4.991439 -0.003975 0.000000 0.000000 0.000000 0.000000
    12 4.991436 -0.001575 0.000000 0.000000 0.000000 0.000000
    13 1.977383 0.000000 0.000000 -0.031170 -0.166896 0.118073
    14 3.723980 2.768055 -0.395205 0.000000 -3.141591 -1.570795
    15 2.863741 -0.721077 0.000003 0.000000 0.000000 0.000000
    16 0.000005 0.001564 3.638375 -0.000010 -1.283530 3.140806
    17 8.842831 0.000000 -0.000001 -0.107784 0.415494 -1.084603
    18 9.341934 0.000000 -0.000002 0.000000 0.000000 -2.057774
    19 9.664096 0.000000 0.000003 -1.569555 0.000011 0.000000
    20 0.000005 0.001585 -3.638375 -0.000010 1.283530 3.140787
    21 8.842831 0.000000 0.000001 0.417897 -0.127869 -0.943524
    22 9.341934 0.000000 -0.000001 0.000000 0.000000 -1.274057
    23 9.664095 0.000000 -0.000002 1.569555 0.165706 0.000000
    24 6.829857 -0.000001 0.000000 0.001241 0.000000 0.000000
    25 7.919290 -0.636890 0.610527 -1.520273 -0.091531 1.564919
    26 2.515638 0.482270 0.379719 1.593351 0.004972 0.082565
    27 2.687324 0.164273 -1.706054 0.139179 -0.015749 1.668336
  time 18
    0 0.408758 0.000000 30.256485 0.000000 0.000000 -1.570844
    1 0.860720 0.492204 9.745319 -1.570795 -1.570451 0.000000
    2 -0.000008 0.000010 5.615750 -0.255209 3.161819 -0.070530
    3 15.693467 0.000000 0.000000 0.000000 0.000000 -1.231208
    4 22.146629 -0.000001 0.000000 0.115365 0.176702 0.019080
    5 0.000008 -0.000006 -5.615750 0.053007 3.051385 -0.459731
    6 15.693467 0.000000 0.000000 0.000000 0.000000 -0.546239
    7 22.146629 0.000000 0.000000 -0.119296 -0.014785 -0.755109
    8 1.384163 -0.004728 0.000002 -0.000004 -0.000001 -0.060233
    9 5.939814 -0.004730 0.000000 0.000048 0.061289 -0.209330
    10 5.939809 -0.003975 0.000000 0.000041 0.055237 0.152253
    11 4.991439 -0.003975 0.000000 0.000000 0.000000 0.000000
    12 4.991436 -0.001575 0.000000 0.000000 0.000000 0.000000
    13 1.977383 0.000000 0.000000 -0.019917 -0.114465 0.092031
    14 3.723980 2.768055 -0.395205 0.000000 -3.141591 -1.570795
    15 2.863741 -0.721077 0.000003 0.000000 0.000000 0.000000
    16 0.000005 0.001564 3.638375 -0.000010 -1.283530 3.140806
    17 8.842831 0.000000 -0.000001 -0.110943 0.389636 -1.151942
    18 9.341934 0.000000 -0.000002 0.000000 0.000000 -2.057774
    19 9.664096 0.000000 0.000003 -1.569555 0.000011 0.000000
    20 0.000005 0.001585 -3.638375 -0.000010 1.283530 3.140787
    21 8.842831 0.000000 0.000001 0.474606 -0.140887 -0.963280
    22 9.341934 0.000000 -0.000001 0.000000 0.000000 -1.274057
    23 9.664095 0.000000 -0.000002 1.569555 0.165706 0.000000
    24 6.829857 -0.000001 0.000000 0.001241 0.000000 0.000000
    25 7.919290 -0.636890 0.610527 -1.520273 -0.091531 1.564919
    26 2.515638 0.482270 0.379719 1.593351 0.004972 0.082565
    27 2.687324 0.164273 -1.706054 0.139179 -0.015749 1.668336
  time 19
    0 0.408758 0.000000 30.256485 0.000000 0.000000 -1.570844
    1 0.790405 0.246102 9.745319 -1.570795 -1.570451 0.000000
    2 -0.000008 0.000010 5.615750 -0.251662 3.189046 -0.182547
    3 15.693467 0.000000 0.000000 0.000000 0.000000 -0.904036
    4 22.146629 -0.000001 0.000000 0.159577 0.147307 -0.181258
    5 0.000008 -0.000006 -5.615750 0.067097 3.060780 -0.310009
    6 15.693467 0.000000 0.000000 0.000000 0.000000 -0.867291
    7 22.146629 0.000000 0.000000 -0.118114 -0.025210 -0.374147
    8 1.384163 -0.004728 0.000002 -0.000004 -0.000001 -0.060233
    9 5.939814 -0.004730 0.000000 0.000024 0.031771 -0.209330
    10 5.939809 -0.003975 0.000000 0.000220 0.025659 0.181083
    11 4.991439 -0.003975 0.000000 0.000000 0.000000 0.000000
    12 4.991436 -0.001575 0.000000 0.000000 0.000000 0.000000
    13 1.977383 0.000000 0.000000 -0.009509 -0.056432 0.062532
    14 3.723980 2.768055 -0.395205 0.000000 -3.141591 -1.570795
    15 2.863741 -0.721077 0.000003 0.000000 0.000000 0.000000
    16 0.000005 0.001564 3.638375 -0.000010 -1.283530 3.140806
    17 8.842831 0.000000 -0.000001 -0.117654 0.366782 -1.242486
    18 9.341934 0.000000 -0.000002 0.000000 0.000000 -2.057774
    19 9.664096 0.000000 0.000003 -1.569555 0.000011 0.000000
    20 0.000005 0.001585 -3.638375 -0.000010 1.283530 3.140787
    21 8.842831 0.000000 0.000001 0.538315 -0.152501 -0.986327
    22 9.341934 0.000000 -0.000001 0.000000 0.000000 -1.274057
    23 9.664095 0.000000 -0.000002 1.569555 0.165706 0.000000
    24 6.829857 -0.000001 0.000000 0.001241 0.000000 0.000000
    25 7.919290 -0.636890 0.610527 -1.520273 -0.091531 1.564919
    26 2.515638 0.482270 0.379719 1.593351 0.004972 0.082565
    27 2.687324 0.164273 -1.706054 0.139179 -0.015749 1.668336
  time 20
    0 0.408758 0.000000 30.256485 0.000000 0.000000 -1.570844
    1 0.739623 0.000001 9.745319 -1.570795 -1.570451 0.000000
    2 -0.000008 0.000010 5.615750 -0.213122 3.222695 -0.285971
    3 15.693467 0.000000 0.000000 0.000000 0.000000 -0.671130
    4 22.146629 -0.000001 0.000000 0.188064 0.129467 -0.291591
    5 0.000008 -0.000006 -5.615750 0.073040 3.054261 -0.195551
    6 15.693467 0.000000 0.000000 0.000000 0.000000 -1.141943
    7 22.146629 0.000000 0.000000 -0.106937 -0.039225 -0.083893
    8 1.384163 -0.004728 0.000002 -0.000004 -0.000001 -0.060233
    9 5.939814 -0.004730 0.000000 0.000000 0.000000 -0.209330
    10 5.939809 -0.003975 0.000000 0.000000 0.000000 0.200605
    11 4.991439 -0.003975 0.000000 0.000000 0.000000 0.000000
    12 4.991436 -0.001575 0.000000 0.000000 0.000000 0.000000
    13 1.977383 0.000000 0.000000 0.000000 0.000000 0.042805
    14 3.723980 2.768055 -0.395205 0.000000 -3.141591 -1.570795
    15 2.863741 -0.721077 0.000003 0.000000 0.000000 0.000000
    16 0.000005 0.001564 3.638375 -0.000010 -1.283530 3.140806
    17 8.842831 0.000000 -0.000001 -0.099888 0.347296 -1.291961
    18 9.341934 0.000000 -0.000002 0.000000 0.000000 -2.057774
    19 9.664096 0.000000 0.000003 -1.569555 0.000011 0.000000
    20 0.000005 0.001585 -3.638375 -0.000010 1.283530 3.140787
    21 8.842831 0.000000 0.000001 0.595940 -0.169221 -1.007299
    22 9.341934 0.000000 -0.000001 0.000000 0.000000 -1.274057
    23 9.664095 0.000000 -0.000002 1.569555 0.165706 0.000000
    24 6.829857 -0.000001 0.000000 0.001241 0.000000 0.000000
    25 7.919290 -0.636890 0.610527 -1.520273 -0.091531 1.564919
    26 2.515638 0.482270 0.379719 1.593351 0.004972 0.082565
    27 2.687324 0.164273 -1.706054 0.139179 -0.015749 1.668336
  time 21
    0 0.408758 0.000000 30.256485 0.000000 0.000000 -1.570844
    1 0.743529 -0.203130 9.745319 -1.570795 -1.570451 0.000000
    2 -0.000008 0.000010 5.615750 -0.067780 3.273122 -0.384846
    3 15.693467 0.000000 0.000000 0.000000 0.000000 -0.799804
    4 22.146629 -0.000001 0.000000 0.189008 0.172254 -0.037590
    5 0.000008 -0.000006 -5.615750 0.073615 3.014862 -0.125939
    6 15.693467 0.000000 0.000000 0.000000 0.000000 -1.325595
    7 22.146629 0.000000 0.000000 -0.075151 -0.066231 0.038630
    8 1.384163 -0.004728 0.000002 -0.000004 -0.000001 -0.060233
    9 5.939814 -0.004730 0.000000 -0.000024 -0.029902 -0.209330
    10 5.939809 -0.003975 0.000000 -0.000248 -0.013303 0.198746
    11 4.991439 -0.003975 0.000000 0.000000 0.000000 0.000000
    12 4.991436 -0.001575 0.000000 0.000000 0.000000 0.000000
    13 1.977383 0.000000 0.000000 0.008046 0.042296 0.044787
    14 3.723980 2.768055 -0.395205 0.000000 -3.141591 -1.570795
    15 2.863741 -0.721077 0.000003 0.000000 0.000000 0.000000
    16 0.000005 0.001564 3.638375 -0.000010 -1.283530 3.140806
    17 8.842831 0.000000 -0.000001 -0.046814 0.328722 -1.250367
    18 9.341934 0.000000 -0.000002 0.000000 0.000000 -2.057774
    19 9.664096 0.000000 0.000003 -1.569555 0.000011 0.000000
    20 0.000005 0.001585 -3.638375 -0.000010 1.283530 3.140787
    21 8.842831 0.000000 0.000001 0.630803 -0.194747 -1.019038
    22 9.341934 0.000000 -0.000001 0.000000 0.000000 -1.274057
    23 9.664095 0.000000 -0.000002 1.569555 0.165706 0.000000
    24 6.829857 -0.000001 0.000000 0.001241 0.000000 0.000000
    25 7.919290 -0.636890 0.610527 -1.520273 -0.091531 1.564919
    26 2.515638 0.482270 0.379719 1.593351 0.004972 0.082565
    27 2.687324 0.164273 -1.706054 0.139179 -0.015749 1.668336
  time 22
    0 0.408758 0.000000 30.256485 0.000000 0.000000 -1.570844
    1 0.763061 -0.421887 9.745319 -1.570795 -1.570451 0.000000
    2 -0.000008 0.000010 5.615750 0.095202 3.310894 -0.464764
    3 15.693467 0.000000 0.000000 0.000000 0.000000 -0.913732
    4 22.146629 -0.000001 0.000000 0.179390 0.239753 0.185757
    5 0.000008 -0.000006 -5.615750 0.079174 2.965205 -0.058212
    6 15.693467 0.000000 0.000000 0.000000 0.000000 -1.508122
    7 22.146629 0.000000 0.000000 -0.032833 -0.100465 0.139530
    8 1.384163 -0.004728 0.000002 -0.000004 -0.000001 -0.060233
    9 5.939814 -0.004730 0.000000 -0.000048 -0.062871 -0.209330
    10 5.939809 -0.003975 0.000000 -0.000344 -0.024892 0.190970
    11 4.991439 -0.003975 0.000000 0.000000 0.000000 0.000000
    12 4.991436 -0.001575 0.000000 0.000000 0.000000 0.000000
    13 1.977383 0.000000 0.000000 0.016879 0.085837 0.053037
    14 3.723980 2.768055 -0.395205 0.000000 -3.141591 -1.570795
    15 2.863741 -0.721077 0.000003 0.000000 0.000000 0.000000
    16 0.000005 0.001564 3.638375 -0.000010 -1.283530 3.140806
    17 8.842831 0.000000 -0.000001 0.019289 0.302681 -1.182766
    18 9.341934 0.000000 -0.000002 0.000000 0.000000 -2.057774
    19 9.664096 0.000000 0.000003 -1.569555 0.000011 0.000000
    20 0.000005 0.001585 -3.638375 -0.000010 1.283530 3.140787
    21 8.842831 0.000000 0.000001 0.664292 -0.225506 -1.030204
    22 9.341934 0.000000 -0.000001 0.000000 0.000000 -1.274057
    23 9.664095 0.000000 -0.000002 1.569555 0.165706 0.000000
    24 6.829857 -0.000001 0.000000 0.001241 0.000000 0.000000
    25 7.919290 -0.636890 0.610527 -1.520273 -0.091531 1.564919
    26 2.515638 0.482270 0.379719 1.593351 0.004972 0.082565
    27 2.687324 0.164273 -1.706054 0.139179 -0.015749 1.668336
  time 23
    0 0.408758 0.000000 30.256485 0.000000 0.000000 -1.570844
    1 0.782593 -0.617205 9.745319 -1.570795 -1.570451 0.000000
    2 -0.000008 0.000010 5.615750 0.225683 3.332752 -0.524109
    3 15.693467 0.000000 0.000000 0.000000 0.000000 -0.671198
    4 22.146629 -0.000001 0.000000 0.170505 0.300662 0.036140
    5 0.000008 -0.000006 -5.615750 0.083584 2.912481 -0.004347
    6 15.693467 0.000000 0.000000 0.000000 0.000000 -1.661639
    7 22.146629 0.000000 0.000000 0.012789 -0.130945 0.200100
    8 1.384163 -0.004728 0.000002 -0.000004 -0.000001 -0.060233
    9 5.939814 -0.004730 0.000000 -0.000072 -0.093324 -0.209311
    10 5.939809 -0.003975 0.000000 -0.000262 -0.034060 0.180907
    11 4.991439 -0.003975 0.000000 0.000000 0.000000 0.000000
    12 4.991436 -0.001575 0.000000 0.000000 0.000000 0.000000
    13 1.977383 0.000000 0.000000 0.025037 0.124511 0.063777
    14 3.723980 2.768055 -0.395205 0.000000 -3.141591 -1.570795
    15 2.863741 -0.721077 0.000003 0.000000 0.000000 0.000000
    16 0.000005 0.001564 3.638375 -0.000010 -1.283530 3.140806
    17 8.842831 0.000000 -0.000001 0.082290 0.271723 -1.111749
    18 9.341934 0.000000 -0.000002 0.000000 0.000000 -2.057774
    19 9.664096 0.000000 0.000003 -1.569555 0.000011 0.000000
    20 0.000005 0.001585 -3.638375 -0.000010 1.283530 3.140787
    21 8.842831 0.000000 0.000001 0.693072 -0.255053 -1.039795
    22 9.341934 0.000000 -0.000001 0.000000 0.000000 -1.274057
    23 9.664095 0.000000 -0.000002 1.569555 0.165706 0.000000
    24 6.829857 -0.000001 0.000000 0.001241 0.000000 0.000000
    25 7.919290 -0.636890 0.610527 -1.520273 -0.091531 1.564919
    26 2.515638 0.482270 0.379719 1.593351 0.004972 0.082565
    27 2.687324 0.164273 -1.706054 0.139179 -0.015749 1.668336
  time 24
    0 0.408758 0.000000 30.256485 0.000000 0.000000 -1.570844
    1 0.802125 -0.761741 9.745319 -1.570795 -1.570451 0.000000
    2 -0.000008 0.000010 5.615750 0.340058 3.347612 -0.566419
    3 15.693467 0.000000 0.000000 0.000000 0.000000 -0.326384
    4 22.146629 -0.000001 0.000000 0.161280 0.362842 -0.228319
    5 0.000008 -0.000006 -5.615750 0.078120 2.863112 0.022560
    6 15.693467 0.000000 0.000000 0.000000 0.000000 -1.758187
    7 22.146629 0.000000 0.000000 0.050298 -0.148809 0.201774
    8 1.384163 -0.004728 0.000002 -0.000004 -0.000001 -0.060233
    9 5.939814 -0.004730 0.000000 -0.000084 -0.115675 -0.209311
    10 5.939809 -0.003975 0.000000 -0.000110 -0.040088 0.172189
    11 4.991439 -0.003975 0.000000 0.000000 0.000000 0.000000
    12 4.991436 -0.001575 0.000000 0.000000 0.000000 0.000000
    13 1.977383 0.000000 0.000000 0.031114 0.152205 0.073180
    14 3.723980 2.768055 -0.395205 0.000000 -3.141591 -1.570795
    15 2.863741 -0.721077 0.000003 0.000000 0.000000 0.000000
    16 0.000005 0.001564 3.638375 -0.000010 -1.283530 3.140806
    17 8.842831 0.000000 -0.000001 0.128540 0.244408 -1.056844
    18 9.341934 0.000000 -0.000002 0.000000 0.000000 -2.057774
    19 9.664096 0.000000 0.000003 -1.569555 0.000011 0.000000
    20 0.000005 0.001585 -3.638375 -0.000010 1.283530 3.140787
    21 8.842831 0.000000 0.000001 0.713283 -0.277260 -1.046666
    22 9.341934 0.000000 -0.000001 0.000000 0.000000 -1.274057
    23 9.664095 0.000000 -0.000002 1.569555 0.165706 0.000000
    24 6.829857 -0.000001 0.000000 0.001241 0.000000 0.000000
    25 7.919290 -0.636890 0.610527 -1.520273 -0.091531 1.564919
    26 2.515638 0.482270 0.379719 1.593351 0.004972 0.082565
    27 2.687324 0.164273 -1.706054 0.139179 -0.015749 1.668336
  time 25
    0 0.408758 0.000000 30.256485 0.000000 0.000000 -1.570844
    1 0.809937 -0.816430 9.745319 -1.570795 -1.570451 0.000000
    2 -0.000008 0.000010 5.615750 0.381282 3.360841 -0.546199
    3 15.693467 0.000000 0.000000 0.000000 0.000000 -0.127347
    4 22.146629 -0.000001 0.000000 0.152475 0.394497 -0.364013
    5 0.000008 -0.000006 -5.615750 0.052719 2.823809 0.008291
    6 15.693467 0.000000 0.000000 0.000000 0.000000 -1.769956
    7 22.146629 0.000000 0.000000 0.065344 -0.146943 0.126572
    8 1.384163 -0.004728 0.000002 -0.000004 -0.000001 -0.060233
    9 5.939814 -0.004730 0.000000 -0.000096 -0.124364 -0.209311
    10 5.939809 -0.003975 0.000000 -0.000028 -0.042246 0.168483
    11 4.991439 -0.003975 0.000000 0.000000 0.000000 0.000000
    12 4.991436 -0.001575 0.000000 0.000000 0.000000 0.000000
    13 1.977383 0.000000 0.000000 0.033533 0.162784 0.077190
    14 3.723980 2.768055 -0.395205 0.000000 -3.141591 -1.570795
    15 2.863741 -0.721077 0.000003 0.000000 0.000000 0.000000
    16 0.000005 0.001564 3.638375 -0.000010 -1.283530 3.140806
    17 8.842831 0.000000 -0.000001 0.146419 0.232571 -1.034865
    18 9.341934 0.000000 -0.000002 0.000000 0.000000 -2.057774
    19 9.664096 0.000000 0.000003 -1.569555 0.000011 0.000000
    20 0.000005 0.001585 -3.638375 -0.000010 1.283530 3.140787
    21 8.842831 0.000000 0.000001 0.720871 -0.286003 -1.049172
    22 9.341934 0.000000 -0.000001 0.000000 0.000000 -1.274057
    23 9.664095 0.000000 -0.000002 1.569555 0.165706 0.000000
    24 6.829857 -0.000001 0.000000 0.001241 0.000000 0.000000
    25 7.919290 -0.636890 0.610527 -1.520273 -0.091531 1.564919
    26 2.515638 0.482270 0.379719 1.593351 0.004972 0.082565
    27 2.687324 0.164273 -1.706054 0.139179 -0.015749 1.668336
  time 26
    0 0.408758 0.000000 30.256485 0.000000 0.000000 -1.570844
    1 0.809937 -0.808617 9.745319 -1.570795 -1.570451 0.000000
    2 -0.000008 0.000010 5.615750 0.355589 3.375318 -0.464966
    3 15.693467 0.000000 0.000000 0.000000 0.000000 -0.102973
    4 22.146629 -0.000001 0.000000 0.143538 0.394356 -0.329632
    5 0.000008 -0.000006 -5.615750 -0.003737 2.798310 -0.064124
    6 15.693467 0.000000 0.000000 0.000000 0.000000 -1.633004
    7 22.146629 0.000000 0.000000 0.048310 -0.120544 -0.091537
    8 1.384163 -0.004728 0.000002 -0.000004 -0.000001 -0.060233
    9 5.939814 -0.004730 0.000000 -0.000096 -0.123297 -0.209311
    10 5.939809 -0.003975 0.000000 -0.000028 -0.041886 0.168760
    11 4.991439 -0.003975 0.000000 0.000000 0.000000 0.000000
    12 4.991436 -0.001575 0.000000 0.000000 0.000000 0.000000
    13 1.977383 0.000000 0.000000 0.033196 0.161384 0.076913
    14 3.723980 2.768055 -0.395205 0.000000 -3.141591 -1.570795
    15 2.863741 -0.721077 0.000003 0.000000 0.000000 0.000000
    16 0.000005 0.001564 3.638375 -0.000010 -1.283530 3.140806
    17 8.842831 0.000000 -0.000001 0.144502 0.233846 -1.036879
    18 9.341934 0.000000 -0.000002 0.000000 0.000000 -2.057774
    19 9.664096 0.000000 0.000003 -1.569555 0.000011 0.000000
    20 0.000005 0.001585 -3.638375 -0.000010 1.283530 3.140787
    21 8.842831 0.000000 0.000001 0.719759 -0.285046 -1.048814
    22 9.341934 0.000000 -0.000001 0.000000 0.000000 -1.274057
    23 9.664095 0.000000 -0.000002 1.569555 0.165706 0.000000
    24 6.829857 -0.000001 0.000000 0.001241 0.000000 0.000000
    25 7.919290 -0.636890 0.610527 -1.520273 -0.091531 1.564919
    26 2.515638 0.482270 0.379719 1.593351 0.004972 0.082565
    27 2.687324 0.164273 -1.706054 0.139179 -0.015749 1.668336
  time 27
    0 0.408758 0.000000 30.256485 0.000000 0.000000 -1.570844
    1 0.806031 -0.789086 9.745319 -1.570795 -1.570451 0.000000
    2 -0.000008 0.000010 5.615750 0.310433 3.387493 -0.359824
    3 15.693467 0.000000 0.000000 0.000000 0.000000 -0.111861
    4 22.146629 -0.000001 0.000000 0.135518 0.385483 -0.255903
    5 0.000008 -0.000006 -5.615750 -0.087032 2.788819 -0.186378
    6 15.693467 0.000000 0.000000 0.000000 0.000000 -1.365998
    7 22.146629 0.000000 0.000000 0.006771 -0.074859 -0.441123
    8 1.384163 -0.004728 0.000002 -0.000004 -0.000001 -0.060233
    9 5.939814 -0.004730 0.000000 -0.000096 -0.120241 -0.209311
    10 5.939809 -0.003975 0.000000 -0.000041 -0.040843 0.169551
    11 4.991439 -0.003975 0.000000 0.000000 0.000000 0.000000
    12 4.991436 -0.001575 0.000000 0.000000 0.000000 0.000000
    13 1.977383 0.000000 0.000000 0.032352 0.157383 0.075991
    14 3.723980 2.768055 -0.395205 0.000000 -3.141591 -1.570795
    15 2.863741 -0.721077 0.000003 0.000000 0.000000 0.000000
    16 0.000005 0.001564 3.638375 -0.000010 -1.283530 3.140806
    17 8.842831 0.000000 -0.000001 0.138974 0.237670 -1.042571
    18 9.341934 0.000000 -0.000002 0.000000 0.000000 -2.057774
    19 9.664096 0.000000 0.000003 -1.569555 0.000011 0.000000
    20 0.000005 0.001585 -3.638375 -0.000010 1.283530 3.140787
    21 8.842831 0.000000 0.000001 0.716554 -0.282238 -1.047597
    22 9.341934 0.000000 -0.000001 0.000000 0.000000 -1.274057
    23 9.664095 0.000000 -0.000002 1.569555 0.165706 0.000000
    24 6.829857 -0.000001 0.000000 0.001241 0.000000 0.000000
    25 7.919290 -0.636890 0.610527 -1.520273 -0.091531 1.564919
    26 2.515638 0.482270 0.379719 1.593351 0.004972 0.082565
    27 2.687324 0.164273 -1.706054 0.139179 -0.015749 1.668336
  time 28
    0 0.408758 0.000000 30.256485 0.000000 0.000000 -1.570844
    1 0.806031 -0.757835 9.745319 -1.570795 -1.570451 0.000000
    2 -0.000008 0.000010 5.615750 0.250418 3.392957 -0.239263
    3 15.693467 0.000000 0.000000 0.000000 0.000000 -0.146403
    4 22.146629 -0.000001 0.000000 0.130985 0.368585 -0.154067
    5 0.000008 -0.000006 -5.615750 -0.181446 2.798885 -0.333145
    6 15.693467 0.000000 0.000000 0.000000 0.000000 -1.064660
    7 22.146629 0.000000 0.000000 -0.046778 -0.016884 -0.823978
    8 1.384163 -0.004728 0.000002 -0.000004 -0.000001 -0.060233
    9 5.939814 -0.004730 0.000000 -0.000084 -0.115412 -0.209311
    10 5.939809 -0.003975 0.000000 -0.000069 -0.039214 0.170795
    11 4.991439 -0.003975 0.000000 0.000000 0.000000 0.000000
    12 4.991436 -0.001575 0.000000 0.000000 0.000000 0.000000
    13 1.977383 0.000000 0.000000 0.031001 0.151071 0.074562
    14 3.723980 2.768055 -0.395205 0.000000 -3.141591 -1.570795
    15 2.863741 -0.721077 0.000003 0.000000 0.000000 0.000000
    16 0.000005 0.001564 3.638375 -0.000010 -1.283530 3.140806
    17 8.842831 0.000000 -0.000001 0.130232 0.243497 -1.051590
    18 9.341934 0.000000 -0.000002 0.000000 0.000000 -2.057774
    19 9.664096 0.000000 0.000003 -1.569555 0.000011 0.000000
    20 0.000005 0.001585 -3.638375 -0.000010 1.283530 3.140787
    21 8.842831 0.000000 0.000001 0.711517 -0.277835 -1.045736
    22 9.341934 0.000000 -0.000001 0.000000 0.000000 -1.274057
    23 9.664095 0.000000 -0.000002 1.569555 0.165706 0.000000
    24 6.829857 -0.000001 0.000000 0.001241 0.000000 0.000000
    25 7.919290 -0.636890 0.610527 -1.520273 -0.091531 1.564919
    26 2.515638 0.482270 0.379719 1.593351 0.004972 0.082565
    27 2.687324 0.164273 -1.706054 0.139179 -0.015749 1.668336
  time 29
    0 0.408758 0.000000 30.256485 0.000000 0.000000 -1.570844
    1 0.802125 -0.714865 9.745319 -1.570795 -1.570451 0.000000
    2 -0.000008 0.000010 5.615750 0.181294 3.388643 -0.112435
    3 15.693467 0.000000 0.000000 0.000000 0.000000 -0.198855
    4 22.146629 -0.000001 0.000000 0.131640 0.344744 -0.035955
    5 0.000008 -0.000006 -5.615750 -0.270876 2.825247 -0.478332
    6 15.693467 0.000000 0.000000 0.000000 0.000000 -0.824714
    7 22.146629 0.000000 0.000000 -0.100891 0.044846 -1.141095
    8 1.384163 -0.004728 0.000002 -0.000004 -0.000001 -0.060233
    9 5.939814 -0.004730 0.000000 -0.000084 -0.109036 -0.209311
    10 5.939809 -0.003975 0.000000 -0.000096 -0.037044 0.172440
    11 4.991439 -0.003975 0.000000 0.000000 0.000000 0.000000
    12 4.991436 -0.001575 0.000000 0.000000 0.000000 0.000000
    13 1.977383 0.000000 0.000000 0.029257 0.142736 0.072719
    14 3.723980 2.768055 -0.395205 0.000000 -3.141591 -1.570795
    15 2.863741 -0.721077 0.000003 0.000000 0.000000 0.000000
    16 0.000005 0.001564 3.638375 -0.000010 -1.283530 3.140806
    17 8.842831 0.000000 -0.000001 0.118500 0.251054 -1.063675
    18 9.341934 0.000000 -0.000002 0.000000 0.000000 -2.057774
    19 9.664096 0.000000 0.000003 -1.569555 0.000011 0.000000
    20 0.000005 0.001585 -3.638375 -0.000010 1.283530 3.140787
    21 8.842831 0.000000 0.000001 0.704911 -0.271964 -1.043302
    22 9.341934 0.000000 -0.000001 0.000000 0.000000 -1.274057
    23 9.664095 0.000000 -0.000002 1.569555 0.165706 0.000000
    24 6.829857 -0.000001 0.000000 0.001241 0.000000 0.000000
    25 7.919290 -0.636890 0.610527 -1.520273 -0.091531 1.564919
    26 2.515638 0.482270 0.379719 1.593351 0.004972 0.082565
    27 2.687324 0.164273 -1.706054 0.139179 -0.015749 1.668336
  time 30
    0 0.408758 0.000000 30.256485 0.000000 0.000000 -1.570844
    1 0.798218 -0.664082 9.745319 -1.570795 -1.570451 0.000000
    2 -0.000008 0.000010 5.615750 0.109582 3.373592 0.011107
    3 15.693467 0.000000 0.000000 0.000000 0.000000 -0.261475
    4 22.146629 -0.000001 0.000000 0.137982 0.315725 0.085751
    5 0.000008 -0.000006 -5.615750 -0.342764 2.857169 -0.598905
    6 15.693467 0.000000 0.000000 0.000000 0.000000 -0.741884
    7 22.146629 0.000000 0.000000 -0.146299 0.098856 -1.292009
    8 1.384163 -0.004728 0.000002 -0.000004 -0.000001 -0.060233
    9 5.939814 -0.004730 0.000000 -0.000072 -0.101330 -0.209311
    10 5.939809 -0.003975 0.000000 -0.000124 -0.034420 0.174425
    11 4.991439 -0.003975 0.000000 0.000000 0.000000 0.000000
    12 4.991436 -0.001575 0.000000 0.000000 0.000000 0.000000
    13 1.977383 0.000000 0.000000 0.027119 0.132646 0.070460
    14 3.723980 2.768055 -0.395205 0.000000 -3.141591 -1.570795
    15 2.863741 -0.721077 0.000003 0.000000 0.000000 0.000000
    16 0.000005 0.001564 3.638375 -0.000010 -1.283530 3.140806
    17 8.842831 0.000000 -0.000001 0.104231 0.259886 -1.078473
    18 9.341934 0.000000 -0.000002 0.000000 0.000000 -2.057774
    19 9.664096 0.000000 0.000003 -1.569555 0.000011 0.000000
    20 0.000005 0.001585 -3.638375 -0.000010 1.283530 3.140787
    21 8.842831 0.000000 0.000001 0.696996 -0.264880 -1.040439
    22 9.341934 0.000000 -0.000001 0.000000 0.000000 -1.274057
    23 9.664095 0.000000 -0.000002 1.569555 0.165706 0.000000
    24 6.829857 -0.000001 0.000000 0.001241 0.000000 0.000000
    25 7.919290 -0.636890 0.610527 -1.520273 -0.091531 1.564919
    26 2.515638 0.482270 0.379719 1.593351 0.004972 0.082565
    27 2.687324 0.164273 -1.706054 0.139179 -0.015749 1.668336
  time 31
    0 0.408758 0.000000 30.256485 0.000000 0.000000 -1.570844
    1 0.794312 -0.605486 9.745319 -1.570795 -1.570451 0.000000
    2 -0.000008 0.000010 5.615750 0.041322 3.349721 0.122164
    3 15.693467 0.000000 0.000000 0.000000 0.000000 -0.326721
    4 22.146629 -0.000001 0.000000 0.149304 0.283882 0.198176
    5 0.000008 -0.000006 -5.615750 -0.406697 2.895418 -0.710967
    6 15.693467 0.000000 0.000000 0.000000 0.000000 -1.069233
    7 22.146629 0.000000 0.000000 -0.189101 0.151467 -1.032186
    8 1.384163 -0.004728 0.000002 -0.000004 -0.000001 -0.060233
    9 5.939814 -0.004730 0.000000 -0.000072 -0.092533 -0.209311
    10 5.939809 -0.003975 0.000000 -0.000152 -0.031436 0.176712
    11 4.991439 -0.003975 0.000000 0.000000 0.000000 0.000000
    12 4.991436 -0.001575 0.000000 0.000000 0.000000 0.000000
    13 1.977383 0.000000 0.000000 0.024700 0.121132 0.067925
    14 3.723980 2.768055 -0.395205 0.000000 -3.141591 -1.570795
    15 2.863741 -0.721077 0.000003 0.000000 0.000000 0.000000
    16 0.000005 0.001564 3.638375 -0.000010 -1.283530 3.140806
    17 8.842831 0.000000 -0.000001 0.087592 0.269629 -1.095637
    18 9.341934 0.000000 -0.000002 0.000000 0.000000 -2.057774
    19 9.664096 0.000000 0.000003 -1.569555 0.000011 0.000000
    20 0.000005 0.001585 -3.638375 -0.000010 1.283530 3.140787
    21 8.842831 0.000000 0.000001 0.687905 -0.256712 -1.037218
    22 9.341934 0.000000 -0.000001 0.000000 0.000000 -1.274057
    23 9.664095 0.000000 -0.000002 1.569555 0.165706 0.000000
    24 6.829857 -0.000001 0.000000 0.001241 0.000000 0.000000
    25 7.919290 -0.636890 0.610527 -1.520273 -0.091531 1.564919
    26 2.515638 0.482270 0.379719 1.593351 0.004972 0.082565
    27 2.687324 0.164273 -1.706054 0.139179 -0.015749 1.668336
  time 32
    0 0.408758 0.000000 30.256485 0.000000 0.000000 -1.570844
    1 0.790405 -0.542984 9.745319 -1.570795 -1.570451 0.000000
    2 -0.000008 0.000010 5.615750 -0.018598 3.320864 0.212294
    3 15.693467 0.000000 0.000000 0.000000 0.000000 -0.386850
    4 22.146629 -0.000001 0.000000 0.163849 0.252156 0.288769
    5 0.000008 -0.000006 -5.615750 -0.451268 2.938460 -0.802747
    6 15.693467 0.000000 0.000000 0.000000 0.000000 -1.655792
    7 22.146629 0.000000 0.000000 -0.223224 0.202516 -0.491355
    8 1.384163 -0.004728 0.000002 -0.000004 -0.000001 -0.060233
    9 5.939814 -0.004730 0.000000 -0.000060 -0.082837 -0.209330
    10 5.939809 -0.003975 0.000000 -0.000165 -0.028140 0.179211
    11 4.991439 -0.003975 0.000000 0.000000 0.000000 0.000000
    12 4.991436 -0.001575 0.000000 0.000000 0.000000 0.000000
    13 1.977383 0.000000 0.000000 0.022055 0.108441 0.065206
    14 3.723980 2.768055 -0.395205 0.000000 -3.141591 -1.570795
    15 2.863741 -0.721077 0.000003 0.000000 0.000000 0.000000
    16 0.000005 0.001564 3.638375 -0.000010 -1.283530 3.140806
    17 8.842831 0.000000 -0.000001 0.069092 0.280009 -1.114814
    18 9.341934 0.000000 -0.000002 0.000000 0.000000 -2.057774
    19 9.664096 0.000000 0.000003 -1.569555 0.000011 0.000000
    20 0.000005 0.001585 -3.638375 -0.000010 1.283530 3.140787
    21 8.842831 0.000000 0.000001 0.678028 -0.247714 -1.033783
    22 9.341934 0.000000 -0.000001 0.000000 0.000000 -1.274057
    23 9.664095 0.000000 -0.000002 1.569555 0.165706 0.000000
    24 6.829857 -0.000001 0.000000 0.001241 0.000000 0.000000
    25 7.919290 -0.636890 0.610527 -1.520273 -0.091531 1.564919
    26 2.515638 0.482270 0.379719 1.593351 0.004972 0.082565
    27 2.687324 0.164273 -1.706054 0.139179 -0.015749 1.668336
  time 33
    0 0.408758 0.000000 30.256485 0.000000 0.000000 -1.570844
    1 0.786499 -0.476576 9.745319 -1.570795 -1.570451 0.000000
    2 -0.000008 0.000010 5.615750 -0.066630 3.292487 0.274166
    3 15.693467 0.000000 0.000000 0.000000 0.000000 -0.434050
    4 22.146629 -0.000001 0.000000 0.178997 0.223561 0.345504
    5 0.000008 -0.000006 -5.615750 -0.443313 2.961083 -0.817475
    6 15.693467 0.000000 0.000000 0.000000 0.000000 -1.991387
    7 22.146629 0.000000 0.000000 -0.223358 0.227656 -0.126044
    8 1.384163 -0.004728 0.000002 -0.000004 -0.000001 -0.060233
    9 5.939814 -0.004730 0.000000 -0.000048 -0.072483 -0.209330
    10 5.939809 -0.003975 0.000000 -0.000179 -0.024616 0.181887
    11 4.991439 -0.003975 0.000000 0.000000 0.000000 0.000000
    12 4.991436 -0.001575 0.000000 0.000000 0.000000 0.000000
    13 1.977383 0.000000 0.000000 0.019242 0.094883 0.062256
    14 3.723980 2.768055 -0.395205 0.000000 -3.141591 -1.570795
    15 2.863741 -0.721077 0.000003 0.000000 0.000000 0.000000
    16 0.000005 0.001564 3.638375 -0.000010 -1.283530 3.140806
    17 8.842831 0.000000 -0.000001 0.048957 0.290480 -1.135742
    18 9.341934 0.000000 -0.000002 0.000000 0.000000 -2.057774
    19 9.664096 0.000000 0.000003 -1.569555 0.000011 0.000000
    20 0.000005 0.001585 -3.638375 -0.000010 1.283530 3.140787
    21 8.842831 0.000000 0.000001 0.667497 -0.238078 -1.030132
    22 9.341934 0.000000 -0.000001 0.000000 0.000000 -1.274057
    23 9.664095 0.000000 -0.000002 1.569555 0.165706 0.000000
    24 6.829857 -0.000001 0.000000 0.001241 0.000000 0.000000
    25 7.919290 -0.636890 0.610527 -1.520273 -0.091531 1.564919
    26 2.515638 0.482270 0.379719 1.593351 0.004972 0.082565
    27 2.687324 0.164273 -1.706054 0.139179 -0.015749 1.668336
  time 34
    0 0.408758 0.000000 30.256485 0.000000 0.000000 -1.570844
    1 0.778686 -0.402355 9.745319 -1.570795 -1.570451 0.000000
    2 -0.000008 0.000010 5.615750 -0.046880 3.296322 -0.098585
    3 15.693467 0.000000 0.000000 0.000000 0.000000 -0.471689
    4 22.146629 -0.000001 0.000000 0.192441 0.199837 -0.033864
    5 0.000008 -0.000006 -5.615750 -0.390594 2.963096 -0.762386
    6 15.693467 0.000000 0.000000 0.000000 0.000000 -1.988538
    7 22.146629 0.000000 0.000000 -0.195388 0.222619 -0.030676
    8 1.384163 -0.004728 0.000002 -0.000004 -0.000001 -0.060233
    9 5.939814 -0.004730 0.000000 -0.000048 -0.061685 -0.209330
    10 5.939809 -0.003975 0.000000 -0.000179 -0.020949 0.184676
    11 4.991439 -0.003975 0.000000 0.000000 0.000000 0.000000
    12 4.991436 -0.001575 0.000000 0.000000 0.000000 0.000000
    13 1.977383 0.000000 0.000000 0.016317 0.080748 0.059260
    14 3.723980 2.768055 -0.395205 0.000000 -3.141591 -1.570795
    15 2.863741 -0.721077 0.000003 0.000000 0.000000 0.000000
    16 0.000005 0.001564 3.638375 -0.000010 -1.283530 3.140806
    17 8.842831 0.000000 -0.000001 0.027637 0.300769 -1.157984
    18 9.341934 0.000000 -0.000002 0.000000 0.000000 -2.057774
    19 9.664096 0.000000 0.000003 -1.569555 0.000011 0.000000
    20 0.000005 0.001585 -3.638375 -0.000010 1.283530 3.140787
    21 8.842831 0.000000 0.000001 0.656639 -0.227931 -1.026482
    22 9.341934 0.000000 -0.000001 0.000000 0.000000 -1.274057
    23 9.664095 0.000000 -0.000002 1.569555 0.165706 0.000000
    24 6.829857 -0.000001 0.000000 0.001241 0.000000 0.000000
    25 7.919290 -0.636890 0.610527 -1.520273 -0.091531 1.564919
    26 2.515638 0.482270 0.379719 1.593351 0.004972 0.082565
    27 2.687324 0.164273 -1.706054 0.139179 -0.015749 1.668336
  time 35
    0 0.408758 0.000000 30.256485 0.000000 0.000000 -1.570844
    1 0.774780 -0.332040 9.745319 -1.570795 -1.570451 0.000000
    2 -0.000008 0.000010 5.615750 -0.075162 3.280696 -0.181435
    3 15.693467 0.000000 0.000000 0.000000 0.000000 -0.330155
    4 22.146629 -0.000001 0.000000 0.196687 0.182021 -0.315056
    5 0.000008 -0.000006 -5.615750 -0.323786 2.963576 -0.685589
    6 15.693467 0.000000 0.000000 0.000000 0.000000 -1.913279
    7 22.146629 0.000000 0.000000 -0.163361 0.202586 0.012931
    8 1.384163 -0.004728 0.000002 -0.000004 -0.000001 -0.060233
    9 5.939814 -0.004730 0.000000 -0.000036 -0.050659 -0.209330
    10 5.939809 -0.003975 0.000000 -0.000165 -0.017210 0.187515
    11 4.991439 -0.003975 0.000000 0.000000 0.000000 0.000000
    12 4.991436 -0.001575 0.000000 0.000000 0.000000 0.000000
    13 1.977383 0.000000 0.000000 0.013391 0.066323 0.056264
    14 3.723980 2.768055 -0.395205 0.000000 -3.141591 -1.570795
    15 2.863741 -0.721077 0.000003 0.000000 0.000000 0.000000
    16 0.000005 0.001564 3.638375 -0.000010 -1.283530 3.140806
    17 8.842831 0.000000 -0.000001 0.005584 0.310694 -1.181102
    18 9.341934 0.000000 -0.000002 0.000000 0.000000 -2.057774
    19 9.664096 0.000000 0.000003 -1.569555 0.000011 0.000000
    20 0.000005 0.001585 -3.638375 -0.000010 1.283530 3.140787
    21 8.842831 0.000000 0.000001 0.645650 -0.217593 -1.022831
    22 9.341934 0.000000 -0.000001 0.000000 0.000000 -1.274057
    23 9.664095 0.000000 -0.000002 1.569555 0.165706 0.000000
    24 6.829857 -0.000001 0.000000 0.001241 0.000000 0.000000
    25 7.919290 -0.636890 0.610527 -1.520273 -0.091531 1.564919
    26 2.515638 0.482270 0.379719 1.593351 0.004972 0.082565
    27 2.687324 0.164273 -1.706054 0.139179 -0.015749 1.668336
  time 36
    0 0.408758 0.000000 30.256485 0.000000 0.000000 -1.570844
    1 0.766967 -0.257819 9.745319 -1.570795 -1.570451 0.000000
    2 -0.000008 0.000010 5.615750 -0.112552 3.263344 -0.209945
    3 15.693467 0.000000 0.000000 0.000000 0.000000 -0.161687
    4 22.146629 -0.000001 0.000000 0.198102 0.165923 -0.570757
    5 0.000008 -0.000006 -5.615750 -0.246433 2.966931 -0.592942
    6 15.693467 0.000000 0.000000 0.000000 0.000000 -1.785397
    7 22.146629 0.000000 0.000000 -0.133214 0.168445 0.017299
    8 1.384163 -0.004728 0.000002 -0.000004 -0.000001 -0.060233
    9 5.939814 -0.004730 0.000000 -0.000024 -0.039645 -0.209330
    10 5.939809 -0.003975 0.000000 -0.000152 -0.013471 0.190367
    11 4.991439 -0.003975 0.000000 0.000000 0.000000 0.000000
    12 4.991436 -0.001575 0.000000 0.000000 0.000000 0.000000
    13 1.977383 0.000000 0.000000 0.010465 0.051898 0.053268
    14 3.723980 2.768055 -0.395205 0.000000 -3.141591 -1.570795
    15 2.863741 -0.721077 0.000003 0.000000 0.000000 0.000000
    16 0.000005 0.001564 3.638375 -0.000010 -1.283530 3.140806
    17 8.842831 0.000000 -0.000001 -0.016808 0.319890 -1.204570
    18 9.341934 0.000000 -0.000002 0.000000 0.000000 -2.057774
    19 9.664096 0.000000 0.000003 -1.569555 0.000011 0.000000
    20 0.000005 0.001585 -3.638375 -0.000010 1.283530 3.140787
    21 8.842831 0.000000 0.000001 0.634727 -0.207127 -1.019253
    22 9.341934 0.000000 -0.000001 0.000000 0.000000 -1.274057
    23 9.664095 0.000000 -0.000002 1.569555 0.165706 0.000000
    24 6.829857 -0.000001 0.000000 0.001241 0.000000 0.000000
    25 7.919290 -0.636890 0.610527 -1.520273 -0.091531 1.564919
    26 2.515638 0.482270 0.379719 1.593351 0.004972 0.082565
    27 2.687324 0.164273 -1.706054 0.139179 -0.015749 1.668336
  time 37
    0 0.408758 0.000000 30.256485 0.000000 0.000000 -1.570844
    1 0.759154 -0.187505 9.745319 -1.570795 -1.570451 0.000000
    2 -0.000008 0.000010 5.615750 -0.146395 3.248484 -0.230266
    3 15.693467 0.000000 0.000000 0.000000 0.000000 -0.098327
    4 22.146629 -0.000001 0.000000 0.197316 0.152955 -0.705993
    5 0.000008 -0.000006 -5.615750 -0.163330 2.976709 -0.490817
    6 15.693467 0.000000 0.000000 0.000000 0.000000 -1.624534
    7 22.146629 0.000000 0.000000 -0.110054 0.122783 -0.004759
    8 1.384163 -0.004728 0.000002 -0.000004 -0.000001 -0.060233
    9 5.939814 -0.004730 0.000000 -0.000012 -0.028847 -0.209330
    10 5.939809 -0.003975 0.000000 -0.000124 -0.009791 0.193155
    11 4.991439 -0.003975 0.000000 0.000000 0.000000 0.000000
    12 4.991436 -0.001575 0.000000 0.000000 0.000000 0.000000
    13 1.977383 0.000000 0.000000 0.007596 0.037762 0.050364
    14 3.723980 2.768055 -0.395205 0.000000 -3.141591 -1.570795
    15 2.863741 -0.721077 0.000003 0.000000 0.000000 0.000000
    16 0.000005 0.001564 3.638375 -0.000010 -1.283530 3.140806
    17 8.842831 0.000000 -0.000001 -0.039087 0.328267 -1.227950
    18 9.341934 0.000000 -0.000002 0.000000 0.000000 -2.057774
    19 9.664096 0.000000 0.000003 -1.569555 0.000011 0.000000
    20 0.000005 0.001585 -3.638375 -0.000010 1.283530 3.140787
    21 8.842831 0.000000 0.000001 0.624066 -0.196917 -1.015888
    22 9.341934 0.000000 -0.000001 0.000000 0.000000 -1.274057
    23 9.664095 0.000000 -0.000002 1.569555 0.165706 0.000000
    24 6.829857 -0.000001 0.000000 0.001241 0.000000 0.000000
    25 7.919290 -0.636890 0.610527 -1.520273 -0.091531 1.564919
    26 2.515638 0.482270 0.379719 1.593351 0.004972 0.082565
    27 2.687324 0.164273 -1.706054 0.139179 -0.015749 1.668336
  time 38
    0 0.408758 0.000000 30.256485 0.000000 0.000000 -1.570844
    1 0.755248 -0.121096 9.745319 -1.570795 -1.570451 0.000000
    2 -0.000008 0.000010 5.615750 -0.171226 3.238610 -0.254529
    3 15.693467 0.000000 0.000000 0.000000 0.000000 -0.219123
    4 22.146629 -0.000001 0.000000 0.194721 0.143847 -0.648605
    5 0.000008 -0.000006 -5.615750 -0.079172 2.994827 -0.386093
    6 15.693467 0.000000 0.000000 0.000000 0.000000 -1.450478
    7 22.146629 0.000000 0.000000 -0.097264 0.069612 -0.038975
    8 1.384163 -0.004728 0.000002 -0.000004 -0.000001 -0.060233
    9 5.939814 -0.004730 0.000000 -0.000012 -0.018492 -0.209330
    10 5.939809 -0.003975 0.000000 -0.000083 -0.006280 0.195831
    11 4.991439 -0.003975 0.000000 0.000000 0.000000 0.000000
    12 4.991436 -0.001575 0.000000 0.000000 0.000000 0.000000
    13 1.977383 0.000000 0.000000 0.004839 0.024204 0.047599
    14 3.723980 2.768055 -0.395205 0.000000 -3.141591 -1.570795
    15 2.863741 -0.721077 0.000003 0.000000 0.000000 0.000000
    16 0.000005 0.001564 3.638375 -0.000010 -1.283530 3.140806
    17 8.842831 0.000000 -0.000001 -0.060688 0.335642 -1.250630
    18 9.341934 0.000000 -0.000002 0.000000 0.000000 -2.057774
    19 9.664096 0.000000 0.000003 -1.569555 0.000011 0.000000
    20 0.000005 0.001585 -3.638375 -0.000010 1.283530 3.140787
    21 8.842831 0.000000 0.000001 0.613927 -0.187025 -1.012739
    22 9.341934 0.000000 -0.000001 0.000000 0.000000 -1.274057
    23 9.664095 0.000000 -0.000002 1.569555 0.165706 0.000000
    24 6.829857 -0.000001 0.000000 0.001241 0.000000 0.000000
    25 7.919290 -0.636890 0.610527 -1.520273 -0.091531 1.564919
    26 2.515638 0.482270 0.379719 1.593351 0.004972 0.082565
    27 2.687324 0.164273 -1.706054 0.139179 -0.015749 1.668336
  time 39
    0 0.408758 0.000000 30.256485 0.000000 0.000000 -1.570844
    1 0.747435 -0.054688 9.745319 -1.570795 -1.570451 0.000000
    2 -0.000008 0.000010 5.615750 -0.192126 3.230461 -0.270200
    3 15.693467 0.000000 0.000000 0.000000 0.000000 -0.445093
    4 22.146629 -0.000001 0.000000 0.191838 0.136598 -0.470098
    5 0.000008 -0.000006 -5.615750 0.001055 3.021284 -0.285548
    6 15.693467 0.000000 0.000000 0.000000 0.000000 -1.283093
    7 22.146629 0.000000 0.000000 -0.096378 0.013852 -0.070498
    8 1.384163 -0.004728 0.000002 -0.000004 -0.000001 -0.060233
    9 5.939814 -0.004730 0.000000 0.000000 -0.008797 -0.209330
    10 5.939809 -0.003975 0.000000 -0.000041 -0.002984 0.198331
    11 4.991439 -0.003975 0.000000 0.000000 0.000000 0.000000
    12 4.991436 -0.001575 0.000000 0.000000 0.000000 0.000000
    13 1.977383 0.000000 0.000000 0.002307 0.011513 0.045063
    14 3.723980 2.768055 -0.395205 0.000000 -3.141591 -1.570795
    15 2.863741 -0.721077 0.000003 0.000000 0.000000 0.000000
    16 0.000005 0.001564 3.638375 -0.000010 -1.283530 3.140806
    17 8.842831 0.000000 -0.000001 -0.081162 0.342015 -1.272171
    18 9.341934 0.000000 -0.000002 0.000000 0.000000 -2.057774
    19 9.664096 0.000000 0.000003 -1.569555 0.000011 0.000000
    20 0.000005 0.001585 -3.638375 -0.000010 1.283530 3.140787
    21 8.842831 0.000000 0.000001 0.604443 -0.177708 -1.009876
    22 9.341934 0.000000 -0.000001 0.000000 0.000000 -1.274057
    23 9.664095 0.000000 -0.000002 1.569555 0.165706 0.000000
    24 6.829857 -0.000001 0.000000 0.001241 0.000000 0.000000
    25 7.919290 -0.636890 0.610527 -1.520273 -0.091531 1.564919
    26 2.515638 0.482270 0.379719 1.593351 0.004972 0.082565
    27 2.687324 0.164273 -1.706054 0.139179 -0.015749 1.668336
  time 40
    0 0.408758 0.000000 30.256485 0.000000 0.000000 -1.570844
    1 0.739623 0.000001 9.745319 -1.570795 -1.570451 0.000000
    2 -0.000008 0.000010 5.615750 -0.213122 3.222695 -0.285971
    3 15.693467 0.000000 0.000000 0.000000 0.000000 -0.671130
    4 22.146629 -0.000001 0.000000 0.188064 0.129467 -0.291591
    5 0.000008 -0.000006 -5.615750 0.073040 3.054261 -0.195551
    6 15.693467 0.000000 0.000000 0.000000 0.000000 -1.141943
    7 22.146629 0.000000 0.000000 -0.106937 -0.039225 -0.083893
    8 1.384163 -0.004728 0.000002 -0.000004 -0.000001 -0.060233
    9 5.939814 -0.004730 0.000000 0.000000 0.000000 -0.209330
    10 5.939809 -0.003975 0.000000 0.000000 0.000000 0.200605
    11 4.991439 -0.003975 0.000000 0.000000 0.000000 0.000000
    12 4.991436 -0.001575 0.000000 0.000000 0.000000 0.000000
    13 1.977383 0.000000 0.000000 0.000000 0.000000 0.042805
    14 3.723980 2.768055 -0.395205 0.000000 -3.141591 -1.570795
    15 2.863741 -0.721077 0.000003 0.000000 0.000000 0.000000
    16 0.000005 0.001564 3.638375 -0.000010 -1.283530 3.140806
    17 8.842831 0.000000 -0.000001 -0.099888 0.347296 -1.291961
    18 9.341934 0.000000 -0.000002 0.000000 0.000000 -2.057774
    19 9.664096 0.000000 0.000003 -1.569555 0.000011 0.000000
    20 0.000005 0.001585 -3.638375 -0.000010 1.283530 3.140787
    21 8.842831 0.000000 0.000001 0.595940 -0.169221 -1.007299
    22 9.341934 0.000000 -0.000001 0.000000 0.000000 -1.274057
    23 9.664095 0.000000 -0.000002 1.569555 0.165706 0.000000
    24 6.829857 -0.000001 0.000000 0.001241 0.000000 0.000000
    25 7.919290 -0.636890 0.610527 -1.520273 -0.091531 1.564919
    26 2.515638 0.482270 0.379719 1.593351 0.004972 0.082565
    27 2.687324 0.164273 -1.706054 0.139179 -0.015749 1.668336
end
