version 1
nodes
  0 "Bip01" -1
  1 "Bip01 Pelvis" 0
  2 "Bip01 L Thigh" 1
  3 "Bip01 L Calf" 2
  4 "Bip01 L Foot" 3
  5 "Bip01 R Thigh" 1
  6 "Bip01 R Calf" 5
  7 "Bip01 R Foot" 6
  8 "Bip01 Spine" 1
  9 "Bip01 Spine1" 8
  10 "Bip01 Spine2" 9
  11 "Bip01 Spine3" 10
  12 "Bip01 Neck" 11
  13 "Bip01 Head" 12
  14 "Bone05" 13
  15 "Bone06" 14
  16 "Bip01 L Clavicle" 12
  17 "Bip01 L UpperArm" 16
  18 "Bip01 L Forearm" 17
  19 "Bip01 L Hand" 18
  20 "Bip01 R Clavicle" 12
  21 "Bip01 R UpperArm" 20
  22 "Bip01 R Forearm" 21
  23 "Bip01 R Hand" 22
  24 "Bip01 R Finger0" 23
  25 "MP5_model" 24
  26 "Shotgun" 23
  27 "saw_world" 23
end
skeleton
  time 0
    0 2.664426 14.505017 12.802827 0.003835 0.689423 -1.568351
    1 -4.639448 -0.773460 9.745319 -1.570795 -1.570451 0.000000
    2 -0.000008 0.000010 5.615750 -3.025899 0.015236 0.784513
    3 15.693467 0.000000 0.000000 0.000000 0.000000 -1.461218
    4 22.146629 -0.000001 0.000000 -0.003931 -0.116570 -0.206946
    5 0.000008 -0.000006 -5.615750 2.898457 6.172552 1.452567
    6 15.693467 0.000000 0.000000 0.000000 0.000000 -2.034413
    7 22.146629 0.000000 0.000000 0.224406 0.145078 1.037737
    8 1.384163 -0.004728 0.000002 -0.431530 -0.129382 0.271186
    9 5.939814 -0.004730 0.000000 -0.093624 -0.026965 0.225909
    10 5.939809 -0.003975 0.000000 -0.095444 -0.068108 0.133523
    11 4.991439 -0.003975 0.000000 -0.087226 0.060306 0.042835
    12 4.991436 -0.001575 0.000000 0.000000 0.000000 0.000000
    13 1.977383 0.000000 0.000000 0.487188 0.362931 -0.096808
    14 3.723980 2.768055 -0.395205 0.000000 -3.141591 -1.570795
    15 2.863741 -0.721077 0.000003 0.000000 0.000000 0.000000
    16 0.000005 0.001564 3.638375 -0.000010 -1.283530 3.140806
    17 8.842831 0.000000 -0.000001 0.481278 -0.765450 -1.588375
    18 9.341934 0.000000 -0.000002 0.000000 0.000000 -0.446982
    19 9.664096 0.000000 0.000003 -3.820704 -0.067348 -0.376995
    20 0.000005 0.001585 -3.638375 -0.000010 1.082926 3.140787
    21 8.842831 0.000000 0.000001 -0.059653 0.069576 -2.136064
    22 9.341934 0.000000 -0.000001 0.000000 0.000000 -0.783287
    23 9.664095 0.000000 -0.000002 2.840650 0.149945 0.479176
    24 6.829857 -0.000001 0.000000 0.001241 0.000000 0.000000
    25 7.919290 -0.636890 0.610527 -1.520273 -0.091531 1.564919
    26 2.515638 0.482270 0.379719 1.593351 0.004972 0.082565
    27 2.687324 0.164273 -1.706054 0.139179 -0.015749 1.668336
  time 1
    0 2.614669 14.738969 12.802827 0.003835 0.689423 -1.568351
    1 -4.639448 -0.773460 9.745319 -1.570795 -1.570451 0.000000
    2 -0.000008 0.000010 5.615750 -3.023886 0.014661 0.788051
    3 15.693467 0.000000 0.000000 0.000000 0.000000 -1.446809
    4 22.146629 -0.000001 0.000000 -0.003538 -0.118523 -0.217796
    5 0.000008 -0.000006 -5.615750 2.900470 6.171402 1.437431
    6 15.693467 0.000000 0.000000 0.000000 0.000000 -2.038911
    7 22.146629 0.000000 0.000000 0.222203 0.146104 1.026963
    8 1.384163 -0.004728 0.000002 -0.431530 -0.129382 0.271186
    9 5.939814 -0.004730 0.000000 -0.093624 -0.026965 0.225909
    10 5.939809 -0.003975 0.000000 -0.095444 -0.068108 0.133523
    11 4.991439 -0.003975 0.000000 -0.087226 0.060306 0.042835
    12 4.991436 -0.001575 0.000000 0.000000 0.000000 0.000000
    13 1.977383 0.000000 0.000000 0.495797 0.350573 -0.072194
    14 3.723980 2.768055 -0.395205 0.000000 -3.141591 -1.570795
    15 2.863741 -0.721077 0.000003 0.000000 0.000000 0.000000
    16 0.000005 0.001564 3.638375 -0.000010 -1.283530 3.140806
    17 8.842831 0.000000 -0.000001 0.487031 -0.770549 -1.600722
    18 9.341934 0.000000 -0.000002 0.000000 0.000000 -0.617069
    19 9.664096 0.000000 0.000003 -3.812560 -0.043769 -0.200236
    20 0.000005 0.001585 -3.638375 -0.000010 1.082926 3.140787
    21 8.842831 0.000000 0.000001 -0.036956 0.089168 -1.906804
    22 9.341934 0.000000 -0.000001 0.000000 0.000000 -1.122744
    23 9.664095 0.000000 -0.000002 2.857456 0.144084 0.582223
    24 6.829857 -0.000001 0.000000 0.001241 0.000000 0.000000
    25 7.919290 -0.636890 0.610527 -1.520273 -0.091531 1.564919
    26 2.515638 0.482270 0.379719 1.593351 0.004972 0.082565
    27 2.687324 0.164273 -1.706054 0.139179 -0.015749 1.668336
  time 2
    0 2.697598 15.206873 12.896580 0.003835 0.689423 -1.568351
    1 -4.487099 -0.894558 9.745319 -1.570795 -1.570451 0.000000
    2 -0.000008 0.000010 5.615750 -3.025324 0.010539 0.792904
    3 15.693467 0.000000 0.000000 0.000000 0.000000 -1.425733
    4 22.146629 -0.000001 0.000000 -0.000183 -0.116664 -0.234071
    5 0.000008 -0.000006 -5.615750 2.900183 6.165650 1.417149
    6 15.693467 0.000000 0.000000 0.000000 0.000000 -2.044608
    7 22.146629 0.000000 0.000000 0.224164 0.147923 1.012039
    8 1.384163 -0.004728 0.000002 -0.431530 -0.129382 0.271186
    9 5.939814 -0.004730 0.000000 -0.093624 -0.026965 0.225909
    10 5.939809 -0.003975 0.000000 -0.174827 -0.072471 0.052610
    11 4.991439 -0.003975 0.000000 -0.087226 0.060306 0.042835
    12 4.991436 -0.001575 0.000000 0.000000 0.000000 0.000000
    13 1.977383 0.000000 0.000000 0.601685 0.290451 0.109131
    14 3.723980 2.768055 -0.395205 0.000000 -3.141591 -1.570795
    15 2.863741 -0.721077 0.000003 0.000000 0.000000 0.000000
    16 0.000005 0.001564 3.638375 -0.000010 -1.283530 3.140806
    17 8.842831 0.000000 -0.000001 0.186352 -0.883636 -1.155357
    18 9.341934 0.000000 -0.000002 0.000000 0.000000 -1.119627
    19 9.664096 0.000000 0.000003 -3.843277 0.033918 0.027076
    20 0.000005 0.001585 -3.638375 0.184333 1.075810 3.303451
    21 8.842831 0.000000 0.000001 0.010465 -0.045993 -2.029630
    22 9.341934 0.000000 -0.000001 0.000000 0.000000 -1.109904
    23 9.664095 0.000000 -0.000002 2.856556 0.144440 0.576713
    24 6.829857 -0.000001 0.000000 0.001241 0.000000 0.000000
    25 7.919290 -0.636890 0.610527 -1.520273 -0.091531 1.564919
    26 2.515638 0.482270 0.379719 1.593351 0.004972 0.082565
    27 2.687324 0.164273 -1.706054 0.139179 -0.015749 1.668336
  time 3
    0 2.664426 15.486106 13.181745 0.003835 0.689423 -1.568351
    1 -4.041773 -1.066438 9.745319 -1.570795 -1.570451 0.000000
    2 -0.000008 0.000010 5.615750 -3.017558 0.008238 0.793308
    3 15.693467 0.000000 0.000000 0.000000 0.000000 -1.428090
    4 22.146629 -0.000001 0.000000 0.002752 -0.124219 -0.231326
    5 0.000008 -0.000006 -5.615750 2.911876 6.166896 1.416741
    6 15.693467 0.000000 0.000000 0.000000 0.000000 -2.046332
    7 22.146629 0.000000 0.000000 0.216991 0.138618 1.012621
    8 1.384163 -0.004728 0.000002 -0.473846 -0.117583 0.276403
    9 5.939814 -0.004730 0.000000 -0.095469 -0.037668 0.113088
    10 5.939809 -0.003975 0.000000 -0.169882 -0.071812 0.057597
    11 4.991439 -0.003975 0.000000 -0.087226 0.060306 0.042835
    12 4.991436 -0.001575 0.000000 0.000000 0.000000 0.000000
    13 1.977383 0.000000 0.000000 0.633080 0.247110 0.198365
    14 3.723980 2.768055 -0.395205 0.000000 -3.141591 -1.570795
    15 2.863741 -0.721077 0.000003 0.000000 0.000000 0.000000
    16 0.000005 0.001564 3.638375 -0.000010 -1.283530 3.140806
    17 8.842831 0.000000 -0.000001 0.080993 -0.757802 -0.889066
    18 9.341934 0.000000 -0.000002 0.000000 0.000000 -1.357868
    19 9.664096 0.000000 0.000003 -3.830884 -0.024900 0.134840
    20 0.000005 0.001585 -3.638375 0.173043 1.076659 3.293486
    21 8.842831 0.000000 0.000001 -0.003074 -0.167626 -2.043372
    22 9.341934 0.000000 -0.000001 0.000000 0.000000 -1.062732
    23 9.664095 0.000000 -0.000002 2.854635 0.145232 0.564693
    24 6.829857 -0.000001 0.000000 0.001241 0.000000 0.000000
    25 7.919290 -0.636890 0.610527 -1.520273 -0.091531 1.564919
    26 2.515638 0.482270 0.379719 1.593351 0.004972 0.082565
    27 2.687324 0.164273 -1.706054 0.139179 -0.015749 1.668336
  time 4
    0 1.801965 15.554027 13.111430 0.003835 0.689423 -1.568351
    1 -4.151152 -0.800805 9.745319 -1.570795 -1.570451 0.000000
    2 -0.000008 0.000010 5.615750 -2.981319 0.017633 0.802458
    3 15.693467 0.000000 0.000000 0.000000 0.000000 -1.413748
    4 22.146629 -0.000001 0.000000 -0.004744 -0.161075 -0.236882
    5 0.000008 -0.000006 -5.615750 2.949450 6.187602 1.392790
    6 15.693467 0.000000 0.000000 0.000000 0.000000 -2.055252
    7 22.146629 0.000000 0.000000 0.177306 0.120917 0.997479
    8 1.384163 -0.004728 0.000002 -0.532871 -0.100726 0.282847
    9 5.939814 -0.004730 0.000000 -0.095373 -0.036877 0.121349
    10 5.939809 -0.003975 0.000000 -0.159592 -0.070613 0.068011
    11 4.991439 -0.003975 0.000000 -0.087226 0.060306 0.042850
    12 4.991436 -0.001575 0.000000 0.000000 0.000000 0.000000
    13 1.977383 0.000000 0.000000 0.672015 0.235041 0.155546
    14 3.723980 2.768055 -0.395205 0.000000 -3.141591 -1.570795
    15 2.863741 -0.721077 0.000003 0.000000 0.000000 0.000000
    16 0.000005 0.001564 3.638375 -0.000010 -1.283530 3.140806
    17 8.842831 0.000000 -0.000001 -0.116301 -0.832283 -0.685824
    18 9.341934 0.000000 -0.000002 0.000000 0.000000 -1.479877
    19 9.664096 0.000000 0.000003 -3.842304 0.020992 0.166189
    20 0.000005 0.001585 -3.638375 0.149514 1.078282 3.272702
    21 8.842831 0.000000 0.000001 -0.007718 -0.135207 -2.119387
    22 9.341934 0.000000 -0.000001 0.000000 0.000000 -1.030361
    23 9.664095 0.000000 -0.000002 2.852655 0.145984 0.552501
    24 6.829857 -0.000001 0.000000 0.001241 0.000000 0.000000
    25 7.919290 -0.636890 0.610527 -1.520273 -0.091531 1.564919
    26 2.515638 0.482270 0.379719 1.593351 0.004972 0.082565
    27 2.687324 0.164273 -1.706054 0.139179 -0.015749 1.668336
  time 5
    0 1.254633 15.440825 13.060647 0.003835 0.689423 -1.568351
    1 -4.233185 -0.773460 9.745319 -1.570795 -1.570451 0.000000
    2 -0.000008 0.000010 5.615750 -2.953132 0.022043 0.808170
    3 15.693467 0.000000 0.000000 0.000000 0.000000 -1.411863
    4 22.146629 -0.000001 0.000000 -0.007967 -0.189482 -0.233352
    5 0.000008 -0.000006 -5.615750 2.980890 6.202557 1.386012
    6 15.693467 0.000000 0.000000 0.000000 0.000000 -2.059300
    7 22.146629 0.000000 0.000000 0.148234 0.101748 0.994348
    8 1.384163 -0.004728 0.000002 -0.521337 -0.104062 0.281658
    9 5.939814 -0.004730 0.000000 -0.095170 -0.035307 0.137718
    10 5.939809 -0.003975 0.000000 -0.149206 -0.069630 0.078551
    11 4.991439 -0.003975 0.000000 -0.087226 0.060306 0.042835
    12 4.991436 -0.001575 0.000000 0.000000 0.000000 0.000000
    13 1.977383 0.000000 0.000000 0.648440 0.255912 0.117013
    14 3.723980 2.768055 -0.395205 0.000000 -3.141591 -1.570795
    15 2.863741 -0.721077 0.000003 0.000000 0.000000 0.000000
    16 0.000005 0.001564 3.638375 -0.000010 -1.283530 3.140806
    17 8.842831 0.000000 -0.000001 -0.062550 -0.844848 -0.778907
    18 9.341934 0.000000 -0.000002 0.000000 0.000000 -1.376536
    19 9.664096 0.000000 0.000003 -3.838232 0.009267 0.109968
    20 0.000005 0.001585 -3.638375 0.125511 1.079655 3.251634
    21 8.842831 0.000000 0.000001 -0.014259 -0.102023 -2.125686
    22 9.341934 0.000000 -0.000001 0.000000 0.000000 -0.990894
    23 9.664095 0.000000 -0.000002 2.850734 0.146658 0.540619
    24 6.829857 -0.000001 0.000000 0.001241 0.000000 0.000000
    25 7.919290 -0.636890 0.610527 -1.520273 -0.091531 1.564919
    26 2.515638 0.482270 0.379719 1.593351 0.004972 0.082565
    27 2.687324 0.164273 -1.706054 0.139179 -0.015749 1.668336
  time 6
    0 1.320976 15.229513 13.009865 0.003835 0.689423 -1.568351
    1 -4.307406 -0.765647 9.745319 -1.570795 -1.570451 0.000000
    2 -0.000008 0.000010 5.615750 -2.956200 0.022906 0.805238
    3 15.693467 0.000000 0.000000 0.000000 0.000000 -1.421559
    4 22.146629 -0.000001 0.000000 -0.008544 -0.186493 -0.226554
    5 0.000008 -0.000006 -5.615750 2.976864 6.201694 1.396051
    6 15.693467 0.000000 0.000000 0.000000 0.000000 -2.056527
    7 22.146629 0.000000 0.000000 0.151888 0.103334 1.001628
    8 1.384163 -0.004728 0.000002 -0.505015 -0.108742 0.279932
    9 5.939814 -0.004730 0.000000 -0.094942 -0.033749 0.154125
    10 5.939809 -0.003975 0.000000 -0.139164 -0.068887 0.088764
    11 4.991439 -0.003975 0.000000 -0.087226 0.060306 0.042835
    12 4.991436 -0.001575 0.000000 0.000000 0.000000 0.000000
    13 1.977383 0.000000 0.000000 0.620421 0.277649 0.079218
    14 3.723980 2.768055 -0.395205 0.000000 -3.141591 -1.570795
    15 2.863741 -0.721077 0.000003 0.000000 0.000000 0.000000
    16 0.000005 0.001564 3.638375 -0.000010 -1.283530 3.140806
    17 8.842831 0.000000 -0.000001 0.015003 -0.849947 -0.898436
    18 9.341934 0.000000 -0.000002 0.000000 0.000000 -1.252674
    19 9.664096 0.000000 0.000003 -3.833451 -0.005673 0.044887
    20 0.000005 0.001585 -3.638375 0.102266 1.080754 3.231040
    21 8.842831 0.000000 0.000001 -0.021258 -0.069797 -2.127045
    22 9.341934 0.000000 -0.000001 0.000000 0.000000 -0.952238
    23 9.664095 0.000000 -0.000002 2.848873 0.147331 0.529184
    24 6.829857 -0.000001 0.000000 0.001241 0.000000 0.000000
    25 7.919290 -0.636890 0.610527 -1.520273 -0.091531 1.564919
    26 2.515638 0.482270 0.379719 1.593351 0.004972 0.082565
    27 2.687324 0.164273 -1.706054 0.139179 -0.015749 1.668336
  time 7
    0 1.403905 15.086123 12.966895 0.003835 0.689423 -1.568351
    1 -4.381627 -0.761741 9.745319 -1.570795 -1.570451 0.000000
    2 -0.000008 0.000010 5.615750 -2.960898 0.023097 0.802812
    3 15.693467 0.000000 0.000000 0.000000 0.000000 -1.427955
    4 22.146629 -0.000001 0.000000 -0.008648 -0.181857 -0.222567
    5 0.000008 -0.000006 -5.615750 2.971304 6.199873 1.403084
    6 15.693467 0.000000 0.000000 0.000000 0.000000 -2.054278
    7 22.146629 0.000000 0.000000 0.157074 0.106202 1.006506
    8 1.384163 -0.004728 0.000002 -0.489032 -0.113297 0.278129
    9 5.939814 -0.004730 0.000000 -0.094690 -0.032263 0.169805
    10 5.939809 -0.003975 0.000000 -0.129605 -0.068372 0.098512
    11 4.991439 -0.003975 0.000000 -0.087226 0.060306 0.042835
    12 4.991436 -0.001575 0.000000 0.000000 0.000000 0.000000
    13 1.977383 0.000000 0.000000 0.592570 0.297786 0.042298
    14 3.723980 2.768055 -0.395205 0.000000 -3.141591 -1.570795
    15 2.863741 -0.721077 0.000003 0.000000 0.000000 0.000000
    16 0.000005 0.001564 3.638375 -0.000010 -1.283530 3.140806
    17 8.842831 0.000000 -0.000001 0.096955 -0.849856 -1.022256
    18 9.341934 0.000000 -0.000002 0.000000 0.000000 -1.122738
    19 9.664096 0.000000 0.000003 -3.829291 -0.019573 -0.023568
    20 0.000005 0.001585 -3.638375 0.079970 1.081603 3.211395
    21 8.842831 0.000000 0.000001 -0.028518 -0.039165 -2.128334
    22 9.341934 0.000000 -0.000001 0.000000 0.000000 -0.915272
    23 9.664095 0.000000 -0.000002 2.847073 0.147925 0.518266
    24 6.829857 -0.000001 0.000000 0.001241 0.000000 0.000000
    25 7.919290 -0.636890 0.610527 -1.520273 -0.091531 1.564919
    26 2.515638 0.482270 0.379719 1.593351 0.004972 0.082565
    27 2.687324 0.164273 -1.706054 0.139179 -0.015749 1.668336
  time 8
    0 1.503420 14.957827 12.923925 0.003835 0.689423 -1.568351
    1 -4.448036 -0.757835 9.745319 -1.570795 -1.570451 0.000000
    2 -0.000008 0.000010 5.615750 -2.965404 0.023097 0.800739
    3 15.693467 0.000000 0.000000 0.000000 0.000000 -1.433275
    4 22.146629 -0.000001 0.000000 -0.008648 -0.177432 -0.219299
    5 0.000008 -0.000006 -5.615750 2.966033 6.197955 1.409148
    6 15.693467 0.000000 0.000000 0.000000 0.000000 -2.052254
    7 22.146629 0.000000 0.000000 0.161964 0.108861 1.010655
    8 1.384163 -0.004728 0.000002 -0.473992 -0.117547 0.276403
    9 5.939814 -0.004730 0.000000 -0.094439 -0.030860 0.184491
    10 5.939809 -0.003975 0.000000 -0.120638 -0.068072 0.107670
    11 4.991439 -0.003975 0.000000 -0.087226 0.060306 0.042835
    12 4.991436 -0.001575 0.000000 0.000000 0.000000 0.000000
    13 1.977383 0.000000 0.000000 0.565845 0.315922 0.006899
    14 3.723980 2.768055 -0.395205 0.000000 -3.141591 -1.570795
    15 2.863741 -0.721077 0.000003 0.000000 0.000000 0.000000
    16 0.000005 0.001564 3.638375 -0.000010 -1.283530 3.140806
    17 8.842831 0.000000 -0.000001 0.180655 -0.844028 -1.147213
    18 9.341934 0.000000 -0.000002 0.000000 0.000000 -0.987913
    19 9.664096 0.000000 0.000003 -3.825750 -0.032077 -0.094811
    20 0.000005 0.001585 -3.638375 0.059098 1.082202 3.192984
    21 8.842831 0.000000 0.000001 -0.035844 -0.010576 -2.129837
    22 9.341934 0.000000 -0.000001 0.000000 0.000000 -0.880738
    23 9.664095 0.000000 -0.000002 2.845392 0.148479 0.508038
    24 6.829857 -0.000001 0.000000 0.001241 0.000000 0.000000
    25 7.919290 -0.636890 0.610527 -1.520273 -0.091531 1.564919
    26 2.515638 0.482270 0.379719 1.593351 0.004972 0.082565
    27 2.687324 0.164273 -1.706054 0.139179 -0.015749 1.668336
  time 9
    0 1.586349 14.837078 12.884861 0.003835 0.689423 -1.568351
    1 -4.510538 -0.761741 9.745319 -1.570795 -1.570451 0.000000
    2 -0.000008 0.000010 5.615750 -2.969814 0.023097 0.798616
    3 15.693467 0.000000 0.000000 0.000000 0.000000 -1.438796
    4 22.146629 -0.000001 0.000000 -0.008596 -0.173031 -0.215900
    5 0.000008 -0.000006 -5.615750 2.960857 6.196134 1.415467
    6 15.693467 0.000000 0.000000 0.000000 0.000000 -2.050230
    7 22.146629 0.000000 0.000000 0.166827 0.111379 1.015023
    8 1.384163 -0.004728 0.000002 -0.460257 -0.121402 0.274792
    9 5.939814 -0.004730 0.000000 -0.094199 -0.029602 0.197914
    10 5.939809 -0.003975 0.000000 -0.112469 -0.067941 0.116036
    11 4.991439 -0.003975 0.000000 -0.087226 0.060306 0.042835
    12 4.991436 -0.001575 0.000000 0.000000 0.000000 0.000000
    13 1.977383 0.000000 0.000000 0.540920 0.331836 -0.025964
    14 3.723980 2.768055 -0.395205 0.000000 -3.141591 -1.570795
    15 2.863741 -0.721077 0.000003 0.000000 0.000000 0.000000
    16 0.000005 0.001564 3.638375 -0.000010 -1.283530 3.140806
    17 8.842831 0.000000 -0.000001 0.264130 -0.832009 -1.270945
    18 9.341934 0.000000 -0.000002 0.000000 0.000000 -0.848791
    19 9.664096 0.000000 0.000003 -3.822828 -0.043087 -0.168168
    20 0.000005 0.001585 -3.638375 0.039933 1.082602 3.176091
    21 8.842831 0.000000 0.000001 -0.043039 0.015461 -2.131483
    22 9.341934 0.000000 -0.000001 0.000000 0.000000 -0.849178
    23 9.664095 0.000000 -0.000002 2.843891 0.148994 0.498704
    24 6.829857 -0.000001 0.000000 0.001241 0.000000 0.000000
    25 7.919290 -0.636890 0.610527 -1.520273 -0.091531 1.564919
    26 2.515638 0.482270 0.379719 1.593351 0.004972 0.082565
    27 2.687324 0.164273 -1.706054 0.139179 -0.015749 1.668336
  time 10
    0 1.685864 14.701235 12.849704 0.003835 0.689423 -1.568351
    1 -4.565227 -0.765647 9.745319 -1.570795 -1.570451 0.000000
    2 -0.000008 0.000010 5.615750 -2.974608 0.023002 0.796291
    3 15.693467 0.000000 0.000000 0.000000 0.000000 -1.445125
    4 22.146629 -0.000001 0.000000 -0.008517 -0.168324 -0.211848
    5 0.000008 -0.000006 -5.615750 2.955393 6.194313 1.422806
    6 15.693467 0.000000 0.000000 0.000000 0.000000 -2.047831
    7 22.146629 0.000000 0.000000 0.172039 0.113898 1.020047
    8 1.384163 -0.004728 0.000002 -0.448215 -0.124756 0.273296
    9 5.939814 -0.004730 0.000000 -0.093959 -0.028487 0.209636
    10 5.939809 -0.003975 0.000000 -0.105334 -0.067941 0.123360
    11 4.991439 -0.003975 0.000000 -0.087226 0.060306 0.042835
    12 4.991436 -0.001575 0.000000 0.000000 0.000000 0.000000
    13 1.977383 0.000000 0.000000 0.518640 0.345216 -0.055325
    14 3.723980 2.768055 -0.395205 0.000000 -3.141591 -1.570795
    15 2.863741 -0.721077 0.000003 0.000000 0.000000 0.000000
    16 0.000005 0.001564 3.638375 -0.000010 -1.283530 3.140806
    17 8.842831 0.000000 -0.000001 0.344672 -0.813526 -1.390212
    18 9.341934 0.000000 -0.000002 0.000000 0.000000 -0.707076
    19 9.664096 0.000000 0.000003 -3.820350 -0.052474 -0.242469
    20 0.000005 0.001585 -3.638375 0.023140 1.082827 3.161286
    21 8.842831 0.000000 0.000001 -0.049776 0.038243 -2.133273
    22 9.341934 0.000000 -0.000001 0.000000 0.000000 -0.821538
    23 9.664095 0.000000 -0.000002 2.842511 0.149390 0.490507
    24 6.829857 -0.000001 0.000000 0.001241 0.000000 0.000000
    25 7.919290 -0.636890 0.610527 -1.520273 -0.091531 1.564919
    26 2.515638 0.482270 0.379719 1.593351 0.004972 0.082565
    27 2.687324 0.164273 -1.706054 0.139179 -0.015749 1.668336
  time 11
    0 1.884894 14.520111 12.818453 0.003835 0.689423 -1.568351
    1 -4.608197 -0.769554 9.745319 -1.570795 -1.570451 0.000000
    2 -0.000008 0.000010 5.615750 -2.984291 0.022331 0.792196
    3 15.693467 0.000000 0.000000 0.000000 0.000000 -1.455495
    4 22.146629 -0.000001 0.000000 -0.008098 -0.158580 -0.205442
    5 0.000008 -0.000006 -5.615750 2.944466 6.190574 1.435393
    6 15.693467 0.000000 0.000000 0.000000 0.000000 -2.043484
    7 22.146629 0.000000 0.000000 0.182384 0.119145 1.028491
    8 1.384163 -0.004728 0.000002 -0.438325 -0.127499 0.272068
    9 5.939814 -0.004730 0.000000 -0.093767 -0.027589 0.219293
    10 5.939809 -0.003975 0.000000 -0.099466 -0.068013 0.129390
    11 4.991439 -0.003975 0.000000 -0.087226 0.060306 0.042835
    12 4.991436 -0.001575 0.000000 0.000000 0.000000 0.000000
    13 1.977383 0.000000 0.000000 0.500073 0.355841 -0.079800
    14 3.723980 2.768055 -0.395205 0.000000 -3.141591 -1.570795
    15 2.863741 -0.721077 0.000003 0.000000 0.000000 0.000000
    16 0.000005 0.001564 3.638375 -0.000010 -1.283530 3.140806
    17 8.842831 0.000000 -0.000001 0.418784 -0.789397 -1.500458
    18 9.341934 0.000000 -0.000002 0.000000 0.000000 -0.566769
    19 9.664096 0.000000 0.000003 -3.818491 -0.059976 -0.315466
    20 0.000005 0.001585 -3.638375 0.009383 1.082901 3.149138
    21 8.842831 0.000000 0.000001 -0.055532 0.056877 -2.134847
    22 9.341934 0.000000 -0.000001 0.000000 0.000000 -0.798831
    23 9.664095 0.000000 -0.000002 2.841430 0.149747 0.483791
    24 6.829857 -0.000001 0.000000 0.001241 0.000000 0.000000
    25 7.919290 -0.636890 0.610527 -1.520273 -0.091531 1.564919
    26 2.515638 0.482270 0.379719 1.593351 0.004972 0.082565
    27 2.687324 0.164273 -1.706054 0.139179 -0.015749 1.668336
  time 12
    0 2.664426 14.505017 12.802827 0.003835 0.689423 -1.568351
    1 -4.639448 -0.773460 9.745319 -1.570795 -1.570451 0.000000
    2 -0.000008 0.000010 5.615750 -3.025899 0.015236 0.784513
    3 15.693467 0.000000 0.000000 0.000000 0.000000 -1.461218
    4 22.146629 -0.000001 0.000000 -0.003931 -0.116570 -0.206946
    5 0.000008 -0.000006 -5.615750 2.898457 6.172552 1.452567
    6 15.693467 0.000000 0.000000 0.000000 0.000000 -2.034413
    7 22.146629 0.000000 0.000000 0.224406 0.145078 1.037737
    8 1.384163 -0.004728 0.000002 -0.431530 -0.129382 0.271186
    9 5.939814 -0.004730 0.000000 -0.093624 -0.026965 0.225909
    10 5.939809 -0.003975 0.000000 -0.095444 -0.068108 0.133523
    11 4.991439 -0.003975 0.000000 -0.087226 0.060306 0.042835
    12 4.991436 -0.001575 0.000000 0.000000 0.000000 0.000000
    13 1.977383 0.000000 0.000000 0.487188 0.362931 -0.096808
    14 3.723980 2.768055 -0.395205 0.000000 -3.141591 -1.570795
    15 2.863741 -0.721077 0.000003 0.000000 0.000000 0.000000
    16 0.000005 0.001564 3.638375 -0.000010 -1.283530 3.140806
    17 8.842831 0.000000 -0.000001 0.481278 -0.765450 -1.588375
    18 9.341934 0.000000 -0.000002 0.000000 0.000000 -0.446982
    19 9.664096 0.000000 0.000003 -3.820704 -0.067348 -0.376995
    20 0.000005 0.001585 -3.638375 -0.000010 1.082926 3.140787
    21 8.842831 0.000000 0.000001 -0.059653 0.069576 -2.136064
    22 9.341934 0.000000 -0.000001 0.000000 0.000000 -0.783287
    23 9.664095 0.000000 -0.000002 2.840650 0.149945 0.479176
    24 6.829857 -0.000001 0.000000 0.001241 0.000000 0.000000
    25 7.919290 -0.636890 0.610527 -1.520273 -0.091531 1.564919
    26 2.515638 0.482270 0.379719 1.593351 0.004972 0.082565
    27 2.687324 0.164273 -1.706054 0.139179 -0.015749 1.668336
end
