version 1
nodes
  0 "Bip01" -1
  1 "Bip01 Pelvis" 0
  2 "Bip01 L Thigh" 1
  3 "Bip01 L Calf" 2
  4 "Bip01 L Foot" 3
  5 "Bip01 R Thigh" 1
  6 "Bip01 R Calf" 5
  7 "Bip01 R Foot" 6
  8 "Bip01 Spine" 1
  9 "Bip01 Spine1" 8
  10 "Bip01 Spine2" 9
  11 "Bip01 Spine3" 10
  12 "Bip01 Neck" 11
  13 "Bip01 Head" 12
  14 "Bone05" 13
  15 "Bone06" 14
  16 "Bip01 L Clavicle" 12
  17 "Bip01 L UpperArm" 16
  18 "Bip01 L Forearm" 17
  19 "Bip01 L Hand" 18
  20 "Bip01 R Clavicle" 12
  21 "Bip01 R UpperArm" 20
  22 "Bip01 R Forearm" 21
  23 "Bip01 R Hand" 22
  24 "Bip01 R Finger0" 23
  25 "MP5_model" 24
  26 "Shotgun" 23
  27 "saw_world" 23
end
skeleton
  time 0
    0 -0.072231 -0.649028 24.967261 0.040363 -0.049592 -1.524056
    1 -4.639448 -0.773460 9.745319 -1.570795 -1.570451 0.000000
    2 -0.000008 0.000010 5.615750 0.025886 3.207644 -0.805214
    3 15.693467 0.000000 0.000000 0.000000 0.000000 -1.078159
    4 22.146629 -0.000001 0.000000 0.029667 -0.064486 0.272820
    5 0.000008 -0.000006 -5.615750 -0.058660 3.052056 -0.155853
    6 15.693467 0.000000 0.000000 0.000000 0.000000 -0.995322
    7 22.146629 0.000000 0.000000 0.091138 0.055970 0.827418
    8 1.384163 -0.004728 0.000002 -0.431530 -0.129382 0.271186
    9 5.939814 -0.004730 0.000000 -0.093624 -0.026965 0.225909
    10 5.939809 -0.003975 0.000000 -0.095444 -0.068108 0.133523
    11 4.991439 -0.003975 0.000000 -0.087226 0.060306 0.042850
    12 4.991436 -0.001575 0.000000 0.000000 0.000000 0.000000
    13 1.977383 0.000000 0.000000 0.487188 0.362931 -0.096808
    14 3.723980 2.768055 -0.395205 0.000000 -3.141591 -1.570795
    15 2.863741 -0.721077 0.000003 0.000000 0.000000 0.000000
    16 0.000005 0.001564 3.638375 -0.000010 -1.283530 3.140806
    17 8.842831 0.000000 -0.000001 0.481278 -0.765450 -1.588375
    18 9.341934 0.000000 -0.000002 0.000000 0.000000 -0.446982
    19 9.664096 0.000000 0.000003 -3.820704 -0.067348 -0.376995
    20 0.000005 0.001585 -3.638375 -0.000010 1.082926 3.140787
    21 8.842831 0.000000 0.000001 -0.059653 0.069576 -2.136064
    22 9.341934 0.000000 -0.000001 0.000000 0.000000 -0.783287
    23 9.664095 0.000000 -0.000002 2.840650 0.149945 0.479176
    24 6.829857 -0.000001 0.000000 0.001241 0.000000 0.000000
    25 7.919290 -0.636890 0.610527 -1.520273 -0.091531 1.564919
    26 2.515638 0.482270 0.379719 1.593351 0.004972 0.082565
    27 2.687324 0.164273 -1.706054 0.139179 -0.015749 1.668336
  time 1
    0 0.740474 -0.649028 24.564905 0.063564 -0.030398 -1.530959
    1 -3.592541 -1.218786 9.745319 -1.570795 -1.570451 0.000000
    2 -0.000008 0.000010 5.615750 0.016587 3.193647 -0.817902
    3 15.693467 0.000000 0.000000 0.000000 0.000000 -1.094454
    4 22.146629 -0.000001 0.000000 0.017664 -0.071147 0.294652
    5 0.000008 -0.000006 -5.615750 -0.067862 3.033363 -0.170173
    6 15.693467 0.000000 0.000000 0.000000 0.000000 -1.012038
    7 22.146629 0.000000 0.000000 0.089848 0.052681 0.849476
    8 1.384163 -0.004728 0.000002 -0.381453 -0.114965 0.256188
    9 5.939814 -0.004730 0.000000 -0.089932 -0.038039 0.027173
    10 5.939809 -0.003975 0.000000 -0.077813 -0.070481 0.132267
    11 4.991439 -0.003975 0.000000 -0.075388 0.059791 0.043613
    12 4.991436 -0.001575 0.000000 0.000000 0.000000 0.000000
    13 1.977383 0.000000 0.000000 0.541089 0.372288 -0.285324
    14 3.723980 2.768055 -0.395205 0.000000 -3.141591 -1.570795
    15 2.863741 -0.721077 0.000003 0.000000 0.000000 0.000000
    16 0.000005 0.001564 3.638375 -0.000010 -1.278008 3.140806
    17 8.842831 0.000000 -0.000001 0.374904 -0.360633 -1.328740
    18 9.341934 0.000000 -0.000002 0.000000 0.000000 -0.456020
    19 9.664096 0.000000 0.000003 -3.820704 -0.067348 -0.376995
    20 0.000005 0.001585 -3.638375 -0.000010 1.072389 3.140787
    21 8.842831 0.000000 0.000001 -0.062662 -0.178474 -1.905301
    22 9.341934 0.000000 -0.000001 0.000000 0.000000 -0.663129
    23 9.664095 0.000000 -0.000002 2.840350 0.151608 0.480864
    24 6.829857 -0.000001 0.000000 0.001241 0.000000 0.000000
    25 7.919290 -0.636890 0.610527 -1.520273 -0.091531 1.564919
    26 2.515638 0.482270 0.379719 1.593351 0.004972 0.082565
    27 2.687324 0.164273 -1.706054 0.139179 -0.015749 1.668336
  time 2
    0 1.669278 -0.649028 24.283646 0.103927 0.002258 -1.538437
    1 -2.424536 -1.531296 9.745319 -1.570795 -1.570451 0.000000
    2 -0.000008 0.000010 5.615750 -0.006135 3.162394 -0.834432
    3 15.693467 0.000000 0.000000 0.000000 0.000000 -1.110008
    4 22.146629 -0.000001 0.000000 -0.000550 -0.073124 0.325568
    5 0.000008 -0.000006 -5.615750 -0.087224 2.994827 -0.189844
    6 15.693467 0.000000 0.000000 0.000000 0.000000 -1.027855
    7 22.146629 0.000000 0.000000 0.093771 0.052938 0.879907
    8 1.384163 -0.004728 0.000002 -0.331665 -0.099830 0.241995
    9 5.939814 -0.004730 0.000000 -0.084120 -0.048154 -0.171679
    10 5.939809 -0.003975 0.000000 -0.060181 -0.072830 0.130973
    11 4.991439 -0.003975 0.000000 -0.063549 0.059264 0.044375
    12 4.991436 -0.001575 0.000000 0.000000 0.000000 0.000000
    13 1.977383 0.000000 0.000000 0.608943 0.387757 -0.465405
    14 3.723980 2.768055 -0.395205 0.000000 -3.141591 -1.570795
    15 2.863741 -0.721077 0.000003 0.000000 0.000000 0.000000
    16 0.000005 0.001564 3.638375 -0.000010 -1.272459 3.140806
    17 8.842831 0.000000 -0.000001 0.426850 0.046552 -1.123570
    18 9.341934 0.000000 -0.000002 0.000000 0.000000 -0.465058
    19 9.664096 0.000000 0.000003 -3.820704 -0.067348 -0.376995
    20 0.000005 0.001585 -3.638375 -0.000010 1.061128 3.140787
    21 8.842831 0.000000 0.000001 -0.130164 -0.431949 -1.655283
    22 9.341934 0.000000 -0.000001 0.000000 0.000000 -0.531550
    23 9.664095 0.000000 -0.000002 2.839570 0.155529 0.484721
    24 6.829857 -0.000001 0.000000 0.001241 0.000000 0.000000
    25 7.919290 -0.636890 0.610527 -1.520273 -0.091531 1.564919
    26 2.515638 0.482270 0.379719 1.593351 0.004972 0.082565
    27 2.687324 0.164273 -1.706054 0.139179 -0.015749 1.668336
  time 3
    0 2.631255 -0.649028 24.123485 0.142756 0.033785 -1.543327
    1 -1.795611 -1.796929 9.745319 -1.570795 -1.570451 0.000000
    2 -0.000008 0.000010 5.615750 -0.034321 3.126540 -0.859656
    3 15.693467 0.000000 0.000000 0.000000 0.000000 -1.127313
    4 22.146629 -0.000001 0.000000 -0.017192 -0.066087 0.349818
    5 0.000008 -0.000006 -5.615750 -0.113775 2.952360 -0.220063
    6 15.693467 0.000000 0.000000 0.000000 0.000000 -1.051917
    7 22.146629 0.000000 0.000000 0.103175 0.060191 0.908371
    8 1.384163 -0.004728 0.000002 -0.285697 -0.113602 0.233940
    9 5.939814 -0.004730 0.000000 -0.079098 -0.049089 -0.267232
    10 5.939809 -0.003975 0.000000 -0.043293 -0.075048 0.129792
    11 4.991439 -0.003975 0.000000 -0.052200 0.058748 0.044928
    12 4.991436 -0.001575 0.000000 0.000000 0.000000 0.000000
    13 1.977383 0.000000 0.000000 0.615751 0.376089 -0.535372
    14 3.723980 2.768055 -0.395205 0.000000 -3.141591 -1.570795
    15 2.863741 -0.721077 0.000003 0.000000 0.000000 0.000000
    16 0.000005 0.001564 3.638375 -0.000010 -1.266069 3.140806
    17 8.842831 0.000000 -0.000001 0.587765 0.313061 -0.954391
    18 9.341934 0.000000 -0.000002 0.000000 0.000000 -0.493430
    19 9.664096 0.000000 0.000003 -3.820704 -0.067348 -0.376995
    20 0.000005 0.001585 -3.638375 -0.000010 1.049642 3.140787
    21 8.842831 0.000000 0.000001 -0.215522 -0.590466 -1.431391
    22 9.341934 0.000000 -0.000001 0.000000 0.000000 -0.397065
    23 9.664095 0.000000 -0.000002 2.838790 0.160004 0.489164
    24 6.829857 -0.000001 0.000000 0.001241 0.000000 0.000000
    25 7.919290 -0.636890 0.610527 -1.520273 -0.091531 1.564919
    26 2.515638 0.482270 0.379719 1.593351 0.004972 0.082565
    27 2.687324 0.164273 -1.706054 0.139179 -0.015749 1.668336
  time 4
    0 3.576645 -0.649028 23.998481 0.178038 0.062272 -1.545628
    1 -1.885457 -2.160221 9.745319 -1.570795 -1.570451 0.000000
    2 -0.000008 0.000010 5.615750 -0.065096 3.090781 -0.893878
    3 15.693467 0.000000 0.000000 0.000000 0.000000 -1.147243
    4 22.146629 -0.000001 0.000000 -0.031003 -0.053566 0.366028
    5 0.000008 -0.000006 -5.615750 -0.145885 2.911043 -0.261188
    6 15.693467 0.000000 0.000000 0.000000 0.000000 -1.086098
    7 22.146629 0.000000 0.000000 0.116126 0.071991 0.934725
    8 1.384163 -0.004728 0.000002 -0.239972 -0.164440 0.231561
    9 5.939814 -0.004730 0.000000 -0.076450 -0.039549 -0.236140
    10 5.939809 -0.003975 0.000000 -0.026020 -0.077301 0.128561
    11 4.991439 -0.003975 0.000000 -0.040618 0.058209 0.045482
    12 4.991436 -0.001575 0.000000 0.000000 0.000000 0.000000
    13 1.977383 0.000000 0.000000 0.546772 0.341016 -0.549707
    14 3.723980 2.768055 -0.395205 0.000000 -3.141591 -1.570795
    15 2.863741 -0.721077 0.000003 0.000000 0.000000 0.000000
    16 0.000005 0.001564 3.638375 -0.000010 -1.258312 3.140806
    17 8.842831 0.000000 -0.000001 0.786976 0.397648 -0.848173
    18 9.341934 0.000000 -0.000002 0.000000 0.000000 -0.597438
    19 9.664096 0.000000 0.000003 -3.820704 -0.067348 -0.376995
    20 0.000005 0.001585 -3.638375 -0.000010 1.038556 3.140787
    21 8.842831 0.000000 0.000001 -0.240901 -0.641455 -1.287093
    22 9.341934 0.000000 -0.000001 0.000000 0.000000 -0.268324
    23 9.664095 0.000000 -0.000002 2.838189 0.163330 0.492505
    24 6.829857 -0.000001 0.000000 0.001241 0.000000 0.000000
    25 7.919290 -0.636890 0.610527 -1.520273 -0.091531 1.564919
    26 2.515638 0.482270 0.379719 1.593351 0.004972 0.082565
    27 2.687324 0.164273 -1.706054 0.139179 -0.015749 1.668336
  time 5
    0 4.439107 -0.649028 23.842227 0.209005 0.086677 -1.545628
    1 -2.299533 -2.621173 9.745319 -1.570795 -1.570451 0.000000
    2 -0.000008 0.000010 5.615750 -0.096254 3.058282 -0.933660
    3 15.693467 0.000000 0.000000 0.000000 0.000000 -1.172561
    4 22.146629 -0.000001 0.000000 -0.041984 -0.038574 0.379362
    5 0.000008 -0.000006 -5.615750 -0.179529 2.873082 -0.304607
    6 15.693467 0.000000 0.000000 0.000000 0.000000 -1.124778
    7 22.146629 0.000000 0.000000 0.130286 0.086333 0.960569
    8 1.384163 -0.004728 0.000002 -0.191853 -0.233210 0.229567
    9 5.939814 -0.004730 0.000000 -0.073717 -0.025156 -0.146017
    10 5.939809 -0.003975 0.000000 -0.007893 -0.079638 0.127154
    11 4.991439 -0.003975 0.000000 -0.028454 0.057634 0.046154
    12 4.991436 -0.001575 0.000000 0.000000 0.000000 0.000000
    13 1.977383 0.000000 0.000000 0.460857 0.316967 -0.601330
    14 3.723980 2.768055 -0.395205 0.000000 -3.141591 -1.570795
    15 2.863741 -0.721077 0.000003 0.000000 0.000000 0.000000
    16 0.000005 0.001564 3.638375 -0.000010 -1.249686 3.140806
    17 8.842831 0.000000 -0.000001 0.974682 0.394370 -0.798610
    18 9.341934 0.000000 -0.000002 0.000000 0.000000 -0.720781
    19 9.664096 0.000000 0.000003 -3.820704 -0.067348 -0.376995
    20 0.000005 0.001585 -3.638375 -0.000010 1.028393 3.140787
    21 8.842831 0.000000 0.000001 -0.205057 -0.646050 -1.209575
    22 9.341934 0.000000 -0.000001 0.000000 0.000000 -0.153978
    23 9.664095 0.000000 -0.000002 2.838069 0.163885 0.493056
    24 6.829857 -0.000001 0.000000 0.001241 0.000000 0.000000
    25 7.919290 -0.636890 0.610527 -1.520273 -0.091531 1.564919
    26 2.515638 0.482270 0.379719 1.593351 0.004972 0.082565
    27 2.687324 0.164273 -1.706054 0.139179 -0.015749 1.668336
  time 6
    0 5.119124 -0.649028 23.619563 0.235466 0.107435 -1.544765
    1 -2.834705 -3.152439 9.745319 -1.570795 -1.570451 0.000000
    2 -0.000008 0.000010 5.615750 -0.122235 3.027316 -0.977790
    3 15.693467 0.000000 0.000000 0.000000 0.000000 -1.205150
    4 22.146629 -0.000001 0.000000 -0.057027 -0.024006 0.393350
    5 0.000008 -0.000006 -5.615750 -0.208668 2.836079 -0.348280
    6 15.693467 0.000000 0.000000 0.000000 0.000000 -1.166305
    7 22.146629 0.000000 0.000000 0.138346 0.104593 0.986923
    8 1.384163 -0.004728 0.000002 -0.145547 -0.308884 0.224925
    9 5.939814 -0.004730 0.000000 -0.069702 -0.009408 -0.029563
    10 5.939809 -0.003975 0.000000 0.009394 -0.081843 0.125860
    11 4.991439 -0.003975 0.000000 -0.016872 0.057095 0.046648
    12 4.991436 -0.001575 0.000000 0.000000 0.000000 0.000000
    13 1.977383 0.000000 0.000000 0.376292 0.302853 -0.657839
    14 3.723980 2.768055 -0.395205 0.000000 -3.141591 -1.570795
    15 2.863741 -0.721077 0.000003 0.000000 0.000000 0.000000
    16 0.000005 0.001564 3.638375 -0.000010 -1.240903 3.140806
    17 8.842831 0.000000 -0.000001 1.122342 0.398286 -0.791079
    18 9.341934 0.000000 -0.000002 0.000000 0.000000 -0.713447
    19 9.664096 0.000000 0.000003 -3.820704 -0.067348 -0.376995
    20 0.000005 0.001585 -3.638375 -0.000010 1.019729 3.140787
    21 8.842831 0.000000 0.000001 -0.125716 -0.629458 -1.189319
    22 9.341934 0.000000 -0.000001 0.000000 0.000000 -0.062474
    23 9.664095 0.000000 -0.000002 2.838790 0.160004 0.489164
    24 6.829857 -0.000001 0.000000 0.001241 0.000000 0.000000
    25 7.919290 -0.636890 0.610527 -1.520273 -0.091531 1.564919
    26 2.515638 0.482270 0.379719 1.593351 0.004972 0.082565
    27 2.687324 0.164273 -1.706054 0.139179 -0.015749 1.668336
  time 7
    0 5.583527 -0.649028 23.314867 0.264995 0.135140 -1.552723
    1 -3.295657 -3.671986 9.745319 -1.570795 -1.570451 0.000000
    2 -0.000008 0.000010 5.615750 -0.146395 2.999802 -1.030260
    3 15.693467 0.000000 0.000000 0.000000 0.000000 -1.244405
    4 22.146629 -0.000001 0.000000 -0.084886 -0.015298 0.413416
    5 0.000008 -0.000006 -5.615750 -0.243079 2.796297 -0.407496
    6 15.693467 0.000000 0.000000 0.000000 0.000000 -1.216528
    7 22.146629 0.000000 0.000000 0.134155 0.126025 1.016407
    8 1.384163 -0.004728 0.000002 -0.105383 -0.380272 0.216333
    9 5.939814 -0.004730 0.000000 -0.064657 0.004326 0.080523
    10 5.939809 -0.003975 0.000000 0.024161 -0.083712 0.125006
    11 4.991439 -0.003975 0.000000 -0.006968 0.056615 0.046633
    12 4.991436 -0.001575 0.000000 0.000000 0.000000 0.000000
    13 1.977383 0.000000 0.000000 0.308832 0.298364 -0.687891
    14 3.723980 2.768055 -0.395205 0.000000 -3.141591 -1.570795
    15 2.863741 -0.721077 0.000003 0.000000 0.000000 0.000000
    16 0.000005 0.001564 3.638375 -0.000010 -1.231436 3.140806
    17 8.842831 0.000000 -0.000001 1.139263 0.713599 -0.984777
    18 9.341934 0.000000 -0.000002 0.000000 0.000000 -0.002503
    19 9.664096 0.000000 0.000003 -3.820704 -0.067348 -0.376995
    20 0.000005 0.001585 -3.638375 -0.000010 1.013162 3.140787
    21 8.842831 0.000000 0.000001 -0.033162 -0.606803 -1.200556
    22 9.341934 0.000000 -0.000001 0.000000 0.000000 -0.002530
    23 9.664095 0.000000 -0.000002 2.840650 0.149945 0.479176
    24 6.829857 -0.000001 0.000000 0.001241 0.000000 0.000000
    25 7.919290 -0.636890 0.610527 -1.520273 -0.091531 1.564919
    26 2.515638 0.482270 0.379719 1.593351 0.004972 0.082565
    27 2.687324 0.164273 -1.706054 0.139179 -0.015749 1.668336
  time 8
    0 5.765971 -0.649028 23.182050 0.362978 0.265243 -1.634506
    1 -3.518320 -4.101687 9.745319 -1.570795 -1.570451 0.000000
    2 -0.000008 0.000010 5.615750 -0.190496 2.965098 -1.137323
    3 15.693467 0.000000 0.000000 0.000000 0.000000 -1.271204
    4 22.146629 -0.000001 0.000000 -0.219041 -0.040716 0.474727
    5 0.000008 -0.000006 -5.615750 -0.398933 2.740888 -0.626372
    6 15.693467 0.000000 0.000000 0.000000 0.000000 -1.313301
    7 22.146629 0.000000 0.000000 0.093395 0.147386 1.061033
    8 1.384163 -0.004728 0.000002 -0.076245 -0.436239 0.204058
    9 5.939814 -0.004730 0.000000 -0.060342 0.013231 0.151543
    10 5.939809 -0.003975 0.000000 0.034657 -0.085055 0.124905
    11 4.991439 -0.003975 0.000000 0.000023 0.056280 0.045781
    12 4.991436 -0.001575 0.000000 0.000000 0.000000 0.000000
    13 1.977383 0.000000 0.000000 0.270966 0.300964 -0.659821
    14 3.723980 2.768055 -0.395205 0.000000 -3.141591 -1.570795
    15 2.863741 -0.721077 0.000003 0.000000 0.000000 0.000000
    16 0.000005 0.001564 3.638375 -0.000010 -1.219287 3.140806
    17 8.842831 0.000000 -0.000001 1.084271 0.669894 -1.131014
    18 9.341934 0.000000 -0.000002 0.000000 0.000000 0.082170
    19 9.664096 0.000000 0.000003 -3.820704 -0.067348 -0.376995
    20 0.000005 0.001585 -3.638375 -0.000010 1.009417 3.140787
    21 8.842831 0.000000 0.000001 0.049514 -0.582553 -1.216947
    22 9.341934 0.000000 -0.000001 0.000000 0.000000 0.011054
    23 9.664095 0.000000 -0.000002 2.844372 0.131728 0.461026
    24 6.829857 -0.000001 0.000000 0.001241 0.000000 0.000000
    25 7.919290 -0.636890 0.610527 -1.520273 -0.091531 1.564919
    26 2.515638 0.482270 0.379719 1.593351 0.004972 0.082565
    27 2.687324 0.164273 -1.706054 0.139179 -0.015749 1.668336
  time 9
    0 5.732799 -0.649028 22.697660 0.413408 0.342453 -1.679280
    1 -3.393316 -4.507949 9.745319 -1.570795 -1.570451 0.000000
    2 -0.000008 0.000010 5.615750 -0.197878 2.977848 -1.217899
    3 15.693467 0.000000 0.000000 0.000000 0.000000 -1.330255
    4 22.146629 -0.000001 0.000000 -0.295724 -0.079125 0.533162
    5 0.000008 -0.000006 -5.615750 -0.479640 2.748557 -0.775942
    6 15.693467 0.000000 0.000000 0.000000 0.000000 -1.415696
    7 22.146629 0.000000 0.000000 0.049492 0.145917 1.106096
    8 1.384163 -0.004728 0.000002 -0.061157 -0.485463 0.178358
    9 5.939814 -0.004730 0.000000 -0.058293 0.016742 0.176173
    10 5.939809 -0.003975 0.000000 0.039643 -0.085738 0.125810
    11 4.991439 -0.003975 0.000000 0.003379 0.056124 0.043837
    12 4.991436 -0.001575 0.000000 0.000000 0.000000 0.000000
    13 1.977383 0.000000 0.000000 0.269110 0.319412 -0.556206
    14 3.723980 2.768055 -0.395205 0.000000 -3.141591 -1.570795
    15 2.863741 -0.721077 0.000003 0.000000 0.000000 0.000000
    16 0.000005 0.001564 3.638375 -0.000010 -1.206008 3.140806
    17 8.842831 0.000000 -0.000001 1.046482 0.615445 -1.224447
    18 9.341934 0.000000 -0.000002 0.000000 0.000000 0.081133
    19 9.664096 0.000000 0.000003 -3.820704 -0.067348 -0.376995
    20 0.000005 0.001585 -3.638375 -0.000010 1.008393 3.140787
    21 8.842831 0.000000 0.000001 0.116297 -0.576682 -1.227612
    22 9.341934 0.000000 -0.000001 0.000000 0.000000 -0.019695
    23 9.664095 0.000000 -0.000002 2.850134 0.106026 0.435229
    24 6.829857 -0.000001 0.000000 0.001241 0.000000 0.000000
    25 7.919290 -0.636890 0.610527 -1.520273 -0.091531 1.564919
    26 2.515638 0.482270 0.379719 1.593351 0.004972 0.082565
    27 2.687324 0.164273 -1.706054 0.139179 -0.015749 1.668336
  time 10
    0 5.616698 -0.649028 22.010139 0.459715 0.418622 -1.719932
    1 -3.045649 -4.937650 9.745319 -1.570795 -1.570787 0.000000
    2 -0.000008 0.000010 5.615750 -0.201234 2.998748 -1.308130
    3 15.693467 0.000000 0.000000 0.000000 0.000000 -1.415566
    4 22.146629 -0.000001 0.000000 -0.371857 -0.116970 0.606565
    5 0.000008 -0.000006 -5.615750 -0.558910 2.773577 -0.923218
    6 15.693467 0.000000 0.000000 0.000000 0.000000 -1.532858
    7 22.146629 0.000000 0.000000 0.007684 0.145334 1.162589
    8 1.384163 -0.004728 0.000002 -0.056151 -0.535494 0.140153
    9 5.939814 -0.004730 0.000000 -0.058077 0.017006 0.176211
    10 5.939809 -0.003975 0.000000 0.040263 -0.085882 0.127543
    11 4.991439 -0.003975 0.000000 0.003799 0.056112 0.040996
    12 4.991436 -0.001575 0.000000 0.000000 0.000000 0.000000
    13 1.977383 0.000000 0.000000 0.300055 0.349106 -0.402075
    14 3.723980 2.768055 -0.395205 0.000000 -3.141591 -1.570795
    15 2.863741 -0.721077 0.000003 0.000000 0.000000 0.000000
    16 0.000005 0.001564 3.638375 -0.000010 -1.194516 3.140806
    17 8.842831 0.000000 -0.000001 1.017322 0.554167 -1.241611
    18 9.341934 0.000000 -0.000002 0.000000 0.000000 0.038241
    19 9.664096 0.000000 0.000003 -3.820704 -0.067348 -0.376995
    20 0.000005 0.001585 -3.638375 -0.000010 1.009117 3.140787
    21 8.842831 0.000000 0.000001 0.173922 -0.589382 -1.236631
    22 9.341934 0.000000 -0.000001 0.000000 0.000000 -0.077679
    23 9.664095 0.000000 -0.000002 2.857997 0.075255 0.404026
    24 6.829857 -0.000001 0.000000 0.001241 0.000000 0.000000
    25 7.919290 -0.636890 0.610527 -1.520273 -0.091531 1.564919
    26 2.515638 0.482270 0.379719 1.593351 0.004972 0.082565
    27 2.687324 0.164273 -1.706054 0.139179 -0.015749 1.668336
  time 11
    0 5.467426 -0.649028 21.213240 0.503817 0.495832 -1.757707
    1 -2.690170 -5.269691 9.745319 -1.570795 -1.570451 0.000000
    2 -0.000008 0.000010 5.615750 -0.199028 3.023769 -1.398411
    3 15.693467 0.000000 0.000000 0.000000 0.000000 -1.509159
    4 22.146629 -0.000001 0.000000 -0.450138 -0.153850 0.688792
    5 0.000008 -0.000006 -5.615750 -0.635016 2.813552 -1.064481
    6 15.693467 0.000000 0.000000 0.000000 0.000000 -1.653169
    7 22.146629 0.000000 0.000000 -0.031624 0.145451 1.222867
    8 1.384163 -0.004728 0.000002 -0.058594 -0.573797 0.107663
    9 5.939814 -0.004730 0.000000 -0.058892 0.015424 0.162538
    10 5.939809 -0.003975 0.000000 0.038376 -0.085714 0.129729
    11 4.991439 -0.003975 0.000000 0.002540 0.056172 0.037677
    12 4.991436 -0.001575 0.000000 0.000000 0.000000 0.000000
    13 1.977383 0.000000 0.000000 0.350636 0.365420 -0.231073
    14 3.723980 2.768055 -0.395205 0.000000 -3.141591 -1.570795
    15 2.863741 -0.721077 0.000003 0.000000 0.000000 0.000000
    16 0.000005 0.001564 3.638375 -0.000010 -1.187600 3.140806
    17 8.842831 0.000000 -0.000001 0.972934 0.492798 -1.181715
    18 9.341934 0.000000 -0.000002 0.000000 0.000000 -0.002503
    19 9.664096 0.000000 0.000003 -3.820704 -0.067348 -0.376995
    20 0.000005 0.001585 -3.638375 -0.000010 1.010765 3.140787
    21 8.842831 0.000000 0.000001 0.217354 -0.605399 -1.235200
    22 9.341934 0.000000 -0.000001 0.000000 0.000000 -0.146003
    23 9.664095 0.000000 -0.000002 2.867660 0.041831 0.369620
    24 6.829857 -0.000001 0.000000 0.001241 0.000000 0.000000
    25 7.919290 -0.636890 0.610527 -1.520273 -0.091531 1.564919
    26 2.515638 0.482270 0.379719 1.593351 0.004972 0.082565
    27 2.687324 0.164273 -1.706054 0.139179 -0.015749 1.668336
  time 12
    0 5.251811 -0.649028 20.334307 0.546193 0.573911 -1.792990
    1 -2.533915 -5.398601 9.745319 -1.570795 -1.570451 0.000000
    2 -0.000008 0.000010 5.615750 -0.187811 3.043135 -1.478481
    3 15.693467 0.000000 0.000000 0.000000 0.000000 -1.591306
    4 22.146629 -0.000001 0.000000 -0.537278 -0.186187 0.773110
    5 0.000008 -0.000006 -5.615750 -0.698757 2.852184 -1.205591
    6 15.693467 0.000000 0.000000 0.000000 0.000000 -1.762235
    7 22.146629 0.000000 0.000000 -0.084206 0.156668 1.274410
    8 1.384163 -0.004728 0.000002 -0.068000 -0.587605 0.099876
    9 5.939814 -0.004730 0.000000 -0.059947 0.013411 0.146074
    10 5.939809 -0.003975 0.000000 0.035869 -0.085474 0.132003
    11 4.991439 -0.003975 0.000000 0.000862 0.056244 0.034298
    12 4.991436 -0.001575 0.000000 0.000000 0.000000 0.000000
    13 1.977383 0.000000 0.000000 0.395084 0.353062 -0.082519
    14 3.723980 2.768055 -0.395205 0.000000 -3.141591 -1.570795
    15 2.863741 -0.721077 0.000003 0.000000 0.000000 0.000000
    16 0.000005 0.001564 3.638375 -0.000010 -1.184813 3.140806
    17 8.842831 0.000000 -0.000001 0.893238 0.423780 -1.086267
    18 9.341934 0.000000 -0.000002 0.000000 0.000000 -0.033691
    19 9.664096 0.000000 0.000003 -3.820704 -0.067348 -0.376995
    20 0.000005 0.001585 -3.638375 -0.000010 1.012413 3.140787
    21 8.842831 0.000000 0.000001 0.240966 -0.609675 -1.217162
    22 9.341934 0.000000 -0.000001 0.000000 0.000000 -0.207434
    23 9.664095 0.000000 -0.000002 2.878704 0.008129 0.334214
    24 6.829857 -0.000001 0.000000 0.001241 0.000000 0.000000
    25 7.919290 -0.636890 0.610527 -1.520273 -0.091531 1.564919
    26 2.515638 0.482270 0.379719 1.593351 0.004972 0.082565
    27 2.687324 0.164273 -1.706054 0.139179 -0.015749 1.668336
  time 13
    0 4.986438 -0.649028 19.330370 0.587131 0.652424 -1.825876
    1 -2.783922 -5.199376 9.745319 -1.570795 -1.570451 0.000000
    2 -0.000008 0.000010 5.615750 -0.176882 3.060295 -1.541567
    3 15.693467 0.000000 0.000000 0.000000 0.000000 -1.648606
    4 22.146629 -0.000001 0.000000 -0.622950 -0.210169 0.849977
    5 0.000008 -0.000006 -5.615750 -0.751955 2.885927 -1.349504
    6 15.693467 0.000000 0.000000 0.000000 0.000000 -1.849338
    7 22.146629 0.000000 0.000000 -0.150464 0.181108 1.306733
    8 1.384163 -0.004728 0.000002 -0.082726 -0.563540 0.134629
    9 5.939814 -0.004730 0.000000 -0.060462 0.012392 0.137737
    10 5.939809 -0.003975 0.000000 0.034615 -0.085378 0.133988
    11 4.991439 -0.003975 0.000000 0.000023 0.056280 0.031233
    12 4.991436 -0.001575 0.000000 0.000000 0.000000 0.000000
    13 1.977383 0.000000 0.000000 0.402849 0.309055 0.003350
    14 3.723980 2.768055 -0.395205 0.000000 -3.141591 -1.570795
    15 2.863741 -0.721077 0.000003 0.000000 0.000000 0.000000
    16 0.000005 0.001564 3.638375 -0.000010 -1.183498 3.140806
    17 8.842831 0.000000 -0.000001 0.762442 0.336097 -1.021205
    18 9.341934 0.000000 -0.000002 0.000000 0.000000 -0.074509
    19 9.664096 0.000000 0.000003 -3.820704 -0.067348 -0.376995
    20 0.000005 0.001585 -3.638375 -0.000010 1.013162 3.140787
    21 8.842831 0.000000 0.000001 0.242405 -0.586510 -1.178940
    22 9.341934 0.000000 -0.000001 0.000000 0.000000 -0.245279
    23 9.664095 0.000000 -0.000002 2.890349 -0.023592 0.300152
    24 6.829857 -0.000001 0.000000 0.001241 0.000000 0.000000
    25 7.919290 -0.636890 0.610527 -1.520273 -0.091531 1.564919
    26 2.515638 0.482270 0.379719 1.593351 0.004972 0.082565
    27 2.687324 0.164273 -1.706054 0.139179 -0.015749 1.668336
  time 14
    0 4.671308 -0.649028 17.427968 0.619728 0.716781 -1.850899
    1 -4.147245 -4.004027 9.745319 -1.570795 -1.570451 0.000000
    2 -0.000008 0.000010 5.615750 -0.158379 3.072566 -1.558096
    3 15.693467 0.000000 0.000000 0.000000 0.000000 -1.706647
    4 22.146629 -0.000001 0.000000 -0.605601 -0.255051 0.814354
    5 0.000008 -0.000006 -5.615750 -0.740740 2.861195 -1.391342
    6 15.693467 0.000000 0.000000 0.000000 0.000000 -1.895138
    7 22.146629 0.000000 0.000000 -0.111075 0.204195 1.153416
    8 1.384163 -0.004728 0.000002 -0.105359 -0.427470 0.284957
    9 5.939814 -0.004730 0.000000 -0.060450 0.012452 0.138712
    10 5.939809 -0.003975 0.000000 0.034602 -0.085426 0.135508
    11 4.991439 -0.003975 0.000000 0.000023 0.056280 0.028811
    12 4.991436 -0.001575 0.000000 0.000000 0.000000 0.000000
    13 1.977383 0.000000 0.000000 0.322560 0.188833 -0.061778
    14 3.723980 2.768055 -0.395205 0.000000 -3.141591 -1.570795
    15 2.863741 -0.721077 0.000003 0.000000 0.000000 0.000000
    16 0.000005 0.001564 3.638375 -0.000010 -1.183314 3.140806
    17 8.842831 0.000000 -0.000001 0.504290 0.230112 -1.072694
    18 9.341934 0.000000 -0.000002 0.000000 0.000000 -0.121105
    19 9.664096 0.000000 0.000003 -3.820704 -0.067348 -0.376995
    20 0.000005 0.001585 -3.638375 -0.000010 1.013162 3.140787
    21 8.842831 0.000000 0.000001 0.218400 -0.435714 -1.119102
    22 9.341934 0.000000 -0.000001 0.000000 0.000000 -0.259336
    23 9.664095 0.000000 -0.000002 2.902893 -0.054482 0.266125
    24 6.829857 -0.000001 0.000000 0.001241 0.000000 0.000000
    25 7.919290 -0.636890 0.610527 -1.520273 -0.091531 1.564919
    26 2.515638 0.482270 0.379719 1.593351 0.004972 0.082565
    27 2.687324 0.164273 -1.706054 0.139179 -0.015749 1.668336
  time 15
    0 4.339592 -0.649028 14.861484 0.651942 0.781311 -1.874389
    1 -6.112149 -1.980528 9.745319 -1.570795 -1.570451 0.000000
    2 -0.000008 0.000010 5.615750 2.998865 0.058665 1.554380
    3 15.693467 0.000000 0.000000 0.000000 0.000000 -1.783138
    4 22.146629 -0.000001 0.000000 -0.577926 -0.298026 0.775332
    5 0.000008 -0.000006 -5.615750 -0.727896 2.839051 -1.433691
    6 15.693467 0.000000 0.000000 0.000000 0.000000 -1.942738
    7 22.146629 0.000000 0.000000 -0.070906 0.223645 0.970106
    8 1.384163 -0.004728 0.000002 -0.093728 -0.207764 0.495891
    9 5.939814 -0.004730 0.000000 -0.060426 0.012656 0.142020
    10 5.939809 -0.003975 0.000000 0.034602 -0.085474 0.136915
    11 4.991439 -0.003975 0.000000 0.000023 0.056280 0.026568
    12 4.991436 -0.001575 0.000000 0.000000 0.000000 0.000000
    13 1.977383 0.000000 0.000000 0.197430 0.005512 -0.208534
    14 3.723980 2.768055 -0.395205 0.000000 -3.141591 -1.570795
    15 2.863741 -0.721077 0.000003 0.000000 0.000000 0.000000
    16 0.000005 0.001564 3.638375 -0.000010 -1.183945 3.140806
    17 8.842831 0.000000 -0.000001 0.159223 0.131867 -1.177687
    18 9.341934 0.000000 -0.000002 0.000000 0.000000 -0.169479
    19 9.664096 0.000000 0.000003 -3.820704 -0.067348 -0.376995
    20 0.000005 0.001585 -3.638375 -0.000010 1.013162 3.140787
    21 8.842831 0.000000 0.000001 0.203225 -0.195832 -1.054110
    22 9.341934 0.000000 -0.000001 0.000000 0.000000 -0.263255
    23 9.664095 0.000000 -0.000002 2.917179 -0.086441 0.229927
    24 6.829857 -0.000001 0.000000 0.001241 0.000000 0.000000
    25 7.919290 -0.636890 0.610527 -1.520273 -0.091531 1.564919
    26 2.515638 0.482270 0.379719 1.593351 0.004972 0.082565
    27 2.687324 0.164273 -1.706054 0.139179 -0.015749 1.668336
  time 16
    0 3.958119 -0.649028 13.099711 0.683964 0.846102 -1.896249
    1 -7.256715 -0.500014 9.745319 -1.570795 -1.570451 0.000000
    2 -0.000008 0.000010 5.615750 3.015451 0.048790 1.528296
    3 15.693467 0.000000 0.000000 0.000000 0.000000 -1.858753
    4 22.146629 -0.000001 0.000000 -0.538798 -0.340978 0.729447
    5 0.000008 -0.000006 -5.615750 -0.712464 2.812593 -1.470127
    6 15.693467 0.000000 0.000000 0.000000 0.000000 -1.987938
    7 22.146629 0.000000 0.000000 -0.029609 0.240179 0.772235
    8 1.384163 -0.004728 0.000002 -0.056562 -0.050498 0.632563
    9 5.939814 -0.004730 0.000000 -0.060390 0.012907 0.146227
    10 5.939809 -0.003975 0.000000 0.034588 -0.085534 0.138699
    11 4.991439 -0.003975 0.000000 0.000023 0.056280 0.023713
    12 4.991436 -0.001575 0.000000 0.000000 0.000000 0.000000
    13 1.977383 0.000000 0.000000 0.105945 -0.130356 -0.277580
    14 3.723980 2.768055 -0.395205 0.000000 -3.141591 -1.570795
    15 2.863741 -0.721077 0.000003 0.000000 0.000000 0.000000
    16 0.000005 0.001564 3.638375 -0.000010 -1.185023 3.140806
    17 8.842831 0.000000 -0.000001 -0.130063 0.108012 -1.197477
    18 9.341934 0.000000 -0.000002 0.000000 0.000000 -0.215705
    19 9.664096 0.000000 0.000003 -3.820704 -0.067348 -0.376995
    20 0.000005 0.001585 -3.638375 -0.000010 1.013162 3.140787
    21 8.842831 0.000000 0.000001 0.209701 -0.062649 -0.981818
    22 9.341934 0.000000 -0.000001 0.000000 0.000000 -0.260417
    23 9.664095 0.000000 -0.000002 2.933025 -0.118439 0.192456
    24 6.829857 -0.000001 0.000000 0.001241 0.000000 0.000000
    25 7.919290 -0.636890 0.610527 -1.520273 -0.091531 1.564919
    26 2.515638 0.482270 0.379719 1.593351 0.004972 0.082565
    27 2.687324 0.164273 -1.706054 0.139179 -0.015749 1.668336
  time 17
    0 3.560059 -0.649028 12.627041 0.716177 0.911153 -1.916479
    1 -7.221558 -0.171879 9.745319 -1.570795 -1.570451 0.000000
    2 -0.000008 0.000010 5.615750 3.036063 0.037861 1.520916
    3 15.693467 0.000000 0.000000 0.000000 0.000000 -1.914303
    4 22.146629 -0.000001 0.000000 -0.486436 -0.384918 0.673039
    5 0.000008 -0.000006 -5.615750 -0.693581 2.775303 -1.494028
    6 15.693467 0.000000 0.000000 0.000000 0.000000 -2.026468
    7 22.146629 0.000000 0.000000 0.013166 0.255757 0.575239
    8 1.384163 -0.004728 0.000002 -0.047253 -0.016176 0.623702
    9 5.939814 -0.004730 0.000000 -0.060342 0.013195 0.151103
    10 5.939809 -0.003975 0.000000 0.034574 -0.085618 0.141123
    11 4.991439 -0.003975 0.000000 0.000023 0.056280 0.019825
    12 4.991436 -0.001575 0.000000 0.000000 0.000000 0.000000
    13 1.977383 0.000000 0.000000 0.066785 -0.157117 -0.208534
    14 3.723980 2.768055 -0.395205 0.000000 -3.141591 -1.570795
    15 2.863741 -0.721077 0.000003 0.000000 0.000000 0.000000
    16 0.000005 0.001564 3.638375 -0.000010 -1.186233 3.140806
    17 8.842831 0.000000 -0.000001 -0.286183 0.192690 -1.087580
    18 9.341934 0.000000 -0.000002 0.000000 0.000000 -0.256004
    19 9.664096 0.000000 0.000003 -3.820704 -0.067348 -0.376995
    20 0.000005 0.001585 -3.638375 -0.000010 1.013162 3.140787
    21 8.842831 0.000000 0.000001 0.203029 -0.127677 -0.891345
    22 9.341934 0.000000 -0.000001 0.000000 0.000000 -0.254267
    23 9.664095 0.000000 -0.000002 2.950011 -0.149566 0.154605
    24 6.829857 -0.000001 0.000000 0.001241 0.000000 0.000000
    25 7.919290 -0.636890 0.610527 -1.520273 -0.091531 1.564919
    26 2.515638 0.482270 0.379719 1.593351 0.004972 0.082565
    27 2.687324 0.164273 -1.706054 0.139179 -0.015749 1.668336
  time 18
    0 3.145414 -0.649028 12.603602 0.748966 0.976378 -1.934887
    1 -6.643415 -0.371104 9.745319 -1.570795 -1.570451 0.000000
    2 -0.000008 0.000010 5.615750 3.063578 0.023481 1.547454
    3 15.693467 0.000000 0.000000 0.000000 0.000000 -1.930463
    4 22.146629 -0.000001 0.000000 -0.418637 -0.430224 0.602055
    5 0.000008 -0.000006 -5.615750 -0.669810 2.720853 -1.498207
    6 15.693467 0.000000 0.000000 0.000000 0.000000 -2.054053
    7 22.146629 0.000000 0.000000 0.055779 0.272805 0.393894
    8 1.384163 -0.004728 0.000002 -0.055909 -0.038089 0.543034
    9 5.939814 -0.004730 0.000000 -0.060294 0.013543 0.156859
    10 5.939809 -0.003975 0.000000 0.034560 -0.085714 0.143924
    11 4.991439 -0.003975 0.000000 0.000023 0.056280 0.015355
    12 4.991436 -0.001575 0.000000 0.000000 0.000000 0.000000
    13 1.977383 0.000000 0.000000 0.058683 -0.136424 -0.086806
    14 3.723980 2.768055 -0.395205 0.000000 -3.141591 -1.570795
    15 2.863741 -0.721077 0.000003 0.000000 0.000000 0.000000
    16 0.000005 0.001564 3.638375 -0.000010 -1.187206 3.140806
    17 8.842831 0.000000 -0.000001 -0.354148 0.317340 -0.920766
    18 9.341934 0.000000 -0.000002 0.000000 0.000000 -0.286377
    19 9.664096 0.000000 0.000003 -3.820704 -0.067348 -0.376995
    20 0.000005 0.001585 -3.638375 -0.000010 1.013162 3.140787
    21 8.842831 0.000000 0.000001 0.166335 -0.274453 -0.785698
    22 9.341934 0.000000 -0.000001 0.000000 0.000000 -0.248050
    23 9.664095 0.000000 -0.000002 2.967538 -0.178991 0.117443
    24 6.829857 -0.000001 0.000000 0.001241 0.000000 0.000000
    25 7.919290 -0.636890 0.610527 -1.520273 -0.091531 1.564919
    26 2.515638 0.482270 0.379719 1.593351 0.004972 0.082565
    27 2.687324 0.164273 -1.706054 0.139179 -0.015749 1.668336
  time 19
    0 2.730769 -0.649028 12.177808 0.782905 1.041777 -1.950899
    1 -6.135587 -0.570329 9.745319 -1.570795 -1.570451 0.000000
    2 -0.000008 0.000010 5.615750 -0.041511 3.140057 -1.518466
    3 15.693467 0.000000 0.000000 0.000000 0.000000 -1.888110
    4 22.146629 -0.000001 0.000000 -0.333961 -0.477223 0.512703
    5 0.000008 -0.000006 -5.615750 -0.637412 2.643589 -1.473899
    6 15.693467 0.000000 0.000000 0.000000 0.000000 -2.066421
    7 22.146629 0.000000 0.000000 0.093637 0.292557 0.241523
    8 1.384163 -0.004728 0.000002 -0.062366 -0.059859 0.475292
    9 5.939814 -0.004730 0.000000 -0.060235 0.013902 0.162787
    10 5.939809 -0.003975 0.000000 0.034547 -0.085822 0.146801
    11 4.991439 -0.003975 0.000000 0.000023 0.056280 0.010735
    12 4.991436 -0.001575 0.000000 0.000000 0.000000 0.000000
    13 1.977383 0.000000 0.000000 0.057670 -0.119288 0.001000
    14 3.723980 2.768055 -0.395205 0.000000 -3.141591 -1.570795
    15 2.863741 -0.721077 0.000003 0.000000 0.000000 0.000000
    16 0.000005 0.001564 3.638375 -0.000010 -1.187600 3.140806
    17 8.842831 0.000000 -0.000001 -0.402259 0.424235 -0.776455
    18 9.341934 0.000000 -0.000002 0.000000 0.000000 -0.302897
    19 9.664096 0.000000 0.000003 -3.820704 -0.067348 -0.376995
    20 0.000005 0.001585 -3.638375 -0.000010 1.013162 3.140787
    21 8.842831 0.000000 0.000001 0.124211 -0.393341 -0.686278
    22 9.341934 0.000000 -0.000001 0.000000 0.000000 -0.245279
    23 9.664095 0.000000 -0.000002 2.985004 -0.205841 0.082038
    24 6.829857 -0.000001 0.000000 0.001241 0.000000 0.000000
    25 7.919290 -0.636890 0.610527 -1.520273 -0.091531 1.564919
    26 2.515638 0.482270 0.379719 1.593351 0.004972 0.082565
    27 2.687324 0.164273 -1.706054 0.139179 -0.015749 1.668336
  time 20
    0 2.299539 -0.649028 10.919957 0.818762 1.107263 -1.964130
    1 -6.073085 -0.570329 9.745319 -1.570795 -1.570451 0.000000
    2 -0.000008 0.000010 5.615750 0.020326 3.193552 -1.338864
    3 15.693467 0.000000 0.000000 0.000000 0.000000 -1.717421
    4 22.146629 -0.000001 0.000000 -0.217600 -0.549782 0.384330
    5 0.000008 -0.000006 -5.615750 -0.596867 2.512833 -1.397101
    6 15.693467 0.000000 0.000000 0.000000 0.000000 -2.094906
    7 22.146629 0.000000 0.000000 0.097909 0.323131 0.181172
    8 1.384163 -0.004728 0.000002 -0.062728 -0.060576 0.463785
    9 5.939814 -0.004730 0.000000 -0.060175 0.014262 0.168658
    10 5.939809 -0.003975 0.000000 0.034533 -0.085918 0.149678
    11 4.991439 -0.003975 0.000000 0.000023 0.056280 0.006130
    12 4.991436 -0.001575 0.000000 0.000000 0.000000 0.000000
    13 1.977383 0.000000 0.000000 0.075562 -0.105441 -0.184889
    14 3.723980 2.768055 -0.395205 0.000000 -3.141591 -1.570795
    15 2.863741 -0.721077 0.000003 0.000000 0.000000 0.000000
    16 0.000005 0.001564 3.638375 -0.000010 -1.187600 3.140806
    17 8.842831 0.000000 -0.000001 -0.479191 0.517382 -0.714283
    18 9.341934 0.000000 -0.000002 0.000000 0.000000 -0.294970
    19 9.664096 0.000000 0.000003 -3.820704 -0.067348 -0.376995
    20 0.000005 0.001585 -3.638375 -0.000010 1.013162 3.140787
    21 8.842831 0.000000 0.000001 0.109625 -0.458368 -0.612983
    22 9.341934 0.000000 -0.000001 0.000000 0.000000 -0.250821
    23 9.664095 0.000000 -0.000002 3.002411 -0.230513 0.048148
    24 6.829857 -0.000001 0.000000 0.001241 0.000000 0.000000
    25 7.919290 -0.636890 0.610527 -1.520273 -0.091531 1.564919
    26 2.515638 0.482270 0.379719 1.593351 0.004972 0.082565
    27 2.687324 0.164273 -1.706054 0.139179 -0.015749 1.668336
  time 21
    0 1.868308 -0.649028 9.255844 0.857974 1.172922 -1.973238
    1 -6.162932 -0.562516 9.745319 -1.570795 -1.570451 0.000000
    2 -0.000008 0.000010 5.615750 0.086094 3.287694 -1.062106
    3 15.693467 0.000000 0.000000 0.000000 0.000000 -1.426003
    4 22.146629 -0.000001 0.000000 -0.083523 -0.645029 0.226935
    5 0.000008 -0.000006 -5.615750 -0.510217 2.337310 -1.237441
    6 15.693467 0.000000 0.000000 0.000000 0.000000 -2.123690
    7 22.146629 0.000000 0.000000 0.066768 0.354567 0.204759
    8 1.384163 -0.004728 0.000002 -0.062487 -0.060092 0.471533
    9 5.939814 -0.004730 0.000000 -0.060103 0.014621 0.174643
    10 5.939809 -0.003975 0.000000 0.034519 -0.086013 0.152617
    11 4.991439 -0.003975 0.000000 0.000023 0.056280 0.001435
    12 4.991436 -0.001575 0.000000 0.000000 0.000000 0.000000
    13 1.977383 0.000000 0.000000 0.114666 -0.063767 -0.627649
    14 3.723980 2.768055 -0.395205 0.000000 -3.141591 -1.570795
    15 2.863741 -0.721077 0.000003 0.000000 0.000000 0.000000
    16 0.000005 0.001564 3.638375 -0.000010 -1.187600 3.140806
    17 8.842831 0.000000 -0.000001 -0.562215 0.616082 -0.703600
    18 9.341934 0.000000 -0.000002 0.000000 0.000000 -0.261486
    19 9.664096 0.000000 0.000003 -3.820704 -0.067348 -0.376995
    20 0.000005 0.001585 -3.638375 -0.000010 1.013162 3.140787
    21 8.842831 0.000000 0.000001 0.103477 -0.515802 -0.548850
    22 9.341934 0.000000 -0.000001 0.000000 0.000000 -0.261904
    23 9.664095 0.000000 -0.000002 3.019937 -0.253483 0.015223
    24 6.829857 -0.000001 0.000000 0.001241 0.000000 0.000000
    25 7.919290 -0.636890 0.610527 -1.520273 -0.091531 1.564919
    26 2.515638 0.482270 0.379719 1.593351 0.004972 0.082565
    27 2.687324 0.164273 -1.706054 0.139179 -0.015749 1.668336
  time 22
    0 1.437077 -0.649028 7.533135 0.902556 1.238668 -1.976114
    1 -6.116055 -0.562516 9.745319 -1.570795 -1.570451 0.000000
    2 -0.000008 0.000010 5.615750 0.113896 3.384617 -0.758203
    3 15.693467 0.000000 0.000000 0.000000 0.000000 -1.110479
    4 22.146629 -0.000001 0.000000 0.023036 -0.724437 0.090326
    5 0.000008 -0.000006 -5.615750 -0.297331 2.184890 -0.952520
    6 15.693467 0.000000 0.000000 0.000000 0.000000 -2.077890
    7 22.146629 0.000000 0.000000 0.043661 0.374063 0.227327
    8 1.384163 -0.004728 0.000002 -0.062777 -0.060666 0.462442
    9 5.939814 -0.004730 0.000000 -0.060043 0.014981 0.180666
    10 5.939809 -0.003975 0.000000 0.034505 -0.086121 0.155569
    11 4.991439 -0.003975 0.000000 0.000023 0.056280 -0.003274
    12 4.991436 -0.001575 0.000000 0.000000 0.000000 0.000000
    13 1.977383 0.000000 0.000000 0.134470 -0.011780 -1.031091
    14 3.723980 2.768055 -0.395205 0.000000 -3.141591 -1.570795
    15 2.863741 -0.721077 0.000003 0.000000 0.000000 0.000000
    16 0.000005 0.001564 3.638375 -0.000010 -1.187600 3.140806
    17 8.842831 0.000000 -0.000001 -0.632491 0.717150 -0.708066
    18 9.341934 0.000000 -0.000002 0.000000 0.000000 -0.212668
    19 9.664096 0.000000 0.000003 -3.820704 -0.067348 -0.376995
    20 0.000005 0.001585 -3.638375 -0.000010 1.013162 3.140787
    21 8.842831 0.000000 0.000001 0.082742 -0.570620 -0.479492
    22 9.341934 0.000000 -0.000001 0.000000 0.000000 -0.270216
    23 9.664095 0.000000 -0.000002 3.036984 -0.274234 -0.015843
    24 6.829857 -0.000001 0.000000 0.001241 0.000000 0.000000
    25 7.919290 -0.636890 0.610527 -1.520273 -0.091531 1.564919
    26 2.515638 0.482270 0.379719 1.593351 0.004972 0.082565
    27 2.687324 0.164273 -1.706054 0.139179 -0.015749 1.668336
  time 23
    0 1.022432 -0.649028 6.122936 0.957204 1.304328 -1.968636
    1 -5.639478 -0.593767 9.745319 -1.570795 -1.570451 0.000000
    2 -0.000008 0.000010 5.615750 0.099228 3.429100 -0.496914
    3 15.693467 0.000000 0.000000 0.000000 0.000000 -0.867339
    4 22.146629 -0.000001 0.000000 0.073407 -0.746372 0.016597
    5 0.000008 -0.000006 -5.615750 0.057608 2.145586 -0.556811
    6 15.693467 0.000000 0.000000 0.000000 0.000000 -1.882620
    7 22.146629 0.000000 0.000000 0.074184 0.372221 0.169670
    8 1.384163 -0.004728 0.000002 -0.064590 -0.064593 0.400531
    9 5.939814 -0.004730 0.000000 -0.059971 0.015340 0.186651
    10 5.939809 -0.003975 0.000000 0.034492 -0.086217 0.158509
    11 4.991439 -0.003975 0.000000 0.000023 0.056280 -0.007969
    12 4.991436 -0.001575 0.000000 0.000000 0.000000 0.000000
    13 1.977383 0.000000 0.000000 0.134302 0.043474 -1.349679
    14 3.723980 2.768055 -0.395205 0.000000 -3.141591 -1.570795
    15 2.863741 -0.721077 0.000003 0.000000 0.000000 0.000000
    16 0.000005 0.001564 3.638375 -0.000010 -1.187600 3.140806
    17 8.842831 0.000000 -0.000001 -0.657703 0.818855 -0.672426
    18 9.341934 0.000000 -0.000002 0.000000 0.000000 -0.158812
    19 9.664096 0.000000 0.000003 -3.820704 -0.067348 -0.376995
    20 0.000005 0.001585 -3.638375 -0.000010 1.013162 3.140787
    21 8.842831 0.000000 0.000001 0.020081 -0.621353 -0.383437
    22 9.341934 0.000000 -0.000001 0.000000 0.000000 -0.267445
    23 9.664095 0.000000 -0.000002 3.052890 -0.292491 -0.044222
    24 6.829857 -0.000001 0.000000 0.001241 0.000000 0.000000
    25 7.919290 -0.636890 0.610527 -1.520273 -0.091531 1.564919
    26 2.515638 0.482270 0.379719 1.593351 0.004972 0.082565
    27 2.687324 0.164273 -1.706054 0.139179 -0.015749 1.668336
  time 24
    0 0.624373 -0.649028 5.572138 1.031794 1.369813 -1.940736
    1 -4.268343 -0.687520 9.745319 -1.570795 -1.570451 0.000000
    2 -0.000008 0.000010 5.615750 0.054840 3.348762 -0.300125
    3 15.693467 0.000000 0.000000 0.000000 0.000000 -0.751795
    4 22.146629 -0.000001 0.000000 0.040779 -0.652537 0.056599
    5 0.000008 -0.000006 -5.615750 0.427307 2.319096 -0.201463
    6 15.693467 0.000000 0.000000 0.000000 0.000000 -1.314201
    7 22.146629 0.000000 0.000000 0.222096 0.306923 -0.127937
    8 1.384163 -0.004728 0.000002 -0.068121 -0.075281 0.239655
    9 5.939814 -0.004730 0.000000 -0.059911 0.015700 0.192560
    10 5.939809 -0.003975 0.000000 0.034478 -0.086325 0.161398
    11 4.991439 -0.003975 0.000000 0.000023 0.056280 -0.012604
    12 4.991436 -0.001575 0.000000 0.000000 0.000000 0.000000
    13 1.977383 0.000000 0.000000 0.136946 0.077236 -1.350278
    14 3.723980 2.768055 -0.395205 0.000000 -3.141591 -1.570795
    15 2.863741 -0.721077 0.000003 0.000000 0.000000 0.000000
    16 0.000005 0.001564 3.638375 -0.000010 -1.187600 3.140806
    17 8.842831 0.000000 -0.000001 -0.564245 0.917737 -0.499306
    18 9.341934 0.000000 -0.000002 0.000000 0.000000 -0.109919
    19 9.664096 0.000000 0.000003 -3.820704 -0.067348 -0.376995
    20 0.000005 0.001585 -3.638375 -0.000010 1.013162 3.140787
    21 8.842831 0.000000 0.000001 -0.125977 -0.660153 -0.224608
    22 9.341934 0.000000 -0.000001 0.000000 0.000000 -0.245279
    23 9.664095 0.000000 -0.000002 3.067055 -0.307738 -0.068916
    24 6.829857 -0.000001 0.000000 0.001241 0.000000 0.000000
    25 7.919290 -0.636890 0.610527 -1.520273 -0.091531 1.564919
    26 2.515638 0.482270 0.379719 1.593351 0.004972 0.082565
    27 2.687324 0.164273 -1.706054 0.139179 -0.015749 1.668336
  time 25
    0 0.259485 -0.649028 5.861209 1.155183 1.434517 -1.863747
    1 -2.115933 -0.832056 9.745319 -1.570795 -1.570451 0.000000
    2 -0.000008 0.000010 5.615750 0.017546 3.187320 -0.158283
    3 15.693467 0.000000 0.000000 0.000000 0.000000 -0.707760
    4 22.146629 -0.000001 0.000000 -0.025631 -0.485155 0.134054
    5 0.000008 -0.000006 -5.615750 0.644986 2.628826 -0.035331
    6 15.693467 0.000000 0.000000 0.000000 0.000000 -0.524426
    7 22.146629 0.000000 0.000000 0.393006 0.146803 -0.577987
    8 1.384163 -0.004728 0.000002 -0.070128 -0.091455 0.005974
    9 5.939814 -0.004730 0.000000 -0.059839 0.016047 0.198450
    10 5.939809 -0.003975 0.000000 0.034450 -0.086421 0.164288
    11 4.991439 -0.003975 0.000000 0.000023 0.056280 -0.017224
    12 4.991436 -0.001575 0.000000 0.000000 0.000000 0.000000
    13 1.977383 0.000000 0.000000 0.181507 0.003734 -0.606723
    14 3.723980 2.768055 -0.395205 0.000000 -3.141591 -1.570795
    15 2.863741 -0.721077 0.000003 0.000000 0.000000 0.000000
    16 0.000005 0.001564 3.638375 -0.000010 -1.187600 3.140806
    17 8.842831 0.000000 -0.000001 -0.395829 0.822588 -0.305521
    18 9.341934 0.000000 -0.000002 0.000000 0.000000 -0.058878
    19 9.664096 0.000000 0.000003 -3.820704 -0.067348 -0.376995
    20 0.000005 0.001585 -3.638375 -0.000010 1.013162 3.140787
    21 8.842831 0.000000 0.000001 -0.212579 -0.623842 -0.231264
    22 9.341934 0.000000 -0.000001 0.000000 0.000000 -0.145598
    23 9.664095 0.000000 -0.000002 3.070356 -0.311143 -0.074565
    24 6.829857 -0.000001 0.000000 0.001241 0.000000 0.000000
    25 7.919290 -0.636890 0.610527 -1.520273 -0.091531 1.564919
    26 2.515638 0.482270 0.379719 1.593351 0.004972 0.082565
    27 2.687324 0.164273 -1.706054 0.139179 -0.015749 1.668336
  time 26
    0 -0.088816 -0.649028 6.337786 1.449324 1.495573 -1.615906
    1 0.114604 -0.988310 9.745319 -1.570795 -1.570451 0.000000
    2 -0.000008 0.000010 5.615750 0.004699 3.076784 -0.081196
    3 15.693467 0.000000 0.000000 0.000000 0.000000 -0.664666
    4 22.146629 -0.000001 0.000000 -0.067065 -0.367573 0.140198
    5 0.000008 -0.000006 -5.615750 0.747068 2.865125 0.020471
    6 15.693467 0.000000 0.000000 0.000000 0.000000 -0.001882
    7 22.146629 0.000000 0.000000 0.452198 -0.019403 -0.835990
    8 1.384163 -0.004728 0.000002 -0.068314 -0.107666 -0.228013
    9 5.939814 -0.004730 0.000000 -0.059767 0.016395 0.204320
    10 5.939809 -0.003975 0.000000 0.034436 -0.086517 0.167164
    11 4.991439 -0.003975 0.000000 0.000023 0.056280 -0.021829
    12 4.991436 -0.001575 0.000000 0.000000 0.000000 0.000000
    13 1.977383 0.000000 0.000000 0.180100 -0.100395 0.139183
    14 3.723980 2.768055 -0.395205 0.000000 -3.141591 -1.570795
    15 2.863741 -0.721077 0.000003 0.000000 0.000000 0.000000
    16 0.000005 0.001564 3.638375 -0.000010 -1.187600 3.140806
    17 8.842831 0.000000 -0.000001 -0.276144 0.614079 -0.255082
    18 9.341934 0.000000 -0.000002 0.000000 0.000000 -0.002503
    19 9.664096 0.000000 0.000003 -3.820704 -0.067348 -0.376995
    20 0.000005 0.001585 -3.638375 -0.000010 1.013162 3.140787
    21 8.842831 0.000000 0.000001 -0.223829 -0.577193 -0.388876
    22 9.341934 0.000000 -0.000001 0.000000 0.000000 -0.002530
    23 9.664095 0.000000 -0.000002 3.067055 -0.307738 -0.068916
    24 6.829857 -0.000001 0.000000 0.001241 0.000000 0.000000
    25 7.919290 -0.636890 0.610527 -1.520273 -0.091531 1.564919
    26 2.515638 0.482270 0.379719 1.593351 0.004972 0.082565
    27 2.687324 0.164273 -1.706054 0.139179 -0.015749 1.668336
  time 27
    0 -0.088816 -0.649028 6.337786 1.449324 1.495573 -1.615906
    1 0.114604 -0.988310 9.745319 -1.570795 -1.570451 0.000000
    2 -0.000008 0.000010 5.615750 0.003548 3.048503 -0.050361
    3 15.693467 0.000000 0.000000 0.000000 0.000000 -0.598814
    4 22.146629 -0.000001 0.000000 -0.104699 -0.335541 0.101830
    5 0.000008 -0.000006 -5.615750 0.772852 2.925806 0.035708
    6 15.693467 0.000000 0.000000 0.000000 0.000000 -0.032165
    7 22.146629 0.000000 0.000000 0.412862 -0.090064 -0.658649
    8 1.384163 -0.004728 0.000002 -0.068314 -0.107666 -0.228013
    9 5.939814 -0.004730 0.000000 -0.059767 0.016395 0.204320
    10 5.939809 -0.003975 0.000000 0.034436 -0.086517 0.167164
    11 4.991439 -0.003975 0.000000 0.000023 0.056280 -0.021829
    12 4.991436 -0.001575 0.000000 0.000000 0.000000 0.000000
    13 1.977383 0.000000 0.000000 0.196192 -0.063056 -0.056800
    14 3.723980 2.768055 -0.395205 0.000000 -3.141591 -1.570795
    15 2.863741 -0.721077 0.000003 0.000000 0.000000 0.000000
    16 0.000005 0.001564 3.638375 -0.000010 -1.187600 3.140806
    17 8.842831 0.000000 -0.000001 -0.276144 0.614079 -0.255082
    18 9.341934 0.000000 -0.000002 0.000000 0.000000 -0.002503
    19 9.664096 0.000000 0.000003 -3.820704 -0.067348 -0.376995
    20 0.000005 0.001585 -3.638375 -0.000010 1.013162 3.140787
    21 8.842831 0.000000 0.000001 -0.223829 -0.577193 -0.388876
    22 9.341934 0.000000 -0.000001 0.000000 0.000000 -0.002530
    23 9.664095 0.000000 -0.000002 3.067055 -0.307738 -0.068916
    24 6.829857 -0.000001 0.000000 0.001241 0.000000 0.000000
    25 7.919290 -0.636890 0.610527 -1.520273 -0.091531 1.564919
    26 2.515638 0.482270 0.379719 1.593351 0.004972 0.082565
    27 2.687324 0.164273 -1.706054 0.139179 -0.015749 1.668336
  time 28
    0 -0.088816 -0.649028 6.337786 1.449324 1.495573 -1.615906
    1 0.114604 -0.988310 9.745319 -1.570795 -1.570451 0.000000
    2 -0.000008 0.000010 5.615750 0.003357 3.040642 -0.041717
    3 15.693467 0.000000 0.000000 0.000000 0.000000 -0.533232
    4 22.146629 -0.000001 0.000000 -0.175354 -0.331164 0.091111
    5 0.000008 -0.000006 -5.615750 0.760104 2.895418 0.028319
    6 15.693467 0.000000 0.000000 0.000000 0.000000 -0.329455
    7 22.146629 0.000000 0.000000 0.345342 -0.103753 -0.272008
    8 1.384163 -0.004728 0.000002 -0.068314 -0.107666 -0.228013
    9 5.939814 -0.004730 0.000000 -0.059767 0.016395 0.204320
    10 5.939809 -0.003975 0.000000 0.034436 -0.086517 0.167164
    11 4.991439 -0.003975 0.000000 0.000023 0.056280 -0.021829
    12 4.991436 -0.001575 0.000000 0.000000 0.000000 0.000000
    13 1.977383 0.000000 0.000000 0.205869 -0.004868 -0.340634
    14 3.723980 2.768055 -0.395205 0.000000 -3.141591 -1.570795
    15 2.863741 -0.721077 0.000003 0.000000 0.000000 0.000000
    16 0.000005 0.001564 3.638375 -0.000010 -1.187600 3.140806
    17 8.842831 0.000000 -0.000001 -0.276144 0.614079 -0.255082
    18 9.341934 0.000000 -0.000002 0.000000 0.000000 -0.002503
    19 9.664096 0.000000 0.000003 -3.820704 -0.067348 -0.376995
    20 0.000005 0.001585 -3.638375 -0.000010 1.013162 3.140787
    21 8.842831 0.000000 0.000001 -0.223829 -0.577193 -0.388876
    22 9.341934 0.000000 -0.000001 0.000000 0.000000 -0.002530
    23 9.664095 0.000000 -0.000002 3.067055 -0.307738 -0.068916
    24 6.829857 -0.000001 0.000000 0.001241 0.000000 0.000000
    25 7.919290 -0.636890 0.610527 -1.520273 -0.091531 1.564919
    26 2.515638 0.482270 0.379719 1.593351 0.004972 0.082565
    27 2.687324 0.164273 -1.706054 0.139179 -0.015749 1.668336
  time 29
    0 -0.088816 -0.649028 6.337786 1.449324 1.495573 -1.615906
    1 0.114604 -0.988310 9.745319 -1.570795 -1.570451 0.000000
    2 -0.000008 0.000010 5.615750 0.003548 3.046298 -0.047884
    3 15.693467 0.000000 0.000000 0.000000 0.000000 -0.467919
    4 22.146629 -0.000001 0.000000 -0.269491 -0.339707 0.099935
    5 0.000008 -0.000006 -5.615750 0.747068 2.865125 0.020471
    6 15.693467 0.000000 0.000000 0.000000 0.000000 -0.525100
    7 22.146629 0.000000 0.000000 0.270432 -0.112382 0.024579
    8 1.384163 -0.004728 0.000002 -0.068314 -0.107666 -0.228013
    9 5.939814 -0.004730 0.000000 -0.059767 0.016395 0.204320
    10 5.939809 -0.003975 0.000000 0.034436 -0.086517 0.167164
    11 4.991439 -0.003975 0.000000 0.000023 0.056280 -0.021829
    12 4.991436 -0.001575 0.000000 0.000000 0.000000 0.000000
    13 1.977383 0.000000 0.000000 0.205588 -0.011624 -0.308277
    14 3.723980 2.768055 -0.395205 0.000000 -3.141591 -1.570795
    15 2.863741 -0.721077 0.000003 0.000000 0.000000 0.000000
    16 0.000005 0.001564 3.638375 -0.000010 -1.187600 3.140806
    17 8.842831 0.000000 -0.000001 -0.276144 0.614079 -0.255082
    18 9.341934 0.000000 -0.000002 0.000000 0.000000 -0.002503
    19 9.664096 0.000000 0.000003 -3.820704 -0.067348 -0.376995
    20 0.000005 0.001585 -3.638375 -0.000010 1.013162 3.140787
    21 8.842831 0.000000 0.000001 -0.223829 -0.577193 -0.388876
    22 9.341934 0.000000 -0.000001 0.000000 0.000000 -0.002530
    23 9.664095 0.000000 -0.000002 3.067055 -0.307738 -0.068916
    24 6.829857 -0.000001 0.000000 0.001241 0.000000 0.000000
    25 7.919290 -0.636890 0.610527 -1.520273 -0.091531 1.564919
    26 2.515638 0.482270 0.379719 1.593351 0.004972 0.082565
    27 2.687324 0.164273 -1.706054 0.139179 -0.015749 1.668336
  time 30
    0 -0.088816 -0.649028 6.337786 1.449324 1.495573 -1.615906
    1 0.114604 -0.988310 9.745319 -1.570795 -1.570451 0.000000
    2 -0.000008 0.000010 5.615750 0.003836 3.058761 -0.061481
    3 15.693467 0.000000 0.000000 0.000000 0.000000 -0.402740
    4 22.146629 -0.000001 0.000000 -0.377465 -0.347662 0.119151
    5 0.000008 -0.000006 -5.615750 0.747068 2.865125 0.020471
    6 15.693467 0.000000 0.000000 0.000000 0.000000 -0.462134
    7 22.146629 0.000000 0.000000 0.192916 -0.131575 0.090827
    8 1.384163 -0.004728 0.000002 -0.068314 -0.107666 -0.228013
    9 5.939814 -0.004730 0.000000 -0.059767 0.016395 0.204320
    10 5.939809 -0.003975 0.000000 0.034436 -0.086517 0.167164
    11 4.991439 -0.003975 0.000000 0.000023 0.056280 -0.021829
    12 4.991436 -0.001575 0.000000 0.000000 0.000000 0.000000
    13 1.977383 0.000000 0.000000 0.202662 -0.036584 -0.187793
    14 3.723980 2.768055 -0.395205 0.000000 -3.141591 -1.570795
    15 2.863741 -0.721077 0.000003 0.000000 0.000000 0.000000
    16 0.000005 0.001564 3.638375 -0.000010 -1.187600 3.140806
    17 8.842831 0.000000 -0.000001 -0.276144 0.614079 -0.255082
    18 9.341934 0.000000 -0.000002 0.000000 0.000000 -0.002503
    19 9.664096 0.000000 0.000003 -3.820704 -0.067348 -0.376995
    20 0.000005 0.001585 -3.638375 -0.000010 1.013162 3.140787
    21 8.842831 0.000000 0.000001 -0.223829 -0.577193 -0.388876
    22 9.341934 0.000000 -0.000001 0.000000 0.000000 -0.002530
    23 9.664095 0.000000 -0.000002 3.067055 -0.307738 -0.068916
    24 6.829857 -0.000001 0.000000 0.001241 0.000000 0.000000
    25 7.919290 -0.636890 0.610527 -1.520273 -0.091531 1.564919
    26 2.515638 0.482270 0.379719 1.593351 0.004972 0.082565
    27 2.687324 0.164273 -1.706054 0.139179 -0.015749 1.668336
  time 31
    0 -0.088816 -0.649028 6.337786 1.449324 1.495573 -1.615906
    1 0.114604 -0.988310 9.745319 -1.570795 -1.570451 0.000000
    2 -0.000008 0.000010 5.615750 0.004411 3.071128 -0.075029
    3 15.693467 0.000000 0.000000 0.000000 0.000000 -0.337562
    4 22.146629 -0.000001 0.000000 -0.486462 -0.345732 0.137780
    5 0.000008 -0.000006 -5.615750 0.747068 2.865125 0.020471
    6 15.693467 0.000000 0.000000 0.000000 0.000000 -0.297448
    7 22.146629 0.000000 0.000000 0.121607 -0.139667 0.046638
    8 1.384163 -0.004728 0.000002 -0.068314 -0.107666 -0.228013
    9 5.939814 -0.004730 0.000000 -0.059767 0.016395 0.204320
    10 5.939809 -0.003975 0.000000 0.034436 -0.086517 0.167164
    11 4.991439 -0.003975 0.000000 0.000023 0.056280 -0.021829
    12 4.991436 -0.001575 0.000000 0.000000 0.000000 0.000000
    13 1.977383 0.000000 0.000000 0.196755 -0.061033 -0.067078
    14 3.723980 2.768055 -0.395205 0.000000 -3.141591 -1.570795
    15 2.863741 -0.721077 0.000003 0.000000 0.000000 0.000000
    16 0.000005 0.001564 3.638375 -0.000010 -1.187600 3.140806
    17 8.842831 0.000000 -0.000001 -0.276144 0.614079 -0.255082
    18 9.341934 0.000000 -0.000002 0.000000 0.000000 -0.002503
    19 9.664096 0.000000 0.000003 -3.820704 -0.067348 -0.376995
    20 0.000005 0.001585 -3.638375 -0.000010 1.013162 3.140787
    21 8.842831 0.000000 0.000001 -0.223829 -0.577193 -0.388876
    22 9.341934 0.000000 -0.000001 0.000000 0.000000 -0.002530
    23 9.664095 0.000000 -0.000002 3.067055 -0.307738 -0.068916
    24 6.829857 -0.000001 0.000000 0.001241 0.000000 0.000000
    25 7.919290 -0.636890 0.610527 -1.520273 -0.091531 1.564919
    26 2.515638 0.482270 0.379719 1.593351 0.004972 0.082565
    27 2.687324 0.164273 -1.706054 0.139179 -0.015749 1.668336
  time 32
    0 -0.088816 -0.649028 6.337786 1.449324 1.495573 -1.615906
    1 0.114604 -0.988310 9.745319 -1.570795 -1.570451 0.000000
    2 -0.000008 0.000010 5.615750 0.004699 3.076784 -0.081196
    3 15.693467 0.000000 0.000000 0.000000 0.000000 -0.272316
    4 22.146629 -0.000001 0.000000 -0.581123 -0.330411 0.144251
    5 0.000008 -0.000006 -5.615750 0.747068 2.865125 0.020471
    6 15.693467 0.000000 0.000000 0.000000 0.000000 -0.132761
    7 22.146629 0.000000 0.000000 0.066365 -0.138734 -0.017354
    8 1.384163 -0.004728 0.000002 -0.068314 -0.107666 -0.228013
    9 5.939814 -0.004730 0.000000 -0.059767 0.016395 0.204320
    10 5.939809 -0.003975 0.000000 0.034436 -0.086517 0.167164
    11 4.991439 -0.003975 0.000000 0.000023 0.056280 -0.021829
    12 4.991436 -0.001575 0.000000 0.000000 0.000000 0.000000
    13 1.977383 0.000000 0.000000 0.196755 -0.061033 -0.067078
    14 3.723980 2.768055 -0.395205 0.000000 -3.141591 -1.570795
    15 2.863741 -0.721077 0.000003 0.000000 0.000000 0.000000
    16 0.000005 0.001564 3.638375 -0.000010 -1.187600 3.140806
    17 8.842831 0.000000 -0.000001 -0.276144 0.614079 -0.255082
    18 9.341934 0.000000 -0.000002 0.000000 0.000000 -0.002503
    19 9.664096 0.000000 0.000003 -3.820704 -0.067348 -0.376995
    20 0.000005 0.001585 -3.638375 -0.000010 1.013162 3.140787
    21 8.842831 0.000000 0.000001 -0.223829 -0.577193 -0.388876
    22 9.341934 0.000000 -0.000001 0.000000 0.000000 -0.002530
    23 9.664095 0.000000 -0.000002 3.067055 -0.307738 -0.068916
    24 6.829857 -0.000001 0.000000 0.001241 0.000000 0.000000
    25 7.919290 -0.636890 0.610527 -1.520273 -0.091531 1.564919
    26 2.515638 0.482270 0.379719 1.593351 0.004972 0.082565
    27 2.687324 0.164273 -1.706054 0.139179 -0.015749 1.668336
end
