version 1
nodes
  0 "Bip01" -1
  1 "Bip01 Pelvis" 0
  2 "Bip01 L Thigh" 1
  3 "Bip01 L Calf" 2
  4 "Bip01 L Foot" 3
  5 "Bip01 R Thigh" 1
  6 "Bip01 R Calf" 5
  7 "Bip01 R Foot" 6
  8 "Bip01 Spine" 1
  9 "Bip01 Spine1" 8
  10 "Bip01 Spine2" 9
  11 "Bip01 Spine3" 10
  12 "Bip01 Neck" 11
  13 "Bip01 Head" 12
  14 "Bone05" 13
  15 "Bone06" 14
  16 "Bip01 L Clavicle" 12
  17 "Bip01 L UpperArm" 16
  18 "Bip01 L Forearm" 17
  19 "Bip01 L Hand" 18
  20 "Bip01 R Clavicle" 12
  21 "Bip01 R UpperArm" 20
  22 "Bip01 R Forearm" 21
  23 "Bip01 R Hand" 22
  24 "Bip01 R Finger0" 23
  25 "MP5_model" 24
  26 "Shotgun" 23
  27 "saw_world" 23
end
skeleton
  time 0
    0 -0.072231 -2.445175 25.123516 0.002972 -0.095883 -1.571131
    1 -1.600293 -2.480543 9.745319 -1.570795 -1.570451 0.000000
    2 -0.000008 0.000010 5.615750 0.035090 3.221353 -0.790504
    3 15.693467 0.000000 0.000000 0.000000 0.000000 -1.097080
    4 22.146629 -0.000001 0.000000 0.039599 -0.077643 0.210464
    5 0.000008 -0.000006 -5.615750 -0.045912 3.063080 -0.111007
    6 15.693467 0.000000 0.000000 0.000000 0.000000 -0.964739
    7 22.146629 0.000000 0.000000 0.028937 0.086240 0.760806
    8 1.384163 -0.004728 0.000002 -0.444951 -0.194297 0.130985
    9 5.939814 -0.004730 0.000000 -0.095577 -0.058509 -0.103948
    10 5.939809 -0.003975 0.000000 -0.096160 -0.075599 0.055437
    11 4.991439 -0.003975 0.000000 -0.087226 0.060306 0.042835
    12 4.991436 -0.001575 0.000000 0.000000 0.000000 0.000000
    13 1.977383 0.000000 0.000000 0.425917 0.066990 0.080232
    14 3.723980 2.768055 -0.395205 0.000000 -3.141591 -1.570795
    15 2.863741 -0.721077 0.000003 0.000000 0.000000 0.000000
    16 0.000005 0.001564 3.638375 -0.000010 -1.283530 3.140806
    17 8.842831 0.000000 -0.000001 0.118331 -0.461792 -0.541513
    18 9.341934 0.000000 -0.000002 0.000000 0.000000 -1.293048
    19 9.664096 0.000000 0.000003 -3.820704 -0.067348 -0.376995
    20 0.000005 0.001585 -3.638375 -0.000010 1.082926 3.140787
    21 8.842831 0.000000 0.000001 -0.139779 0.202887 -1.100277
    22 9.341934 0.000000 -0.000001 0.000000 0.000000 -1.219384
    23 9.664095 0.000000 -0.000002 2.840650 0.149945 0.479176
    24 6.829857 -0.000001 0.000000 0.001241 0.000000 0.000000
    25 7.919290 -0.636890 0.610527 -1.520273 -0.091531 1.564919
    26 2.515638 0.482270 0.379719 1.593351 0.004972 0.082565
    27 2.687324 0.164273 -1.706054 0.139179 -0.015749 1.668336
  time 1
    0 -0.072231 -4.618663 23.197676 0.002972 -0.219299 -1.571515
    1 -1.373723 -2.613360 9.745319 -1.570795 -1.570451 0.000000
    2 -0.000008 0.000010 5.615750 0.047937 3.221449 -0.789392
    3 15.693467 0.000000 0.000000 0.000000 0.000000 -1.267298
    4 22.146629 -0.000001 0.000000 0.042010 -0.083126 0.258702
    5 0.000008 -0.000006 -5.615750 -0.052046 3.062313 -0.083387
    6 15.693467 0.000000 0.000000 0.000000 0.000000 -1.149814
    7 22.146629 0.000000 0.000000 0.026197 0.091184 0.850423
    8 1.384163 -0.004728 0.000002 -0.444951 -0.194297 0.130985
    9 5.939814 -0.004730 0.000000 -0.095158 -0.061960 -0.140089
    10 5.939809 -0.003975 0.000000 -0.096257 -0.077684 0.033767
    11 4.991439 -0.003975 0.000000 -0.087226 0.060306 0.042835
    12 4.991436 -0.001575 0.000000 0.000000 0.000000 0.000000
    13 1.977383 0.000000 0.000000 0.424229 0.079925 0.089035
    14 3.723980 2.768055 -0.395205 0.000000 -3.141591 -1.570795
    15 2.863741 -0.721077 0.000003 0.000000 0.000000 0.000000
    16 0.000005 0.001564 3.638375 -0.000010 -1.283530 3.140806
    17 8.842831 0.000000 -0.000001 0.120869 -0.439939 -0.438447
    18 9.341934 0.000000 -0.000002 0.000000 0.000000 -1.293048
    19 9.664096 0.000000 0.000003 -3.820704 -0.067348 -0.376995
    20 0.000005 0.001585 -3.638375 -0.000010 1.082926 3.140787
    21 8.842831 0.000000 0.000001 -0.158355 0.174489 -0.999354
    22 9.341934 0.000000 -0.000001 0.000000 0.000000 -1.219384
    23 9.664095 0.000000 -0.000002 2.840650 0.149945 0.479176
    24 6.829857 -0.000001 0.000000 0.001241 0.000000 0.000000
    25 7.919290 -0.636890 0.610527 -1.520273 -0.091531 1.564919
    26 2.515638 0.482270 0.379719 1.593351 0.004972 0.082565
    27 2.687324 0.164273 -1.706054 0.139179 -0.015749 1.668336
  time 2
    0 -0.072231 -6.980822 21.693723 0.003164 -0.398906 -1.572090
    1 -1.041682 -2.800866 9.745319 -1.570795 -1.570451 0.000000
    2 -0.000008 0.000010 5.615750 0.065194 3.224517 -0.756282
    3 15.693467 0.000000 0.000000 0.000000 0.000000 -1.507745
    4 22.146629 -0.000001 0.000000 0.049584 -0.093152 0.352956
    5 0.000008 -0.000006 -5.615750 -0.054826 3.056082 0.036524
    6 15.693467 0.000000 0.000000 0.000000 0.000000 -1.343360
    7 22.146629 0.000000 0.000000 0.021146 0.099416 0.984375
    8 1.384163 -0.004728 0.000002 -0.444951 -0.194297 0.130985
    9 5.939814 -0.004730 0.000000 -0.094319 -0.066946 -0.192732
    10 5.939809 -0.003975 0.000000 -0.096312 -0.080716 0.002236
    11 4.991439 -0.003975 0.000000 -0.087226 0.060306 0.042835
    12 4.991436 -0.001575 0.000000 0.000000 0.000000 0.000000
    13 1.977383 0.000000 0.000000 0.420684 0.098573 0.101664
    14 3.723980 2.768055 -0.395205 0.000000 -3.141591 -1.570795
    15 2.863741 -0.721077 0.000003 0.000000 0.000000 0.000000
    16 0.000005 0.001564 3.638375 -0.000010 -1.283530 3.140806
    17 8.842831 0.000000 -0.000001 0.133785 -0.417541 -0.290810
    18 9.341934 0.000000 -0.000002 0.000000 0.000000 -1.293048
    19 9.664096 0.000000 0.000003 -3.820704 -0.067348 -0.376995
    20 0.000005 0.001585 -3.638375 -0.000010 1.082926 3.140787
    21 8.842831 0.000000 0.000001 -0.195834 0.142900 -0.853266
    22 9.341934 0.000000 -0.000001 0.000000 0.000000 -1.219384
    23 9.664095 0.000000 -0.000002 2.840650 0.149945 0.479176
    24 6.829857 -0.000001 0.000000 0.001241 0.000000 0.000000
    25 7.919290 -0.636890 0.610527 -1.520273 -0.091531 1.564919
    26 2.515638 0.482270 0.379719 1.593351 0.004972 0.082565
    27 2.687324 0.164273 -1.706054 0.139179 -0.015749 1.668336
  time 3
    0 -0.072231 -9.244873 20.486655 0.003547 -0.615860 -1.572953
    1 -0.643232 -3.015716 9.745319 -1.570795 -1.570451 0.000000
    2 -0.000008 0.000010 5.615750 0.084847 3.233241 -0.681267
    3 15.693467 0.000000 0.000000 0.000000 0.000000 -1.746643
    4 22.146629 -0.000001 0.000000 0.065309 -0.106450 0.449824
    5 0.000008 -0.000006 -5.615750 -0.054826 3.043141 0.230480
    6 15.693467 0.000000 0.000000 0.000000 0.000000 -1.511869
    7 22.146629 0.000000 0.000000 0.013999 0.111799 1.129975
    8 1.384163 -0.004728 0.000002 -0.444951 -0.194297 0.130985
    9 5.939814 -0.004730 0.000000 -0.092964 -0.072914 -0.256352
    10 5.939809 -0.003975 0.000000 -0.096257 -0.084384 -0.035877
    11 4.991439 -0.003975 0.000000 -0.087226 0.060306 0.042835
    12 4.991436 -0.001575 0.000000 0.000000 0.000000 0.000000
    13 1.977383 0.000000 0.000000 0.414608 0.120755 0.116644
    14 3.723980 2.768055 -0.395205 0.000000 -3.141591 -1.570795
    15 2.863741 -0.721077 0.000003 0.000000 0.000000 0.000000
    16 0.000005 0.001564 3.638375 -0.000010 -1.283530 3.140806
    17 8.842831 0.000000 -0.000001 0.159448 -0.407798 -0.115326
    18 9.341934 0.000000 -0.000002 0.000000 0.000000 -1.293048
    19 9.664096 0.000000 0.000003 -3.820704 -0.067348 -0.376995
    20 0.000005 0.001585 -3.638375 -0.000010 1.082926 3.140787
    21 8.842831 0.000000 0.000001 -0.254244 0.122862 -0.678333
    22 9.341934 0.000000 -0.000001 0.000000 0.000000 -1.219384
    23 9.664095 0.000000 -0.000002 2.840650 0.149945 0.479176
    24 6.829857 -0.000001 0.000000 0.001241 0.000000 0.000000
    25 7.919290 -0.636890 0.610527 -1.520273 -0.091531 1.564919
    26 2.515638 0.482270 0.379719 1.593351 0.004972 0.082565
    27 2.687324 0.164273 -1.706054 0.139179 -0.015749 1.668336
  time 4
    0 -0.072231 -11.139129 19.361621 0.004410 -0.850358 -1.574199
    1 -0.221344 -3.234473 9.745319 -1.570795 -1.570451 0.000000
    2 -0.000008 0.000010 5.615750 0.105939 3.248388 -0.575164
    3 15.693467 0.000000 0.000000 0.000000 0.000000 -1.940967
    4 22.146629 -0.000001 0.000000 0.090389 -0.120312 0.515579
    5 0.000008 -0.000006 -5.615750 -0.053772 3.025311 0.457356
    6 15.693467 0.000000 0.000000 0.000000 0.000000 -1.645673
    7 22.146629 0.000000 0.000000 -0.041082 0.121384 0.886968
    8 1.384163 -0.004728 0.000002 -0.444951 -0.194297 0.130985
    9 5.939814 -0.004730 0.000000 -0.091071 -0.079242 -0.325134
    10 5.939809 -0.003975 0.000000 -0.096036 -0.088338 -0.077081
    11 4.991439 -0.003975 0.000000 -0.087226 0.060306 0.042835
    12 4.991436 -0.001575 0.000000 0.000000 0.000000 0.000000
    13 1.977383 0.000000 0.000000 0.405887 0.144070 0.132362
    14 3.723980 2.768055 -0.395205 0.000000 -3.141591 -1.570795
    15 2.863741 -0.721077 0.000003 0.000000 0.000000 0.000000
    16 0.000005 0.001564 3.638375 -0.000010 -1.283530 3.140806
    17 8.842831 0.000000 -0.000001 0.192838 -0.420910 0.071367
    18 9.341934 0.000000 -0.000002 0.000000 0.000000 -1.293048
    19 9.664096 0.000000 0.000003 -3.820704 -0.067348 -0.376995
    20 0.000005 0.001585 -3.638375 -0.000010 1.082926 3.140787
    21 8.842831 0.000000 0.000001 -0.327764 0.126819 -0.492734
    22 9.341934 0.000000 -0.000001 0.000000 0.000000 -1.219384
    23 9.664095 0.000000 -0.000002 2.840650 0.149945 0.479176
    24 6.829857 -0.000001 0.000000 0.001241 0.000000 0.000000
    25 7.919290 -0.636890 0.610527 -1.520273 -0.091531 1.564919
    26 2.515638 0.482270 0.379719 1.593351 0.004972 0.082565
    27 2.687324 0.164273 -1.706054 0.139179 -0.015749 1.668336
  time 5
    0 -0.072231 -12.384356 17.365466 0.005369 -0.985585 -1.575350
    1 0.020851 -3.351664 9.745319 -1.570795 -1.570451 0.000000
    2 -0.000008 0.000010 5.615750 0.125209 3.257304 -0.539476
    3 15.693467 0.000000 0.000000 0.000000 0.000000 -2.062301
    4 22.146629 -0.000001 0.000000 0.109888 -0.130432 0.537214
    5 0.000008 -0.000006 -5.615750 0.593706 2.964534 0.593217
    6 15.693467 0.000000 0.000000 0.000000 0.000000 -1.905033
    7 22.146629 0.000000 0.000000 0.073781 -0.571402 -0.353107
    8 1.384163 -0.004728 0.000002 -0.444951 -0.194297 0.130985
    9 5.939814 -0.004730 0.000000 -0.089777 -0.082826 -0.364832
    10 5.939809 -0.003975 0.000000 -0.095830 -0.090615 -0.100861
    11 4.991439 -0.003975 0.000000 -0.087226 0.060306 0.042835
    12 4.991436 -0.001575 0.000000 0.000000 0.000000 0.000000
    13 1.977383 0.000000 0.000000 0.399867 0.157161 0.141165
    14 3.723980 2.768055 -0.395205 0.000000 -3.141591 -1.570795
    15 2.863741 -0.721077 0.000003 0.000000 0.000000 0.000000
    16 0.000005 0.001564 3.638375 -0.000010 -1.283530 3.140806
    17 8.842831 0.000000 -0.000001 0.211677 -0.440030 0.177848
    18 9.341934 0.000000 -0.000002 0.000000 0.000000 -1.293048
    19 9.664096 0.000000 0.000003 -3.820704 -0.067348 -0.376995
    20 0.000005 0.001585 -3.638375 -0.000010 1.082926 3.140787
    21 8.842831 0.000000 0.000001 -0.372503 0.141943 -0.388375
    22 9.341934 0.000000 -0.000001 0.000000 0.000000 -1.219384
    23 9.664095 0.000000 -0.000002 2.840650 0.149945 0.479176
    24 6.829857 -0.000001 0.000000 0.001241 0.000000 0.000000
    25 7.919290 -0.636890 0.610527 -1.520273 -0.091531 1.564919
    26 2.515638 0.482270 0.379719 1.593351 0.004972 0.082565
    27 2.687324 0.164273 -1.706054 0.139179 -0.015749 1.668336
  time 6
    0 -0.072231 -12.135311 16.103709 0.452332 -1.112908 -2.031531
    1 -0.951835 -2.468824 9.745319 -1.570795 -1.570451 0.000000
    2 -0.000008 0.000010 5.615750 0.156655 3.078989 -0.615401
    3 15.693467 0.000000 0.000000 0.000000 0.000000 -1.888110
    4 22.146629 -0.000001 0.000000 -0.084886 -0.159592 0.271578
    5 0.000008 -0.000006 -5.615750 1.097406 2.976421 0.603613
    6 15.693467 0.000000 0.000000 0.000000 0.000000 -1.738323
    7 22.146629 0.000000 0.000000 -0.304152 -0.193071 -0.501983
    8 1.384163 -0.004728 0.000002 -0.445773 -0.202707 0.135090
    9 5.939814 -0.004730 0.000000 -0.105428 -0.003092 -0.208393
    10 5.939809 -0.003975 0.000000 -0.098089 -0.064513 0.022624
    11 4.991439 -0.003975 0.000000 -0.086154 0.070649 0.161862
    12 4.991436 -0.001575 0.000000 0.000000 0.000000 0.000000
    13 1.977383 0.000000 0.000000 0.436495 -0.034228 0.057508
    14 3.723980 2.768055 -0.395205 0.000000 -3.141591 -1.570795
    15 2.863741 -0.721077 0.000003 0.000000 0.000000 0.000000
    16 0.000005 0.001564 3.638375 0.260285 -1.274090 2.891433
    17 8.842831 0.000000 -0.000001 -0.092386 -0.024651 0.205344
    18 9.341934 0.000000 -0.000002 0.000000 0.000000 -1.293048
    19 9.664096 0.000000 0.000003 -3.820704 -0.067348 -0.376995
    20 0.000005 0.001585 -3.638375 -0.398962 1.210270 2.765065
    21 8.842831 0.000000 0.000001 0.159270 -0.084857 -0.678404
    22 9.341934 0.000000 -0.000001 0.000000 0.000000 -1.219384
    23 9.664095 0.000000 -0.000002 2.840650 0.149945 0.479176
    24 6.829857 -0.000001 0.000000 0.001241 0.000000 0.000000
    25 7.919290 -0.636890 0.610527 -1.520273 -0.091531 1.564919
    26 2.515638 0.482270 0.379719 1.593351 0.004972 0.082565
    27 2.687324 0.164273 -1.706054 0.139179 -0.015749 1.668336
  time 7
    0 -0.072231 -10.595756 13.927861 1.075608 -1.083205 -2.665372
    1 -2.119840 -1.269569 9.745319 -1.570795 -1.570451 0.000000
    2 -0.000008 0.000010 5.615750 0.171803 2.866545 -0.707249
    3 15.693467 0.000000 0.000000 0.000000 0.000000 -1.661804
    4 22.146629 -0.000001 0.000000 -0.310112 -0.205815 -0.036348
    5 0.000008 -0.000006 -5.615750 1.035869 3.010740 0.245921
    6 15.693467 0.000000 0.000000 0.000000 0.000000 -1.724380
    7 22.146629 0.000000 0.000000 -0.169567 -0.045125 -0.266330
    8 1.384163 -0.004728 0.000002 -0.446619 -0.211099 0.139194
    9 5.939814 -0.004730 0.000000 -0.107226 0.092641 -0.018740
    10 5.939809 -0.003975 0.000000 -0.096477 -0.033473 0.171297
    11 4.991439 -0.003975 0.000000 -0.083334 0.082478 0.301297
    12 4.991436 -0.001575 0.000000 0.000000 0.000000 0.000000
    13 1.977383 0.000000 0.000000 0.392384 -0.255756 -0.038455
    14 3.723980 2.768055 -0.395205 0.000000 -3.141591 -1.570795
    15 2.863741 -0.721077 0.000003 0.000000 0.000000 0.000000
    16 0.000005 0.001564 3.638375 0.533138 -1.240325 2.631706
    17 8.842831 0.000000 -0.000001 -0.491825 0.308872 -0.112699
    18 9.341934 0.000000 -0.000002 0.000000 0.000000 -1.293048
    19 9.664096 0.000000 0.000003 -3.820704 -0.067348 -0.376995
    20 0.000005 0.001585 -3.638375 -1.111574 1.232468 2.052817
    21 8.842831 0.000000 0.000001 0.650360 0.080489 -1.128407
    22 9.341934 0.000000 -0.000001 0.000000 0.000000 -1.219384
    23 9.664095 0.000000 -0.000002 2.840650 0.149945 0.479176
    24 6.829857 -0.000001 0.000000 0.001241 0.000000 0.000000
    25 7.919290 -0.636890 0.610527 -1.520273 -0.091531 1.564919
    26 2.515638 0.482270 0.379719 1.593351 0.004972 0.082565
    27 2.687324 0.164273 -1.706054 0.139179 -0.015749 1.668336
  time 8
    0 -0.072231 -9.056202 11.173871 1.416823 -0.960398 -3.014842
    1 -2.822986 -0.125003 9.745319 -1.570795 -1.570451 0.000000
    2 -0.000008 0.000010 5.615750 0.171228 2.703761 -0.776249
    3 15.693467 0.000000 0.000000 0.000000 0.000000 -1.486603
    4 22.146629 -0.000001 0.000000 -0.400502 -0.249238 -0.262570
    5 0.000008 -0.000006 -5.615750 0.916055 3.083786 -0.074673
    6 15.693467 0.000000 0.000000 0.000000 0.000000 -1.738323
    7 22.146629 0.000000 0.000000 0.049868 -0.101491 -0.102966
    8 1.384163 -0.004728 0.000002 -0.444951 -0.194297 0.130985
    9 5.939814 -0.004730 0.000000 -0.096128 0.165339 0.128654
    10 5.939809 -0.003975 0.000000 -0.092111 -0.009995 0.285600
    11 4.991439 -0.003975 0.000000 -0.080072 0.091227 0.408363
    12 4.991436 -0.001575 0.000000 0.000000 0.000000 0.000000
    13 1.977383 0.000000 0.000000 0.269391 -0.374888 -0.075098
    14 3.723980 2.768055 -0.395205 0.000000 -3.141591 -1.570795
    15 2.863741 -0.721077 0.000003 0.000000 0.000000 0.000000
    16 0.000005 0.001564 3.638375 0.774354 -1.178896 2.405727
    17 8.842831 0.000000 -0.000001 -0.756576 0.342562 -0.550796
    18 9.341934 0.000000 -0.000002 0.000000 0.000000 -1.293048
    19 9.664096 0.000000 0.000003 -3.820704 -0.067348 -0.376995
    20 0.000005 0.001585 -3.638375 -1.538989 1.082102 1.606013
    21 8.842831 0.000000 0.000001 0.839195 0.456617 -1.323597
    22 9.341934 0.000000 -0.000001 0.000000 0.000000 -1.219384
    23 9.664095 0.000000 -0.000002 2.840650 0.149945 0.479176
    24 6.829857 -0.000001 0.000000 0.001241 0.000000 0.000000
    25 7.919290 -0.636890 0.610527 -1.520273 -0.091531 1.564919
    26 2.515638 0.482270 0.379719 1.593351 0.004972 0.082565
    27 2.687324 0.164273 -1.706054 0.139179 -0.015749 1.668336
  time 9
    0 -0.072231 -9.056202 8.572229 1.462842 -0.934256 -3.062397
    1 -2.569072 0.851589 9.745319 -1.570795 -1.570451 0.000000
    2 -0.000008 0.000010 5.615750 0.177076 2.692832 -0.772711
    3 15.693467 0.000000 0.000000 0.000000 0.000000 -1.457851
    4 22.146629 -0.000001 0.000000 -0.088083 -0.255545 -0.287408
    5 0.000008 -0.000006 -5.615750 0.907524 3.100562 -0.124206
    6 15.693467 0.000000 0.000000 0.000000 0.000000 -1.738323
    7 22.146629 0.000000 0.000000 0.028642 -0.083465 -0.265529
    8 1.384163 -0.004728 0.000002 -0.438349 -0.102036 0.086911
    9 5.939814 -0.004730 0.000000 -0.093180 0.177540 0.153704
    10 5.939809 -0.003975 0.000000 -0.091325 -0.023981 0.306566
    11 4.991439 -0.003975 0.000000 -0.079419 0.092689 0.426663
    12 4.991436 -0.001575 0.000000 0.000000 0.000000 0.000000
    13 1.977383 0.000000 0.000000 0.169354 -0.291096 -0.052098
    14 3.723980 2.768055 -0.395205 0.000000 -3.141591 -1.570795
    15 2.863741 -0.721077 0.000003 0.000000 0.000000 0.000000
    16 0.000005 0.001564 3.638375 1.010489 -1.063401 2.192595
    17 8.842831 0.000000 -0.000001 -0.533844 0.445451 -0.778032
    18 9.341934 0.000000 -0.000002 0.000000 0.000000 -1.293048
    19 9.664096 0.000000 0.000003 -3.820704 -0.067348 -0.376995
    20 0.000005 0.001585 -3.638375 -1.577888 0.819800 1.560270
    21 8.842831 0.000000 0.000001 1.259447 0.769950 -0.936080
    22 9.341934 0.000000 -0.000001 0.000000 0.000000 -1.219384
    23 9.664095 0.000000 -0.000002 2.849413 0.166617 0.534660
    24 6.829857 -0.000001 0.000000 0.001241 0.000000 0.000000
    25 7.919290 -0.636890 0.610527 -1.520273 -0.091531 1.564919
    26 2.515638 0.482270 0.379719 1.593351 0.004972 0.082565
    27 2.687324 0.164273 -1.706054 0.139179 -0.015749 1.668336
  time 10
    0 -0.072231 -9.056202 7.419850 1.416823 -0.960398 -3.014842
    1 -1.994836 1.652395 9.745319 -1.570795 -1.570451 0.000000
    2 -0.000008 0.000010 5.615750 0.187142 2.709993 -0.738388
    3 15.693467 0.000000 0.000000 0.000000 0.000000 -1.486603
    4 22.146629 -0.000001 0.000000 0.262362 -0.249238 -0.227666
    5 0.000008 -0.000006 -5.615750 0.916055 3.083786 -0.074673
    6 15.693467 0.000000 0.000000 0.000000 0.000000 -1.738323
    7 22.146629 0.000000 0.000000 -0.065317 -0.076911 -0.469951
    8 1.384163 -0.004728 0.000002 -0.435835 -0.004825 0.041456
    9 5.939814 -0.004730 0.000000 -0.096128 0.165339 0.128654
    10 5.939809 -0.003975 0.000000 -0.092111 -0.009995 0.285600
    11 4.991439 -0.003975 0.000000 -0.080072 0.091227 0.408363
    12 4.991436 -0.001575 0.000000 0.000000 0.000000 0.000000
    13 1.977383 0.000000 0.000000 0.103807 -0.164185 -0.033247
    14 3.723980 2.768055 -0.395205 0.000000 -3.141591 -1.570795
    15 2.863741 -0.721077 0.000003 0.000000 0.000000 0.000000
    16 0.000005 0.001564 3.638375 1.144807 -0.950063 2.078790
    17 8.842831 0.000000 -0.000001 -0.263736 0.547611 -0.867437
    18 9.341934 0.000000 -0.000002 0.000000 0.000000 -1.293048
    19 9.664096 0.000000 0.000003 -3.820704 -0.067348 -0.376995
    20 0.000005 0.001585 -3.638375 -1.559387 0.593827 1.590449
    21 8.842831 0.000000 0.000001 1.811301 0.872629 -0.221673
    22 9.341934 0.000000 -0.000001 0.000000 0.000000 -1.219384
    23 9.664095 0.000000 -0.000002 2.840650 0.149945 0.479176
    24 6.829857 -0.000001 0.000000 0.001241 0.000000 0.000000
    25 7.919290 -0.636890 0.610527 -1.520273 -0.091531 1.564919
    26 2.515638 0.482270 0.379719 1.593351 0.004972 0.082565
    27 2.687324 0.164273 -1.706054 0.139179 -0.015749 1.668336
  time 11
    0 -0.072231 -9.056202 9.861331 1.416823 -0.960398 -3.014842
    1 -1.686233 2.074283 9.745319 -1.570795 -1.570451 0.000000
    2 -0.000008 0.000010 5.615750 0.201619 2.585268 -0.707957
    3 15.693467 0.000000 0.000000 0.000000 0.000000 -1.486603
    4 22.146629 -0.000001 0.000000 0.172916 -0.265265 -0.192108
    5 0.000008 -0.000006 -5.615750 0.922477 3.027228 -0.000270
    6 15.693467 0.000000 0.000000 0.000000 0.000000 -1.738323
    7 22.146629 0.000000 0.000000 -0.146944 -0.133720 -0.485167
    8 1.384163 -0.004728 0.000002 -0.435835 0.007028 0.035933
    9 5.939814 -0.004730 0.000000 -0.096128 0.165339 0.128654
    10 5.939809 -0.003975 0.000000 -0.093047 0.151198 0.270613
    11 4.991439 -0.003975 0.000000 -0.080072 0.091227 0.408363
    12 4.991436 -0.001575 0.000000 0.000000 0.000000 0.000000
    13 1.977383 0.000000 0.000000 0.033027 -0.154627 -0.032924
    14 3.723980 2.768055 -0.395205 0.000000 -3.141591 -1.570795
    15 2.863741 -0.721077 0.000003 0.000000 0.000000 0.000000
    16 0.000005 0.001564 3.638375 1.159571 -0.934285 2.066902
    17 8.842831 0.000000 -0.000001 -0.328203 0.205255 -0.902989
    18 9.341934 0.000000 -0.000002 0.000000 0.000000 -1.293048
    19 9.664096 0.000000 0.000003 -3.820704 -0.067348 -0.376995
    20 0.000005 0.001585 -3.638375 -1.560051 0.563290 1.589974
    21 8.842831 0.000000 0.000001 1.617495 0.909578 0.033068
    22 9.341934 0.000000 -0.000001 0.000000 0.000000 -1.219384
    23 9.664095 0.000000 -0.000002 2.894250 -0.008662 0.038643
    24 6.829857 -0.000001 0.000000 0.001241 0.000000 0.000000
    25 7.919290 -0.636890 0.610527 -1.520273 -0.091531 1.564919
    26 2.515638 0.482270 0.379719 1.593351 0.004972 0.082565
    27 2.687324 0.164273 -1.706054 0.139179 -0.015749 1.668336
  time 12
    0 -0.072231 -9.056202 12.248123 1.416823 -0.960398 -3.014842
    1 -1.526071 2.187568 9.745319 -1.570795 -1.570451 0.000000
    2 -0.000008 0.000010 5.615750 0.214562 2.487675 -0.685614
    3 15.693467 0.000000 0.000000 0.000000 0.000000 -1.486603
    4 22.146629 -0.000001 0.000000 0.029038 -0.274962 -0.166943
    5 0.000008 -0.000006 -5.615750 0.930432 2.983707 0.058233
    6 15.693467 0.000000 0.000000 0.000000 0.000000 -1.738323
    7 22.146629 0.000000 0.000000 -0.200332 -0.174555 -0.452989
    8 1.384163 -0.004728 0.000002 -0.435835 -0.004825 0.041456
    9 5.939814 -0.004730 0.000000 -0.096128 0.165339 0.128654
    10 5.939809 -0.003975 0.000000 -0.095527 0.276568 0.258491
    11 4.991439 -0.003975 0.000000 -0.080072 0.091227 0.408363
    12 4.991436 -0.001575 0.000000 0.000000 0.000000 0.000000
    13 1.977383 0.000000 0.000000 -0.005458 -0.096684 -0.034491
    14 3.723980 2.768055 -0.395205 0.000000 -3.141591 -1.570795
    15 2.863741 -0.721077 0.000003 0.000000 0.000000 0.000000
    16 0.000005 0.001564 3.638375 1.144807 -0.950063 2.078790
    17 8.842831 0.000000 -0.000001 -0.461086 -0.061982 -0.834775
    18 9.341934 0.000000 -0.000002 0.000000 0.000000 -1.293048
    19 9.664096 0.000000 0.000003 -3.820704 -0.067348 -0.376995
    20 0.000005 0.001585 -3.638375 -1.559387 0.593827 1.590449
    21 8.842831 0.000000 0.000001 1.345721 0.958589 0.097058
    22 9.341934 0.000000 -0.000001 0.000000 0.000000 -1.219384
    23 9.664095 0.000000 -0.000002 2.836389 -0.140973 -0.392316
    24 6.829857 -0.000001 0.000000 0.001241 0.000000 0.000000
    25 7.919290 -0.636890 0.610527 -1.520273 -0.091531 1.564919
    26 2.515638 0.482270 0.379719 1.593351 0.004972 0.082565
    27 2.687324 0.164273 -1.706054 0.139179 -0.015749 1.668336
  time 13
    0 -0.072231 -9.056202 10.693388 1.416823 -0.960398 -3.014842
    1 -1.705764 1.996156 9.745319 -1.570795 -1.570451 0.000000
    2 -0.000008 0.000010 5.615750 0.202194 2.570888 -0.707148
    3 15.693467 0.000000 0.000000 0.000000 0.000000 -1.486603
    4 22.146629 -0.000001 0.000000 0.116911 -0.266936 -0.190474
    5 0.000008 -0.000006 -5.615750 0.923435 3.020997 0.008037
    6 15.693467 0.000000 0.000000 0.000000 0.000000 -1.738323
    7 22.146629 0.000000 0.000000 -0.149309 -0.138221 -0.460924
    8 1.384163 -0.004728 0.000002 -0.435835 -0.004825 0.041456
    9 5.939814 -0.004730 0.000000 -0.096128 0.165339 0.128654
    10 5.939809 -0.003975 0.000000 -0.093295 0.169115 0.268918
    11 4.991439 -0.003975 0.000000 -0.080072 0.091227 0.408363
    12 4.991436 -0.001575 0.000000 0.000000 0.000000 0.000000
    13 1.977383 0.000000 0.000000 0.034827 0.167296 -0.018820
    14 3.723980 2.768055 -0.395205 0.000000 -3.141591 -1.570795
    15 2.863741 -0.721077 0.000003 0.000000 0.000000 0.000000
    16 0.000005 0.001564 3.638375 1.144807 -0.950063 2.078790
    17 8.842831 0.000000 -0.000001 -0.375919 0.159820 -0.876807
    18 9.341934 0.000000 -0.000002 0.000000 0.000000 -1.293048
    19 9.664096 0.000000 0.000003 -3.820704 -0.067348 -0.376995
    20 0.000005 0.001585 -3.638375 -1.559387 0.593827 1.590449
    21 8.842831 0.000000 0.000001 1.501983 0.902814 -0.036790
    22 9.341934 0.000000 -0.000001 0.000000 0.000000 -1.219384
    23 9.664095 0.000000 -0.000002 2.246488 -0.182357 -0.354259
    24 6.829857 -0.000001 0.000000 0.001241 0.000000 0.000000
    25 7.919290 -0.636890 0.610527 -1.520273 -0.091531 1.564919
    26 2.515638 0.482270 0.379719 1.593351 0.004972 0.082565
    27 2.687324 0.164273 -1.706054 0.139179 -0.015749 1.668336
  time 14
    0 -0.072231 -9.056202 8.013618 1.416823 -0.960398 -3.014842
    1 -1.994836 1.652395 9.745319 -1.570795 -1.570451 0.000000
    2 -0.000008 0.000010 5.615750 0.187142 2.709993 -0.738388
    3 15.693467 0.000000 0.000000 0.000000 0.000000 -1.486603
    4 22.146629 -0.000001 0.000000 0.262362 -0.249238 -0.227666
    5 0.000008 -0.000006 -5.615750 0.916055 3.083786 -0.074673
    6 15.693467 0.000000 0.000000 0.000000 0.000000 -1.738323
    7 22.146629 0.000000 0.000000 -0.065317 -0.076911 -0.469951
    8 1.384163 -0.004728 0.000002 -0.435835 -0.004825 0.041456
    9 5.939814 -0.004730 0.000000 -0.096128 0.165339 0.128654
    10 5.939809 -0.003975 0.000000 -0.092111 -0.009995 0.285600
    11 4.991439 -0.003975 0.000000 -0.080072 0.091227 0.408363
    12 4.991436 -0.001575 0.000000 0.000000 0.000000 0.000000
    13 1.977383 0.000000 0.000000 0.116466 0.495310 0.039302
    14 3.723980 2.768055 -0.395205 0.000000 -3.141591 -1.570795
    15 2.863741 -0.721077 0.000003 0.000000 0.000000 0.000000
    16 0.000005 0.001564 3.638375 1.144807 -0.950063 2.078790
    17 8.842831 0.000000 -0.000001 -0.263736 0.547611 -0.867437
    18 9.341934 0.000000 -0.000002 0.000000 0.000000 -1.293048
    19 9.664096 0.000000 0.000003 -3.820704 -0.067348 -0.376995
    20 0.000005 0.001585 -3.638375 -1.559387 0.593827 1.590449
    21 8.842831 0.000000 0.000001 1.811301 0.872629 -0.221673
    22 9.341934 0.000000 -0.000001 0.000000 0.000000 -1.219384
    23 9.664095 0.000000 -0.000002 1.481502 -0.081490 -0.208712
    24 6.829857 -0.000001 0.000000 0.001241 0.000000 0.000000
    25 7.919290 -0.636890 0.610527 -1.520273 -0.091531 1.564919
    26 2.515638 0.482270 0.379719 1.593351 0.004972 0.082565
    27 2.687324 0.164273 -1.706054 0.139179 -0.015749 1.668336
end
