version 1
nodes
  0 "Bip01" -1
  1 "Bip01 Pelvis" 0
  2 "Bip01 L Thigh" 1
  3 "Bip01 L Calf" 2
  4 "Bip01 L Foot" 3
  5 "Bip01 R Thigh" 1
  6 "Bip01 R Calf" 5
  7 "Bip01 R Foot" 6
  8 "Bip01 Spine" 1
  9 "Bip01 Spine1" 8
  10 "Bip01 Spine2" 9
  11 "Bip01 Spine3" 10
  12 "Bip01 Neck" 11
  13 "Bip01 Head" 12
  14 "Bone05" 13
  15 "Bone06" 14
  16 "Bip01 L Clavicle" 12
  17 "Bip01 L UpperArm" 16
  18 "Bip01 L Forearm" 17
  19 "Bip01 L Hand" 18
  20 "Bip01 R Clavicle" 12
  21 "Bip01 R UpperArm" 20
  22 "Bip01 R Forearm" 21
  23 "Bip01 R Hand" 22
  24 "Bip01 R Finger0" 23
  25 "MP5_model" 24
  26 "Shotgun" 23
  27 "saw_world" 23
end
skeleton
  time 0
    0 17.492130 17.999202 14.158337 0.000000 0.000000 -2.556935
    1 -0.526041 0.000001 9.745319 -1.570795 -1.570451 0.000000
    2 -0.000008 0.000010 5.615750 3.050060 5.917356 1.505347
    3 15.693467 0.000000 0.000000 0.000000 0.000000 -1.656686
    4 22.146629 -0.000001 0.000000 -0.381685 0.143918 0.096928
    5 0.000008 -0.000006 -5.615750 2.881971 0.693662 1.533033
    6 15.693467 0.000000 0.000000 0.000000 0.000000 -1.551298
    7 22.146629 0.000000 0.000000 0.457813 0.180408 0.068186
    8 1.384163 -0.004728 0.000002 -0.000004 -0.000001 0.061863
    9 5.939814 -0.004730 0.000000 -0.138374 0.012188 0.226521
    10 5.939809 -0.003975 0.000000 -0.061076 0.000048 0.183256
    11 4.991439 -0.003975 0.000000 -0.061079 0.000048 0.244333
    12 4.991436 -0.001575 0.000000 0.000000 0.000000 0.000000
    13 1.977383 0.000000 0.000000 -0.083045 0.032006 -0.307863
    14 3.723980 2.768055 -0.395205 0.000000 -3.141591 -1.570795
    15 2.863741 -0.721077 0.000003 0.000000 0.000000 0.000000
    16 0.000005 0.001564 3.638375 1.189004 -1.297599 1.965082
    17 8.842831 0.000000 -0.000001 -0.236211 0.552164 0.173558
    18 9.341934 0.000000 -0.000002 0.000000 0.000000 -1.874278
    19 9.664096 0.000000 0.000003 -1.323726 0.961493 0.605566
    20 0.000005 0.001585 -3.638375 0.951404 1.126223 4.043126
    21 8.842831 0.000000 0.000001 0.184911 -0.936027 -0.621930
    22 9.341934 0.000000 -0.000001 0.000000 0.000000 -1.515049
    23 9.664095 0.000000 -0.000002 0.401458 -0.230711 -0.066161
    24 6.829857 -0.000001 0.000000 0.001241 0.000000 0.000000
    25 7.919290 -0.636890 0.610527 -1.520273 -0.091531 1.564919
    26 2.515638 0.482270 0.379719 1.593351 0.004972 0.082565
    27 2.687324 0.164273 -1.706054 0.139179 -0.015749 1.668336
  time 1
    0 17.392616 17.825625 14.466940 0.000000 0.000000 -2.556935
    1 -0.526041 0.000001 9.745319 -1.570795 -1.570451 0.000000
    2 -0.000008 0.000010 5.615750 3.053416 5.941419 1.495894
    3 15.693467 0.000000 0.000000 0.000000 0.000000 -1.615546
    4 22.146629 -0.000001 0.000000 -0.372014 0.153049 0.077515
    5 0.000008 -0.000006 -5.615750 2.886092 0.644485 1.510254
    6 15.693467 0.000000 0.000000 0.000000 0.000000 -1.563442
    7 22.146629 0.000000 0.000000 0.446959 0.150791 0.088570
    8 1.384163 -0.004728 0.000002 -0.000850 0.000017 0.095542
    9 5.939814 -0.004730 0.000000 -0.140927 -0.000360 0.139190
    10 5.939809 -0.003975 0.000000 -0.063322 -0.004278 0.115031
    11 4.991439 -0.003975 0.000000 -0.061056 -0.001858 0.213175
    12 4.991436 -0.001575 0.000000 0.000000 0.000000 0.000000
    13 1.977383 0.000000 0.000000 -0.079107 0.020048 -0.214526
    14 3.723980 2.768055 -0.395205 0.000000 -3.141591 -1.570795
    15 2.863741 -0.721077 0.000003 0.000000 0.000000 0.000000
    16 0.000005 0.001564 3.638375 0.965237 -1.389426 2.183391
    17 8.842831 0.000000 -0.000001 0.069205 0.608069 0.321370
    18 9.341934 0.000000 -0.000002 0.000000 0.000000 -1.753010
    19 9.664096 0.000000 0.000003 -1.324345 0.859967 0.688098
    20 0.000005 0.001585 -3.638375 0.799697 1.193116 3.903903
    21 8.842831 0.000000 0.000001 0.013605 -0.959192 -0.445923
    22 9.341934 0.000000 -0.000001 0.000000 0.000000 -1.469094
    23 9.664095 0.000000 -0.000002 0.388193 -0.253205 -0.010711
    24 6.829857 -0.000001 0.000000 0.001241 0.000000 0.000000
    25 7.919290 -0.636890 0.610527 -1.520273 -0.091531 1.564919
    26 2.515638 0.482270 0.379719 1.593351 0.004972 0.082565
    27 2.687324 0.164273 -1.706054 0.139179 -0.015749 1.668336
  time 2
    0 17.326272 17.682235 14.767731 0.000000 0.000000 -2.556935
    1 -0.526041 0.000001 9.745319 -1.570795 -1.570451 0.000000
    2 -0.000008 0.000010 5.615750 3.056484 5.966537 1.482043
    3 15.693467 0.000000 0.000000 0.000000 0.000000 -1.574809
    4 22.146629 -0.000001 0.000000 -0.364388 0.165547 0.059213
    5 0.000008 -0.000006 -5.615750 2.886380 0.595212 1.479779
    6 15.693467 0.000000 0.000000 0.000000 0.000000 -1.583306
    7 22.146629 0.000000 0.000000 0.439462 0.120264 0.113541
    8 1.384163 -0.004728 0.000002 -0.001818 0.000089 0.131407
    9 5.939814 -0.004730 0.000000 -0.142473 -0.014501 0.042317
    10 5.939809 -0.003975 0.000000 -0.065457 -0.009288 0.038716
    11 4.991439 -0.003975 0.000000 -0.060939 -0.004027 0.177516
    12 4.991436 -0.001575 0.000000 0.000000 0.000000 0.000000
    13 1.977383 0.000000 0.000000 -0.074943 0.005801 -0.115429
    14 3.723980 2.768055 -0.395205 0.000000 -3.141591 -1.570795
    15 2.863741 -0.721077 0.000003 0.000000 0.000000 0.000000
    16 0.000005 0.001564 3.638375 0.331422 -1.460848 2.811281
    17 8.842831 0.000000 -0.000001 0.411283 0.579479 0.502984
    18 9.341934 0.000000 -0.000002 0.000000 0.000000 -1.622629
    19 9.664096 0.000000 0.000003 -1.333021 0.750743 0.779896
    20 0.000005 0.001585 -3.638375 0.587650 1.250171 3.704512
    21 8.842831 0.000000 0.000001 -0.194330 -0.996524 -0.230763
    22 9.341934 0.000000 -0.000001 0.000000 0.000000 -1.429830
    23 9.664095 0.000000 -0.000002 0.372768 -0.276016 0.048183
    24 6.829857 -0.000001 0.000000 0.001241 0.000000 0.000000
    25 7.919290 -0.636890 0.610527 -1.520273 -0.091531 1.564919
    26 2.515638 0.482270 0.379719 1.593351 0.004972 0.082565
    27 2.687324 0.164273 -1.706054 0.139179 -0.015749 1.668336
  time 3
    0 17.293101 17.561485 15.060709 0.000000 0.000000 -2.556935
    1 -0.526041 0.000001 9.745319 -1.570795 -1.570451 0.000000
    2 -0.000008 0.000010 5.615750 3.059072 5.991942 1.467232
    3 15.693467 0.000000 0.000000 0.000000 0.000000 -1.534072
    4 22.146629 -0.000001 0.000000 -0.356814 0.179126 0.041042
    5 0.000008 -0.000006 -5.615750 2.887147 0.545939 1.448235
    6 15.693467 0.000000 0.000000 0.000000 0.000000 -1.605119
    7 22.146629 0.000000 0.000000 0.431724 0.089598 0.138802
    8 1.384163 -0.004728 0.000002 -0.002591 0.000178 0.162938
    9 5.939814 -0.004730 0.000000 -0.142736 -0.025911 -0.035395
    10 5.939809 -0.003975 0.000000 -0.066917 -0.013351 -0.021381
    11 4.991439 -0.003975 0.000000 -0.060823 -0.005657 0.150858
    12 4.991436 -0.001575 0.000000 0.000000 0.000000 0.000000
    13 1.977383 0.000000 0.000000 -0.072299 -0.006268 -0.060164
    14 3.723980 2.768055 -0.395205 0.000000 -3.141591 -1.570795
    15 2.863741 -0.721077 0.000003 0.000000 0.000000 0.000000
    16 0.000005 0.001564 3.638375 -0.613404 -1.443808 3.750384
    17 8.842831 0.000000 -0.000001 0.669660 0.490157 0.627241
    18 9.341934 0.000000 -0.000002 0.000000 0.000000 -1.496768
    19 9.664096 0.000000 0.000003 -1.354266 0.646456 0.856626
    20 0.000005 0.001585 -3.638375 0.308146 1.288574 3.437454
    21 8.842831 0.000000 0.000001 -0.346013 -1.030793 -0.061628
    22 9.341934 0.000000 -0.000001 0.000000 0.000000 -1.387186
    23 9.664095 0.000000 -0.000002 0.356322 -0.297401 0.106422
    24 6.829857 -0.000001 0.000000 0.001241 0.000000 0.000000
    25 7.919290 -0.636890 0.610527 -1.520273 -0.091531 1.564919
    26 2.515638 0.482270 0.379719 1.593351 0.004972 0.082565
    27 2.687324 0.164273 -1.706054 0.139179 -0.015749 1.668336
  time 4
    0 17.276515 17.448283 15.345873 0.000000 0.000000 -2.556935
    1 -0.526041 0.000001 9.745319 -1.570795 -1.570451 0.000000
    2 -0.000008 0.000010 5.615750 3.061373 6.016867 1.454848
    3 15.693467 0.000000 0.000000 0.000000 0.000000 -1.493201
    4 22.146629 -0.000001 0.000000 -0.347589 0.191365 0.022087
    5 0.000008 -0.000006 -5.615750 2.891939 0.496858 1.421430
    6 15.693467 0.000000 0.000000 0.000000 0.000000 -1.623110
    7 22.146629 0.000000 0.000000 0.420466 0.059631 0.159842
    8 1.384163 -0.004728 0.000002 -0.002906 0.000232 0.183652
    9 5.939814 -0.004730 0.000000 -0.142641 -0.030321 -0.065321
    10 5.939809 -0.003975 0.000000 -0.067523 -0.014729 -0.041015
    11 4.991439 -0.003975 0.000000 -0.060800 -0.005908 0.146701
    12 4.991436 -0.001575 0.000000 0.000000 0.000000 0.000000
    13 1.977383 0.000000 0.000000 -0.072805 -0.011891 -0.098329
    14 3.723980 2.768055 -0.395205 0.000000 -3.141591 -1.570795
    15 2.863741 -0.721077 0.000003 0.000000 0.000000 0.000000
    16 0.000005 0.001564 3.638375 -1.009934 -1.376988 4.142228
    17 8.842831 0.000000 -0.000001 0.794478 0.430245 0.668661
    18 9.341934 0.000000 -0.000002 0.000000 0.000000 -1.389130
    19 9.664096 0.000000 0.000003 -1.384541 0.559414 0.899309
    20 0.000005 0.001585 -3.638375 -0.010067 1.301183 3.131012
    21 8.842831 0.000000 0.000001 -0.317691 -1.053000 -0.064133
    22 9.341934 0.000000 -0.000001 0.000000 0.000000 -1.331230
    23 9.664095 0.000000 -0.000002 0.340236 -0.315896 0.159599
    24 6.829857 -0.000001 0.000000 0.001241 0.000000 0.000000
    25 7.919290 -0.636890 0.610527 -1.520273 -0.091531 1.564919
    26 2.515638 0.482270 0.379719 1.593351 0.004972 0.082565
    27 2.687324 0.164273 -1.706054 0.139179 -0.015749 1.668336
  time 5
    0 17.259929 17.342627 15.627132 0.000000 0.000000 -2.556935
    1 -0.526041 0.000001 9.745319 -1.570795 -1.570451 0.000000
    2 -0.000008 0.000010 5.615750 3.063674 6.040547 1.448226
    3 15.693467 0.000000 0.000000 0.000000 0.000000 -1.451926
    4 22.146629 -0.000001 0.000000 -0.335350 0.199790 0.001563
    5 0.000008 -0.000006 -5.615750 2.903346 0.448160 1.404256
    6 15.693467 0.000000 0.000000 0.000000 0.000000 -1.631430
    7 22.146629 0.000000 0.000000 0.402545 0.031250 0.172290
    8 1.384163 -0.004728 0.000002 -0.002930 0.000250 0.195006
    9 5.939814 -0.004730 0.000000 -0.143072 -0.028439 -0.051936
    10 5.939809 -0.003975 0.000000 -0.067798 -0.013650 -0.024886
    11 4.991439 -0.003975 0.000000 -0.060869 -0.004962 0.162296
    12 4.991436 -0.001575 0.000000 0.000000 0.000000 0.000000
    13 1.977383 0.000000 0.000000 -0.075956 -0.011046 -0.208442
    14 3.723980 2.768055 -0.395205 0.000000 -3.141591 -1.570795
    15 2.863741 -0.721077 0.000003 0.000000 0.000000 0.000000
    16 0.000005 0.001564 3.638375 -1.142238 -1.324658 4.271373
    17 8.842831 0.000000 -0.000001 0.823638 0.438804 0.664370
    18 9.341934 0.000000 -0.000002 0.000000 0.000000 -1.313346
    19 9.664096 0.000000 0.000003 -1.417383 0.500499 0.888694
    20 0.000005 0.001585 -3.638375 -0.303517 1.288699 2.848580
    21 8.842831 0.000000 0.000001 -0.136574 -1.023199 -0.215303
    22 9.341934 0.000000 -0.000001 0.000000 0.000000 -1.251890
    23 9.664095 0.000000 -0.000002 0.326430 -0.330232 0.203132
    24 6.829857 -0.000001 0.000000 0.001241 0.000000 0.000000
    25 7.919290 -0.636890 0.610527 -1.520273 -0.091531 1.564919
    26 2.515638 0.482270 0.379719 1.593351 0.004972 0.082565
    27 2.687324 0.164273 -1.706054 0.139179 -0.015749 1.668336
  time 6
    0 17.226758 17.229425 15.900578 0.000000 0.000000 -2.556935
    1 -0.526041 0.000001 9.745319 -1.570795 -1.570451 0.000000
    2 -0.000008 0.000010 5.615750 3.066263 6.062309 1.450602
    3 15.693467 0.000000 0.000000 0.000000 0.000000 -1.410045
    4 22.146629 -0.000001 0.000000 -0.318918 0.201885 -0.021249
    5 0.000008 -0.000006 -5.615750 2.923570 0.400133 1.401351
    6 15.693467 0.000000 0.000000 0.000000 0.000000 -1.624309
    7 22.146629 0.000000 0.000000 0.375005 0.005107 0.171635
    8 1.384163 -0.004728 0.000002 -0.002930 0.000286 0.203138
    9 5.939814 -0.004730 0.000000 -0.143911 -0.024161 -0.021876
    10 5.939809 -0.003975 0.000000 -0.068225 -0.011673 0.003945
    11 4.991439 -0.003975 0.000000 -0.060963 -0.003583 0.184752
    12 4.991436 -0.001575 0.000000 0.000000 0.000000 0.000000
    13 1.977383 0.000000 0.000000 -0.079726 -0.006112 -0.323257
    14 3.723980 2.768055 -0.395205 0.000000 -3.141591 -1.570795
    15 2.863741 -0.721077 0.000003 0.000000 0.000000 0.000000
    16 0.000005 0.001564 3.638375 -1.193626 -1.292050 4.320749
    17 8.842831 0.000000 -0.000001 0.817828 0.479413 0.646681
    18 9.341934 0.000000 -0.000002 0.000000 0.000000 -1.268083
    19 9.664096 0.000000 0.000003 -1.456068 0.467144 0.824153
    20 0.000005 0.001585 -3.638375 -0.485584 1.266301 2.674433
    21 8.842831 0.000000 0.000001 -0.064231 -0.770553 -0.220385
    22 9.341934 0.000000 -0.000001 0.000000 0.000000 -1.032591
    23 9.664095 0.000000 -0.000002 0.324270 -0.332370 0.209711
    24 6.829857 -0.000001 0.000000 0.001241 0.000000 0.000000
    25 7.919290 -0.636890 0.610527 -1.520273 -0.091531 1.564919
    26 2.515638 0.482270 0.379719 1.593351 0.004972 0.082565
    27 2.687324 0.164273 -1.706054 0.139179 -0.015749 1.668336
  time 7
    0 17.177000 17.101128 16.174024 0.000000 0.000000 -2.556935
    1 -0.526041 0.000001 9.745319 -1.570795 -1.570451 0.000000
    2 -0.000008 0.000010 5.615750 3.069810 6.081195 1.465362
    3 15.693467 0.000000 0.000000 0.000000 0.000000 -1.367221
    4 22.146629 -0.000001 0.000000 -0.297140 0.195272 -0.047263
    5 0.000008 -0.000006 -5.615750 2.953955 0.352298 1.416843
    6 15.693467 0.000000 0.000000 0.000000 0.000000 -1.595974
    7 22.146629 0.000000 0.000000 0.334997 -0.018447 0.153290
    8 1.384163 -0.004728 0.000002 -0.002930 0.000304 0.208853
    9 5.939814 -0.004730 0.000000 -0.144774 -0.018109 0.020269
    10 5.939809 -0.003975 0.000000 -0.068597 -0.009024 0.042334
    11 4.991439 -0.003975 0.000000 -0.061056 -0.001894 0.212412
    12 4.991436 -0.001575 0.000000 0.000000 0.000000 0.000000
    13 1.977383 0.000000 0.000000 -0.083889 0.003334 -0.423415
    14 3.723980 2.768055 -0.395205 0.000000 -3.141591 -1.570795
    15 2.863741 -0.721077 0.000003 0.000000 0.000000 0.000000
    16 0.000005 0.001564 3.638375 -1.219991 -1.266648 4.345293
    17 8.842831 0.000000 -0.000001 0.793181 0.537231 0.615858
    18 9.341934 0.000000 -0.000002 0.000000 0.000000 -1.239785
    19 9.664096 0.000000 0.000003 -1.502985 0.445286 0.726733
    20 0.000005 0.001585 -3.638375 -0.585583 1.247574 2.579435
    21 8.842831 0.000000 0.000001 -0.000981 -0.542030 -0.200415
    22 9.341934 0.000000 -0.000001 0.000000 0.000000 -0.854111
    23 9.664095 0.000000 -0.000002 0.331952 -0.324648 0.185843
    24 6.829857 -0.000001 0.000000 0.001241 0.000000 0.000000
    25 7.919290 -0.636890 0.610527 -1.520273 -0.091531 1.564919
    26 2.515638 0.482270 0.379719 1.593351 0.004972 0.082565
    27 2.687324 0.164273 -1.706054 0.139179 -0.015749 1.668336
  time 8
    0 17.110657 16.950192 16.447470 0.000000 0.000000 -2.556935
    1 -0.526041 0.000001 9.745319 -1.570795 -1.570451 0.000000
    2 -0.000008 0.000010 5.615750 3.074891 6.096342 1.498725
    3 15.693467 0.000000 0.000000 0.000000 0.000000 -1.320828
    4 22.146629 -0.000001 0.000000 -0.266503 0.175949 -0.079749
    5 0.000008 -0.000006 -5.615750 2.999005 0.301875 1.459293
    6 15.693467 0.000000 0.000000 0.000000 0.000000 -1.533908
    7 22.146629 0.000000 0.000000 0.275725 -0.040811 0.106770
    8 1.384163 -0.004728 0.000002 -0.002833 0.000322 0.212842
    9 5.939814 -0.004730 0.000000 -0.145289 -0.010918 0.069987
    10 5.939809 -0.003975 0.000000 -0.068694 -0.005920 0.087131
    11 4.991439 -0.003975 0.000000 -0.061079 0.000000 0.243630
    12 4.991436 -0.001575 0.000000 0.000000 0.000000 0.000000
    13 1.977383 0.000000 0.000000 -0.087434 0.019203 -0.475222
    14 3.723980 2.768055 -0.395205 0.000000 -3.141591 -1.570795
    15 2.863741 -0.721077 0.000003 0.000000 0.000000 0.000000
    16 0.000005 0.001564 3.638375 -1.231496 -1.249081 4.355456
    17 8.842831 0.000000 -0.000001 0.749864 0.607796 0.571024
    18 9.341934 0.000000 -0.000002 0.000000 0.000000 -1.223561
    19 9.664096 0.000000 0.000003 -1.551939 0.428365 0.607725
    20 0.000005 0.001585 -3.638375 -0.668030 1.228123 2.501709
    21 8.842831 0.000000 0.000001 0.115120 -0.522758 -0.299262
    22 9.341934 0.000000 -0.000001 0.000000 0.000000 -0.866952
    23 9.664095 0.000000 -0.000002 0.340536 -0.315579 0.158600
    24 6.829857 -0.000001 0.000000 0.001241 0.000000 0.000000
    25 7.919290 -0.636890 0.610527 -1.520273 -0.091531 1.564919
    26 2.515638 0.482270 0.379719 1.593351 0.004972 0.082565
    27 2.687324 0.164273 -1.706054 0.139179 -0.015749 1.668336
  time 9
    0 16.994556 16.769068 16.717009 0.000000 0.000000 -2.556935
    1 -0.526041 0.000001 9.745319 -1.570795 -1.570451 0.000000
    2 -0.000008 0.000010 5.615750 3.081794 6.107558 1.550032
    3 15.693467 0.000000 0.000000 0.000000 0.000000 -1.270396
    4 22.146629 -0.000001 0.000000 -0.226432 0.145495 -0.119228
    5 0.000008 -0.000006 -5.615750 3.055845 0.245987 1.525797
    6 15.693467 0.000000 0.000000 0.000000 0.000000 -1.439009
    7 22.146629 0.000000 0.000000 0.197994 -0.064995 0.031495
    8 1.384163 -0.004728 0.000002 -0.002640 0.000322 0.215873
    9 5.939814 -0.004730 0.000000 -0.145193 -0.003236 0.122688
    10 5.939809 -0.003975 0.000000 -0.068363 -0.002637 0.135169
    11 4.991439 -0.003975 0.000000 -0.061033 0.002025 0.276762
    12 4.991436 -0.001575 0.000000 0.000000 0.000000 0.000000
    13 1.977383 0.000000 0.000000 -0.087659 0.041207 -0.471351
    14 3.723980 2.768055 -0.395205 0.000000 -3.141591 -1.570795
    15 2.863741 -0.721077 0.000003 0.000000 0.000000 0.000000
    16 0.000005 0.001564 3.638375 -1.233701 -1.239746 4.356606
    17 8.842831 0.000000 -0.000001 0.686073 0.685828 0.510427
    18 9.341934 0.000000 -0.000002 0.000000 0.000000 -1.214597
    19 9.664096 0.000000 0.000003 -1.596643 0.411736 0.478597
    20 0.000005 0.001585 -3.638375 -0.735866 1.207274 2.438409
    21 8.842831 0.000000 0.000001 0.234621 -0.517398 -0.430963
    22 9.341934 0.000000 -0.000001 0.000000 0.000000 -0.918989
    23 9.664095 0.000000 -0.000002 0.350319 -0.304530 0.126501
    24 6.829857 -0.000001 0.000000 0.001241 0.000000 0.000000
    25 7.919290 -0.636890 0.610527 -1.520273 -0.091531 1.564919
    26 2.515638 0.482270 0.379719 1.593351 0.004972 0.082565
    27 2.687324 0.164273 -1.706054 0.139179 -0.015749 1.668336
  time 10
    0 16.828699 16.542663 16.990455 0.000000 0.000000 -2.556935
    1 -0.526041 0.000001 9.745319 -1.570795 -1.570451 0.000000
    2 -0.000008 0.000010 5.615750 -0.051578 3.308785 -1.529637
    3 15.693467 0.000000 0.000000 0.000000 0.000000 -1.219222
    4 22.146629 -0.000001 0.000000 -0.179940 0.110004 -0.161780
    5 0.000008 -0.000006 -5.615750 -0.026166 2.956674 -1.537752
    6 15.693467 0.000000 0.000000 0.000000 0.000000 -1.325745
    7 22.146629 0.000000 0.000000 0.110349 -0.093073 -0.062417
    8 1.384163 -0.004728 0.000002 -0.002301 0.000304 0.218673
    9 5.939814 -0.004730 0.000000 -0.144330 0.004231 0.173840
    10 5.939809 -0.003975 0.000000 -0.067468 0.000551 0.183269
    11 4.991439 -0.003975 0.000000 -0.060939 0.004063 0.310133
    12 4.991436 -0.001575 0.000000 0.000000 0.000000 0.000000
    13 1.977383 0.000000 0.000000 -0.081808 0.065901 -0.431988
    14 3.723980 2.768055 -0.395205 0.000000 -3.141591 -1.570795
    15 2.863741 -0.721077 0.000003 0.000000 0.000000 0.000000
    16 0.000005 0.001564 3.638375 -1.229674 -1.238905 4.352388
    17 8.842831 0.000000 -0.000001 0.599496 0.765316 0.432142
    18 9.341934 0.000000 -0.000002 0.000000 0.000000 -1.208152
    19 9.664096 0.000000 0.000003 -1.630813 0.393029 0.351133
    20 0.000005 0.001585 -3.638375 -0.794025 1.186100 2.384693
    21 8.842831 0.000000 0.000001 0.347910 -0.506102 -0.581203
    22 9.341934 0.000000 -0.000001 0.000000 0.000000 -0.991705
    23 9.664095 0.000000 -0.000002 0.360223 -0.292609 0.093025
    24 6.829857 -0.000001 0.000000 0.001241 0.000000 0.000000
    25 7.919290 -0.636890 0.610527 -1.520273 -0.091531 1.564919
    26 2.515638 0.482270 0.379719 1.593351 0.004972 0.082565
    27 2.687324 0.164273 -1.706054 0.139179 -0.015749 1.668336
  time 11
    0 16.596497 16.263430 17.259994 0.000000 0.000000 -2.556935
    1 -0.526041 0.000001 9.745319 -1.570795 -1.570451 0.000000
    2 -0.000008 0.000010 5.615750 -0.042662 3.302266 -1.464428
    3 15.693467 0.000000 0.000000 0.000000 0.000000 -1.170541
    4 22.146629 -0.000001 0.000000 -0.130591 0.074865 -0.203351
    5 0.000008 -0.000006 -5.615750 0.028948 3.020613 -1.459222
    6 15.693467 0.000000 0.000000 0.000000 0.000000 -1.208583
    7 22.146629 0.000000 0.000000 0.021575 -0.125395 -0.163318
    8 1.384163 -0.004728 0.000002 -0.001769 0.000232 0.222087
    9 5.939814 -0.004730 0.000000 -0.142713 0.010798 0.218930
    10 5.939809 -0.003975 0.000000 -0.065911 0.003404 0.228304
    11 4.991439 -0.003975 0.000000 -0.060776 0.006016 0.342129
    12 4.991436 -0.001575 0.000000 0.000000 0.000000 0.000000
    13 1.977383 0.000000 0.000000 -0.069711 0.089038 -0.377277
    14 3.723980 2.768055 -0.395205 0.000000 -3.141591 -1.570795
    15 2.863741 -0.721077 0.000003 0.000000 0.000000 0.000000
    16 0.000005 0.001564 3.638375 -1.221813 -1.246741 4.345101
    17 8.842831 0.000000 -0.000001 0.488328 0.840525 0.335206
    18 9.341934 0.000000 -0.000002 0.000000 0.000000 -1.199411
    19 9.664096 0.000000 0.000003 -1.647987 0.372243 0.237027
    20 0.000005 0.001585 -3.638375 -0.847060 1.165325 2.335913
    21 8.842831 0.000000 0.000001 0.443406 -0.480193 -0.726504
    22 9.341934 0.000000 -0.000001 0.000000 0.000000 -1.066584
    23 9.664095 0.000000 -0.000002 0.369106 -0.281006 0.061443
    24 6.829857 -0.000001 0.000000 0.001241 0.000000 0.000000
    25 7.919290 -0.636890 0.610527 -1.520273 -0.091531 1.564919
    26 2.515638 0.482270 0.379719 1.593351 0.004972 0.082565
    27 2.687324 0.164273 -1.706054 0.139179 -0.015749 1.668336
  time 12
    0 16.297953 15.923822 17.537347 0.000000 0.000000 -2.556935
    1 -0.526041 0.000001 9.745319 -1.570795 -1.570451 0.000000
    2 -0.000008 0.000010 5.615750 -0.033746 3.296418 -1.403213
    3 15.693467 0.000000 0.000000 0.000000 0.000000 -1.127649
    4 22.146629 -0.000001 0.000000 -0.083077 0.044411 -0.239562
    5 0.000008 -0.000006 -5.615750 0.074574 3.083307 -1.389508
    6 15.693467 0.000000 0.000000 0.000000 0.000000 -1.101990
    7 22.146629 0.000000 0.000000 -0.059836 -0.159863 -0.258176
    8 1.384163 -0.004728 0.000002 -0.001020 0.000142 0.226767
    9 5.939814 -0.004730 0.000000 -0.140435 0.015796 0.253369
    10 5.939809 -0.003975 0.000000 -0.063652 0.005621 0.267096
    11 4.991439 -0.003975 0.000000 -0.060590 0.007778 0.371075
    12 4.991436 -0.001575 0.000000 0.000000 0.000000 0.000000
    13 1.977383 0.000000 0.000000 -0.054407 0.107197 -0.327590
    14 3.723980 2.768055 -0.395205 0.000000 -3.141591 -1.570795
    15 2.863741 -0.721077 0.000003 0.000000 0.000000 0.000000
    16 0.000005 0.001564 3.638375 -1.211746 -1.263545 4.336472
    17 8.842831 0.000000 -0.000001 0.353640 0.906265 0.221544
    18 9.341934 0.000000 -0.000002 0.000000 0.000000 -1.183558
    19 9.664096 0.000000 0.000003 -1.642498 0.350547 0.147569
    20 0.000005 0.001585 -3.638375 -0.898483 1.145325 2.288272
    21 8.842831 0.000000 0.000001 0.515160 -0.440947 -0.842029
    22 9.341934 0.000000 -0.000001 0.000000 0.000000 -1.124974
    23 9.664095 0.000000 -0.000002 0.376309 -0.271026 0.035026
    24 6.829857 -0.000001 0.000000 0.001241 0.000000 0.000000
    25 7.919290 -0.636890 0.610527 -1.520273 -0.091531 1.564919
    26 2.515638 0.482270 0.379719 1.593351 0.004972 0.082565
    27 2.687324 0.164273 -1.706054 0.139179 -0.015749 1.668336
  time 13
    0 15.899894 15.516293 17.814699 0.000000 0.000000 -2.556935
    1 -0.526041 0.000001 9.745319 -1.570795 -1.570451 0.000000
    2 -0.000008 0.000010 5.615750 -0.025213 3.289803 -1.353169
    3 15.693467 0.000000 0.000000 0.000000 0.000000 -1.093848
    4 22.146629 -0.000001 0.000000 -0.042849 0.021629 -0.265903
    5 0.000008 -0.000006 -5.615750 0.107259 3.138811 -1.337171
    6 15.693467 0.000000 0.000000 0.000000 0.000000 -1.020509
    7 22.146629 0.000000 0.000000 -0.126255 -0.192069 -0.333014
    8 1.384163 -0.004728 0.000002 -0.000004 -0.000001 0.233479
    9 5.939814 -0.004730 0.000000 -0.137655 0.018588 0.272625
    10 5.939809 -0.003975 0.000000 -0.060677 0.006951 0.296491
    11 4.991439 -0.003975 0.000000 -0.060380 0.009240 0.395326
    12 4.991436 -0.001575 0.000000 0.000000 0.000000 0.000000
    13 1.977383 0.000000 0.000000 -0.041129 0.118665 -0.303806
    14 3.723980 2.768055 -0.395205 0.000000 -3.141591 -1.570795
    15 2.863741 -0.721077 0.000003 0.000000 0.000000 0.000000
    16 0.000005 0.001564 3.638375 -1.201104 -1.289526 4.328227
    17 8.842831 0.000000 -0.000001 0.201750 0.959439 0.097900
    18 9.341934 0.000000 -0.000002 0.000000 0.000000 -1.155778
    19 9.664096 0.000000 0.000003 -1.609656 0.328982 0.093552
    20 0.000005 0.001585 -3.638375 -0.951424 1.126198 2.238448
    21 8.842831 0.000000 0.000001 0.566048 -0.394425 -0.905732
    22 9.341934 0.000000 -0.000001 0.000000 0.000000 -1.148492
    23 9.664095 0.000000 -0.000002 0.381111 -0.264056 0.016945
    24 6.829857 -0.000001 0.000000 0.001241 0.000000 0.000000
    25 7.919290 -0.636890 0.610527 -1.520273 -0.091531 1.564919
    26 2.515638 0.482270 0.379719 1.593351 0.004972 0.082565
    27 2.687324 0.164273 -1.706054 0.139179 -0.015749 1.668336
  time 14
    0 15.452077 15.063483 18.099864 0.000000 0.000000 -2.556935
    1 -0.526041 0.000001 9.745319 -1.570795 -1.570451 0.000000
    2 -0.000008 0.000010 5.615750 -0.019173 3.282134 -1.338358
    3 15.693467 0.000000 0.000000 0.000000 0.000000 -1.105295
    4 22.146629 -0.000001 0.000000 -0.029824 0.014239 -0.247732
    5 0.000008 -0.000006 -5.615750 0.107259 3.151752 -1.329629
    6 15.693467 0.000000 0.000000 0.000000 0.000000 -1.030104
    7 22.146629 0.000000 0.000000 -0.146595 -0.195404 -0.326098
    8 1.384163 -0.004728 0.000002 0.001398 -0.000234 0.243798
    9 5.939814 -0.004730 0.000000 -0.134096 0.018648 0.272319
    10 5.939809 -0.003975 0.000000 -0.056448 0.007311 0.318010
    11 4.991439 -0.003975 0.000000 -0.060170 0.010510 0.416347
    12 4.991436 -0.001575 0.000000 0.000000 0.000000 0.000000
    13 1.977383 0.000000 0.000000 -0.032858 0.125200 -0.302839
    14 3.723980 2.768055 -0.395205 0.000000 -3.141591 -1.570795
    15 2.863741 -0.721077 0.000003 0.000000 0.000000 0.000000
    16 0.000005 0.001564 3.638375 -1.187394 -1.326209 4.317585
    17 8.842831 0.000000 -0.000001 0.037789 0.998592 -0.030123
    18 9.341934 0.000000 -0.000002 0.000000 0.000000 -1.116071
    19 9.664096 0.000000 0.000003 -1.550788 0.305825 0.065936
    20 0.000005 0.001585 -3.638375 -1.007305 1.106398 2.185112
    21 8.842831 0.000000 0.000001 0.606667 -0.353073 -0.924700
    22 9.341934 0.000000 -0.000001 0.000000 0.000000 -1.143761
    23 9.664095 0.000000 -0.000002 0.384052 -0.259621 0.005476
    24 6.829857 -0.000001 0.000000 0.001241 0.000000 0.000000
    25 7.919290 -0.636890 0.610527 -1.520273 -0.091531 1.564919
    26 2.515638 0.482270 0.379719 1.593351 0.004972 0.082565
    27 2.687324 0.164273 -1.706054 0.139179 -0.015749 1.668336
  time 15
    0 14.971089 14.595579 18.388935 0.000000 0.000000 -2.556935
    1 -0.526041 0.000001 9.745319 -1.570795 -1.570451 0.000000
    2 -0.000008 0.000010 5.615750 -0.014763 3.274848 -1.340330
    3 15.693467 0.000000 0.000000 0.000000 0.000000 -1.141991
    4 22.146629 -0.000001 0.000000 -0.038918 0.014192 -0.202305
    5 0.000008 -0.000006 -5.615750 0.090485 3.140249 -1.338394
    6 15.693467 0.000000 0.000000 0.000000 0.000000 -1.082950
    7 22.146629 0.000000 0.000000 -0.140254 -0.181738 -0.271571
    8 1.384163 -0.004728 0.000002 0.003260 -0.000593 0.257454
    9 5.939814 -0.004730 0.000000 -0.129541 0.016371 0.254745
    10 5.939809 -0.003975 0.000000 -0.050773 0.006831 0.334994
    11 4.991439 -0.003975 0.000000 -0.059937 0.011697 0.436157
    12 4.991436 -0.001575 0.000000 0.000000 0.000000 0.000000
    13 1.977383 0.000000 0.000000 -0.028244 0.129556 -0.306295
    14 3.723980 2.768055 -0.395205 0.000000 -3.141591 -1.570795
    15 2.863741 -0.721077 0.000003 0.000000 0.000000 0.000000
    16 0.000005 0.001564 3.638375 -1.163043 -1.373359 4.296684
    17 8.842831 0.000000 -0.000001 -0.135252 1.022265 -0.160598
    18 9.341934 0.000000 -0.000002 0.000000 0.000000 -1.068660
    19 9.664096 0.000000 0.000003 -1.472622 0.280849 0.047450
    20 0.000005 0.001585 -3.638375 -1.064136 1.084350 2.130638
    21 8.842831 0.000000 0.000001 0.644604 -0.325186 -0.922910
    22 9.341934 0.000000 -0.000001 0.000000 0.000000 -1.130583
    23 9.664095 0.000000 -0.000002 0.386393 -0.256057 -0.003513
    24 6.829857 -0.000001 0.000000 0.001241 0.000000 0.000000
    25 7.919290 -0.636890 0.610527 -1.520273 -0.091531 1.564919
    26 2.515638 0.482270 0.379719 1.593351 0.004972 0.082565
    27 2.687324 0.164273 -1.706054 0.139179 -0.015749 1.668336
  time 16
    0 14.490101 14.105035 18.685819 0.000000 0.000000 -2.556935
    1 -0.526041 0.000001 9.745319 -1.570795 -1.570451 0.000000
    2 -0.000008 0.000010 5.615750 -0.009490 3.268904 -1.331079
    3 15.693467 0.000000 0.000000 0.000000 0.000000 -1.164211
    4 22.146629 -0.000001 0.000000 -0.057525 0.010756 -0.164982
    5 0.000008 -0.000006 -5.615750 0.082050 3.140824 -1.329425
    6 15.693467 0.000000 0.000000 0.000000 0.000000 -1.104763
    7 22.146629 0.000000 0.000000 -0.142994 -0.177750 -0.235171
    8 1.384163 -0.004728 0.000002 0.005461 -0.001041 0.272605
    9 5.939814 -0.004730 0.000000 -0.124220 0.012620 0.225278
    10 5.939809 -0.003975 0.000000 -0.044147 0.005705 0.347029
    11 4.991439 -0.003975 0.000000 -0.059728 0.012764 0.453949
    12 4.991436 -0.001575 0.000000 0.000000 0.000000 0.000000
    13 1.977383 0.000000 0.000000 -0.026500 0.132401 -0.311919
    14 3.723980 2.768055 -0.395205 0.000000 -3.141591 -1.570795
    15 2.863741 -0.721077 0.000003 0.000000 0.000000 0.000000
    16 0.000005 0.001564 3.638375 -1.115298 -1.428661 4.252102
    17 8.842831 0.000000 -0.000001 -0.307673 1.031006 -0.284680
    18 9.341934 0.000000 -0.000002 0.000000 0.000000 -1.015841
    19 9.664096 0.000000 0.000003 -1.379938 0.255159 0.036386
    20 0.000005 0.001585 -3.638375 -1.119259 1.060404 2.077207
    21 8.842831 0.000000 0.000001 0.681625 -0.310444 -0.905302
    22 9.341934 0.000000 -0.000001 0.000000 0.000000 -1.110444
    23 9.664095 0.000000 -0.000002 0.388133 -0.253324 -0.010436
    24 6.829857 -0.000001 0.000000 0.001241 0.000000 0.000000
    25 7.919290 -0.636890 0.610527 -1.520273 -0.091531 1.564919
    26 2.515638 0.482270 0.379719 1.593351 0.004972 0.082565
    27 2.687324 0.164273 -1.706054 0.139179 -0.015749 1.668336
  time 17
    0 13.975941 13.606944 18.990516 0.000000 0.000000 -2.556935
    1 -0.526041 0.000001 9.745319 -1.570795 -1.570451 0.000000
    2 -0.000008 0.000010 5.615750 -0.005560 3.263056 -1.319503
    3 15.693467 0.000000 0.000000 0.000000 0.000000 -1.183738
    4 22.146629 -0.000001 0.000000 -0.081164 0.008896 -0.126549
    5 0.000008 -0.000006 -5.615750 0.073615 3.141208 -1.318520
    6 15.693467 0.000000 0.000000 0.000000 0.000000 -1.124703
    7 22.146629 0.000000 0.000000 -0.144768 -0.174205 -0.197388
    8 1.384163 -0.004728 0.000002 0.007879 -0.001561 0.287450
    9 5.939814 -0.004730 0.000000 -0.118396 0.008209 0.189309
    10 5.939809 -0.003975 0.000000 -0.037067 0.004111 0.353662
    11 4.991439 -0.003975 0.000000 -0.059518 0.013662 0.468871
    12 4.991436 -0.001575 0.000000 0.000000 0.000000 0.000000
    13 1.977383 0.000000 0.000000 -0.026782 0.134113 -0.317358
    14 3.723980 2.768055 -0.395205 0.000000 -3.141591 -1.570795
    15 2.863741 -0.721077 0.000003 0.000000 0.000000 0.000000
    16 0.000005 0.001564 3.638375 -0.988746 -1.489222 4.127943
    17 8.842831 0.000000 -0.000001 -0.470054 1.027273 -0.394576
    18 9.341934 0.000000 -0.000002 0.000000 0.000000 -0.959541
    19 9.664096 0.000000 0.000003 -1.277339 0.229599 0.031349
    20 0.000005 0.001585 -3.638375 -1.171156 1.035010 2.026529
    21 8.842831 0.000000 0.000001 0.718058 -0.307828 -0.876314
    22 9.341934 0.000000 -0.000001 0.000000 0.000000 -1.084493
    23 9.664095 0.000000 -0.000002 0.389454 -0.251265 -0.015636
    24 6.829857 -0.000001 0.000000 0.001241 0.000000 0.000000
    25 7.919290 -0.636890 0.610527 -1.520273 -0.091531 1.564919
    26 2.515638 0.482270 0.379719 1.593351 0.004972 0.082565
    27 2.687324 0.164273 -1.706054 0.139179 -0.015749 1.668336
  time 18
    0 13.428610 13.086212 19.306932 0.000000 0.000000 -2.556935
    1 -0.526041 0.000001 9.745319 -1.570795 -1.570451 0.000000
    2 -0.000008 0.000010 5.615750 -0.004888 3.255866 -1.306158
    3 15.693467 0.000000 0.000000 0.000000 0.000000 -1.199427
    4 22.146629 -0.000001 0.000000 -0.102392 0.010497 -0.090272
    5 0.000008 -0.000006 -5.615750 0.065372 3.141591 -1.304658
    6 15.693467 0.000000 0.000000 0.000000 0.000000 -1.141794
    7 22.146629 0.000000 0.000000 -0.144956 -0.170334 -0.159095
    8 1.384163 -0.004728 0.000002 0.010442 -0.002135 0.300185
    9 5.939814 -0.004730 0.000000 -0.112344 0.003919 0.152212
    10 5.939809 -0.003975 0.000000 -0.030015 0.002289 0.354478
    11 4.991439 -0.003975 0.000000 -0.059378 0.014322 0.480129
    12 4.991436 -0.001575 0.000000 0.000000 0.000000 0.000000
    13 1.977383 0.000000 0.000000 -0.027907 0.134890 -0.320400
    14 3.723980 2.768055 -0.395205 0.000000 -3.141591 -1.570795
    15 2.863741 -0.721077 0.000003 0.000000 0.000000 0.000000
    16 0.000005 0.001564 3.638375 -0.183798 -1.544366 3.324600
    17 8.842831 0.000000 -0.000001 -0.616360 1.014435 -0.485558
    18 9.341934 0.000000 -0.000002 0.000000 0.000000 -0.901906
    19 9.664096 0.000000 0.000003 -1.169075 0.204818 0.031214
    20 0.000005 0.001585 -3.638375 -1.218593 1.008842 1.979647
    21 8.842831 0.000000 0.000001 0.752986 -0.316060 -0.839523
    22 9.341934 0.000000 -0.000001 0.000000 0.000000 -1.054082
    23 9.664095 0.000000 -0.000002 0.390414 -0.249720 -0.019528
    24 6.829857 -0.000001 0.000000 0.001241 0.000000 0.000000
    25 7.919290 -0.636890 0.610527 -1.520273 -0.091531 1.564919
    26 2.515638 0.482270 0.379719 1.593351 0.004972 0.082565
    27 2.687324 0.164273 -1.706054 0.139179 -0.015749 1.668336
  time 19
    0 12.881278 12.550387 19.631160 0.000000 0.000000 -2.556935
    1 -0.526041 0.000001 9.745319 -1.570795 -1.570451 0.000000
    2 -0.000008 0.000010 5.615750 -0.006231 3.249347 -1.287758
    3 15.693467 0.000000 0.000000 0.000000 0.000000 -1.209998
    4 22.146629 -0.000001 0.000000 -0.116702 0.013368 -0.054649
    5 0.000008 -0.000006 -5.615750 0.057320 3.142262 -1.286771
    6 15.693467 0.000000 0.000000 0.000000 0.000000 -1.154837
    7 22.146629 0.000000 0.000000 -0.142941 -0.165367 -0.121166
    8 1.384163 -0.004728 0.000002 0.013029 -0.002691 0.308931
    9 5.939814 -0.004730 0.000000 -0.106495 0.000384 0.119418
    10 5.939809 -0.003975 0.000000 -0.023458 0.000479 0.349064
    11 4.991439 -0.003975 0.000000 -0.059285 0.014729 0.486887
    12 4.991436 -0.001575 0.000000 0.000000 0.000000 0.000000
    13 1.977383 0.000000 0.000000 -0.028863 0.134935 -0.318648
    14 3.723980 2.768055 -0.395205 0.000000 -3.141591 -1.570795
    15 2.863741 -0.721077 0.000003 0.000000 0.000000 0.000000
    16 0.000005 0.001564 3.638375 1.459845 -1.510233 1.681098
    17 8.842831 0.000000 -0.000001 -0.744675 0.996042 -0.557100
    18 9.341934 0.000000 -0.000002 0.000000 0.000000 -0.844939
    19 9.664096 0.000000 0.000003 -1.059306 0.181531 0.035172
    20 0.000005 0.001585 -3.638375 -1.260908 0.982700 1.937415
    21 8.842831 0.000000 0.000001 0.785167 -0.333163 -0.798582
    22 9.341934 0.000000 -0.000001 0.000000 0.000000 -1.020562
    23 9.664095 0.000000 -0.000002 0.391075 -0.248532 -0.022421
    24 6.829857 -0.000001 0.000000 0.001241 0.000000 0.000000
    25 7.919290 -0.636890 0.610527 -1.520273 -0.091531 1.564919
    26 2.515638 0.482270 0.379719 1.593351 0.004972 0.082565
    27 2.687324 0.164273 -1.706054 0.139179 -0.015749 1.668336
  time 20
    0 12.317361 12.007015 19.967108 0.000000 0.000000 -2.556935
    1 -0.526041 0.000001 9.745319 -1.570795 -1.570451 0.000000
    2 -0.000008 0.000010 5.615750 -0.007477 3.243978 -1.266022
    3 15.693467 0.000000 0.000000 0.000000 0.000000 -1.219222
    4 22.146629 -0.000001 0.000000 -0.121681 0.015698 -0.017588
    5 0.000008 -0.000006 -5.615750 0.049460 3.143029 -1.267304
    6 15.693467 0.000000 0.000000 0.000000 0.000000 -1.167430
    7 22.146629 0.000000 0.000000 -0.138910 -0.160049 -0.082218
    8 1.384163 -0.004728 0.000002 0.015568 -0.003193 0.311846
    9 5.939814 -0.004730 0.000000 -0.101330 -0.001798 0.096337
    10 5.939809 -0.003975 0.000000 -0.017866 -0.001079 0.336979
    11 4.991439 -0.003975 0.000000 -0.059262 0.014813 0.488307
    12 4.991436 -0.001575 0.000000 0.000000 0.000000 0.000000
    13 1.977383 0.000000 0.000000 -0.028357 0.134490 -0.309845
    14 3.723980 2.768055 -0.395205 0.000000 -3.141591 -1.570795
    15 2.863741 -0.721077 0.000003 0.000000 0.000000 0.000000
    16 0.000005 0.001564 3.638375 1.667505 -1.445385 1.472472
    17 8.842831 0.000000 -0.000001 -0.855956 0.975009 -0.611567
    18 9.341934 0.000000 -0.000002 0.000000 0.000000 -0.790713
    19 9.664096 0.000000 0.000003 -0.952193 0.160550 0.042818
    20 0.000005 0.001585 -3.638375 -1.297625 0.957456 1.900118
    21 8.842831 0.000000 0.000001 0.813032 -0.356902 -0.756423
    22 9.341934 0.000000 -0.000001 0.000000 0.000000 -0.985218
    23 9.664095 0.000000 -0.000002 0.391675 -0.247621 -0.024729
    24 6.829857 -0.000001 0.000000 0.001241 0.000000 0.000000
    25 7.919290 -0.636890 0.610527 -1.520273 -0.091531 1.564919
    26 2.515638 0.482270 0.379719 1.593351 0.004972 0.082565
    27 2.687324 0.164273 -1.706054 0.139179 -0.015749 1.668336
  time 21
    0 11.736858 11.448549 20.318681 0.000000 0.000000 -2.556935
    1 -0.526041 0.000001 9.745319 -1.570795 -1.570451 0.000000
    2 -0.000008 0.000010 5.615750 -0.008148 3.238322 -1.246207
    3 15.693467 0.000000 0.000000 0.000000 0.000000 -1.231746
    4 22.146629 -0.000001 0.000000 -0.125324 0.018169 0.021433
    5 0.000008 -0.000006 -5.615750 0.041792 3.143700 -1.248653
    6 15.693467 0.000000 0.000000 0.000000 0.000000 -1.182197
    7 22.146629 0.000000 0.000000 -0.133644 -0.155292 -0.041305
    8 1.384163 -0.004728 0.000002 0.018107 -0.003605 0.307934
    9 5.939814 -0.004730 0.000000 -0.096907 -0.002709 0.082570
    10 5.939809 -0.003975 0.000000 -0.013237 -0.002457 0.311051
    11 4.991439 -0.003975 0.000000 -0.059331 0.014453 0.482177
    12 4.991436 -0.001575 0.000000 0.000000 0.000000 0.000000
    13 1.977383 0.000000 0.000000 -0.027007 0.133046 -0.292099
    14 3.723980 2.768055 -0.395205 0.000000 -3.141591 -1.570795
    15 2.863741 -0.721077 0.000003 0.000000 0.000000 0.000000
    16 0.000005 0.001564 3.638375 1.728097 -1.381432 1.409865
    17 8.842831 0.000000 -0.000001 -0.937062 0.962990 -0.640989
    18 9.341934 0.000000 -0.000002 0.000000 0.000000 -0.741227
    19 9.664096 0.000000 0.000003 -0.851719 0.142785 0.054107
    20 0.000005 0.001585 -3.638375 -1.328649 0.934034 1.868041
    21 8.842831 0.000000 0.000001 0.832262 -0.397297 -0.712332
    22 9.341934 0.000000 -0.000001 0.000000 0.000000 -0.949332
    23 9.664095 0.000000 -0.000002 0.392155 -0.246790 -0.026761
    24 6.829857 -0.000001 0.000000 0.001241 0.000000 0.000000
    25 7.919290 -0.636890 0.610527 -1.520273 -0.091531 1.564919
    26 2.515638 0.482270 0.379719 1.593351 0.004972 0.082565
    27 2.687324 0.164273 -1.706054 0.139179 -0.015749 1.668336
  time 22
    0 11.139769 10.882536 20.681974 0.000000 0.000000 -2.556935
    1 -0.526041 0.000001 9.745319 -1.570795 -1.570451 0.000000
    2 -0.000008 0.000010 5.615750 -0.008627 3.232570 -1.226391
    3 15.693467 0.000000 0.000000 0.000000 0.000000 -1.244607
    4 22.146629 -0.000001 0.000000 -0.127892 0.020735 0.060978
    5 0.000008 -0.000006 -5.615750 0.034124 3.144371 -1.229237
    6 15.693467 0.000000 0.000000 0.000000 0.000000 -1.196589
    7 22.146629 0.000000 0.000000 -0.127438 -0.150558 0.000046
    8 1.384163 -0.004728 0.000002 0.020815 -0.003964 0.298152
    9 5.939814 -0.004730 0.000000 -0.092893 -0.002924 0.073372
    10 5.939809 -0.003975 0.000000 -0.009133 -0.003739 0.269370
    11 4.991439 -0.003975 0.000000 -0.059541 0.013614 0.468183
    12 4.991436 -0.001575 0.000000 0.000000 0.000000 0.000000
    13 1.977383 0.000000 0.000000 -0.025938 0.130023 -0.266702
    14 3.723980 2.768055 -0.395205 0.000000 -3.141591 -1.570795
    15 2.863741 -0.721077 0.000003 0.000000 0.000000 0.000000
    16 0.000005 0.001564 3.638375 1.753503 -1.321976 1.381582
    17 8.842831 0.000000 -0.000001 -0.985060 0.969273 -0.646944
    18 9.341934 0.000000 -0.000002 0.000000 0.000000 -0.698705
    19 9.664096 0.000000 0.000003 -0.761691 0.129404 0.069039
    20 0.000005 0.001585 -3.638375 -1.354076 0.913385 1.841278
    21 8.842831 0.000000 0.000001 0.840111 -0.459645 -0.666236
    22 9.341934 0.000000 -0.000001 0.000000 0.000000 -0.914190
    23 9.664095 0.000000 -0.000002 0.392695 -0.245919 -0.028930
    24 6.829857 -0.000001 0.000000 0.001241 0.000000 0.000000
    25 7.919290 -0.636890 0.610527 -1.520273 -0.091531 1.564919
    26 2.515638 0.482270 0.379719 1.593351 0.004972 0.082565
    27 2.687324 0.164273 -1.706054 0.139179 -0.015749 1.668336
  time 23
    0 10.542681 10.301430 21.060892 0.000000 0.000000 -2.556935
    1 -0.526041 0.000001 9.745319 -1.570795 -1.570451 0.000000
    2 -0.000008 0.000010 5.615750 -0.009490 3.227201 -1.204756
    3 15.693467 0.000000 0.000000 0.000000 0.000000 -1.255111
    4 22.146629 -0.000001 0.000000 -0.129569 0.023465 0.099412
    5 0.000008 -0.000006 -5.615750 0.026552 3.144946 -1.207680
    6 15.693467 0.000000 0.000000 0.000000 0.000000 -1.208133
    7 22.146629 0.000000 0.000000 -0.120613 -0.145288 0.040304
    8 1.384163 -0.004728 0.000002 0.023596 -0.004233 0.283806
    9 5.939814 -0.004730 0.000000 -0.089189 -0.002697 0.067616
    10 5.939809 -0.003975 0.000000 -0.005413 -0.004866 0.219398
    11 4.991439 -0.003975 0.000000 -0.059798 0.012440 0.448432
    12 4.991436 -0.001575 0.000000 0.000000 0.000000 0.000000
    13 1.977383 0.000000 0.000000 -0.024869 0.125578 -0.235683
    14 3.723980 2.768055 -0.395205 0.000000 -3.141591 -1.570795
    15 2.863741 -0.721077 0.000003 0.000000 0.000000 0.000000
    16 0.000005 0.001564 3.638375 1.764912 -1.269514 1.367009
    17 8.842831 0.000000 -0.000001 -1.011738 0.989213 -0.641340
    18 9.341934 0.000000 -0.000002 0.000000 0.000000 -0.665147
    19 9.664096 0.000000 0.000003 -0.686092 0.121674 0.087974
    20 0.000005 0.001585 -3.638375 -1.374000 0.896455 1.819925
    21 8.842831 0.000000 0.000001 0.838083 -0.534181 -0.622216
    22 9.341934 0.000000 -0.000001 0.000000 0.000000 -0.881144
    23 9.664095 0.000000 -0.000002 0.393355 -0.244849 -0.031582
    24 6.829857 -0.000001 0.000000 0.001241 0.000000 0.000000
    25 7.919290 -0.636890 0.610527 -1.520273 -0.091531 1.564919
    26 2.515638 0.482270 0.379719 1.593351 0.004972 0.082565
    27 2.687324 0.164273 -1.706054 0.139179 -0.015749 1.668336
  time 24
    0 9.929006 9.720324 21.455435 0.000000 0.000000 -2.556935
    1 -0.526041 0.000001 9.745319 -1.570795 -1.570451 0.000000
    2 -0.000008 0.000010 5.615750 -0.011216 3.222600 -1.179381
    3 15.693467 0.000000 0.000000 0.000000 0.000000 -1.260296
    4 22.146629 -0.000001 0.000000 -0.130618 0.026336 0.135165
    5 0.000008 -0.000006 -5.615750 0.018980 3.145426 -1.182404
    6 15.693467 0.000000 0.000000 0.000000 0.000000 -1.214354
    7 22.146629 0.000000 0.000000 -0.113412 -0.138968 0.078014
    8 1.384163 -0.004728 0.000002 0.026474 -0.004412 0.266161
    9 5.939814 -0.004730 0.000000 -0.085678 -0.002277 0.064136
    10 5.939809 -0.003975 0.000000 -0.001928 -0.005825 0.168609
    11 4.991439 -0.003975 0.000000 -0.060077 0.011038 0.425034
    12 4.991436 -0.001575 0.000000 0.000000 0.000000 0.000000
    13 1.977383 0.000000 0.000000 -0.023237 0.119999 -0.201206
    14 3.723980 2.768055 -0.395205 0.000000 -3.141591 -1.570795
    15 2.863741 -0.721077 0.000003 0.000000 0.000000 0.000000
    16 0.000005 0.001564 3.638375 1.768843 -1.226203 1.359914
    17 8.842831 0.000000 -0.000001 -1.024541 1.016802 -0.631882
    18 9.341934 0.000000 -0.000002 0.000000 0.000000 -0.642479
    19 9.664096 0.000000 0.000003 -0.628640 0.121284 0.111047
    20 0.000005 0.001585 -3.638375 -1.388326 0.884196 1.804266
    21 8.842831 0.000000 0.000001 0.829449 -0.611334 -0.584567
    22 9.341934 0.000000 -0.000001 0.000000 0.000000 -0.851543
    23 9.664095 0.000000 -0.000002 0.394196 -0.243424 -0.035095
    24 6.829857 -0.000001 0.000000 0.001241 0.000000 0.000000
    25 7.919290 -0.636890 0.610527 -1.520273 -0.091531 1.564919
    26 2.515638 0.482270 0.379719 1.593351 0.004972 0.082565
    27 2.687324 0.164273 -1.706054 0.139179 -0.015749 1.668336
  time 25
    0 9.298746 9.124124 21.865604 0.000000 0.000000 -2.556935
    1 -0.526041 0.000001 9.745319 -1.570795 -1.570451 0.000000
    2 -0.000008 0.000010 5.615750 -0.014284 3.218957 -1.148394
    3 15.693467 0.000000 0.000000 0.000000 0.000000 -1.257333
    4 22.146629 -0.000001 0.000000 -0.131194 0.029325 0.166867
    5 0.000008 -0.000006 -5.615750 0.011311 3.146001 -1.151929
    6 15.693467 0.000000 0.000000 0.000000 0.000000 -1.212705
    7 22.146629 0.000000 0.000000 -0.106104 -0.131039 0.111648
    8 1.384163 -0.004728 0.000002 0.029400 -0.004484 0.246406
    9 5.939814 -0.004730 0.000000 -0.082226 -0.001882 0.061803
    10 5.939809 -0.003975 0.000000 0.001391 -0.006627 0.124466
    11 4.991439 -0.003975 0.000000 -0.060333 0.009528 0.400095
    12 4.991436 -0.001575 0.000000 0.000000 0.000000 0.000000
    13 1.977383 0.000000 0.000000 -0.020874 0.113664 -0.165531
    14 3.723980 2.768055 -0.395205 0.000000 -3.141591 -1.570795
    15 2.863741 -0.721077 0.000003 0.000000 0.000000 0.000000
    16 0.000005 0.001564 3.638375 1.764912 -1.200696 1.362215
    17 8.842831 0.000000 -0.000001 -1.032550 1.027364 -0.635210
    18 9.341934 0.000000 -0.000002 0.000000 0.000000 -0.656776
    19 9.664096 0.000000 0.000003 -0.609962 0.150612 0.174779
    20 0.000005 0.001585 -3.638375 -1.391552 0.885544 1.799900
    21 8.842831 0.000000 0.000001 0.825001 -0.668002 -0.575620
    22 9.341934 0.000000 -0.000001 0.000000 0.000000 -0.823633
    23 9.664095 0.000000 -0.000002 0.382731 -0.241800 -0.038643
    24 6.829857 -0.000001 0.000000 0.001241 0.000000 0.000000
    25 7.919290 -0.636890 0.610527 -1.520273 -0.091531 1.564919
    26 2.515638 0.482270 0.379719 1.593351 0.004972 0.082565
    27 2.687324 0.164273 -1.706054 0.139179 -0.015749 1.668336
  time 26
    0 8.668485 8.527924 22.299211 0.000000 0.000000 -2.556935
    1 -0.526041 0.000001 9.745319 -1.570795 -1.570451 0.000000
    2 -0.000008 0.000010 5.615750 -0.019173 3.216560 -1.109926
    3 15.693467 0.000000 0.000000 0.000000 0.000000 -1.243462
    4 22.146629 -0.000001 0.000000 -0.131509 0.032361 0.192816
    5 0.000008 -0.000006 -5.615750 0.003452 3.146576 -1.114830
    6 15.693467 0.000000 0.000000 0.000000 0.000000 -1.200862
    7 22.146629 0.000000 0.000000 -0.098930 -0.120941 0.139749
    8 1.384163 -0.004728 0.000002 0.032301 -0.004430 0.225884
    9 5.939814 -0.004730 0.000000 -0.078751 -0.001750 0.059451
    10 5.939809 -0.003975 0.000000 0.004697 -0.007347 0.094442
    11 4.991439 -0.003975 0.000000 -0.060543 0.008054 0.375724
    12 4.991436 -0.001575 0.000000 0.000000 0.000000 0.000000
    13 1.977383 0.000000 0.000000 -0.017554 0.107041 -0.130731
    14 3.723980 2.768055 -0.395205 0.000000 -3.141591 -1.570795
    15 2.863741 -0.721077 0.000003 0.000000 0.000000 0.000000
    16 0.000005 0.001564 3.638375 1.752736 -1.195673 1.374871
    17 8.842831 0.000000 -0.000001 -1.042703 1.007059 -0.659203
    18 9.341934 0.000000 -0.000002 0.000000 0.000000 -0.714929
    19 9.664096 0.000000 0.000003 -0.632270 0.217355 0.291269
    20 0.000005 0.001585 -3.638375 -1.380831 0.904970 1.809770
    21 8.842831 0.000000 0.000001 0.832981 -0.691741 -0.604680
    22 9.341934 0.000000 -0.000001 0.000000 0.000000 -0.795181
    23 9.664095 0.000000 -0.000002 0.358842 -0.240374 -0.041398
    24 6.829857 -0.000001 0.000000 0.001241 0.000000 0.000000
    25 7.919290 -0.636890 0.610527 -1.520273 -0.091531 1.564919
    26 2.515638 0.482270 0.379719 1.593351 0.004972 0.082565
    27 2.687324 0.164273 -1.706054 0.139179 -0.015749 1.668336
  time 27
    0 8.021639 7.924177 22.775788 0.000000 0.000000 -2.556935
    1 -0.526041 0.000001 9.745319 -1.570795 -1.570451 0.000000
    2 -0.000008 0.000010 5.615750 -0.026268 3.215505 -1.063269
    3 15.693467 0.000000 0.000000 0.000000 0.000000 -1.218280
    4 22.146629 -0.000001 0.000000 -0.131876 0.035232 0.213013
    5 0.000008 -0.000006 -5.615750 -0.004312 3.147055 -1.070596
    6 15.693467 0.000000 0.000000 0.000000 0.000000 -1.178449
    7 22.146629 0.000000 0.000000 -0.091595 -0.108301 0.162390
    8 1.384163 -0.004728 0.000002 0.035227 -0.004305 0.204979
    9 5.939814 -0.004730 0.000000 -0.075203 -0.001822 0.056965
    10 5.939809 -0.003975 0.000000 0.008003 -0.008030 0.075348
    11 4.991439 -0.003975 0.000000 -0.060706 0.006615 0.352027
    12 4.991436 -0.001575 0.000000 0.000000 0.000000 0.000000
    13 1.977383 0.000000 0.000000 -0.013447 0.100395 -0.096854
    14 3.723980 2.768055 -0.395205 0.000000 -3.141591 -1.570795
    15 2.863741 -0.721077 0.000003 0.000000 0.000000 0.000000
    16 0.000005 0.001564 3.638375 1.733945 -1.204614 1.395484
    17 8.842831 0.000000 -0.000001 -1.045748 0.975920 -0.687225
    18 9.341934 0.000000 -0.000002 0.000000 0.000000 -0.791083
    19 9.664096 0.000000 0.000003 -0.673876 0.301733 0.423321
    20 0.000005 0.001585 -3.638375 -1.358915 0.936581 1.830933
    21 8.842831 0.000000 0.000001 0.844690 -0.700420 -0.650275
    22 9.341934 0.000000 -0.000001 0.000000 0.000000 -0.766324
    23 9.664095 0.000000 -0.000002 0.340956 -0.239226 -0.043705
    24 6.829857 -0.000001 0.000000 0.001241 0.000000 0.000000
    25 7.919290 -0.636890 0.610527 -1.520273 -0.091531 1.564919
    26 2.515638 0.482270 0.379719 1.593351 0.004972 0.082565
    27 2.687324 0.164273 -1.706054 0.139179 -0.015749 1.668336
  time 28
    0 7.374793 7.320430 23.322679 0.000000 0.000000 -2.556935
    1 -0.526041 0.000001 9.745319 -1.570795 -1.570451 0.000000
    2 -0.000008 0.000010 5.615750 -0.035376 3.215410 -1.009889
    3 15.693467 0.000000 0.000000 0.000000 0.000000 -1.184209
    4 22.146629 -0.000001 0.000000 -0.132138 0.037750 0.228896
    5 0.000008 -0.000006 -5.615750 -0.012364 3.147439 -1.020400
    6 15.693467 0.000000 0.000000 0.000000 0.000000 -1.147715
    7 22.146629 0.000000 0.000000 -0.083722 -0.093492 0.180954
    8 1.384163 -0.004728 0.000002 0.038129 -0.004072 0.183268
    9 5.939814 -0.004730 0.000000 -0.071704 -0.001906 0.054881
    10 5.939809 -0.003975 0.000000 0.011240 -0.008677 0.058741
    11 4.991439 -0.003975 0.000000 -0.060869 0.005141 0.327746
    12 4.991436 -0.001575 0.000000 0.000000 0.000000 0.000000
    13 1.977383 0.000000 0.000000 -0.008946 0.093705 -0.062469
    14 3.723980 2.768055 -0.395205 0.000000 -3.141591 -1.570795
    15 2.863741 -0.721077 0.000003 0.000000 0.000000 0.000000
    16 0.000005 0.001564 3.638375 1.709497 -1.220944 1.422425
    17 8.842831 0.000000 -0.000001 -1.030294 0.959986 -0.700798
    18 9.341934 0.000000 -0.000002 0.000000 0.000000 -0.859162
    19 9.664096 0.000000 0.000003 -0.721678 0.379453 0.534998
    20 0.000005 0.001585 -3.638375 -1.328080 0.974360 1.860733
    21 8.842831 0.000000 0.000001 0.846194 -0.718416 -0.687208
    22 9.341934 0.000000 -0.000001 0.000000 0.000000 -0.737265
    23 9.664095 0.000000 -0.000002 0.347618 -0.238513 -0.045806
    24 6.829857 -0.000001 0.000000 0.001241 0.000000 0.000000
    25 7.919290 -0.636890 0.610527 -1.520273 -0.091531 1.564919
    26 2.515638 0.482270 0.379719 1.593351 0.004972 0.082565
    27 2.687324 0.164273 -1.706054 0.139179 -0.015749 1.668336
  time 29
    0 6.727947 6.709136 23.928167 0.000000 0.000000 -2.556935
    1 -0.526041 0.000001 9.745319 -1.570795 -1.570451 0.000000
    2 -0.000008 0.000010 5.615750 -0.045826 3.215697 -0.951049
    3 15.693467 0.000000 0.000000 0.000000 0.000000 -1.142597
    4 22.146629 -0.000001 0.000000 -0.131849 0.039869 0.240988
    5 0.000008 -0.000006 -5.615750 -0.020511 3.147535 -0.965159
    6 15.693467 0.000000 0.000000 0.000000 0.000000 -1.109711
    7 22.146629 0.000000 0.000000 -0.075554 -0.077191 0.195950
    8 1.384163 -0.004728 0.000002 0.041055 -0.003767 0.160905
    9 5.939814 -0.004730 0.000000 -0.068216 -0.002001 0.053198
    10 5.939809 -0.003975 0.000000 0.014436 -0.009288 0.044332
    11 4.991439 -0.003975 0.000000 -0.060963 0.003619 0.302957
    12 4.991436 -0.001575 0.000000 0.000000 0.000000 0.000000
    13 1.977383 0.000000 0.000000 -0.004051 0.087082 -0.027624
    14 3.723980 2.768055 -0.395205 0.000000 -3.141591 -1.570795
    15 2.863741 -0.721077 0.000003 0.000000 0.000000 0.000000
    16 0.000005 0.001564 3.638375 1.681598 -1.238168 1.452818
    17 8.842831 0.000000 -0.000001 -0.990531 0.975647 -0.684072
    18 9.341934 0.000000 -0.000002 0.000000 0.000000 -0.893091
    19 9.664096 0.000000 0.000003 -0.771960 0.420960 0.591174
    20 0.000005 0.001585 -3.638375 -1.291932 1.012463 1.895562
    21 8.842831 0.000000 0.000001 0.825917 -0.760534 -0.692576
    22 9.341934 0.000000 -0.000001 0.000000 0.000000 -0.708138
    23 9.664095 0.000000 -0.000002 0.397257 -0.238196 -0.047942
    24 6.829857 -0.000001 0.000000 0.001241 0.000000 0.000000
    25 7.919290 -0.636890 0.610527 -1.520273 -0.091531 1.564919
    26 2.515638 0.482270 0.379719 1.593351 0.004972 0.082565
    27 2.687324 0.164273 -1.706054 0.139179 -0.015749 1.668336
  time 30
    0 6.081101 6.097843 24.584437 0.000000 0.000000 -2.556935
    1 -0.526041 0.000001 9.745319 -1.570795 -1.570451 0.000000
    2 -0.000008 0.000010 5.615750 -0.057522 3.215793 -0.888065
    3 15.693467 0.000000 0.000000 0.000000 0.000000 -1.094589
    4 22.146629 -0.000001 0.000000 -0.130644 0.041540 0.249812
    5 0.000008 -0.000006 -5.615750 -0.028659 3.147151 -0.905942
    6 15.693467 0.000000 0.000000 0.000000 0.000000 -1.065335
    7 22.146629 0.000000 0.000000 -0.067333 -0.060027 0.207962
    8 1.384163 -0.004728 0.000002 0.043980 -0.003372 0.137928
    9 5.939814 -0.004730 0.000000 -0.064753 -0.002097 0.051821
    10 5.939809 -0.003975 0.000000 0.017576 -0.009875 0.031770
    11 4.991439 -0.003975 0.000000 -0.061033 0.002085 0.277734
    12 4.991436 -0.001575 0.000000 0.000000 0.000000 0.000000
    13 1.977383 0.000000 0.000000 0.001182 0.080525 0.007545
    14 3.723980 2.768055 -0.395205 0.000000 -3.141591 -1.570795
    15 2.863741 -0.721077 0.000003 0.000000 0.000000 0.000000
    16 0.000005 0.001564 3.638375 1.650631 -1.254840 1.485991
    17 8.842831 0.000000 -0.000001 -0.923469 1.015163 -0.633284
    18 9.341934 0.000000 -0.000002 0.000000 0.000000 -0.897388
    19 9.664096 0.000000 0.000003 -0.826579 0.428592 0.600709
    20 0.000005 0.001585 -3.638375 -1.250661 1.049542 1.935137
    21 8.842831 0.000000 0.000001 0.780589 -0.821287 -0.664304
    22 9.341934 0.000000 -0.000001 0.000000 0.000000 -0.679010
    23 9.664095 0.000000 -0.000002 0.481888 -0.238077 -0.050146
    24 6.829857 -0.000001 0.000000 0.001241 0.000000 0.000000
    25 7.919290 -0.636890 0.610527 -1.520273 -0.091531 1.564919
    26 2.515638 0.482270 0.379719 1.593351 0.004972 0.082565
    27 2.687324 0.164273 -1.706054 0.139179 -0.015749 1.668336
  time 31
    0 5.434255 5.486549 25.287583 0.000000 0.000000 -2.556935
    1 -0.526041 0.000001 9.745319 -1.570795 -1.570451 0.000000
    2 -0.000008 0.000010 5.615750 -0.069698 3.215122 -0.822249
    3 15.693467 0.000000 0.000000 0.000000 0.000000 -1.041598
    4 22.146629 -0.000001 0.000000 -0.128102 0.042811 0.255957
    5 0.000008 -0.000006 -5.615750 -0.036806 3.146288 -0.843668
    6 15.693467 0.000000 0.000000 0.000000 0.000000 -1.015711
    7 22.146629 0.000000 0.000000 -0.059245 -0.042700 0.217426
    8 1.384163 -0.004728 0.000002 0.046882 -0.002888 0.114529
    9 5.939814 -0.004730 0.000000 -0.061301 -0.002205 0.050712
    10 5.939809 -0.003975 0.000000 0.020689 -0.010463 0.020728
    11 4.991439 -0.003975 0.000000 -0.061079 0.000515 0.252167
    12 4.991436 -0.001575 0.000000 0.000000 0.000000 0.000000
    13 1.977383 0.000000 0.000000 0.006808 0.074124 0.043082
    14 3.723980 2.768055 -0.395205 0.000000 -3.141591 -1.570795
    15 2.863741 -0.721077 0.000003 0.000000 0.000000 0.000000
    16 0.000005 0.001564 3.638375 1.613433 -1.273406 1.525396
    17 8.842831 0.000000 -0.000001 -0.830575 1.058140 -0.556137
    18 9.341934 0.000000 -0.000002 0.000000 0.000000 -0.894498
    19 9.664096 0.000000 0.000003 -0.887571 0.427131 0.596751
    20 0.000005 0.001585 -3.638375 -1.200188 1.087421 1.983538
    21 8.842831 0.000000 0.000001 0.714591 -0.884017 -0.615488
    22 9.341934 0.000000 -0.000001 0.000000 0.000000 -0.649816
    23 9.664095 0.000000 -0.000002 0.579485 -0.237919 -0.052281
    24 6.829857 -0.000001 0.000000 0.001241 0.000000 0.000000
    25 7.919290 -0.636890 0.610527 -1.520273 -0.091531 1.564919
    26 2.515638 0.482270 0.379719 1.593351 0.004972 0.082565
    27 2.687324 0.164273 -1.706054 0.139179 -0.015749 1.668336
  time 32
    0 4.787408 4.875255 26.018074 0.000000 0.000000 -2.556935
    1 -0.526041 0.000001 9.745319 -1.570795 -1.570451 0.000000
    2 -0.000008 0.000010 5.615750 -0.081873 3.213396 -0.755019
    3 15.693467 0.000000 0.000000 0.000000 0.000000 -0.984836
    4 22.146629 -0.000001 0.000000 -0.123830 0.043846 0.259813
    5 0.000008 -0.000006 -5.615750 -0.044762 3.144755 -0.779356
    6 15.693467 0.000000 0.000000 0.000000 0.000000 -0.961815
    7 22.146629 0.000000 0.000000 -0.051534 -0.025839 0.224779
    8 1.384163 -0.004728 0.000002 0.049808 -0.002332 0.090709
    9 5.939814 -0.004730 0.000000 -0.057862 -0.002325 0.049794
    10 5.939809 -0.003975 0.000000 0.023775 -0.011026 0.010879
    11 4.991439 -0.003975 0.000000 -0.061056 -0.001043 0.226332
    12 4.991436 -0.001575 0.000000 0.000000 0.000000 0.000000
    13 1.977383 0.000000 0.000000 0.012716 0.067901 0.078895
    14 3.723980 2.768055 -0.395205 0.000000 -3.141591 -1.570795
    15 2.863741 -0.721077 0.000003 0.000000 0.000000 0.000000
    16 0.000005 0.001564 3.638375 1.568468 -1.293260 1.572471
    17 8.842831 0.000000 -0.000001 -0.705024 1.099568 -0.445715
    18 9.341934 0.000000 -0.000002 0.000000 0.000000 -0.885757
    19 9.664096 0.000000 0.000003 -0.953255 0.417193 0.582583
    20 0.000005 0.001585 -3.638375 -1.138424 1.125299 2.042757
    21 8.842831 0.000000 0.000001 0.622365 -0.945152 -0.540619
    22 9.341934 0.000000 -0.000001 0.000000 0.000000 -0.620621
    23 9.664095 0.000000 -0.000002 0.687885 -0.237642 -0.054382
    24 6.829857 -0.000001 0.000000 0.001241 0.000000 0.000000
    25 7.919290 -0.636890 0.610527 -1.520273 -0.091531 1.564919
    26 2.515638 0.482270 0.379719 1.593351 0.004972 0.082565
    27 2.687324 0.164273 -1.706054 0.139179 -0.015749 1.668336
  time 33
    0 4.140562 4.263962 26.775910 0.000000 0.000000 -2.556935
    1 -0.526041 0.000001 9.745319 -1.570795 -1.570451 0.000000
    2 -0.000008 0.000010 5.615750 -0.093474 3.210233 -0.687687
    3 15.693467 0.000000 0.000000 0.000000 0.000000 -0.925582
    4 22.146629 -0.000001 0.000000 -0.117462 0.044787 0.262035
    5 0.000008 -0.000006 -5.615750 -0.052622 3.142646 -0.714025
    6 15.693467 0.000000 0.000000 0.000000 0.000000 -0.904621
    7 22.146629 0.000000 0.000000 -0.044360 -0.010051 0.230603
    8 1.384163 -0.004728 0.000002 0.052710 -0.001687 0.066658
    9 5.939814 -0.004730 0.000000 -0.054434 -0.002445 0.049029
    10 5.939809 -0.003975 0.000000 0.026833 -0.011565 0.001909
    11 4.991439 -0.003975 0.000000 -0.061009 -0.002637 0.200287
    12 4.991436 -0.001575 0.000000 0.000000 0.000000 0.000000
    13 1.977383 0.000000 0.000000 0.018905 0.061922 0.114847
    14 3.723980 2.768055 -0.395205 0.000000 -3.141591 -1.570795
    15 2.863741 -0.721077 0.000003 0.000000 0.000000 0.000000
    16 0.000005 0.001564 3.638375 1.513821 -1.313850 1.628941
    17 8.842831 0.000000 -0.000001 -0.541741 1.133622 -0.296852
    18 9.341934 0.000000 -0.000002 0.000000 0.000000 -0.872423
    19 9.664096 0.000000 0.000003 -1.022038 0.399557 0.561354
    20 0.000005 0.001585 -3.638375 -1.062902 1.162304 2.115263
    21 8.842831 0.000000 0.000001 0.498219 -0.999842 -0.434113
    22 9.341934 0.000000 -0.000001 0.000000 0.000000 -0.591359
    23 9.664095 0.000000 -0.000002 0.804689 -0.237246 -0.056414
    24 6.829857 -0.000001 0.000000 0.001241 0.000000 0.000000
    25 7.919290 -0.636890 0.610527 -1.520273 -0.091531 1.564919
    26 2.515638 0.482270 0.379719 1.593351 0.004972 0.082565
    27 2.687324 0.164273 -1.706054 0.139179 -0.015749 1.668336
  time 34
    0 3.510302 3.660215 27.549371 0.000000 0.000000 -2.556935
    1 -0.526041 0.000001 9.745319 -1.570795 -1.570451 0.000000
    2 -0.000008 0.000010 5.615750 -0.105458 3.205343 -0.615957
    3 15.693467 0.000000 0.000000 0.000000 0.000000 -0.853469
    4 22.146629 -0.000001 0.000000 -0.103152 0.046082 0.255760
    5 0.000008 -0.000006 -5.615750 -0.060002 3.139866 -0.641049
    6 15.693467 0.000000 0.000000 0.000000 0.000000 -0.831835
    7 22.146629 0.000000 0.000000 -0.040115 0.004874 0.228201
    8 1.384163 -0.004728 0.000002 0.055587 -0.000969 0.042453
    9 5.939814 -0.004730 0.000000 -0.051006 -0.002577 0.048360
    10 5.939809 -0.003975 0.000000 0.029891 -0.012104 -0.006495
    11 4.991439 -0.003975 0.000000 -0.060916 -0.004243 0.174107
    12 4.991436 -0.001575 0.000000 0.000000 0.000000 0.000000
    13 1.977383 0.000000 0.000000 0.025375 0.056188 0.150937
    14 3.723980 2.768055 -0.395205 0.000000 -3.141591 -1.570795
    15 2.863741 -0.721077 0.000003 0.000000 0.000000 0.000000
    16 0.000005 0.001564 3.638375 1.447189 -1.334519 1.697109
    17 8.842831 0.000000 -0.000001 -0.343149 1.153198 -0.111910
    18 9.341934 0.000000 -0.000002 0.000000 0.000000 -0.855755
    19 9.664096 0.000000 0.000003 -1.092149 0.375426 0.536212
    20 0.000005 0.001585 -3.638375 -0.970778 1.197311 2.203713
    21 8.842831 0.000000 0.000001 0.339014 -1.042216 -0.292677
    22 9.341934 0.000000 -0.000001 0.000000 0.000000 -0.562029
    23 9.664095 0.000000 -0.000002 0.927675 -0.236652 -0.058377
    24 6.829857 -0.000001 0.000000 0.001241 0.000000 0.000000
    25 7.919290 -0.636890 0.610527 -1.520273 -0.091531 1.564919
    26 2.515638 0.482270 0.379719 1.593351 0.004972 0.082565
    27 2.687324 0.164273 -1.706054 0.139179 -0.015749 1.668336
  time 35
    0 2.863456 3.056468 28.326738 0.000000 0.000000 -2.556935
    1 -0.526041 0.000001 9.745319 -1.570795 -1.570451 0.000000
    2 -0.000008 0.000010 5.615750 -0.118209 3.198249 -0.533865
    3 15.693467 0.000000 0.000000 0.000000 0.000000 -0.758529
    4 22.146629 -0.000001 0.000000 -0.080797 0.047494 0.236478
    5 0.000008 -0.000006 -5.615750 -0.066903 3.135935 -0.555180
    6 15.693467 0.000000 0.000000 0.000000 0.000000 -0.733938
    7 22.146629 0.000000 0.000000 -0.038503 0.019706 0.212767
    8 1.384163 -0.004728 0.000002 0.058465 -0.000180 0.018134
    9 5.939814 -0.004730 0.000000 -0.047591 -0.002697 0.047729
    10 5.939809 -0.003975 0.000000 0.032935 -0.012608 -0.014710
    11 4.991439 -0.003975 0.000000 -0.060800 -0.005836 0.147883
    12 4.991436 -0.001575 0.000000 0.000000 0.000000 0.000000
    13 1.977383 0.000000 0.000000 0.032014 0.050765 0.187119
    14 3.723980 2.768055 -0.395205 0.000000 -3.141591 -1.570795
    15 2.863741 -0.721077 0.000003 0.000000 0.000000 0.000000
    16 0.000005 0.001564 3.638375 1.366081 -1.354478 1.779466
    17 8.842831 0.000000 -0.000001 -0.125438 1.152834 0.092908
    18 9.341934 0.000000 -0.000002 0.000000 0.000000 -0.836938
    19 9.664096 0.000000 0.000003 -1.162171 0.346358 0.509901
    20 0.000005 0.001585 -3.638375 -0.859299 1.228997 2.311143
    21 8.842831 0.000000 0.000001 0.149132 -1.066082 -0.120750
    22 9.341934 0.000000 -0.000001 0.000000 0.000000 -0.532699
    23 9.664095 0.000000 -0.000002 1.054382 -0.235899 -0.060203
    24 6.829857 -0.000001 0.000000 0.001241 0.000000 0.000000
    25 7.919290 -0.636890 0.610527 -1.520273 -0.091531 1.564919
    26 2.515638 0.482270 0.379719 1.593351 0.004972 0.082565
    27 2.687324 0.164273 -1.706054 0.139179 -0.015749 1.668336
  time 36
    0 2.233195 2.460268 29.100199 0.000000 0.000000 -2.556935
    1 -0.526041 0.000001 9.745319 -1.570795 -1.570451 0.000000
    2 -0.000008 0.000010 5.615750 -0.130576 3.188375 -0.440298
    3 15.693467 0.000000 0.000000 0.000000 0.000000 -0.642783
    4 22.146629 -0.000001 0.000000 -0.058495 0.048506 0.207980
    5 0.000008 -0.000006 -5.615750 -0.073038 3.129800 -0.459323
    6 15.693467 0.000000 0.000000 0.000000 0.000000 -0.615876
    7 22.146629 0.000000 0.000000 -0.035413 0.034654 0.187142
    8 1.384163 -0.004728 0.000002 0.061294 0.000662 -0.006070
    9 5.939814 -0.004730 0.000000 -0.044163 -0.002816 0.047079
    10 5.939809 -0.003975 0.000000 0.035993 -0.013099 -0.023039
    11 4.991439 -0.003975 0.000000 -0.060613 -0.007430 0.121688
    12 4.991436 -0.001575 0.000000 0.000000 0.000000 0.000000
    13 1.977383 0.000000 0.000000 0.038878 0.045697 0.223255
    14 3.723980 2.768055 -0.395205 0.000000 -3.141591 -1.570795
    15 2.863741 -0.721077 0.000003 0.000000 0.000000 0.000000
    16 0.000005 0.001564 3.638375 1.267907 -1.372912 1.878506
    17 8.842831 0.000000 -0.000001 0.084772 1.130253 0.291335
    18 9.341934 0.000000 -0.000002 0.000000 0.000000 -0.817381
    19 9.664096 0.000000 0.000003 -1.231042 0.314237 0.484849
    20 0.000005 0.001585 -3.638375 -0.726473 1.255939 2.439263
    21 8.842831 0.000000 0.000001 -0.055532 -1.066657 0.065922
    22 9.341934 0.000000 -0.000001 0.000000 0.000000 -0.503369
    23 9.664095 0.000000 -0.000002 1.182650 -0.234909 -0.061925
    24 6.829857 -0.000001 0.000000 0.001241 0.000000 0.000000
    25 7.919290 -0.636890 0.610527 -1.520273 -0.091531 1.564919
    26 2.515638 0.482270 0.379719 1.593351 0.004972 0.082565
    27 2.687324 0.164273 -1.706054 0.139179 -0.015749 1.668336
  time 37
    0 1.619521 1.871615 29.861941 0.000000 0.000000 -2.556935
    1 -0.526041 0.000001 9.745319 -1.570795 -1.570451 0.000000
    2 -0.000008 0.000010 5.615750 -0.141793 3.174953 -0.330960
    3 15.693467 0.000000 0.000000 0.000000 0.000000 -0.500104
    4 22.146629 -0.000001 0.000000 -0.039049 0.048812 0.168501
    5 0.000008 -0.000006 -5.615750 -0.077735 3.120981 -0.351185
    6 15.693467 0.000000 0.000000 0.000000 0.000000 -0.472778
    7 22.146629 0.000000 0.000000 -0.028964 0.050069 0.148776
    8 1.384163 -0.004728 0.000002 0.064123 0.001577 -0.030198
    9 5.939814 -0.004730 0.000000 -0.040736 -0.002936 0.046352
    10 5.939809 -0.003975 0.000000 0.039065 -0.013543 -0.031795
    11 4.991439 -0.003975 0.000000 -0.060403 -0.009012 0.095583
    12 4.991436 -0.001575 0.000000 0.000000 0.000000 0.000000
    13 1.977383 0.000000 0.000000 0.045855 0.040985 0.259345
    14 3.723980 2.768055 -0.395205 0.000000 -3.141591 -1.570795
    15 2.863741 -0.721077 0.000003 0.000000 0.000000 0.000000
    16 0.000005 0.001564 3.638375 1.151326 -1.388953 1.995666
    17 8.842831 0.000000 -0.000001 0.265315 1.088187 0.460952
    18 9.341934 0.000000 -0.000002 0.000000 0.000000 -0.798121
    19 9.664096 0.000000 0.000003 -1.298231 0.281272 0.462990
    20 0.000005 0.001585 -3.638375 -0.572869 1.276613 2.587786
    21 8.842831 0.000000 0.000001 -0.252151 -1.043237 0.244792
    22 9.341934 0.000000 -0.000001 0.000000 0.000000 -0.474039
    23 9.664095 0.000000 -0.000002 1.310138 -0.233681 -0.063509
    24 6.829857 -0.000001 0.000000 0.001241 0.000000 0.000000
    25 7.919290 -0.636890 0.610527 -1.520273 -0.091531 1.564919
    26 2.515638 0.482270 0.379719 1.593351 0.004972 0.082565
    27 2.687324 0.164273 -1.706054 0.139179 -0.015749 1.668336
  time 38
    0 1.005846 1.290509 30.604152 0.000000 0.000000 -2.556935
    1 -0.526041 0.000001 9.745319 -1.570795 -1.570451 0.000000
    2 -0.000008 0.000010 5.615750 -0.151476 3.158656 -0.210248
    3 15.693467 0.000000 0.000000 0.000000 0.000000 -0.336619
    4 22.146629 -0.000001 0.000000 -0.019734 0.048506 0.119805
    5 0.000008 -0.000006 -5.615750 -0.080706 3.110148 -0.233109
    6 15.693467 0.000000 0.000000 0.000000 0.000000 -0.309516
    7 22.146629 0.000000 0.000000 -0.020904 0.065554 0.100291
    8 1.384163 -0.004728 0.000002 0.066928 0.002563 -0.054057
    9 5.939814 -0.004730 0.000000 -0.037308 -0.003032 0.045492
    10 5.939809 -0.003975 0.000000 0.042164 -0.013938 -0.041317
    11 4.991439 -0.003975 0.000000 -0.060147 -0.010570 0.069658
    12 4.991436 -0.001575 0.000000 0.000000 0.000000 0.000000
    13 1.977383 0.000000 0.000000 0.052944 0.036695 0.295251
    14 3.723980 2.768055 -0.395205 0.000000 -3.141591 -1.570795
    15 2.863741 -0.721077 0.000003 0.000000 0.000000 0.000000
    16 0.000005 0.001564 3.638375 1.016817 -1.401733 2.130467
    17 8.842831 0.000000 -0.000001 0.407899 1.032099 0.593441
    18 9.341934 0.000000 -0.000002 0.000000 0.000000 -0.780638
    19 9.664096 0.000000 0.000003 -1.363296 0.249995 0.445809
    20 0.000005 0.001585 -3.638375 -0.402852 1.289623 2.752253
    21 8.842831 0.000000 0.000001 -0.422410 -0.999076 0.397537
    22 9.341934 0.000000 -0.000001 0.000000 0.000000 -0.444709
    23 9.664095 0.000000 -0.000002 1.434445 -0.232295 -0.064921
    24 6.829857 -0.000001 0.000000 0.001241 0.000000 0.000000
    25 7.919290 -0.636890 0.610527 -1.520273 -0.091531 1.564919
    26 2.515638 0.482270 0.379719 1.593351 0.004972 0.082565
    27 2.687324 0.164273 -1.706054 0.139179 -0.015749 1.668336
  time 39
    0 0.392172 0.716949 31.315111 0.000000 0.000000 -2.556935
    1 -0.526041 0.000001 9.745319 -1.570795 -1.570451 0.000000
    2 -0.000008 0.000010 5.615750 -0.159050 3.141399 -0.089738
    3 15.693467 0.000000 0.000000 0.000000 0.000000 -0.173201
    4 22.146629 -0.000001 0.000000 -0.000393 0.047565 0.071109
    5 0.000008 -0.000006 -5.615750 -0.082431 3.098933 -0.115033
    6 15.693467 0.000000 0.000000 0.000000 0.000000 -0.146329
    7 22.146629 0.000000 0.000000 -0.012574 0.080456 0.052025
    8 1.384163 -0.004728 0.000002 0.069709 0.003585 -0.077609
    9 5.939814 -0.004730 0.000000 -0.033856 -0.003128 0.044459
    10 5.939809 -0.003975 0.000000 0.045305 -0.014286 -0.051932
    11 4.991439 -0.003975 0.000000 -0.059867 -0.012116 0.043987
    12 4.991436 -0.001575 0.000000 0.000000 0.000000 0.000000
    13 1.977383 0.000000 0.000000 0.060146 0.032828 0.331018
    14 3.723980 2.768055 -0.395205 0.000000 -3.141591 -1.570795
    15 2.863741 -0.721077 0.000003 0.000000 0.000000 0.000000
    16 0.000005 0.001564 3.638375 0.868885 -1.410516 2.278308
    17 8.842831 0.000000 -0.000001 0.515063 0.967998 0.691078
    18 9.341934 0.000000 -0.000002 0.000000 0.000000 -0.766044
    19 9.664096 0.000000 0.000003 -1.426236 0.223038 0.434520
    20 0.000005 0.001585 -3.638375 -0.225530 1.294317 2.923554
    21 8.842831 0.000000 0.000001 -0.559442 -0.940047 0.517357
    22 9.341934 0.000000 -0.000001 0.000000 0.000000 -0.415447
    23 9.664095 0.000000 -0.000002 1.553409 -0.230711 -0.066161
    24 6.829857 -0.000001 0.000000 0.001241 0.000000 0.000000
    25 7.919290 -0.636890 0.610527 -1.520273 -0.091531 1.564919
    26 2.515638 0.482270 0.379719 1.593351 0.004972 0.082565
    27 2.687324 0.164273 -1.706054 0.139179 -0.015749 1.668336
  time 40
    0 -0.204917 0.143390 31.315111 0.000000 0.000000 -2.556935
    1 -0.526041 0.000001 9.745319 -1.570795 -1.570451 0.000000
    2 -0.000008 0.000010 5.615750 -0.159050 3.141399 -0.089738
    3 15.693467 0.000000 0.000000 0.000000 0.000000 -0.173201
    4 22.146629 -0.000001 0.000000 -0.000393 0.047565 0.071109
    5 0.000008 -0.000006 -5.615750 -0.082431 3.098933 -0.115033
    6 15.693467 0.000000 0.000000 0.000000 0.000000 -0.146329
    7 22.146629 0.000000 0.000000 -0.012574 0.080456 0.052025
    8 1.384163 -0.004728 0.000002 0.069709 0.003585 -0.077609
    9 5.939814 -0.004730 0.000000 -0.033856 -0.003128 0.044459
    10 5.939809 -0.003975 0.000000 0.045305 -0.014286 -0.051932
    11 4.991439 -0.003975 0.000000 -0.059867 -0.012116 0.043987
    12 4.991436 -0.001575 0.000000 0.000000 0.000000 0.000000
    13 1.977383 0.000000 0.000000 0.060146 0.032828 0.331018
    14 3.723980 2.768055 -0.395205 0.000000 -3.141591 -1.570795
    15 2.863741 -0.721077 0.000003 0.000000 0.000000 0.000000
    16 0.000005 0.001564 3.638375 0.868885 -1.410516 2.278308
    17 8.842831 0.000000 -0.000001 0.515063 0.967998 0.691078
    18 9.341934 0.000000 -0.000002 0.000000 0.000000 -0.766044
    19 9.664096 0.000000 0.000003 -1.426236 0.223038 0.434520
    20 0.000005 0.001585 -3.638375 -0.225530 1.294317 2.923554
    21 8.842831 0.000000 0.000001 -0.559442 -0.940047 0.517357
    22 9.341934 0.000000 -0.000001 0.000000 0.000000 -0.415447
    23 9.664095 0.000000 -0.000002 1.553409 -0.230711 -0.066161
    24 6.829857 -0.000001 0.000000 0.001241 0.000000 0.000000
    25 7.919290 -0.636890 0.610527 -1.520273 -0.091531 1.564919
    26 2.515638 0.482270 0.379719 1.593351 0.004972 0.082565
    27 2.687324 0.164273 -1.706054 0.139179 -0.015749 1.668336
end
