version 1
nodes
  0 "Bip01" -1
  1 "Bip01 Pelvis" 0
  2 "Bip01 L Thigh" 1
  3 "Bip01 L Calf" 2
  4 "Bip01 L Foot" 3
  5 "Bip01 R Thigh" 1
  6 "Bip01 R Calf" 5
  7 "Bip01 R Foot" 6
  8 "Bip01 Spine" 1
  9 "Bip01 Spine1" 8
  10 "Bip01 Spine2" 9
  11 "Bip01 Spine3" 10
  12 "Bip01 Neck" 11
  13 "Bip01 Head" 12
  14 "Bone05" 13
  15 "Bone06" 14
  16 "Bip01 L Clavicle" 12
  17 "Bip01 L UpperArm" 16
  18 "Bip01 L Forearm" 17
  19 "Bip01 L Hand" 18
  20 "Bip01 R Clavicle" 12
  21 "Bip01 R UpperArm" 20
  22 "Bip01 R Forearm" 21
  23 "Bip01 R Hand" 22
  24 "Bip01 R Finger0" 23
  25 "p_desert_eagle" 24
end
skeleton
  time 0
    0 -0.315191 -0.285165 -1.842151 0.000000 1.596147 -1.570834
    1 -9.725540 0.000001 -0.770627 -1.570795 -1.570451 0.000000
    2 -0.000008 0.000010 5.615750 0.000001 3.141591 -0.256995
    3 15.693467 0.000000 0.000000 0.000000 0.000000 -0.200000
    4 22.146629 -0.000001 0.000000 0.000000 0.000000 -0.946661
    5 0.000008 -0.000006 -5.615750 1.220156 2.620965 -0.247236
    6 15.693467 0.000000 0.000000 0.000000 0.000000 -1.355354
    7 22.146629 0.000000 0.000000 0.053227 -0.310164 -0.757511
    8 1.384163 -0.004728 0.000002 -0.000004 -0.000001 0.000796
    9 5.939814 -0.004730 0.000000 0.000000 0.000000 0.000000
    10 5.939809 -0.003975 0.000000 0.000000 0.000000 0.000000
    11 4.991439 -0.003975 0.000000 0.000000 0.000000 0.000000
    12 4.991436 -0.001575 0.000000 0.000000 0.000000 0.000000
    13 1.977383 0.000000 0.000000 -1.072821 0.000000 -0.000798
    14 3.723980 2.768055 -0.395205 0.000000 -3.141591 -1.570795
    15 2.863741 -0.721077 0.000003 0.000000 0.000000 0.000000
    16 0.000005 0.001564 3.638375 -0.000010 -1.283530 3.140806
    17 8.842831 0.000000 -0.000001 -1.476208 0.791539 -0.392656
    18 9.341934 0.000000 -0.000002 0.000000 0.000000 -1.735082
    19 9.664096 0.000000 0.000003 -1.223429 -0.362282 0.029354
    20 0.000005 0.001585 -3.638375 -0.823076 1.160898 2.360894
    21 8.842831 0.000000 0.000001 1.379523 -0.630039 0.221030
    22 9.341934 0.000000 -0.000001 0.000000 0.000000 -0.832542
    23 9.664095 0.000000 -0.000002 1.569555 0.139410 0.000000
    24 6.829857 -0.000001 0.000000 0.001241 0.000000 0.000000
    25 0.021231 -0.065060 1.351066 0.024842 0.006382 -0.003186
  time 1
    0 -0.315191 -0.285165 -1.842151 0.000000 1.596147 -1.570834
    1 -9.725540 0.000001 -0.770627 -1.570795 -1.570451 0.000000
    2 -0.000008 0.000010 5.615750 0.000001 3.141591 -0.256995
    3 15.693467 0.000000 0.000000 0.000000 0.000000 -0.200000
    4 22.146629 -0.000001 0.000000 0.000000 0.000000 -0.946661
    5 0.000008 -0.000006 -5.615750 1.220156 2.620965 -0.247236
    6 15.693467 0.000000 0.000000 0.000000 0.000000 -1.355354
    7 22.146629 0.000000 0.000000 0.053227 -0.310164 -0.757511
    8 1.384163 -0.004728 0.000002 -0.000004 -0.000001 0.000796
    9 5.939814 -0.004730 0.000000 0.000000 0.000000 0.000000
    10 5.939809 -0.003975 0.000000 0.000000 0.000000 0.000000
    11 4.991439 -0.003975 0.000000 0.000000 0.000000 0.000000
    12 4.991436 -0.001575 0.000000 0.000000 0.000000 0.000000
    13 1.977383 0.000000 0.000000 -1.072821 0.000000 -0.000798
    14 3.723980 2.768055 -0.395205 0.000000 -3.141591 -1.570795
    15 2.863741 -0.721077 0.000003 0.000000 0.000000 0.000000
    16 0.000005 0.001564 3.638375 -0.000010 -1.283530 3.140806
    17 8.842831 0.000000 -0.000001 -1.476208 0.791539 -0.392656
    18 9.341934 0.000000 -0.000002 0.000000 0.000000 -1.735082
    19 9.664096 0.000000 0.000003 -1.223429 -0.362282 0.029354
    20 0.000005 0.001585 -3.638375 -0.823076 1.160898 2.360894
    21 8.842831 0.000000 0.000001 1.379523 -0.630039 0.221030
    22 9.341934 0.000000 -0.000001 0.000000 0.000000 -0.832542
    23 9.664095 0.000000 -0.000002 1.569555 0.139410 0.000000
    24 6.829857 -0.000001 0.000000 0.001241 0.000000 0.000000
    25 0.021231 -0.065060 1.351066 0.024842 0.006382 -0.003186
end
