version 1
nodes
  0 "Bip01" -1
  1 "Bip01 Pelvis" 0
  2 "Bip01 L Thigh" 1
  3 "Bip01 L Calf" 2
  4 "Bip01 L Foot" 3
  5 "Bip01 R Thigh" 1
  6 "Bip01 R Calf" 5
  7 "Bip01 R Foot" 6
  8 "Bip01 Spine" 1
  9 "Bip01 Spine1" 8
  10 "Bip01 Spine2" 9
  11 "Bip01 Spine3" 10
  12 "Bip01 Neck" 11
  13 "Bip01 Head" 12
  14 "Bone05" 13
  15 "Bone06" 14
  16 "Bip01 L Clavicle" 12
  17 "Bip01 L UpperArm" 16
  18 "Bip01 L Forearm" 17
  19 "Bip01 L Hand" 18
  20 "Bip01 R Clavicle" 12
  21 "Bip01 R UpperArm" 20
  22 "Bip01 R Forearm" 21
  23 "Bip01 R Hand" 22
  24 "Bip01 R Finger0" 23
  25 "p_desert_eagle" 24
end
skeleton
  time 0
    0 2.665369 -4.859523 25.486808 0.002890 -0.095883 -1.571121
    1 -4.639448 -0.773460 9.745319 -1.570795 -1.570451 0.000000
    2 -0.000008 0.000010 5.615750 0.025886 3.207644 -0.805210
    3 15.693467 0.000000 0.000000 0.000000 0.000000 -1.078159
    4 22.146629 -0.000001 0.000000 0.035721 -0.061333 0.176736
    5 0.000008 -0.000006 -5.615750 -0.058658 3.052056 -0.155850
    6 15.693467 0.000000 0.000000 0.000000 0.000000 -0.995322
    7 22.146629 0.000000 0.000000 0.034741 0.101258 0.747920
    8 1.384163 -0.004728 0.000002 -0.431549 -0.129382 0.271186
    9 5.939814 -0.004730 0.000000 -0.093624 -0.026965 0.225905
    10 5.939809 -0.003975 0.000000 -0.095440 -0.068108 0.133523
    11 4.991439 -0.003975 0.000000 -0.087226 0.060306 0.042835
    12 4.991436 -0.001575 0.000000 0.000000 0.000000 0.000000
    13 1.977383 0.000000 0.000000 0.487211 0.362931 -0.096772
    14 3.723980 2.768055 -0.395205 0.000000 -3.141591 -1.570795
    15 2.863741 -0.721077 0.000003 0.000000 0.000000 0.000000
    16 0.000005 0.001564 3.638375 -0.434985 -1.255866 3.556811
    17 8.842831 0.000000 -0.000001 0.211282 -0.553299 -1.250134
    18 9.341934 0.000000 -0.000002 0.000000 0.000000 -1.284751
    19 9.664096 0.000000 0.000003 -3.625156 -0.063061 -0.298426
    20 0.000005 0.001585 -3.638375 -0.000010 1.082936 3.140787
    21 8.842831 0.000000 0.000001 -0.059593 -0.034879 -2.129820
    22 9.341934 0.000000 -0.000001 0.000000 0.000000 -0.783277
    23 9.664095 0.000000 -0.000002 2.840650 0.149945 0.479203
    24 6.829857 -0.000001 0.000000 0.001241 0.000000 0.000000
    25 0.103265 -0.365850 1.319815 0.024842 0.006382 -0.003186
  time 1
    0 2.380204 -4.925932 25.404774 0.002890 -0.095883 -1.571121
    1 -4.420691 -0.718771 9.745319 -1.570795 -1.570451 0.000000
    2 -0.000008 0.000010 5.615750 0.030105 3.213780 -0.805058
    3 15.693467 0.000000 0.000000 0.000000 0.000000 -1.090145
    4 22.146629 -0.000001 0.000000 0.037948 -0.068487 0.188894
    5 0.000008 -0.000006 -5.615750 -0.053962 3.057328 -0.146075
    6 15.693467 0.000000 0.000000 0.000000 0.000000 -0.993898
    7 22.146629 0.000000 0.000000 0.032403 0.094682 0.755637
    8 1.384163 -0.004728 0.000002 -0.427740 -0.118210 0.263783
    9 5.939814 -0.004730 0.000000 -0.094067 -0.029087 0.205617
    10 5.939809 -0.003975 0.000000 -0.080021 -0.056723 0.116953
    11 4.991439 -0.003975 0.000000 -0.102840 0.088746 0.020169
    12 4.991436 -0.001575 0.000000 0.000000 0.000000 0.000000
    13 1.977383 0.000000 0.000000 0.477912 0.348061 -0.021593
    14 3.723980 2.768055 -0.395205 0.000000 -3.141591 -1.570795
    15 2.863741 -0.721077 0.000003 0.000000 0.000000 0.000000
    16 0.000005 0.001564 3.638375 -1.142046 -1.335413 4.272236
    17 8.842831 0.000000 -0.000001 0.137339 -0.631422 -1.255616
    18 9.341934 0.000000 -0.000002 0.000000 0.000000 -1.072660
    19 9.664096 0.000000 0.000003 -3.740679 -0.072935 -0.313485
    20 0.000005 0.001585 -3.638375 -0.051291 1.081720 3.095511
    21 8.842831 0.000000 0.000001 -0.122264 -0.023418 -2.045758
    22 9.341934 0.000000 -0.000001 0.000000 0.000000 -0.838603
    23 9.664095 0.000000 -0.000002 2.920480 0.136044 0.497874
    24 6.829857 -0.000001 0.000000 0.001241 0.000000 0.000000
    25 0.103265 -0.365850 1.319815 0.024842 0.006382 -0.003186
  time 2
    0 2.141916 -4.949370 25.311021 0.002890 -0.095883 -1.571121
    1 -4.002710 -0.550797 9.745319 -1.570795 -1.570451 0.000000
    2 -0.000008 0.000010 5.615750 0.031639 3.216272 -0.802216
    3 15.693467 0.000000 0.000000 0.000000 0.000000 -1.106170
    4 22.146629 -0.000001 0.000000 0.038735 -0.071265 0.207784
    5 0.000008 -0.000006 -5.615750 -0.050991 3.058383 -0.126168
    6 15.693467 0.000000 0.000000 0.000000 0.000000 -0.982729
    7 22.146629 0.000000 0.000000 0.031624 0.092373 0.764155
    8 1.384163 -0.004728 0.000002 -0.358471 -0.091814 0.242110
    9 5.939814 -0.004730 0.000000 -0.095445 -0.026198 0.177296
    10 5.939809 -0.003975 0.000000 -0.058786 -0.030261 0.093739
    11 4.991439 -0.003975 0.000000 -0.126353 0.133113 -0.012544
    12 4.991436 -0.001575 0.000000 0.000000 0.000000 0.000000
    13 1.977383 0.000000 0.000000 0.394264 0.285628 0.042284
    14 3.723980 2.768055 -0.395205 0.000000 -3.141591 -1.570795
    15 2.863741 -0.721077 0.000003 0.000000 0.000000 0.000000
    16 0.000005 0.001564 3.638375 -2.126276 -1.157964 5.307118
    17 8.842831 0.000000 -0.000001 -0.219798 -0.718559 -1.058102
    18 9.341934 0.000000 -0.000002 0.000000 0.000000 -0.672259
    19 9.664096 0.000000 0.000003 -3.789101 -0.073097 -0.336257
    20 0.000005 0.001585 -3.638375 -0.115725 1.090839 3.038034
    21 8.842831 0.000000 0.000001 -0.192667 -0.015778 -1.862268
    22 9.341934 0.000000 -0.000001 0.000000 0.000000 -0.958527
    23 9.664095 0.000000 -0.000002 2.968018 0.104917 0.543457
    24 6.829857 -0.000001 0.000000 0.001241 0.000000 0.000000
    25 0.103265 -0.365850 1.319815 0.024842 0.006382 -0.003186
  time 3
    0 1.942691 -4.945463 25.217268 0.002890 -0.095883 -1.571121
    1 -3.541758 -0.273445 9.745319 -1.570795 -1.570451 0.000000
    2 -0.000008 0.000010 5.615750 0.030105 3.215026 -0.798664
    3 15.693467 0.000000 0.000000 0.000000 0.000000 -1.122128
    4 22.146629 -0.000001 0.000000 0.038420 -0.069476 0.227262
    5 0.000008 -0.000006 -5.615750 -0.050320 3.055603 -0.104022
    6 15.693467 0.000000 0.000000 0.000000 0.000000 -0.967812
    7 22.146629 0.000000 0.000000 0.032457 0.094239 0.771507
    8 1.384163 -0.004728 0.000002 -0.274174 -0.057528 0.218980
    9 5.939814 -0.004730 0.000000 -0.093636 -0.021860 0.147644
    10 5.939809 -0.003975 0.000000 -0.040004 -0.003500 0.070285
    11 4.991439 -0.003975 0.000000 -0.149028 0.179050 -0.047261
    12 4.991436 -0.001575 0.000000 0.000000 0.000000 0.000000
    13 1.977383 0.000000 0.000000 0.289642 0.206636 0.090339
    14 3.723980 2.768055 -0.395205 0.000000 -3.141591 -1.570795
    15 2.863741 -0.721077 0.000003 0.000000 0.000000 0.000000
    16 0.000005 0.001564 3.638375 -2.367109 -0.836330 5.654284
    17 8.842831 0.000000 -0.000001 -0.716305 -0.660832 -0.677473
    18 9.341934 0.000000 -0.000002 0.000000 0.000000 -0.265190
    19 9.664096 0.000000 0.000003 -3.804416 -0.069135 -0.359959
    20 0.000005 0.001585 -3.638375 -0.192265 1.105916 2.968452
    21 8.842831 0.000000 0.000001 -0.253901 0.013967 -1.643974
    22 9.341934 0.000000 -0.000001 0.000000 0.000000 -1.122724
    23 9.664095 0.000000 -0.000002 2.989206 0.061711 0.607127
    24 6.829857 -0.000001 0.000000 0.001241 0.000000 0.000000
    25 0.103265 -0.365850 1.319815 0.024842 0.006382 -0.003186
  time 4
    0 1.782530 -4.925932 25.146954 0.002890 -0.095883 -1.571121
    1 -3.201904 0.003907 9.745319 -1.570795 -1.570451 0.000000
    2 -0.000008 0.000010 5.615750 0.027804 3.212533 -0.796431
    3 15.693467 0.000000 0.000000 0.000000 0.000000 -1.134046
    4 22.146629 -0.000001 0.000000 0.037791 -0.066205 0.241381
    5 0.000008 -0.000006 -5.615750 -0.050895 3.051960 -0.088138
    6 15.693467 0.000000 0.000000 0.000000 0.000000 -0.956568
    7 22.146629 0.000000 0.000000 0.033854 0.097364 0.776458
    8 1.384163 -0.004728 0.000002 -0.223946 -0.025859 0.203406
    9 5.939814 -0.004730 0.000000 -0.084336 -0.019415 0.123467
    10 5.939809 -0.003975 0.000000 -0.031019 0.008221 0.052145
    11 4.991439 -0.003975 0.000000 -0.160353 0.213170 -0.074293
    12 4.991436 -0.001575 0.000000 0.000000 0.000000 0.000000
    13 1.977383 0.000000 0.000000 0.222178 0.143648 0.129036
    14 3.723980 2.768055 -0.395205 0.000000 -3.141591 -1.570795
    15 2.863741 -0.721077 0.000003 0.000000 0.000000 0.000000
    16 0.000005 0.001564 3.638375 -2.402390 -0.603290 5.805001
    17 8.842831 0.000000 -0.000001 -1.006154 -0.477271 -0.421621
    18 9.341934 0.000000 -0.000002 0.000000 0.000000 -0.033320
    19 9.664096 0.000000 0.000003 -3.820704 -0.067348 -0.377013
    20 0.000005 0.001585 -3.638375 -0.278813 1.122719 2.888289
    21 8.842831 0.000000 0.000001 -0.269364 0.059993 -1.448485
    22 9.341934 0.000000 -0.000001 0.000000 0.000000 -1.310870
    23 9.664095 0.000000 -0.000002 2.990946 0.012604 0.681153
    24 6.829857 -0.000001 0.000000 0.001241 0.000000 0.000000
    25 0.103265 -0.365850 1.319815 0.024842 0.006382 -0.003186
  time 5
    0 1.661432 -4.894681 25.096171 0.002890 -0.095883 -1.571121
    1 -3.010492 0.226570 9.745319 -1.570795 -1.570451 0.000000
    2 -0.000008 0.000010 5.615750 0.025886 3.210329 -0.796127
    3 15.693467 0.000000 0.000000 0.000000 0.000000 -1.141318
    4 22.146629 -0.000001 0.000000 0.037293 -0.063380 0.248963
    5 0.000008 -0.000006 -5.615750 -0.051853 3.049180 -0.080501
    6 15.693467 0.000000 0.000000 0.000000 0.000000 -0.951621
    7 22.146629 0.000000 0.000000 0.035063 0.099999 0.779370
    8 1.384163 -0.004728 0.000002 -0.240800 0.003388 0.195658
    9 5.939814 -0.004730 0.000000 -0.056244 -0.019918 0.106173
    10 5.939809 -0.003975 0.000000 -0.041714 -0.013363 0.041166
    11 4.991439 -0.003975 0.000000 -0.144856 0.230440 -0.087225
    12 4.991436 -0.001575 0.000000 0.000000 0.000000 0.000000
    13 1.977383 0.000000 0.000000 0.220779 0.119377 0.167280
    14 3.723980 2.768055 -0.395205 0.000000 -3.141591 -1.570795
    15 2.863741 -0.721077 0.000003 0.000000 0.000000 0.000000
    16 0.000005 0.001564 3.638375 -2.398363 -0.517064 5.855911
    17 8.842831 0.000000 -0.000001 -1.100289 -0.332953 -0.329573
    18 9.341934 0.000000 -0.000002 0.000000 0.000000 -0.128883
    19 9.664096 0.000000 0.000003 -3.833097 -0.068128 -0.381933
    20 0.000005 0.001585 -3.638375 -0.370604 1.137602 2.801740
    21 8.842831 0.000000 0.000001 -0.222497 0.094740 -1.296220
    22 9.341934 0.000000 -0.000001 0.000000 0.000000 -1.502760
    23 9.664095 0.000000 -0.000002 2.981583 -0.036502 0.757732
    24 6.829857 -0.000001 0.000000 0.001241 0.000000 0.000000
    25 0.103265 -0.365850 1.319815 0.024842 0.006382 -0.003186
  time 6
    0 1.583305 -4.871242 25.061014 0.002890 -0.095883 -1.571121
    1 -2.908926 0.398451 9.745319 -1.570795 -1.570451 0.000000
    2 -0.000008 0.000010 5.615750 0.024161 3.208315 -0.796736
    3 15.693467 0.000000 0.000000 0.000000 0.000000 -1.146031
    4 22.146629 -0.000001 0.000000 0.036821 -0.060697 0.253015
    5 0.000008 -0.000006 -5.615750 -0.053003 3.046784 -0.077039
    6 15.693467 0.000000 0.000000 0.000000 0.000000 -0.949672
    7 22.146629 0.000000 0.000000 0.036192 0.102424 0.781044
    8 1.384163 -0.004728 0.000002 -0.287812 0.031165 0.190326
    9 5.939814 -0.004730 0.000000 -0.017186 -0.021345 0.094532
    10 5.939809 -0.003975 0.000000 -0.064154 -0.053523 0.036267
    11 4.991439 -0.003975 0.000000 -0.112278 0.236192 -0.089633
    12 4.991436 -0.001575 0.000000 0.000000 0.000000 0.000000
    13 1.977383 0.000000 0.000000 0.255350 0.120555 0.199242
    14 3.723980 2.768055 -0.395205 0.000000 -3.141591 -1.570795
    15 2.863741 -0.721077 0.000003 0.000000 0.000000 0.000000
    16 0.000005 0.001564 3.638375 -2.396350 -0.527661 5.847474
    17 8.842831 0.000000 -0.000001 -1.109652 -0.233798 -0.318936
    18 9.341934 0.000000 -0.000002 0.000000 0.000000 -0.427944
    19 9.664096 0.000000 0.000003 -3.826901 -0.067738 -0.379473
    20 0.000005 0.001585 -3.638375 -0.459821 1.147791 2.716621
    21 8.842831 0.000000 0.000001 -0.144637 0.119209 -1.170759
    22 9.341934 0.000000 -0.000001 0.000000 0.000000 -1.678129
    23 9.664095 0.000000 -0.000002 2.970899 -0.080896 0.828258
    24 6.829857 -0.000001 0.000000 0.001241 0.000000 0.000000
    25 0.103265 -0.365850 1.319815 0.024842 0.006382 -0.003186
  time 7
    0 1.536428 -4.859523 25.041482 0.002890 -0.095883 -1.571121
    1 -2.885488 0.480484 9.745319 -1.570795 -1.570451 0.000000
    2 -0.000008 0.000010 5.615750 0.023394 3.207452 -0.797852
    3 15.693467 0.000000 0.000000 0.000000 0.000000 -1.148321
    4 22.146629 -0.000001 0.000000 0.036717 -0.059497 0.254192
    5 0.000008 -0.000006 -5.615750 -0.053770 3.045825 -0.077141
    6 15.693467 0.000000 0.000000 0.000000 0.000000 -0.950571
    7 22.146629 0.000000 0.000000 0.036783 0.103497 0.782063
    8 1.384163 -0.004728 0.000002 -0.308346 0.046587 0.187334
    9 5.939814 -0.004730 0.000000 0.008665 -0.023010 0.091334
    10 5.939809 -0.003975 0.000000 -0.078760 -0.077936 0.036732
    11 4.991439 -0.003975 0.000000 -0.089253 0.232897 -0.086358
    12 4.991436 -0.001575 0.000000 0.000000 0.000000 0.000000
    13 1.977383 0.000000 0.000000 0.291704 0.127867 0.210995
    14 3.723980 2.768055 -0.395205 0.000000 -3.141591 -1.570795
    15 2.863741 -0.721077 0.000003 0.000000 0.000000 0.000000
    16 0.000005 0.001564 3.638375 -2.402390 -0.603290 5.805001
    17 8.842831 0.000000 -0.000001 -1.045015 -0.193188 -0.353055
    18 9.341934 0.000000 -0.000002 0.000000 0.000000 -0.697891
    19 9.664096 0.000000 0.000003 -3.820704 -0.067348 -0.377013
    20 0.000005 0.001585 -3.638375 -0.535980 1.151730 2.643703
    21 8.842831 0.000000 0.000001 -0.067392 0.156048 -1.065296
    22 9.341934 0.000000 -0.000001 0.000000 0.000000 -1.816535
    23 9.664095 0.000000 -0.000002 2.970239 -0.117608 0.882958
    24 6.829857 -0.000001 0.000000 0.001241 0.000000 0.000000
    25 0.103265 -0.365850 1.319815 0.024842 0.006382 -0.003186
  time 8
    0 1.618462 -4.859523 25.029763 0.002890 -0.095883 -1.571121
    1 -2.905020 0.511735 9.745319 -1.570795 -1.570451 0.000000
    2 -0.000008 0.000010 5.615750 0.021380 3.204576 -0.799324
    3 15.693467 0.000000 0.000000 0.000000 0.000000 -1.149937
    4 22.146629 -0.000001 0.000000 0.035747 -0.056131 0.254322
    5 0.000008 -0.000006 -5.615750 -0.055495 3.042949 -0.078108
    6 15.693467 0.000000 0.000000 0.000000 0.000000 -0.951321
    7 22.146629 0.000000 0.000000 0.037858 0.106692 0.782063
    8 1.384163 -0.004728 0.000002 -0.293550 0.052415 0.186107
    9 5.939814 -0.004730 0.000000 0.019966 -0.024832 0.093662
    10 5.939809 -0.003975 0.000000 -0.082572 -0.082214 0.039232
    11 4.991439 -0.003975 0.000000 -0.080072 0.225310 -0.081619
    12 4.991436 -0.001575 0.000000 0.000000 0.000000 0.000000
    13 1.977383 0.000000 0.000000 0.310126 0.131268 0.205751
    14 3.723980 2.768055 -0.395205 0.000000 -3.141591 -1.570795
    15 2.863741 -0.721077 0.000003 0.000000 0.000000 0.000000
    16 0.000005 0.001564 3.638375 -2.411785 -0.718548 5.750256
    17 8.842831 0.000000 -0.000001 -0.925105 -0.186724 -0.408693
    18 9.341934 0.000000 -0.000002 0.000000 0.000000 -0.892128
    19 9.664096 0.000000 0.000003 -3.820704 -0.067348 -0.377013
    20 0.000005 0.001585 -3.638375 -0.552374 1.151827 2.627975
    21 8.842831 0.000000 0.000001 -0.012589 0.200892 -1.033229
    22 9.341934 0.000000 -0.000001 0.000000 0.000000 -1.837394
    23 9.664095 0.000000 -0.000002 2.971079 -0.123983 0.903743
    24 6.829857 -0.000001 0.000000 0.001241 0.000000 0.000000
    25 0.103265 -0.365850 1.319815 0.024842 0.006382 -0.003186
  time 9
    0 1.848938 -4.859523 25.025856 0.002890 -0.095883 -1.571121
    1 -2.924552 0.539080 9.745319 -1.570795 -1.570451 0.000000
    2 -0.000008 0.000010 5.615750 0.016587 3.198153 -0.800897
    3 15.693467 0.000000 0.000000 0.000000 0.000000 -1.151822
    4 22.146629 -0.000001 0.000000 0.033808 -0.048318 0.254584
    5 0.000008 -0.000006 -5.615750 -0.059329 3.036335 -0.077955
    6 15.693467 0.000000 0.000000 0.000000 0.000000 -0.949597
    7 22.146629 0.000000 0.000000 0.040545 0.113828 0.781117
    8 1.384163 -0.004728 0.000002 -0.273171 0.058279 0.184956
    9 5.939814 -0.004730 0.000000 0.031340 -0.026917 0.096630
    10 5.939809 -0.003975 0.000000 -0.085740 -0.084995 0.042108
    11 4.991439 -0.003975 0.000000 -0.071193 0.216562 -0.076386
    12 4.991436 -0.001575 0.000000 0.000000 0.000000 0.000000
    13 1.977383 0.000000 0.000000 0.310615 0.134824 0.193907
    14 3.723980 2.768055 -0.395205 0.000000 -3.141591 -1.570795
    15 2.863741 -0.721077 0.000003 0.000000 0.000000 0.000000
    16 0.000005 0.001564 3.638375 -2.412840 -0.862443 5.686594
    17 8.842831 0.000000 -0.000001 -0.780885 -0.182171 -0.468258
    18 9.341934 0.000000 -0.000002 0.000000 0.000000 -1.108885
    19 9.664096 0.000000 0.000003 -3.820704 -0.067348 -0.377013
    20 0.000005 0.001585 -3.638375 -0.535980 1.151730 2.643703
    21 8.842831 0.000000 0.000001 0.020799 0.234184 -1.020107
    22 9.341934 0.000000 -0.000001 0.000000 0.000000 -1.802688
    23 9.664095 0.000000 -0.000002 2.970239 -0.117608 0.882958
    24 6.829857 -0.000001 0.000000 0.001241 0.000000 0.000000
    25 0.103265 -0.365850 1.319815 0.024842 0.006382 -0.003186
  time 10
    0 2.118477 -4.859523 25.025856 0.002890 -0.095883 -1.571121
    1 -2.951896 0.562518 9.745319 -1.570795 -1.570451 0.000000
    2 -0.000008 0.000010 5.615750 0.011026 3.190867 -0.802165
    3 15.693467 0.000000 0.000000 0.000000 0.000000 -1.153034
    4 22.146629 -0.000001 0.000000 0.031632 -0.039374 0.254584
    5 0.000008 -0.000006 -5.615750 -0.063643 3.028858 -0.077395
    6 15.693467 0.000000 0.000000 0.000000 0.000000 -0.946673
    7 22.146629 0.000000 0.000000 0.043661 0.121920 0.779661
    8 1.384163 -0.004728 0.000002 -0.248468 0.064017 0.183958
    9 5.939814 -0.004730 0.000000 0.042557 -0.029206 0.100161
    10 5.939809 -0.003975 0.000000 -0.088333 -0.086469 0.045312
    11 4.991439 -0.003975 0.000000 -0.062757 0.206818 -0.070764
    12 4.991436 -0.001575 0.000000 0.000000 0.000000 0.000000
    13 1.977383 0.000000 0.000000 0.286111 0.140447 0.174739
    14 3.723980 2.768055 -0.395205 0.000000 -3.141591 -1.570795
    15 2.863741 -0.721077 0.000003 0.000000 0.000000 0.000000
    16 0.000005 0.001564 3.638375 -2.390597 -1.026165 5.608552
    17 8.842831 0.000000 -0.000001 -0.621831 -0.172429 -0.518251
    18 9.341934 0.000000 -0.000002 0.000000 0.000000 -1.332088
    19 9.664096 0.000000 0.000003 -3.820704 -0.067348 -0.377013
    20 0.000005 0.001585 -3.638375 -0.539125 1.151025 2.640843
    21 8.842831 0.000000 0.000001 0.046661 0.256833 -0.930222
    22 9.341934 0.000000 -0.000001 0.000000 0.000000 -1.819506
    23 9.664095 0.000000 -0.000002 2.977081 -0.127033 0.826617
    24 6.829857 -0.000001 0.000000 0.001241 0.000000 0.000000
    25 0.103265 -0.365850 1.319815 0.024842 0.006382 -0.003186
  time 11
    0 2.321609 -4.859523 25.029763 0.002890 -0.095883 -1.571121
    1 -2.983147 0.582050 9.745319 -1.570795 -1.570451 0.000000
    2 -0.000008 0.000010 5.615750 0.006808 3.185307 -0.802926
    3 15.693467 0.000000 0.000000 0.000000 0.000000 -1.153169
    4 22.146629 -0.000001 0.000000 0.029981 -0.032573 0.253930
    5 0.000008 -0.000006 -5.615750 -0.066901 3.023106 -0.077243
    6 15.693467 0.000000 0.000000 0.000000 0.000000 -0.944350
    7 22.146629 0.000000 0.000000 0.045999 0.128054 0.778132
    8 1.384163 -0.004728 0.000002 -0.220652 0.069397 0.183191
    9 5.939814 -0.004730 0.000000 0.053379 -0.031651 0.104203
    10 5.939809 -0.003975 0.000000 -0.090436 -0.086840 0.048804
    11 4.991439 -0.003975 0.000000 -0.054810 0.196296 -0.064858
    12 4.991436 -0.001575 0.000000 0.000000 0.000000 0.000000
    13 1.977383 0.000000 0.000000 0.242696 0.146959 0.150147
    14 3.723980 2.768055 -0.395205 0.000000 -3.141591 -1.570795
    15 2.863741 -0.721077 0.000003 0.000000 0.000000 0.000000
    16 0.000005 0.001564 3.638375 -2.312557 -1.198171 5.488803
    17 8.842831 0.000000 -0.000001 -0.459507 -0.156403 -0.547706
    18 9.341934 0.000000 -0.000002 0.000000 0.000000 -1.545882
    19 9.664096 0.000000 0.000003 -3.820704 -0.067348 -0.377013
    20 0.000005 0.001585 -3.638375 -0.542271 1.150320 2.637984
    21 8.842831 0.000000 0.000001 0.069171 0.269841 -0.822233
    22 9.341934 0.000000 -0.000001 0.000000 0.000000 -1.840425
    23 9.664095 0.000000 -0.000002 2.986925 -0.138795 0.752335
    24 6.829857 -0.000001 0.000000 0.001241 0.000000 0.000000
    25 0.103265 -0.365850 1.319815 0.024842 0.006382 -0.003186
  time 12
    0 2.352860 -4.859523 25.041482 0.002890 -0.095883 -1.571121
    1 -3.014398 0.593769 9.745319 -1.570795 -1.570451 0.000000
    2 -0.000008 0.000010 5.615750 0.006041 3.184157 -0.803180
    3 15.693467 0.000000 0.000000 0.000000 0.000000 -1.152024
    4 22.146629 -0.000001 0.000000 0.029614 -0.031278 0.252558
    5 0.000008 -0.000006 -5.615750 -0.067668 3.022147 -0.078464
    6 15.693467 0.000000 0.000000 0.000000 0.000000 -0.944575
    7 22.146629 0.000000 0.000000 0.046375 0.129243 0.777259
    8 1.384163 -0.004728 0.000002 -0.191010 0.074203 0.182731
    9 5.939814 -0.004730 0.000000 0.063554 -0.034216 0.108706
    10 5.939809 -0.003975 0.000000 -0.092090 -0.086301 0.052535
    11 4.991439 -0.003975 0.000000 -0.047446 0.185186 -0.058713
    12 4.991436 -0.001575 0.000000 0.000000 0.000000 0.000000
    13 1.977383 0.000000 0.000000 0.192710 0.151916 0.123475
    14 3.723980 2.768055 -0.395205 0.000000 -3.141591 -1.570795
    15 2.863741 -0.721077 0.000003 0.000000 0.000000 0.000000
    16 0.000005 0.001564 3.638375 -2.062042 -1.360027 5.212201
    17 8.842831 0.000000 -0.000001 -0.305022 -0.138284 -0.550733
    18 9.341934 0.000000 -0.000002 0.000000 0.000000 -1.734342
    19 9.664096 0.000000 0.000003 -3.820704 -0.067348 -0.377013
    20 0.000005 0.001585 -3.638375 -0.535980 1.151730 2.643703
    21 8.842831 0.000000 0.000001 0.085044 0.274662 -0.753889
    22 9.341934 0.000000 -0.000001 0.000000 0.000000 -1.827826
    23 9.664095 0.000000 -0.000002 2.996889 -0.149052 0.683050
    24 6.829857 -0.000001 0.000000 0.001241 0.000000 0.000000
    25 0.103265 -0.365850 1.319815 0.024842 0.006382 -0.003186
  time 13
    0 2.130197 -4.859523 25.053201 0.002890 -0.095883 -1.571121
    1 -3.053462 0.593769 9.745319 -1.570795 -1.570451 0.000000
    2 -0.000008 0.000010 5.615750 0.010259 3.189717 -0.802825
    3 15.693467 0.000000 0.000000 0.000000 0.000000 -1.149331
    4 22.146629 -0.000001 0.000000 0.031239 -0.038009 0.250205
    5 0.000008 -0.000006 -5.615750 -0.064697 3.027899 -0.081723
    6 15.693467 0.000000 0.000000 0.000000 0.000000 -0.948772
    7 22.146629 0.000000 0.000000 0.043984 0.123156 0.777477
    8 1.384163 -0.004728 0.000002 -0.160749 0.078219 0.182616
    9 5.939814 -0.004730 0.000000 0.072866 -0.036817 0.113592
    10 5.939809 -0.003975 0.000000 -0.093365 -0.085031 0.056479
    11 4.991439 -0.003975 0.000000 -0.040735 0.173669 -0.052434
    12 4.991436 -0.001575 0.000000 0.000000 0.000000 0.000000
    13 1.977383 0.000000 0.000000 0.138564 0.155383 0.095763
    14 3.723980 2.768055 -0.395205 0.000000 -3.141591 -1.570795
    15 2.863741 -0.721077 0.000003 0.000000 0.000000 0.000000
    16 0.000005 0.001564 3.638375 -1.156331 -1.451802 4.294479
    17 8.842831 0.000000 -0.000001 -0.167852 -0.124080 -0.527824
    18 9.341934 0.000000 -0.000002 0.000000 0.000000 -1.881612
    19 9.664096 0.000000 0.000003 -3.820704 -0.067348 -0.377013
    20 0.000005 0.001585 -3.638375 -0.522254 1.155183 2.656094
    21 8.842831 0.000000 0.000001 0.096333 0.275844 -0.725541
    22 9.341934 0.000000 -0.000001 0.000000 0.000000 -1.784860
    23 9.664095 0.000000 -0.000002 3.007032 -0.158913 0.621057
    24 6.829857 -0.000001 0.000000 0.001241 0.000000 0.000000
    25 0.103265 -0.365850 1.319815 0.024842 0.006382 -0.003186
  time 14
    0 1.720028 -4.859523 25.068826 0.002890 -0.095883 -1.571121
    1 -3.096432 0.585956 9.745319 -1.570795 -1.570451 0.000000
    2 -0.000008 0.000010 5.615750 0.018121 3.200071 -0.801709
    3 15.693467 0.000000 0.000000 0.000000 0.000000 -1.144887
    4 22.146629 -0.000001 0.000000 0.034410 -0.050648 0.246871
    5 0.000008 -0.000006 -5.615750 -0.058946 3.038827 -0.086356
    6 15.693467 0.000000 0.000000 0.000000 0.000000 -0.955294
    7 22.146629 0.000000 0.000000 0.039631 0.111636 0.778278
    8 1.384163 -0.004728 0.000002 -0.131158 0.081232 0.182846
    9 5.939814 -0.004730 0.000000 0.081052 -0.039393 0.118811
    10 5.939809 -0.003975 0.000000 -0.094346 -0.083245 0.060587
    11 4.991439 -0.003975 0.000000 -0.034746 0.161960 -0.046065
    12 4.991436 -0.001575 0.000000 0.000000 0.000000 0.000000
    13 1.977383 0.000000 0.000000 0.082705 0.157472 0.067916
    14 3.723980 2.768055 -0.395205 0.000000 -3.141591 -1.570795
    15 2.863741 -0.721077 0.000003 0.000000 0.000000 0.000000
    16 0.000005 0.001564 3.638375 -0.261934 -1.384561 3.398424
    17 8.842831 0.000000 -0.000001 -0.055387 -0.118253 -0.484377
    18 9.341934 0.000000 -0.000002 0.000000 0.000000 -1.971767
    19 9.664096 0.000000 0.000003 -3.820704 -0.067348 -0.377013
    20 0.000005 0.001585 -3.638375 -0.509386 1.159220 2.667723
    21 8.842831 0.000000 0.000001 0.107964 0.274207 -0.700140
    22 9.341934 0.000000 -0.000001 0.000000 0.000000 -1.739815
    23 9.664095 0.000000 -0.000002 3.019697 -0.170912 0.554032
    24 6.829857 -0.000001 0.000000 0.001241 0.000000 0.000000
    25 0.103265 -0.365850 1.319815 0.024842 0.006382 -0.003186
  time 15
    0 1.247357 -4.859523 25.092265 0.002890 -0.095883 -1.571121
    1 -3.143308 0.562518 9.745319 -1.570795 -1.570451 0.000000
    2 -0.000008 0.000010 5.615750 0.027229 3.212150 -0.800034
    3 15.693467 0.000000 0.000000 0.000000 0.000000 -1.139029
    4 22.146629 -0.000001 0.000000 0.038132 -0.065404 0.242753
    5 0.000008 -0.000006 -5.615750 -0.052045 3.051577 -0.091091
    6 15.693467 0.000000 0.000000 0.000000 0.000000 -0.961965
    7 22.146629 0.000000 0.000000 0.034580 0.098063 0.779006
    8 1.384163 -0.004728 0.000002 -0.103471 0.083025 0.183383
    9 5.939814 -0.004730 0.000000 0.087895 -0.041898 0.124312
    10 5.939809 -0.003975 0.000000 -0.095089 -0.081136 0.064846
    11 4.991439 -0.003975 0.000000 -0.029549 0.150251 -0.039681
    12 4.991436 -0.001575 0.000000 0.000000 0.000000 0.000000
    13 1.977383 0.000000 0.000000 0.027580 0.158517 0.040747
    14 3.723980 2.768055 -0.395205 0.000000 -3.141591 -1.570795
    15 2.863741 -0.721077 0.000003 0.000000 0.000000 0.000000
    16 0.000005 0.001564 3.638375 -0.032032 -1.283399 3.171486
    17 8.842831 0.000000 -0.000001 0.026565 -0.121895 -0.428575
    18 9.341934 0.000000 -0.000002 0.000000 0.000000 -1.988880
    19 9.664096 0.000000 0.000003 -3.820704 -0.067348 -0.377013
    20 0.000005 0.001585 -3.638375 -0.496709 1.163694 2.678970
    21 8.842831 0.000000 0.000001 0.119185 0.269659 -0.679721
    22 9.341934 0.000000 -0.000001 0.000000 0.000000 -1.692748
    23 9.664095 0.000000 -0.000002 3.034763 -0.183981 0.483178
    24 6.829857 -0.000001 0.000000 0.001241 0.000000 0.000000
    25 0.103265 -0.365850 1.319815 0.024842 0.006382 -0.003186
  time 16
    0 0.845001 -4.859523 25.111796 0.002890 -0.095883 -1.571121
    1 -3.194091 0.531267 9.745319 -1.570795 -1.570451 0.000000
    2 -0.000008 0.000010 5.615750 0.035282 3.222983 -0.798055
    3 15.693467 0.000000 0.000000 0.000000 0.000000 -1.132565
    4 22.146629 -0.000001 0.000000 0.041408 -0.078513 0.238309
    5 0.000008 -0.000006 -5.615750 -0.045623 3.062888 -0.095214
    6 15.693467 0.000000 0.000000 0.000000 0.000000 -0.967137
    7 22.146629 0.000000 0.000000 0.030039 0.085890 0.779079
    8 1.384163 -0.004728 0.000002 -0.078949 0.083366 0.184189
    9 5.939814 -0.004730 0.000000 0.093156 -0.044235 0.130042
    10 5.939809 -0.003975 0.000000 -0.095664 -0.078883 0.069192
    11 4.991439 -0.003975 0.000000 -0.025215 0.138746 -0.033326
    12 4.991436 -0.001575 0.000000 0.000000 0.000000 0.000000
    13 1.977383 0.000000 0.000000 -0.024329 0.158939 0.014753
    14 3.723980 2.768055 -0.395205 0.000000 -3.141591 -1.570795
    15 2.863741 -0.721077 0.000003 0.000000 0.000000 0.000000
    16 0.000005 0.001564 3.638375 -0.079201 -1.230621 3.215493
    17 8.842831 0.000000 -0.000001 0.060068 -0.134187 -0.362546
    18 9.341934 0.000000 -0.000002 0.000000 0.000000 -1.787901
    19 9.664096 0.000000 0.000003 -3.820704 -0.067348 -0.377013
    20 0.000005 0.001585 -3.638375 -0.484127 1.168460 2.690218
    21 8.842831 0.000000 0.000001 0.129106 0.262200 -0.666389
    22 9.341934 0.000000 -0.000001 0.000000 0.000000 -1.643840
    23 9.664095 0.000000 -0.000002 3.051749 -0.197089 0.409844
    24 6.829857 -0.000001 0.000000 0.001241 0.000000 0.000000
    25 0.103265 -0.365850 1.319815 0.024842 0.006382 -0.003186
  time 17
    0 0.630151 -4.859523 25.139141 0.002890 -0.095883 -1.571121
    1 -3.248780 0.484391 9.745319 -1.570795 -1.570451 0.000000
    2 -0.000008 0.000010 5.615750 0.039979 3.229406 -0.796482
    3 15.693467 0.000000 0.000000 0.000000 0.000000 -1.126976
    4 22.146629 -0.000001 0.000000 0.043295 -0.086257 0.234387
    5 0.000008 -0.000006 -5.615750 -0.041789 3.069695 -0.098320
    6 15.693467 0.000000 0.000000 0.000000 0.000000 -0.969986
    7 22.146629 0.000000 0.000000 0.027272 0.078660 0.778278
    8 1.384163 -0.004728 0.000002 -0.058852 0.082039 0.185263
    9 5.939814 -0.004730 0.000000 0.096608 -0.046332 0.135978
    10 5.939809 -0.003975 0.000000 -0.096140 -0.076701 0.073614
    11 4.991439 -0.003975 0.000000 -0.021789 0.127660 -0.027047
    12 4.991436 -0.001575 0.000000 0.000000 0.000000 0.000000
    13 1.977383 0.000000 0.000000 -0.070645 0.159184 -0.009523
    14 3.723980 2.768055 -0.395205 0.000000 -3.141591 -1.570795
    15 2.863741 -0.721077 0.000003 0.000000 0.000000 0.000000
    16 0.000005 0.001564 3.638375 -0.307378 -1.222259 3.430734
    17 8.842831 0.000000 -0.000001 0.046588 -0.150394 -0.294226
    18 9.341934 0.000000 -0.000002 0.000000 0.000000 -1.345274
    19 9.664096 0.000000 0.000003 -3.820704 -0.067348 -0.377013
    20 0.000005 0.001585 -3.638375 -0.470973 1.173348 2.701847
    21 8.842831 0.000000 0.000001 0.136974 0.252285 -0.662249
    22 9.341934 0.000000 -0.000001 0.000000 0.000000 -1.593327
    23 9.664095 0.000000 -0.000002 3.070116 -0.209366 0.335417
    24 6.829857 -0.000001 0.000000 0.001241 0.000000 0.000000
    25 0.103265 -0.365850 1.319815 0.024842 0.006382 -0.003186
  time 18
    0 0.653589 -4.859523 25.162579 0.002890 -0.095883 -1.571121
    1 -3.303469 0.425795 9.745319 -1.570795 -1.570451 0.000000
    2 -0.000008 0.000010 5.615750 0.040555 3.230077 -0.795873
    3 15.693467 0.000000 0.000000 0.000000 0.000000 -1.123273
    4 22.146629 -0.000001 0.000000 0.043426 -0.087198 0.231315
    5 0.000008 -0.000006 -5.615750 -0.041310 3.070557 -0.100407
    6 15.693467 0.000000 0.000000 0.000000 0.000000 -0.970511
    7 22.146629 0.000000 0.000000 0.026815 0.077728 0.776676
    8 1.384163 -0.004728 0.000002 -0.044468 0.078865 0.186605
    9 5.939814 -0.004730 0.000000 0.097998 -0.048118 0.142016
    10 5.939809 -0.003975 0.000000 -0.096603 -0.074760 0.078074
    11 4.991439 -0.003975 0.000000 -0.019319 0.117185 -0.020917
    12 4.991436 -0.001575 0.000000 0.000000 0.000000 0.000000
    13 1.977383 0.000000 0.000000 -0.108852 0.159828 -0.031945
    14 3.723980 2.768055 -0.395205 0.000000 -3.141591 -1.570795
    15 2.863741 -0.721077 0.000003 0.000000 0.000000 0.000000
    16 0.000005 0.001564 3.638375 -0.596147 -1.207770 3.705993
    17 8.842831 0.000000 -0.000001 0.009701 -0.163141 -0.235643
    18 9.341934 0.000000 -0.000002 0.000000 0.000000 -0.827604
    19 9.664096 0.000000 0.000003 -3.820704 -0.067348 -0.377013
    20 0.000005 0.001585 -3.638375 -0.456866 1.178212 2.714524
    21 8.842831 0.000000 0.000001 0.142105 0.240187 -0.669125
    22 9.341934 0.000000 -0.000001 0.000000 0.000000 -1.541328
    23 9.664095 0.000000 -0.000002 3.089083 -0.220019 0.261281
    24 6.829857 -0.000001 0.000000 0.001241 0.000000 0.000000
    25 0.103265 -0.365850 1.319815 0.024842 0.006382 -0.003186
  time 19
    0 0.829376 -4.859523 25.189924 0.002890 -0.095883 -1.571121
    1 -3.365971 0.355481 9.745319 -1.570795 -1.570451 0.000000
    2 -0.000008 0.000010 5.615750 0.038637 3.227201 -0.795873
    3 15.693467 0.000000 0.000000 0.000000 0.000000 -1.120781
    4 22.146629 -0.000001 0.000000 0.042430 -0.083856 0.228831
    5 0.000008 -0.000006 -5.615750 -0.043035 3.067873 -0.102087
    6 15.693467 0.000000 0.000000 0.000000 0.000000 -0.969836
    7 22.146629 0.000000 0.000000 0.027809 0.080783 0.774492
    8 1.384163 -0.004728 0.000002 -0.037006 0.073647 0.188216
    9 5.939814 -0.004730 0.000000 0.097111 -0.049496 0.148156
    10 5.939809 -0.003975 0.000000 -0.097136 -0.073274 0.082533
    11 4.991439 -0.003975 0.000000 -0.017851 0.107526 -0.014981
    12 4.991436 -0.001575 0.000000 0.000000 0.000000 0.000000
    13 1.977383 0.000000 0.000000 -0.136571 0.161362 -0.052334
    14 3.723980 2.768055 -0.395205 0.000000 -3.141591 -1.570795
    15 2.863741 -0.721077 0.000003 0.000000 0.000000 0.000000
    16 0.000005 0.001564 3.638375 -0.789522 -1.173558 3.889787
    17 8.842831 0.000000 -0.000001 -0.021264 -0.172429 -0.198251
    18 9.341934 0.000000 -0.000002 0.000000 0.000000 -0.401053
    19 9.664096 0.000000 0.000003 -3.820704 -0.067348 -0.377013
    20 0.000005 0.001585 -3.638375 -0.441520 1.182880 2.728440
    21 8.842831 0.000000 0.000001 0.143884 0.226361 -0.689123
    22 9.341934 0.000000 -0.000001 0.000000 0.000000 -1.488022
    23 9.664095 0.000000 -0.000002 3.107870 -0.228454 0.188968
    24 6.829857 -0.000001 0.000000 0.001241 0.000000 0.000000
    25 0.103265 -0.365850 1.319815 0.024842 0.006382 -0.003186
  time 20
    0 1.091102 -4.859523 25.221175 0.002890 -0.095883 -1.571121
    1 -3.436286 0.273447 9.745319 -1.570795 -1.570451 0.000000
    2 -0.000008 0.000010 5.615750 0.035282 3.222600 -0.796178
    3 15.693467 0.000000 0.000000 0.000000 0.000000 -1.118694
    4 22.146629 -0.000001 0.000000 0.040936 -0.078372 0.226412
    5 0.000008 -0.000006 -5.615750 -0.045815 3.063368 -0.103615
    6 15.693467 0.000000 0.000000 0.000000 0.000000 -0.968562
    7 22.146629 0.000000 0.000000 0.029582 0.085797 0.772017
    8 1.384163 -0.004728 0.000002 -0.037778 0.066187 0.190173
    9 5.939814 -0.004730 0.000000 0.093720 -0.050383 0.154321
    10 5.939809 -0.003975 0.000000 -0.097794 -0.072423 0.086955
    11 4.991439 -0.003975 0.000000 -0.017431 0.098897 -0.009270
    12 4.991436 -0.001575 0.000000 0.000000 0.000000 0.000000
    13 1.977383 0.000000 0.000000 -0.151323 0.164318 -0.070597
    14 3.723980 2.768055 -0.395205 0.000000 -3.141591 -1.570795
    15 2.863741 -0.721077 0.000003 0.000000 0.000000 0.000000
    16 0.000005 0.001564 3.638375 -0.873890 -1.139398 3.967063
    17 8.842831 0.000000 -0.000001 -0.026058 -0.184812 -0.252989
    18 9.341934 0.000000 -0.000002 0.000000 0.000000 -0.100511
    19 9.664096 0.000000 0.000003 -3.820704 -0.067348 -0.377013
    20 0.000005 0.001585 -3.638375 -0.424363 1.187160 2.744073
    21 8.842831 0.000000 0.000001 0.141626 0.211353 -0.723997
    22 9.341934 0.000000 -0.000001 0.000000 0.000000 -1.433527
    23 9.664095 0.000000 -0.000002 3.125397 -0.234276 0.120120
    24 6.829857 -0.000001 0.000000 0.001241 0.000000 0.000000
    25 0.103265 -0.365850 1.319815 0.024842 0.006382 -0.003186
  time 21
    0 1.360642 -4.859523 25.252426 0.002890 -0.095883 -1.571121
    1 -3.518320 0.171881 9.745319 -1.570795 -1.570451 0.000000
    2 -0.000008 0.000010 5.615750 0.032214 3.218286 -0.796685
    3 15.693467 0.000000 0.000000 0.000000 0.000000 -1.116068
    4 22.146629 -0.000001 0.000000 0.039547 -0.073289 0.223210
    5 0.000008 -0.000006 -5.615750 -0.048594 3.059150 -0.106008
    6 15.693467 0.000000 0.000000 0.000000 0.000000 -0.967962
    7 22.146629 0.000000 0.000000 0.031221 0.090461 0.769396
    8 1.384163 -0.004728 0.000002 -0.051390 0.054280 0.192973
    9 5.939814 -0.004730 0.000000 0.085390 -0.050419 0.160973
    10 5.939809 -0.003975 0.000000 -0.098327 -0.071943 0.091565
    11 4.991439 -0.003975 0.000000 -0.019249 0.091562 -0.003633
    12 4.991436 -0.001575 0.000000 0.000000 0.000000 0.000000
    13 1.977383 0.000000 0.000000 -0.143842 0.170074 -0.086962
    14 3.723980 2.768055 -0.395205 0.000000 -3.141591 -1.570795
    15 2.863741 -0.721077 0.000003 0.000000 0.000000 0.000000
    16 0.000005 0.001564 3.638375 -0.888846 -1.132482 3.980582
    17 8.842831 0.000000 -0.000001 -0.029837 -0.204024 -0.342828
    18 9.341934 0.000000 -0.000002 0.000000 0.000000 -0.036654
    19 9.664096 0.000000 0.000003 -3.820704 -0.067348 -0.377013
    20 0.000005 0.001585 -3.638375 -0.405109 1.190857 2.761802
    21 8.842831 0.000000 0.000001 0.134374 0.194616 -0.782447
    22 9.341934 0.000000 -0.000001 0.000000 0.000000 -1.378082
    23 9.664095 0.000000 -0.000002 3.140702 -0.237206 0.056304
    24 6.829857 -0.000001 0.000000 0.001241 0.000000 0.000000
    25 0.103265 -0.365850 1.319815 0.024842 0.006382 -0.003186
  time 22
    0 1.567679 -4.859523 25.283677 0.002890 -0.095883 -1.571121
    1 -3.623792 0.039065 9.745319 -1.570795 -1.570451 0.000000
    2 -0.000008 0.000010 5.615750 0.030776 3.216272 -0.797142
    3 15.693467 0.000000 0.000000 0.000000 0.000000 -1.112095
    4 22.146629 -0.000001 0.000000 0.038892 -0.070864 0.218765
    5 0.000008 -0.000006 -5.615750 -0.050032 3.057424 -0.110080
    6 15.693467 0.000000 0.000000 0.000000 0.000000 -0.969311
    7 22.146629 0.000000 0.000000 0.031974 0.092606 0.766848
    8 1.384163 -0.004728 0.000002 -0.079669 0.036724 0.197192
    9 5.939814 -0.004730 0.000000 0.070757 -0.049424 0.168495
    10 5.939809 -0.003975 0.000000 -0.098495 -0.071452 0.096540
    11 4.991439 -0.003975 0.000000 -0.023980 0.085498 0.002138
    12 4.991436 -0.001575 0.000000 0.000000 0.000000 0.000000
    13 1.977383 0.000000 0.000000 -0.109446 0.179743 -0.101699
    14 3.723980 2.768055 -0.395205 0.000000 -3.141591 -1.570795
    15 2.863741 -0.721077 0.000003 0.000000 0.000000 0.000000
    16 0.000005 0.001564 3.638375 -0.837555 -1.155098 3.933890
    17 8.842831 0.000000 -0.000001 -0.047998 -0.230884 -0.369256
    18 9.341934 0.000000 -0.000002 0.000000 0.000000 -0.234743
    19 9.664096 0.000000 0.000003 -3.823714 -0.067543 -0.378210
    20 0.000005 0.001585 -3.638375 -0.383377 1.193775 2.782009
    21 8.842831 0.000000 0.000001 0.122127 0.176060 -0.868684
    22 9.341934 0.000000 -0.000001 0.000000 0.000000 -1.321745
    23 9.664095 0.000000 -0.000002 3.152767 -0.237166 -0.000766
    24 6.829857 -0.000001 0.000000 0.001241 0.000000 0.000000
    25 0.103265 -0.365850 1.319815 0.024842 0.006382 -0.003186
  time 23
    0 1.524709 -4.859523 25.314928 0.002890 -0.095883 -1.571121
    1 -3.752702 -0.101565 9.745319 -1.570795 -1.570451 0.000000
    2 -0.000008 0.000010 5.615750 0.034227 3.220682 -0.796888
    3 15.693467 0.000000 0.000000 0.000000 0.000000 -1.105362
    4 22.146629 -0.000001 0.000000 0.040124 -0.076278 0.212294
    5 0.000008 -0.000006 -5.615750 -0.047636 3.062313 -0.116648
    6 15.693467 0.000000 0.000000 0.000000 0.000000 -0.974334
    7 22.146629 0.000000 0.000000 0.029958 0.087499 0.764883
    8 1.384163 -0.004728 0.000002 -0.119527 0.014901 0.203138
    9 5.939814 -0.004730 0.000000 0.051198 -0.047519 0.176656
    10 5.939809 -0.003975 0.000000 -0.098355 -0.070949 0.101791
    11 4.991439 -0.003975 0.000000 -0.031017 0.080512 0.008044
    12 4.991436 -0.001575 0.000000 0.000000 0.000000 0.000000
    13 1.977383 0.000000 0.000000 -0.052433 0.193323 -0.114493
    14 3.723980 2.768055 -0.395205 0.000000 -3.141591 -1.570795
    15 2.863741 -0.721077 0.000003 0.000000 0.000000 0.000000
    16 0.000005 0.001564 3.638375 -0.758076 -1.184418 3.860737
    17 8.842831 0.000000 -0.000001 -0.071010 -0.262206 -0.362383
    18 9.341934 0.000000 -0.000002 0.000000 0.000000 -0.507950
    19 9.664096 0.000000 0.000003 -3.830353 -0.067966 -0.380836
    20 0.000005 0.001585 -3.638375 -0.358880 1.195696 2.804981
    21 8.842831 0.000000 0.000001 0.105912 0.156139 -0.977305
    22 9.341934 0.000000 -0.000001 0.000000 0.000000 -1.264814
    23 9.664095 0.000000 -0.000002 3.160450 -0.234038 -0.049594
    24 6.829857 -0.000001 0.000000 0.001241 0.000000 0.000000
    25 0.103265 -0.365850 1.319815 0.024842 0.006382 -0.003186
  time 24
    0 1.669245 -4.859523 25.350085 0.002890 -0.095883 -1.571121
    1 -3.893331 -0.246100 9.745319 -1.570795 -1.570451 0.000000
    2 -0.000008 0.000010 5.615750 0.034323 3.220395 -0.797649
    3 15.693467 0.000000 0.000000 0.000000 0.000000 -1.099908
    4 22.146629 -0.000001 0.000000 0.039940 -0.076183 0.206150
    5 0.000008 -0.000006 -5.615750 -0.048019 3.062601 -0.123165
    6 15.693467 0.000000 0.000000 0.000000 0.000000 -0.978157
    7 22.146629 0.000000 0.000000 0.029851 0.087522 0.762262
    8 1.384163 -0.004728 0.000002 -0.167928 -0.009738 0.211040
    9 5.939814 -0.004730 0.000000 0.028080 -0.044822 0.185175
    10 5.939809 -0.003975 0.000000 -0.097991 -0.070445 0.107205
    11 4.991439 -0.003975 0.000000 -0.039756 0.076378 0.013994
    12 4.991436 -0.001575 0.000000 0.000000 0.000000 0.000000
    13 1.977383 0.000000 0.000000 0.023210 0.212971 -0.124393
    14 3.723980 2.768055 -0.395205 0.000000 -3.141591 -1.570795
    15 2.863741 -0.721077 0.000003 0.000000 0.000000 0.000000
    16 0.000005 0.001564 3.638375 -0.653479 -1.214580 3.763231
    17 8.842831 0.000000 -0.000001 -0.095940 -0.296988 -0.339882
    18 9.341934 0.000000 -0.000002 0.000000 0.000000 -0.817752
    19 9.664096 0.000000 0.000003 -3.836992 -0.068388 -0.383496
    20 0.000005 0.001585 -3.638375 -0.331429 1.196352 2.830812
    21 8.842831 0.000000 0.000001 0.086755 0.135036 -1.103257
    22 9.341934 0.000000 -0.000001 0.000000 0.000000 -1.207289
    23 9.664095 0.000000 -0.000002 3.162911 -0.227939 -0.088540
    24 6.829857 -0.000001 0.000000 0.001241 0.000000 0.000000
    25 0.103265 -0.365850 1.319815 0.024842 0.006382 -0.003186
  time 25
    0 1.825500 -4.859523 25.381336 0.002890 -0.095883 -1.571121
    1 -4.049586 -0.386730 9.745319 -1.570795 -1.570451 0.000000
    2 -0.000008 0.000010 5.615750 0.034035 3.219724 -0.798715
    3 15.693467 0.000000 0.000000 0.000000 0.000000 -1.094521
    4 22.146629 -0.000001 0.000000 0.039652 -0.075524 0.199613
    5 0.000008 -0.000006 -5.615750 -0.048786 3.062409 -0.130190
    6 15.693467 0.000000 0.000000 0.000000 0.000000 -0.982279
    7 22.146629 0.000000 0.000000 0.029985 0.088105 0.759423
    8 1.384163 -0.004728 0.000002 -0.221888 -0.035848 0.220859
    9 5.939814 -0.004730 0.000000 0.002744 -0.041539 0.193848
    10 5.939809 -0.003975 0.000000 -0.097472 -0.069954 0.112695
    11 4.991439 -0.003975 0.000000 -0.049567 0.072854 0.019960
    12 4.991436 -0.001575 0.000000 0.000000 0.000000 0.000000
    13 1.977383 0.000000 0.000000 0.112557 0.239153 -0.129818
    14 3.723980 2.768055 -0.395205 0.000000 -3.141591 -1.570795
    15 2.863741 -0.721077 0.000003 0.000000 0.000000 0.000000
    16 0.000005 0.001564 3.638375 -0.532008 -1.240535 3.648851
    17 8.842831 0.000000 -0.000001 -0.118670 -0.335867 -0.319509
    18 9.341934 0.000000 -0.000002 0.000000 0.000000 -1.126072
    19 9.664096 0.000000 0.000003 -3.840002 -0.068615 -0.384692
    20 0.000005 0.001585 -3.638375 -0.300927 1.195477 2.859694
    21 8.842831 0.000000 0.000001 0.065887 0.112478 -1.241278
    22 9.341934 0.000000 -0.000001 0.000000 0.000000 -1.149526
    23 9.664095 0.000000 -0.000002 3.159309 -0.218751 -0.116145
    24 6.829857 -0.000001 0.000000 0.001241 0.000000 0.000000
    25 0.103265 -0.365850 1.319815 0.024842 0.006382 -0.003186
  time 26
    0 1.989567 -4.859523 25.412587 0.002890 -0.095883 -1.571121
    1 -4.205841 -0.511733 9.745319 -1.570795 -1.570451 0.000000
    2 -0.000008 0.000010 5.615750 0.033364 3.218477 -0.800034
    3 15.693467 0.000000 0.000000 0.000000 0.000000 -1.089269
    4 22.146629 -0.000001 0.000000 0.039232 -0.074159 0.193143
    5 0.000008 -0.000006 -5.615750 -0.050032 3.061642 -0.137420
    6 15.693467 0.000000 0.000000 0.000000 0.000000 -0.986552
    7 22.146629 0.000000 0.000000 0.030361 0.089295 0.756511
    8 1.384163 -0.004728 0.000002 -0.278368 -0.062029 0.232444
    9 5.939814 -0.004730 0.000000 -0.023430 -0.037847 0.202445
    10 5.939809 -0.003975 0.000000 -0.096883 -0.069475 0.118172
    11 4.991439 -0.003975 0.000000 -0.059821 0.069738 0.025881
    12 4.991436 -0.001575 0.000000 0.000000 0.000000 0.000000
    13 1.977383 0.000000 0.000000 0.209768 0.268936 -0.129637
    14 3.723980 2.768055 -0.395205 0.000000 -3.141591 -1.570795
    15 2.863741 -0.721077 0.000003 0.000000 0.000000 0.000000
    16 0.000005 0.001564 3.638375 -0.411017 -1.259048 3.533992
    17 8.842831 0.000000 -0.000001 -0.133221 -0.380482 -0.320245
    18 9.341934 0.000000 -0.000002 0.000000 0.000000 -1.394611
    19 9.664096 0.000000 0.000003 -3.835753 -0.068323 -0.382997
    20 0.000005 0.001585 -3.638375 -0.267375 1.192802 2.891530
    21 8.842831 0.000000 0.000001 0.044404 0.088373 -1.386105
    22 9.341934 0.000000 -0.000001 0.000000 0.000000 -1.091525
    23 9.664095 0.000000 -0.000002 3.149045 -0.206316 -0.130987
    24 6.829857 -0.000001 0.000000 0.001241 0.000000 0.000000
    25 0.103265 -0.365850 1.319815 0.024842 0.006382 -0.003186
  time 27
    0 2.157541 -4.859523 25.439932 0.002890 -0.095883 -1.571121
    1 -4.362096 -0.617205 9.745319 -1.570795 -1.570451 0.000000
    2 -0.000008 0.000010 5.615750 0.032214 3.216752 -0.801506
    3 15.693467 0.000000 0.000000 0.000000 0.000000 -1.084489
    4 22.146629 -0.000001 0.000000 0.038656 -0.072112 0.186868
    5 0.000008 -0.000006 -5.615750 -0.051661 3.060396 -0.144446
    6 15.693467 0.000000 0.000000 0.000000 0.000000 -0.990600
    7 22.146629 0.000000 0.000000 0.030979 0.091160 0.753671
    8 1.384163 -0.004728 0.000002 -0.334257 -0.087044 0.245256
    9 5.939814 -0.004730 0.000000 -0.049113 -0.034000 0.210759
    10 5.939809 -0.003975 0.000000 -0.096295 -0.069007 0.123536
    11 4.991439 -0.003975 0.000000 -0.069935 0.066778 0.031712
    12 4.991436 -0.001575 0.000000 0.000000 0.000000 0.000000
    13 1.977383 0.000000 0.000000 0.308832 0.299408 -0.123760
    14 3.723980 2.768055 -0.395205 0.000000 -3.141591 -1.570795
    15 2.863741 -0.721077 0.000003 0.000000 0.000000 0.000000
    16 0.000005 0.001564 3.638375 -0.315527 -1.269488 3.443006
    17 8.842831 0.000000 -0.000001 -0.130965 -0.432746 -0.362383
    18 9.341934 0.000000 -0.000002 0.000000 0.000000 -1.585071
    19 9.664096 0.000000 0.000003 -3.820704 -0.067348 -0.377013
    20 0.000005 0.001585 -3.638375 -0.212472 1.179914 2.943955
    21 8.842831 0.000000 0.000001 0.017173 0.065269 -1.563421
    22 9.341934 0.000000 -0.000001 0.000000 0.000000 -1.025145
    23 9.664095 0.000000 -0.000002 3.097006 -0.169328 -0.062977
    24 6.829857 -0.000001 0.000000 0.001241 0.000000 0.000000
    25 0.103265 -0.365850 1.319815 0.024842 0.006382 -0.003186
  time 28
    0 2.329421 -4.859523 25.467276 0.002890 -0.095883 -1.571121
    1 -4.506631 -0.707052 9.745319 -1.570795 -1.570451 0.000000
    2 -0.000008 0.000010 5.615750 0.030776 3.214451 -0.803129
    3 15.693467 0.000000 0.000000 0.000000 0.000000 -1.080381
    4 22.146629 -0.000001 0.000000 0.037896 -0.069429 0.181116
    5 0.000008 -0.000006 -5.615750 -0.053578 3.058479 -0.151064
    6 15.693467 0.000000 0.000000 0.000000 0.000000 -0.994348
    7 22.146629 0.000000 0.000000 0.031812 0.093679 0.751051
    8 1.384163 -0.004728 0.000002 -0.386390 -0.109818 0.258528
    9 5.939814 -0.004730 0.000000 -0.072950 -0.030273 0.218639
    10 5.939809 -0.003975 0.000000 -0.095790 -0.068552 0.128686
    11 4.991439 -0.003975 0.000000 -0.079256 0.063722 0.037378
    12 4.991436 -0.001575 0.000000 0.000000 0.000000 0.000000
    13 1.977383 0.000000 0.000000 0.403317 0.328147 -0.113724
    14 3.723980 2.768055 -0.395205 0.000000 -3.141591 -1.570795
    15 2.863741 -0.721077 0.000003 0.000000 0.000000 0.000000
    16 0.000005 0.001564 3.638375 -0.306036 -1.270355 3.433898
    17 8.842831 0.000000 -0.000001 -0.080542 -0.502492 -0.532160
    18 9.341934 0.000000 -0.000002 0.000000 0.000000 -1.591071
    19 9.664096 0.000000 0.000003 -3.774849 -0.064978 -0.358663
    20 0.000005 0.001585 -3.638375 -0.136219 1.152411 3.016206
    21 8.842831 0.000000 0.000001 -0.013889 0.037344 -1.778978
    22 9.341934 0.000000 -0.000001 0.000000 0.000000 -0.946879
    23 9.664095 0.000000 -0.000002 3.000910 -0.087827 0.106992
    24 6.829857 -0.000001 0.000000 0.001241 0.000000 0.000000
    25 0.103265 -0.365850 1.319815 0.024842 0.006382 -0.003186
  time 29
    0 2.497395 -4.859523 25.482902 0.002890 -0.095883 -1.571121
    1 -4.639448 -0.773460 9.745319 -1.570795 -1.570451 0.000000
    2 -0.000008 0.000010 5.615750 0.029050 3.211575 -0.804753
    3 15.693467 0.000000 0.000000 0.000000 0.000000 -1.077082
    4 22.146629 -0.000001 0.000000 0.036900 -0.066275 0.176148
    5 0.000008 -0.000006 -5.615750 -0.055783 3.056082 -0.156919
    6 15.693467 0.000000 0.000000 0.000000 0.000000 -0.997496
    7 22.146629 0.000000 0.000000 0.032780 0.096711 0.748648
    8 1.384163 -0.004728 0.000002 -0.431549 -0.129382 0.271186
    9 5.939814 -0.004730 0.000000 -0.093624 -0.026965 0.225905
    10 5.939809 -0.003975 0.000000 -0.095440 -0.068108 0.133523
    11 4.991439 -0.003975 0.000000 -0.087226 0.060306 0.042835
    12 4.991436 -0.001575 0.000000 0.000000 0.000000 0.000000
    13 1.977383 0.000000 0.000000 0.486197 0.353551 -0.102197
    14 3.723980 2.768055 -0.395205 0.000000 -3.141591 -1.570795
    15 2.863741 -0.721077 0.000003 0.000000 0.000000 0.000000
    16 0.000005 0.001564 3.638375 -0.371900 -1.263702 3.496793
    17 8.842831 0.000000 -0.000001 0.041568 -0.567776 -0.844387
    18 9.341934 0.000000 -0.000002 0.000000 0.000000 -1.437948
    19 9.664096 0.000000 0.000003 -3.699958 -0.062899 -0.328578
    20 0.000005 0.001585 -3.638375 -0.061204 1.117175 3.085788
    21 8.842831 0.000000 0.000001 -0.037493 -0.000132 -1.999096
    22 9.341934 0.000000 -0.000001 0.000000 0.000000 -0.863919
    23 9.664095 0.000000 -0.000002 2.906435 0.028802 0.307411
    24 6.829857 -0.000001 0.000000 0.001241 0.000000 0.000000
    25 0.103265 -0.365850 1.319815 0.024842 0.006382 -0.003186
  time 30
    0 2.665369 -4.859523 25.486808 0.002890 -0.095883 -1.571121
    1 -4.639448 -0.773460 9.745319 -1.570795 -1.570451 0.000000
    2 -0.000008 0.000010 5.615750 0.026078 3.207452 -0.805210
    3 15.693467 0.000000 0.000000 0.000000 0.000000 -1.078159
    4 22.146629 -0.000001 0.000000 0.035432 -0.061403 0.176736
    5 0.000008 -0.000006 -5.615750 -0.058371 3.051960 -0.155850
    6 15.693467 0.000000 0.000000 0.000000 0.000000 -0.995322
    7 22.146629 0.000000 0.000000 0.034472 0.101351 0.747920
    8 1.384163 -0.004728 0.000002 -0.431549 -0.129382 0.271186
    9 5.939814 -0.004730 0.000000 -0.093624 -0.026965 0.225905
    10 5.939809 -0.003975 0.000000 -0.095440 -0.068108 0.133523
    11 4.991439 -0.003975 0.000000 -0.087226 0.060306 0.042835
    12 4.991436 -0.001575 0.000000 0.000000 0.000000 0.000000
    13 1.977383 0.000000 0.000000 0.487211 0.362931 -0.096772
    14 3.723980 2.768055 -0.395205 0.000000 -3.141591 -1.570795
    15 2.863741 -0.721077 0.000003 0.000000 0.000000 0.000000
    16 0.000005 0.001564 3.638375 -0.434985 -1.255866 3.556811
    17 8.842831 0.000000 -0.000001 0.211282 -0.553299 -1.250134
    18 9.341934 0.000000 -0.000002 0.000000 0.000000 -1.284751
    19 9.664096 0.000000 0.000003 -3.625156 -0.063061 -0.298426
    20 0.000005 0.001585 -3.638375 -0.000010 1.082936 3.140787
    21 8.842831 0.000000 0.000001 -0.059593 -0.034879 -2.129820
    22 9.341934 0.000000 -0.000001 0.000000 0.000000 -0.783277
    23 9.664095 0.000000 -0.000002 2.840650 0.149945 0.479203
    24 6.829857 -0.000001 0.000000 0.001241 0.000000 0.000000
    25 0.103265 -0.365850 1.319815 0.024842 0.006382 -0.003186
end
