version 1
nodes
  0 "Bip01" -1
  1 "Bip01 Pelvis" 0
  2 "Bip01 L Thigh" 1
  3 "Bip01 L Calf" 2
  4 "Bip01 L Foot" 3
  5 "Bip01 R Thigh" 1
  6 "Bip01 R Calf" 5
  7 "Bip01 R Foot" 6
  8 "Bip01 Spine" 1
  9 "Bip01 Spine1" 8
  10 "Bip01 Spine2" 9
  11 "Bip01 Spine3" 10
  12 "Bip01 Neck" 11
  13 "Bip01 Head" 12
  14 "Bone05" 13
  15 "Bone06" 14
  16 "Bip01 L Clavicle" 12
  17 "Bip01 L UpperArm" 16
  18 "Bip01 L Forearm" 17
  19 "Bip01 L Hand" 18
  20 "Bip01 R Clavicle" 12
  21 "Bip01 R UpperArm" 20
  22 "Bip01 R Forearm" 21
  23 "Bip01 R Hand" 22
  24 "Bip01 R Finger0" 23
  25 "p_desert_eagle" 24
end
skeleton
  time 0
    0 2.665369 -4.859523 25.486808 0.002890 -0.095883 -1.571121
    1 -4.639448 -0.773460 9.745319 -1.570795 -1.570451 0.000000
    2 -0.000008 0.000010 5.615750 0.025886 3.207644 -0.805210
    3 15.693467 0.000000 0.000000 0.000000 0.000000 -1.078159
    4 22.146629 -0.000001 0.000000 0.035721 -0.061333 0.176736
    5 0.000008 -0.000006 -5.615750 -0.058658 3.052056 -0.155850
    6 15.693467 0.000000 0.000000 0.000000 0.000000 -0.995322
    7 22.146629 0.000000 0.000000 0.034741 0.101258 0.747920
    8 1.384163 -0.004728 0.000002 -0.431549 -0.129382 0.271186
    9 5.939814 -0.004730 0.000000 -0.093624 -0.026965 0.225905
    10 5.939809 -0.003975 0.000000 -0.095440 -0.068108 0.133523
    11 4.991439 -0.003975 0.000000 -0.087226 0.060306 0.042835
    12 4.991436 -0.001575 0.000000 0.000000 0.000000 0.000000
    13 1.977383 0.000000 0.000000 0.487211 0.362931 -0.096772
    14 3.723980 2.768055 -0.395205 0.000000 -3.141591 -1.570795
    15 2.863741 -0.721077 0.000003 0.000000 0.000000 0.000000
    16 0.000005 0.001564 3.638375 -0.434985 -1.255866 3.556811
    17 8.842831 0.000000 -0.000001 0.211282 -0.553299 -1.250134
    18 9.341934 0.000000 -0.000002 0.000000 0.000000 -1.284751
    19 9.664096 0.000000 0.000003 -3.625156 -0.063061 -0.298426
    20 0.000005 0.001585 -3.638375 -0.000010 1.082936 3.140787
    21 8.842831 0.000000 0.000001 -0.059593 -0.034879 -2.129820
    22 9.341934 0.000000 -0.000001 0.000000 0.000000 -0.783277
    23 9.664095 0.000000 -0.000002 2.840650 0.149945 0.479203
    24 6.829857 -0.000001 0.000000 0.001241 0.000000 0.000000
    25 0.103265 -0.365850 1.319815 0.024842 0.006382 -0.003186
  time 1
    0 2.610680 -4.886868 24.541467 0.001772 -0.095970 -1.558593
    1 -4.573039 -0.597673 9.745319 -1.570795 -1.570451 0.000000
    2 -0.000008 0.000010 5.615750 0.028858 3.204097 -0.871326
    3 15.693467 0.000000 0.000000 0.000000 0.000000 -1.172897
    4 22.146629 -0.000001 0.000000 0.047593 -0.058085 0.205496
    5 0.000008 -0.000006 -5.615750 -0.061534 3.055124 -0.194542
    6 15.693467 0.000000 0.000000 0.000000 0.000000 -1.084224
    7 22.146629 0.000000 0.000000 0.046886 0.101585 0.798152
    8 1.384163 -0.004728 0.000002 -0.419095 -0.102143 0.259295
    9 5.939814 -0.004730 0.000000 -0.075659 -0.026354 0.225726
    10 5.939809 -0.003975 0.000000 -0.068289 -0.094259 0.132443
    11 4.991439 -0.003975 0.000000 -0.052713 0.054901 0.045168
    12 4.991436 -0.001575 0.000000 0.000000 0.000000 0.000000
    13 1.977383 0.000000 0.000000 0.436071 0.348261 -0.178505
    14 3.723980 2.768055 -0.395205 0.000000 -3.141591 -1.570795
    15 2.863741 -0.721077 0.000003 0.000000 0.000000 0.000000
    16 0.000005 0.001564 3.638375 -0.343810 -1.266726 3.470043
    17 8.842831 0.000000 -0.000001 0.363623 -0.551660 -1.486432
    18 9.341934 0.000000 -0.000002 0.000000 0.000000 -1.136962
    19 9.664096 0.000000 0.000003 -3.746344 -0.071668 -0.320433
    20 0.000005 0.001585 -3.638375 0.036020 1.070145 3.172433
    21 8.842831 0.000000 0.000001 -0.118296 0.041346 -2.038601
    22 9.341934 0.000000 -0.000001 0.000000 0.000000 -0.730327
    23 9.664095 0.000000 -0.000002 2.886988 0.156796 0.433256
    24 6.829857 -0.000001 0.000000 0.001241 0.000000 0.000000
    25 0.103265 -0.365850 1.319815 0.024842 0.006382 -0.003186
  time 2
    0 2.563804 -4.906400 23.564874 -0.000559 -0.095970 -1.533344
    1 -4.385534 -0.304696 9.745319 -1.570795 -1.570451 0.000000
    2 -0.000008 0.000010 5.615750 0.028091 3.197099 -0.936124
    3 15.693467 0.000000 0.000000 0.000000 0.000000 -1.264807
    4 22.146629 -0.000001 0.000000 0.070629 -0.049047 0.232753
    5 0.000008 -0.000006 -5.615750 -0.060671 3.060108 -0.217758
    6 15.693467 0.000000 0.000000 0.000000 0.000000 -1.159559
    7 22.146629 0.000000 0.000000 0.070181 0.099789 0.850059
    8 1.384163 -0.004728 0.000002 -0.351549 -0.055161 0.235244
    9 5.939814 -0.004730 0.000000 -0.054134 -0.018960 0.225368
    10 5.939809 -0.003975 0.000000 -0.027725 -0.122902 0.128963
    11 4.991439 -0.003975 0.000000 -0.008156 0.052313 0.047679
    12 4.991436 -0.001575 0.000000 0.000000 0.000000 0.000000
    13 1.977383 0.000000 0.000000 0.334315 0.256979 -0.294370
    14 3.723980 2.768055 -0.395205 0.000000 -3.141591 -1.570795
    15 2.863741 -0.721077 0.000003 0.000000 0.000000 0.000000
    16 0.000005 0.001564 3.638375 -0.148038 -1.280532 3.282798
    17 8.842831 0.000000 -0.000001 0.423409 -0.490382 -1.695074
    18 9.341934 0.000000 -0.000002 0.000000 0.000000 -0.860718
    19 9.664096 0.000000 0.000003 -3.795917 -0.069492 -0.353643
    20 0.000005 0.001585 -3.638375 0.079771 1.061829 3.210464
    21 8.842831 0.000000 0.000001 -0.165368 0.140494 -1.856374
    22 9.341934 0.000000 -0.000001 0.000000 0.000000 -0.700970
    23 9.664095 0.000000 -0.000002 2.911837 0.157984 0.392888
    24 6.829857 -0.000001 0.000000 0.001241 0.000000 0.000000
    25 0.103265 -0.365850 1.319815 0.024842 0.006382 -0.003186
  time 3
    0 2.524740 -4.925932 23.107829 -0.002984 -0.095883 -1.508000
    1 -4.170683 0.039065 9.745319 -1.570795 -1.570451 0.000000
    2 -0.000008 0.000010 5.615750 0.022627 3.188950 -0.965452
    3 15.693467 0.000000 0.000000 0.000000 0.000000 -1.307968
    4 22.146629 -0.000001 0.000000 0.092853 -0.036880 0.246740
    5 0.000008 -0.000006 -5.615750 -0.057412 3.063464 -0.213532
    6 15.693467 0.000000 0.000000 0.000000 0.000000 -1.182422
    7 22.146629 0.000000 0.000000 0.093610 0.097853 0.876995
    8 1.384163 -0.004728 0.000002 -0.259301 0.000645 0.210656
    9 5.939814 -0.004730 0.000000 -0.028487 -0.010882 0.224830
    10 5.939809 -0.003975 0.000000 0.012223 -0.148753 0.124252
    11 4.991439 -0.003975 0.000000 0.041341 0.051306 0.050281
    12 4.991436 -0.001575 0.000000 0.000000 0.000000 0.000000
    13 1.977383 0.000000 0.000000 0.182153 0.144137 -0.354088
    14 3.723980 2.768055 -0.395205 0.000000 -3.141591 -1.570795
    15 2.863741 -0.721077 0.000003 0.000000 0.000000 0.000000
    16 0.000005 0.001564 3.638375 -0.000010 -1.283530 3.140806
    17 8.842831 0.000000 -0.000001 0.399664 -0.427465 -1.795795
    18 9.341934 0.000000 -0.000002 0.000000 0.000000 -0.667666
    19 9.664096 0.000000 0.000003 -3.820704 -0.067348 -0.377013
    20 0.000005 0.001585 -3.638375 0.128668 1.056698 3.252976
    21 8.842831 0.000000 0.000001 -0.177204 0.245645 -1.627976
    22 9.341934 0.000000 -0.000001 0.000000 0.000000 -0.690868
    23 9.664095 0.000000 -0.000002 2.919340 0.153667 0.357807
    24 6.829857 -0.000001 0.000000 0.001241 0.000000 0.000000
    25 0.103265 -0.365850 1.319815 0.024842 0.006382 -0.003186
  time 4
    0 2.489583 -4.937651 23.158612 -0.005315 -0.095797 -1.483804
    1 -3.990990 0.339855 9.745319 -1.570795 -1.570451 0.000000
    2 -0.000008 0.000010 5.615750 0.015532 3.182047 -0.962103
    3 15.693467 0.000000 0.000000 0.000000 0.000000 -1.304938
    4 22.146629 -0.000001 0.000000 0.114081 -0.025112 0.247329
    5 0.000008 -0.000006 -5.615750 -0.051278 3.067490 -0.189400
    6 15.693467 0.000000 0.000000 0.000000 0.000000 -1.160833
    7 22.146629 0.000000 0.000000 0.115051 0.093819 0.879179
    8 1.384163 -0.004728 0.000002 -0.171171 0.052074 0.192858
    9 5.939814 -0.004730 0.000000 0.001906 -0.008221 0.223884
    10 5.939809 -0.003975 0.000000 0.037242 -0.166742 0.120609
    11 4.991439 -0.003975 0.000000 0.090652 0.050671 0.052823
    12 4.991436 -0.001575 0.000000 0.000000 0.000000 0.000000
    13 1.977383 0.000000 0.000000 0.007166 0.059188 -0.353998
    14 3.723980 2.768055 -0.395205 0.000000 -3.141591 -1.570795
    15 2.863741 -0.721077 0.000003 0.000000 0.000000 0.000000
    16 0.000005 0.001564 3.638375 0.018398 -1.260810 3.123261
    17 8.842831 0.000000 -0.000001 0.336156 -0.359176 -1.726084
    18 9.341934 0.000000 -0.000002 0.000000 0.000000 -0.645812
    19 9.664096 0.000000 0.000003 -3.836373 -0.068355 -0.383263
    20 0.000005 0.001585 -3.638375 0.180330 1.053707 3.297967
    21 8.842831 0.000000 0.000001 -0.145800 0.331876 -1.396701
    22 9.341934 0.000000 -0.000001 0.000000 0.000000 -0.695622
    23 9.664095 0.000000 -0.000002 2.913637 0.144638 0.327978
    24 6.829857 -0.000001 0.000000 0.001241 0.000000 0.000000
    25 0.103265 -0.365850 1.319815 0.024842 0.006382 -0.003186
  time 5
    0 2.462238 -4.953276 23.346118 -0.007459 -0.095623 -1.461233
    1 -3.881612 0.472672 9.745319 -1.570795 -1.570451 0.000000
    2 -0.000008 0.000010 5.615750 0.011793 3.178692 -0.951295
    3 15.693467 0.000000 0.000000 0.000000 0.000000 -1.288441
    4 22.146629 -0.000001 0.000000 0.135099 -0.018334 0.241838
    5 0.000008 -0.000006 -5.615750 -0.042748 3.075063 -0.165319
    6 15.693467 0.000000 0.000000 0.000000 0.000000 -1.132049
    7 22.146629 0.000000 0.000000 0.133187 0.085727 0.873937
    8 1.384163 -0.004728 0.000002 -0.115076 0.084083 0.184112
    9 5.939814 -0.004730 0.000000 0.037692 -0.017018 0.221888
    10 5.939809 -0.003975 0.000000 0.032813 -0.171967 0.120873
    11 4.991439 -0.003975 0.000000 0.134673 0.049233 0.055035
    12 4.991436 -0.001575 0.000000 0.000000 0.000000 0.000000
    13 1.977383 0.000000 0.000000 -0.112382 0.007290 -0.336593
    14 3.723980 2.768055 -0.395205 0.000000 -3.141591 -1.570795
    15 2.863741 -0.721077 0.000003 0.000000 0.000000 0.000000
    16 0.000005 0.001564 3.638375 -0.010844 -1.223022 3.150969
    17 8.842831 0.000000 -0.000001 0.285845 -0.291343 -1.503696
    18 9.341934 0.000000 -0.000002 0.000000 0.000000 -0.694483
    19 9.664096 0.000000 0.000003 -3.834691 -0.068225 -0.382565
    20 0.000005 0.001585 -3.638375 0.232278 1.052004 3.343338
    21 8.842831 0.000000 0.000001 -0.084839 0.375538 -1.214333
    22 9.341934 0.000000 -0.000001 0.000000 0.000000 -0.710954
    23 9.664095 0.000000 -0.000002 2.898632 0.132084 0.303436
    24 6.829857 -0.000001 0.000000 0.001241 0.000000 0.000000
    25 0.103265 -0.365850 1.319815 0.024842 0.006382 -0.003186
  time 6
    0 2.442706 -4.961089 23.631283 -0.009417 -0.095449 -1.440958
    1 -3.834736 0.406263 9.745319 -1.570795 -1.570451 0.000000
    2 -0.000008 0.000010 5.615750 0.012273 3.180130 -0.934804
    3 15.693467 0.000000 0.000000 0.000000 0.000000 -1.261575
    4 22.146629 -0.000001 0.000000 0.155698 -0.018052 0.231772
    5 0.000008 -0.000006 -5.615750 -0.031725 3.086950 -0.142002
    6 15.693467 0.000000 0.000000 0.000000 0.000000 -1.098542
    7 22.146629 0.000000 0.000000 0.147079 0.072947 0.862944
    8 1.384163 -0.004728 0.000002 -0.091814 0.093659 0.181580
    9 5.939814 -0.004730 0.000000 0.083281 -0.040568 0.217539
    10 5.939809 -0.003975 0.000000 -0.008704 -0.161408 0.126149
    11 4.991439 -0.003975 0.000000 0.175804 0.046896 0.057024
    12 4.991436 -0.001575 0.000000 0.000000 0.000000 0.000000
    13 1.977383 0.000000 0.000000 -0.173939 -0.009335 -0.319686
    14 3.723980 2.768055 -0.395205 0.000000 -3.141591 -1.570795
    15 2.863741 -0.721077 0.000003 0.000000 0.000000 0.000000
    16 0.000005 0.001564 3.638375 -0.032127 -1.215290 3.170911
    17 8.842831 0.000000 -0.000001 0.236211 -0.273314 -1.215115
    18 9.341934 0.000000 -0.000002 0.000000 0.000000 -0.742487
    19 9.664096 0.000000 0.000003 -3.825927 -0.067673 -0.379108
    20 0.000005 0.001585 -3.638375 0.281653 1.050959 3.386803
    21 8.842831 0.000000 0.000001 -0.014915 0.377812 -1.094696
    22 9.341934 0.000000 -0.000001 0.000000 0.000000 -0.732407
    23 9.664095 0.000000 -0.000002 2.878224 0.117550 0.284145
    24 6.829857 -0.000001 0.000000 0.001241 0.000000 0.000000
    25 0.103265 -0.365850 1.319815 0.024842 0.006382 -0.003186
  time 7
    0 2.427081 -4.968902 23.975043 -0.011002 -0.095275 -1.424317
    1 -3.803485 0.207039 9.745319 -1.570795 -1.570451 0.000000
    2 -0.000008 0.000010 5.615750 0.015245 3.184636 -0.913899
    3 15.693467 0.000000 0.000000 0.000000 0.000000 -1.228582
    4 22.146629 -0.000001 0.000000 0.173755 -0.021958 0.219941
    5 0.000008 -0.000006 -5.615750 -0.020415 3.100370 -0.118328
    6 15.693467 0.000000 0.000000 0.000000 0.000000 -1.060537
    7 22.146629 0.000000 0.000000 0.156724 0.058605 0.848093
    8 1.384163 -0.004728 0.000002 -0.081033 0.091041 0.181695
    9 5.939814 -0.004730 0.000000 0.138758 -0.074364 0.209992
    10 5.939809 -0.003975 0.000000 -0.076573 -0.138590 0.133711
    11 4.991439 -0.003975 0.000000 0.218170 0.044403 0.058953
    12 4.991436 -0.001575 0.000000 0.000000 0.000000 0.000000
    13 1.977383 0.000000 0.000000 -0.210642 -0.006468 -0.305084
    14 3.723980 2.768055 -0.395205 0.000000 -3.141591 -1.570795
    15 2.863741 -0.721077 0.000003 0.000000 0.000000 0.000000
    16 0.000005 0.001564 3.638375 -0.000010 -1.283530 3.140806
    17 8.842831 0.000000 -0.000001 0.137226 -0.294620 -0.973663
    18 9.341934 0.000000 -0.000002 0.000000 0.000000 -0.718929
    19 9.664096 0.000000 0.000003 -3.820704 -0.067348 -0.377013
    20 0.000005 0.001585 -3.638375 0.325499 1.050254 3.425598
    21 8.842831 0.000000 0.000001 0.052545 0.357345 -1.010214
    22 9.341934 0.000000 -0.000001 0.000000 0.000000 -0.755762
    23 9.664095 0.000000 -0.000002 2.855956 0.102858 0.269960
    24 6.829857 -0.000001 0.000000 0.001241 0.000000 0.000000
    25 0.103265 -0.365850 1.319815 0.024842 0.006382 -0.003186
  time 8
    0 2.415361 -4.972808 24.338335 -0.011561 -0.095275 -1.419057
    1 -3.780047 -0.058595 9.745319 -1.570795 -1.570451 0.000000
    2 -0.000008 0.000010 5.615750 0.019559 3.191347 -0.889340
    3 15.693467 0.000000 0.000000 0.000000 0.000000 -1.193434
    4 22.146629 -0.000001 0.000000 0.181277 -0.029443 0.209483
    5 0.000008 -0.000006 -5.615750 -0.012651 3.110053 -0.097404
    6 15.693467 0.000000 0.000000 0.000000 0.000000 -1.022158
    7 22.146629 0.000000 0.000000 0.157127 0.047831 0.830330
    8 1.384163 -0.004728 0.000002 -0.078846 0.080604 0.183306
    9 5.939814 -0.004730 0.000000 0.198237 -0.112751 0.199349
    10 5.939809 -0.003975 0.000000 -0.157674 -0.108544 0.140558
    11 4.991439 -0.003975 0.000000 0.259208 0.041910 0.060717
    12 4.991436 -0.001575 0.000000 0.000000 0.000000 0.000000
    13 1.977383 0.000000 0.000000 -0.229763 0.008935 -0.293150
    14 3.723980 2.768055 -0.395205 0.000000 -3.141591 -1.570795
    15 2.863741 -0.721077 0.000003 0.000000 0.000000 0.000000
    16 0.000005 0.001564 3.638375 0.438896 -1.470735 2.703804
    17 8.842831 0.000000 -0.000001 -0.063170 -0.331405 -0.780158
    18 9.341934 0.000000 -0.000002 0.000000 0.000000 -0.576992
    19 9.664096 0.000000 0.000003 -3.820704 -0.067348 -0.377013
    20 0.000005 0.001585 -3.638375 0.360766 1.049743 3.457053
    21 8.842831 0.000000 0.000001 0.108717 0.324690 -0.957096
    22 9.341934 0.000000 -0.000001 0.000000 0.000000 -0.776561
    23 9.664095 0.000000 -0.000002 2.835608 0.089908 0.260515
    24 6.829857 -0.000001 0.000000 0.001241 0.000000 0.000000
    25 0.103265 -0.365850 1.319815 0.024842 0.006382 -0.003186
  time 9
    0 2.407549 -4.976714 24.693815 -0.011655 -0.095275 -1.418101
    1 -3.756608 -0.343759 9.745319 -1.570795 -1.570451 0.000000
    2 -0.000008 0.000010 5.615750 0.023873 3.198633 -0.864425
    3 15.693467 0.000000 0.000000 0.000000 0.000000 -1.158623
    4 22.146629 -0.000001 0.000000 0.184631 -0.037774 0.199679
    5 0.000008 -0.000006 -5.615750 -0.006804 3.118105 -0.077752
    6 15.693467 0.000000 0.000000 0.000000 0.000000 -0.984603
    7 22.146629 0.000000 0.000000 0.154306 0.038922 0.812203
    8 1.384163 -0.004728 0.000002 -0.081445 0.066850 0.185723
    9 5.939814 -0.004730 0.000000 0.255703 -0.150227 0.186710
    10 5.939809 -0.003975 0.000000 -0.239349 -0.076761 0.144867
    11 4.991439 -0.003975 0.000000 0.296377 0.039597 0.062242
    12 4.991436 -0.001575 0.000000 0.000000 0.000000 0.000000
    13 1.977383 0.000000 0.000000 -0.239026 0.030739 -0.283204
    14 3.723980 2.768055 -0.395205 0.000000 -3.141591 -1.570795
    15 2.863741 -0.721077 0.000003 0.000000 0.000000 0.000000
    16 0.000005 0.001564 3.638375 2.649242 -1.348246 0.481213
    17 8.842831 0.000000 -0.000001 -0.316866 -0.336231 -0.568488
    18 9.341934 0.000000 -0.000002 0.000000 0.000000 -0.363865
    19 9.664096 0.000000 0.000003 -3.820704 -0.067348 -0.377013
    20 0.000005 0.001585 -3.638375 0.384310 1.049475 3.478023
    21 8.842831 0.000000 0.000001 0.148879 0.291308 -0.928959
    22 9.341934 0.000000 -0.000001 0.000000 0.000000 -0.790527
    23 9.664095 0.000000 -0.000002 2.820723 0.080720 0.255300
    24 6.829857 -0.000001 0.000000 0.001241 0.000000 0.000000
    25 0.103265 -0.365850 1.319815 0.024842 0.006382 -0.003186
  time 10
    0 2.407549 -4.976714 24.998512 -0.011655 -0.095189 -1.417144
    1 -3.729264 -0.589861 9.745319 -1.570795 -1.570451 0.000000
    2 -0.000008 0.000010 5.615750 0.027037 3.204864 -0.842201
    3 15.693467 0.000000 0.000000 0.000000 0.000000 -1.127447
    4 22.146629 -0.000001 0.000000 0.187488 -0.044693 0.190724
    5 0.000008 -0.000006 -5.615750 -0.002108 3.125007 -0.059525
    6 15.693467 0.000000 0.000000 0.000000 0.000000 -0.950272
    7 22.146629 0.000000 0.000000 0.152130 0.031390 0.795968
    8 1.384163 -0.004728 0.000002 -0.084970 0.054190 0.187986
    9 5.939814 -0.004730 0.000000 0.304780 -0.181591 0.174200
    10 5.939809 -0.003975 0.000000 -0.309208 -0.049041 0.146449
    11 4.991439 -0.003975 0.000000 0.327138 0.037632 0.063423
    12 4.991436 -0.001575 0.000000 0.000000 0.000000 0.000000
    13 1.977383 0.000000 0.000000 -0.246367 0.053476 -0.275248
    14 3.723980 2.768055 -0.395205 0.000000 -3.141591 -1.570795
    15 2.863741 -0.721077 0.000003 0.000000 0.000000 0.000000
    16 0.000005 0.001564 3.638375 2.794969 -1.060877 0.304610
    17 8.842831 0.000000 -0.000001 -0.516642 -0.295713 -0.367374
    18 9.341934 0.000000 -0.000002 0.000000 0.000000 -0.149255
    19 9.664096 0.000000 0.000003 -3.820704 -0.067348 -0.377013
    20 0.000005 0.001585 -3.638375 0.392888 1.049403 3.485743
    21 8.842831 0.000000 0.000001 0.170773 0.268567 -0.918504
    22 9.341934 0.000000 -0.000001 0.000000 0.000000 -0.793260
    23 9.664095 0.000000 -0.000002 2.814961 0.077235 0.253696
    24 6.829857 -0.000001 0.000000 0.001241 0.000000 0.000000
    25 0.103265 -0.365850 1.319815 0.024842 0.006382 -0.003186
  time 11
    0 2.407549 -4.976714 25.228988 -0.011841 -0.095189 -1.416092
    1 -3.701919 -0.742209 9.745319 -1.570795 -1.570451 0.000000
    2 -0.000008 0.000010 5.615750 0.028667 3.208699 -0.825456
    3 15.693467 0.000000 0.000000 0.000000 0.000000 -1.104015
    4 22.146629 -0.000001 0.000000 0.189611 -0.048741 0.184057
    5 0.000008 -0.000006 -5.615750 0.000576 3.129512 -0.044863
    6 15.693467 0.000000 0.000000 0.000000 0.000000 -0.923211
    7 22.146629 0.000000 0.000000 0.151243 0.026586 0.783519
    8 1.384163 -0.004728 0.000002 -0.085484 0.047089 0.189214
    9 5.939814 -0.004730 0.000000 0.338661 -0.202060 0.164888
    10 5.939809 -0.003975 0.000000 -0.354959 -0.031160 0.146474
    11 4.991439 -0.003975 0.000000 0.348951 0.036217 0.064230
    12 4.991436 -0.001575 0.000000 0.000000 0.000000 0.000000
    13 1.977383 0.000000 0.000000 -0.259860 0.072124 -0.270501
    14 3.723980 2.768055 -0.395205 0.000000 -3.141591 -1.570795
    15 2.863741 -0.721077 0.000003 0.000000 0.000000 0.000000
    16 0.000005 0.001564 3.638375 2.816540 -0.863468 0.249961
    17 8.842831 0.000000 -0.000001 -0.614556 -0.244269 -0.230570
    18 9.341934 0.000000 -0.000002 0.000000 0.000000 -0.002503
    19 9.664096 0.000000 0.000003 -3.820704 -0.067348 -0.377013
    20 0.000005 0.001585 -3.638375 0.379830 1.051688 3.474496
    21 8.842831 0.000000 0.000001 0.176862 0.260472 -0.919907
    22 9.341934 0.000000 -0.000001 0.000000 0.000000 -0.786129
    23 9.664095 0.000000 -0.000002 2.815621 0.079928 0.261682
    24 6.829857 -0.000001 0.000000 0.001241 0.000000 0.000000
    25 0.103265 -0.365850 1.319815 0.024842 0.006382 -0.003186
  time 12
    0 2.415361 -4.972808 25.342272 -0.011655 -0.095189 -1.417336
    1 -3.670668 -0.804711 9.745319 -1.570795 -1.570451 0.000000
    2 -0.000008 0.000010 5.615750 0.029050 3.210233 -0.816474
    3 15.693467 0.000000 0.000000 0.000000 0.000000 -1.092703
    4 22.146629 -0.000001 0.000000 0.188772 -0.050507 0.181704
    5 0.000008 -0.000006 -5.615750 0.001055 3.130567 -0.037175
    6 15.693467 0.000000 0.000000 0.000000 0.000000 -0.909194
    7 22.146629 0.000000 0.000000 0.149765 0.025443 0.777186
    8 1.384163 -0.004728 0.000002 -0.081650 0.046210 0.189137
    9 5.939814 -0.004730 0.000000 0.359154 -0.212918 0.159259
    10 5.939809 -0.003975 0.000000 -0.378353 -0.022783 0.146311
    11 4.991439 -0.003975 0.000000 0.363865 0.035247 0.064769
    12 4.991436 -0.001575 0.000000 0.000000 0.000000 0.000000
    13 1.977383 0.000000 0.000000 -0.282965 0.085371 -0.268060
    14 3.723980 2.768055 -0.395205 0.000000 -3.141591 -1.570795
    15 2.863741 -0.721077 0.000003 0.000000 0.000000 0.000000
    16 0.000005 0.001564 3.638375 2.797462 -0.765698 0.242674
    17 8.842831 0.000000 -0.000001 -0.638414 -0.231703 -0.142040
    18 9.341934 0.000000 -0.000002 0.000000 0.000000 0.047871
    19 9.664096 0.000000 0.000003 -3.820704 -0.067348 -0.377013
    20 0.000005 0.001585 -3.638375 0.344562 1.057427 3.443803
    21 8.842831 0.000000 0.000001 0.174194 0.262291 -0.928257
    22 9.341934 0.000000 -0.000001 0.000000 0.000000 -0.774481
    23 9.664095 0.000000 -0.000002 2.817361 0.087096 0.283088
    24 6.829857 -0.000001 0.000000 0.001241 0.000000 0.000000
    25 0.103265 -0.365850 1.319815 0.024842 0.006382 -0.003186
  time 13
    0 2.423174 -4.968902 25.307115 -0.008671 -0.095536 -1.448418
    1 -3.643324 -0.824243 9.745319 -1.570795 -1.570451 0.000000
    2 -0.000008 0.000010 5.615750 0.030201 3.211958 -0.813582
    3 15.693467 0.000000 0.000000 0.000000 0.000000 -1.099706
    4 22.146629 -0.000001 0.000000 0.158476 -0.055472 0.191182
    5 0.000008 -0.000006 -5.615750 -0.008146 3.115229 -0.050107
    6 15.693467 0.000000 0.000000 0.000000 0.000000 -0.922761
    7 22.146629 0.000000 0.000000 0.125879 0.038945 0.777623
    8 1.384163 -0.004728 0.000002 -0.075886 0.048255 0.188485
    9 5.939814 -0.004730 0.000000 0.372757 -0.219066 0.155677
    10 5.939809 -0.003975 0.000000 -0.390701 -0.019044 0.146273
    11 4.991439 -0.003975 0.000000 0.375121 0.034504 0.065157
    12 4.991436 -0.001575 0.000000 0.000000 0.000000 0.000000
    13 1.977383 0.000000 0.000000 -0.310580 0.095995 -0.266297
    14 3.723980 2.768055 -0.395205 0.000000 -3.141591 -1.570795
    15 2.863741 -0.721077 0.000003 0.000000 0.000000 0.000000
    16 0.000005 0.001564 3.638375 2.762947 -0.723676 0.256768
    17 8.842831 0.000000 -0.000001 -0.636327 -0.259474 -0.087466
    18 9.341934 0.000000 -0.000002 0.000000 0.000000 0.042241
    19 9.664096 0.000000 0.000003 -3.820704 -0.067348 -0.377013
    20 0.000005 0.001585 -3.638375 0.292328 1.064771 3.398146
    21 8.842831 0.000000 0.000001 0.165573 0.269750 -0.944325
    22 9.341934 0.000000 -0.000001 0.000000 0.000000 -0.760041
    23 9.664095 0.000000 -0.000002 2.820243 0.097393 0.314120
    24 6.829857 -0.000001 0.000000 0.001241 0.000000 0.000000
    25 0.103265 -0.365850 1.319815 0.024842 0.006382 -0.003186
  time 14
    0 2.434893 -4.964995 24.908665 -0.002890 -0.095883 -1.509339
    1 -3.619885 -0.816430 9.745319 -1.570795 -1.570451 0.000000
    2 -0.000008 0.000010 5.615750 0.033268 3.213588 -0.831393
    3 15.693467 0.000000 0.000000 0.000000 0.000000 -1.146099
    4 22.146629 -0.000001 0.000000 0.098881 -0.064016 0.219026
    5 0.000008 -0.000006 -5.615750 -0.029233 3.084937 -0.096945
    6 15.693467 0.000000 0.000000 0.000000 0.000000 -0.986027
    7 22.146629 0.000000 0.000000 0.079155 0.067093 0.794876
    8 1.384163 -0.004728 0.000002 -0.070174 0.051608 0.187603
    9 5.939814 -0.004730 0.000000 0.379456 -0.221188 0.154142
    10 5.939809 -0.003975 0.000000 -0.393939 -0.018828 0.146387
    11 4.991439 -0.003975 0.000000 0.381926 0.034060 0.065397
    12 4.991436 -0.001575 0.000000 0.000000 0.000000 0.000000
    13 1.977383 0.000000 0.000000 -0.337741 0.105085 -0.265619
    14 3.723980 2.768055 -0.395205 0.000000 -3.141591 -1.570795
    15 2.863741 -0.721077 0.000003 0.000000 0.000000 0.000000
    16 0.000005 0.001564 3.638375 2.754127 -0.750945 0.270766
    17 8.842831 0.000000 -0.000001 -0.635594 -0.291616 -0.108003
    18 9.341934 0.000000 -0.000002 0.000000 0.000000 0.014313
    19 9.664096 0.000000 0.000003 -3.820704 -0.067348 -0.377013
    20 0.000005 0.001585 -3.638375 0.228752 1.071920 3.342480
    21 8.842831 0.000000 0.000001 0.151479 0.280665 -0.968814
    22 9.341934 0.000000 -0.000001 0.000000 0.000000 -0.744530
    23 9.664095 0.000000 -0.000002 2.824024 0.109432 0.350951
    24 6.829857 -0.000001 0.000000 0.001241 0.000000 0.000000
    25 0.103265 -0.365850 1.319815 0.024842 0.006382 -0.003186
  time 15
    0 2.446612 -4.957183 24.092234 0.002797 -0.095883 -1.569878
    1 -3.608166 -0.789086 9.745319 -1.570795 -1.570451 0.000000
    2 -0.000008 0.000010 5.615750 0.038158 3.214163 -0.875842
    3 15.693467 0.000000 0.000000 0.000000 0.000000 -1.229659
    4 22.146629 -0.000001 0.000000 0.039678 -0.072324 0.257852
    5 0.000008 -0.000006 -5.615750 -0.055591 3.056178 -0.165268
    6 15.693467 0.000000 0.000000 0.000000 0.000000 -1.086473
    7 22.146629 0.000000 0.000000 0.033075 0.096967 0.829165
    8 1.384163 -0.004728 0.000002 -0.066340 0.054764 0.186912
    9 5.939814 -0.004730 0.000000 0.379300 -0.219953 0.154500
    10 5.939809 -0.003975 0.000000 -0.390043 -0.021045 0.146600
    11 4.991439 -0.003975 0.000000 0.383510 0.033952 0.065442
    12 4.991436 -0.001575 0.000000 0.000000 0.000000 0.000000
    13 1.977383 0.000000 0.000000 -0.359518 0.113776 -0.266342
    14 3.723980 2.768055 -0.395205 0.000000 -3.141591 -1.570795
    15 2.863741 -0.721077 0.000003 0.000000 0.000000 0.000000
    16 0.000005 0.001564 3.638375 2.816540 -0.863468 0.249961
    17 8.842831 0.000000 -0.000001 -0.640388 -0.294256 -0.253480
    18 9.341934 0.000000 -0.000002 0.000000 0.000000 -0.002503
    19 9.664096 0.000000 0.000003 -3.820704 -0.067348 -0.377013
    20 0.000005 0.001585 -3.638375 0.160409 1.077562 3.282334
    21 8.842831 0.000000 0.000001 0.132595 0.292763 -1.002425
    22 9.341934 0.000000 -0.000001 0.000000 0.000000 -0.729614
    23 9.664095 0.000000 -0.000002 2.828526 0.121986 0.389751
    24 6.829857 -0.000001 0.000000 0.001241 0.000000 0.000000
    25 0.103265 -0.365850 1.319815 0.024842 0.006382 -0.003186
  time 16
    0 2.462238 -4.953276 23.080485 0.008205 -0.095623 -1.626017
    1 -3.615979 -0.761741 9.745319 -1.570795 -1.570451 0.000000
    2 -0.000008 0.000010 5.615750 0.043718 3.213876 -0.930846
    3 15.693467 0.000000 0.000000 0.000000 0.000000 -1.324734
    4 22.146629 -0.000001 0.000000 -0.015148 -0.080090 0.297985
    5 0.000008 -0.000006 -5.615750 -0.085784 3.031637 -0.239395
    6 15.693467 0.000000 0.000000 0.000000 0.000000 -1.195015
    7 22.146629 0.000000 0.000000 -0.009028 0.126608 0.867312
    8 1.384163 -0.004728 0.000002 -0.066366 0.056091 0.186720
    9 5.939814 -0.004730 0.000000 0.372385 -0.215962 0.156573
    10 5.939809 -0.003975 0.000000 -0.380946 -0.024580 0.146763
    11 4.991439 -0.003975 0.000000 0.379059 0.034252 0.065292
    12 4.991436 -0.001575 0.000000 0.000000 0.000000 0.000000
    13 1.977383 0.000000 0.000000 -0.370983 0.123088 -0.268421
    14 3.723980 2.768055 -0.395205 0.000000 -3.141591 -1.570795
    15 2.863741 -0.721077 0.000003 0.000000 0.000000 0.000000
    16 0.000005 0.001564 3.638375 -3.077430 -1.165774 6.223403
    17 8.842831 0.000000 -0.000001 -0.542192 -0.225876 -0.742766
    18 9.341934 0.000000 -0.000002 0.000000 0.000000 -0.002503
    19 9.664096 0.000000 0.000003 -3.820704 -0.067348 -0.377013
    20 0.000005 0.001585 -3.638375 0.094354 1.081088 3.224190
    21 8.842831 0.000000 0.000001 0.109880 0.304042 -1.045719
    22 9.341934 0.000000 -0.000001 0.000000 0.000000 -0.717015
    23 9.664095 0.000000 -0.000002 2.833267 0.133668 0.426692
    24 6.829857 -0.000001 0.000000 0.001241 0.000000 0.000000
    25 0.103265 -0.365850 1.319815 0.024842 0.006382 -0.003186
  time 17
    0 2.477863 -4.945463 22.107799 0.012867 -0.095102 -1.675271
    1 -3.647230 -0.742209 9.745319 -1.570795 -1.570451 0.000000
    2 -0.000008 0.000010 5.615750 0.049087 3.213205 -0.982755
    3 15.693467 0.000000 0.000000 0.000000 0.000000 -1.410785
    4 22.146629 -0.000001 0.000000 -0.063265 -0.087080 0.332366
    5 0.000008 -0.000006 -5.615750 -0.116743 3.012849 -0.307820
    6 15.693467 0.000000 0.000000 0.000000 0.000000 -1.291188
    7 22.146629 0.000000 0.000000 -0.045354 0.153916 0.899635
    8 1.384163 -0.004728 0.000002 -0.072104 0.054065 0.187334
    9 5.939814 -0.004730 0.000000 0.358795 -0.209814 0.160129
    10 5.939809 -0.003975 0.000000 -0.368597 -0.028320 0.146751
    11 4.991439 -0.003975 0.000000 0.367804 0.034983 0.064903
    12 4.991436 -0.001575 0.000000 0.000000 0.000000 0.000000
    13 1.977383 0.000000 0.000000 -0.367138 0.134290 -0.271631
    14 3.723980 2.768055 -0.395205 0.000000 -3.141591 -1.570795
    15 2.863741 -0.721077 0.000003 0.000000 0.000000 0.000000
    16 0.000005 0.001564 3.638375 -1.583157 -1.207191 4.724865
    17 8.842831 0.000000 -0.000001 -0.209533 0.132049 -1.349546
    18 9.341934 0.000000 -0.000002 0.000000 0.000000 -0.002503
    19 9.664096 0.000000 0.000003 -3.820704 -0.067348 -0.377013
    20 0.000005 0.001585 -3.638375 0.038403 1.082620 3.174720
    21 8.842831 0.000000 0.000001 0.085044 0.312592 -1.099398
    22 9.341934 0.000000 -0.000001 0.000000 0.000000 -0.708517
    23 9.664095 0.000000 -0.000002 2.837529 0.143371 0.457834
    24 6.829857 -0.000001 0.000000 0.001241 0.000000 0.000000
    25 0.103265 -0.365850 1.319815 0.024842 0.006382 -0.003186
  time 18
    0 2.497395 -4.937651 21.392933 0.016316 -0.094581 -1.711900
    1 -3.701919 -0.742209 9.745319 -1.570795 -1.570451 0.000000
    2 -0.000008 0.000010 5.615750 0.053401 3.212629 -1.020457
    3 15.693467 0.000000 0.000000 0.000000 0.000000 -1.470847
    4 22.146629 -0.000001 0.000000 -0.099116 -0.092564 0.355113
    5 0.000008 -0.000006 -5.615750 -0.142239 3.001153 -0.359648
    6 15.693467 0.000000 0.000000 0.000000 0.000000 -1.359027
    7 22.146629 0.000000 0.000000 -0.071873 0.174532 0.919874
    8 1.384163 -0.004728 0.000002 -0.085484 0.047089 0.189214
    9 5.939814 -0.004730 0.000000 0.338661 -0.202060 0.164888
    10 5.939809 -0.003975 0.000000 -0.354959 -0.031160 0.146474
    11 4.991439 -0.003975 0.000000 0.348951 0.036217 0.064230
    12 4.991436 -0.001575 0.000000 0.000000 0.000000 0.000000
    13 1.977383 0.000000 0.000000 -0.342879 0.148760 -0.275338
    14 3.723980 2.768055 -0.395205 0.000000 -3.141591 -1.570795
    15 2.863741 -0.721077 0.000003 0.000000 0.000000 0.000000
    16 0.000005 0.001564 3.638375 -1.186244 -0.903650 4.235899
    17 8.842831 0.000000 -0.000001 0.079470 0.605884 -1.507460
    18 9.341934 0.000000 -0.000002 0.000000 0.000000 -0.002503
    19 9.664096 0.000000 0.000003 -3.820704 -0.067348 -0.377013
    20 0.000005 0.001585 -3.638375 -0.000010 1.082936 3.140787
    21 8.842831 0.000000 0.000001 0.060619 0.316959 -1.163952
    22 9.341934 0.000000 -0.000001 0.000000 0.000000 -0.705724
    23 9.664095 0.000000 -0.000002 2.840650 0.149945 0.479203
    24 6.829857 -0.000001 0.000000 0.001241 0.000000 0.000000
    25 0.103265 -0.365850 1.319815 0.024842 0.006382 -0.003186
  time 19
    0 2.516927 -4.925932 21.162457 0.016316 -0.094581 -1.711996
    1 -3.780047 -0.757835 9.745319 -1.570795 -1.570451 0.000000
    2 -0.000008 0.000010 5.615750 0.055223 3.211862 -1.036542
    3 15.693467 0.000000 0.000000 0.000000 0.000000 -1.488017
    4 22.146629 -0.000001 0.000000 -0.099326 -0.093294 0.356224
    5 0.000008 -0.000006 -5.615750 -0.145977 3.002687 -0.373292
    6 15.693467 0.000000 0.000000 0.000000 0.000000 -1.380540
    7 22.146629 0.000000 0.000000 -0.070476 0.175721 0.928027
    8 1.384163 -0.004728 0.000002 -0.105015 0.036258 0.192244
    9 5.939814 -0.004730 0.000000 0.313157 -0.192832 0.170490
    10 5.939809 -0.003975 0.000000 -0.340059 -0.033365 0.145997
    11 4.991439 -0.003975 0.000000 0.323876 0.037847 0.063304
    12 4.991436 -0.001575 0.000000 0.000000 0.000000 0.000000
    13 1.977383 0.000000 0.000000 -0.302121 0.166274 -0.278231
    14 3.723980 2.768055 -0.395205 0.000000 -3.141591 -1.570795
    15 2.863741 -0.721077 0.000003 0.000000 0.000000 0.000000
    16 0.000005 0.001564 3.638375 -1.159591 -0.816897 4.172525
    17 8.842831 0.000000 -0.000001 0.168529 0.732355 -1.442576
    18 9.341934 0.000000 -0.000002 0.000000 0.000000 0.027944
    19 9.664096 0.000000 0.000003 -3.820704 -0.067348 -0.377013
    20 0.000005 0.001585 -3.638375 -0.020027 1.082839 3.123153
    21 8.842831 0.000000 0.000001 0.040367 0.321598 -1.234472
    22 9.341934 0.000000 -0.000001 0.000000 0.000000 -0.710835
    23 9.664095 0.000000 -0.000002 2.842331 0.153350 0.490325
    24 6.829857 -0.000001 0.000000 0.001241 0.000000 0.000000
    25 0.103265 -0.365850 1.319815 0.024842 0.006382 -0.003186
  time 20
    0 2.536459 -4.918119 21.381214 0.014918 -0.094754 -1.696694
    1 -3.862080 -0.777366 9.745319 -1.570795 -1.570451 0.000000
    2 -0.000008 0.000010 5.615750 0.054073 3.211383 -1.029133
    3 15.693467 0.000000 0.000000 0.000000 0.000000 -1.468355
    4 22.146629 -0.000001 0.000000 -0.084807 -0.090893 0.343870
    5 0.000008 -0.000006 -5.615750 -0.137830 3.008727 -0.361634
    6 15.693467 0.000000 0.000000 0.000000 0.000000 -1.364049
    7 22.146629 0.000000 0.000000 -0.058036 0.167489 0.921548
    8 1.384163 -0.004728 0.000002 -0.127633 0.023813 0.195965
    9 5.939814 -0.004730 0.000000 0.283819 -0.181998 0.176656
    10 5.939809 -0.003975 0.000000 -0.322818 -0.035918 0.145407
    11 4.991439 -0.003975 0.000000 0.294909 0.039681 0.062182
    12 4.991436 -0.001575 0.000000 0.000000 0.000000 0.000000
    13 1.977383 0.000000 0.000000 -0.252869 0.185433 -0.279316
    14 3.723980 2.768055 -0.395205 0.000000 -3.141591 -1.570795
    15 2.863741 -0.721077 0.000003 0.000000 0.000000 0.000000
    16 0.000005 0.001564 3.638375 -1.178478 -0.851477 4.208670
    17 8.842831 0.000000 -0.000001 0.098478 0.662610 -1.394793
    18 9.341934 0.000000 -0.000002 0.000000 0.000000 0.058390
    19 9.664096 0.000000 0.000003 -3.820704 -0.067348 -0.377013
    20 0.000005 0.001585 -3.638375 -0.027843 1.082766 3.116290
    21 8.842831 0.000000 0.000001 0.025110 0.329784 -1.306675
    22 9.341934 0.000000 -0.000001 0.000000 0.000000 -0.723136
    23 9.664095 0.000000 -0.000002 2.842991 0.154657 0.494665
    24 6.829857 -0.000001 0.000000 0.001241 0.000000 0.000000
    25 0.103265 -0.365850 1.319815 0.024842 0.006382 -0.003186
  time 21
    0 2.555991 -4.910306 21.822634 0.013426 -0.095015 -1.680722
    1 -3.955833 -0.789086 9.745319 -1.570795 -1.570451 0.000000
    2 -0.000008 0.000010 5.615750 0.051388 3.211000 -1.008177
    3 15.693467 0.000000 0.000000 0.000000 0.000000 -1.430312
    4 22.146629 -0.000001 0.000000 -0.069712 -0.087645 0.326614
    5 0.000008 -0.000006 -5.615750 -0.127478 3.014574 -0.341015
    6 15.693467 0.000000 0.000000 0.000000 0.000000 -1.329118
    7 22.146629 0.000000 0.000000 -0.045623 0.158091 0.905532
    8 1.384163 -0.004728 0.000002 -0.152875 0.010041 0.200491
    9 5.939814 -0.004730 0.000000 0.251233 -0.169714 0.183129
    10 5.939809 -0.003975 0.000000 -0.303602 -0.038734 0.144691
    11 4.991439 -0.003975 0.000000 0.262587 0.041706 0.060866
    12 4.991436 -0.001575 0.000000 0.000000 0.000000 0.000000
    13 1.977383 0.000000 0.000000 -0.196101 0.205992 -0.277870
    14 3.723980 2.768055 -0.395205 0.000000 -3.141591 -1.570795
    15 2.863741 -0.721077 0.000003 0.000000 0.000000 0.000000
    16 0.000005 0.001564 3.638375 -1.186244 -0.903650 4.235899
    17 8.842831 0.000000 -0.000001 0.012916 0.560085 -1.366974
    18 9.341934 0.000000 -0.000002 0.000000 0.000000 -0.002503
    19 9.664096 0.000000 0.000003 -3.820704 -0.067348 -0.377013
    20 0.000005 0.001585 -3.638375 -0.026699 1.082790 3.117243
    21 8.842831 0.000000 0.000001 0.013821 0.338062 -1.381194
    22 9.341934 0.000000 -0.000001 0.000000 0.000000 -0.740014
    23 9.664095 0.000000 -0.000002 2.842931 0.154459 0.494045
    24 6.829857 -0.000001 0.000000 0.001241 0.000000 0.000000
    25 0.103265 -0.365850 1.319815 0.024842 0.006382 -0.003186
  time 22
    0 2.575523 -4.902493 22.435934 0.011934 -0.095189 -1.665038
    1 -4.049586 -0.800805 9.745319 -1.570795 -1.570451 0.000000
    2 -0.000008 0.000010 5.615750 0.047457 3.210808 -0.976311
    3 15.693467 0.000000 0.000000 0.000000 0.000000 -1.377321
    4 22.146629 -0.000001 0.000000 -0.054957 -0.083832 0.305371
    5 0.000008 -0.000006 -5.615750 -0.116168 3.019942 -0.313217
    6 15.693467 0.000000 0.000000 0.000000 0.000000 -1.279120
    7 22.146629 0.000000 0.000000 -0.033881 0.148436 0.881581
    8 1.384163 -0.004728 0.000002 -0.180383 -0.004771 0.205823
    9 5.939814 -0.004730 0.000000 0.215998 -0.156135 0.189678
    10 5.939809 -0.003975 0.000000 -0.282717 -0.041778 0.143849
    11 4.991439 -0.003975 0.000000 0.227468 0.043840 0.059356
    12 4.991436 -0.001575 0.000000 0.000000 0.000000 0.000000
    13 1.977383 0.000000 0.000000 -0.132761 0.227662 -0.273168
    14 3.723980 2.768055 -0.395205 0.000000 -3.141591 -1.570795
    15 2.863741 -0.721077 0.000003 0.000000 0.000000 0.000000
    16 0.000005 0.001564 3.638375 -1.130542 -0.964605 4.191029
    17 8.842831 0.000000 -0.000001 -0.054033 0.405388 -1.415493
    18 9.341934 0.000000 -0.000002 0.000000 0.000000 -0.343641
    19 9.664096 0.000000 0.000003 -3.826104 -0.067673 -0.379174
    20 0.000005 0.001585 -3.638375 -0.020027 1.082839 3.123153
    21 8.842831 0.000000 0.000001 0.005268 0.342792 -1.458519
    22 9.341934 0.000000 -0.000001 0.000000 0.000000 -0.759090
    23 9.664095 0.000000 -0.000002 2.842331 0.153350 0.490325
    24 6.829857 -0.000001 0.000000 0.001241 0.000000 0.000000
    25 0.103265 -0.365850 1.319815 0.024842 0.006382 -0.003186
  time 23
    0 2.591148 -4.894681 23.158612 0.010443 -0.095362 -1.649831
    1 -4.139432 -0.804711 9.745319 -1.570795 -1.570451 0.000000
    2 -0.000008 0.000010 5.615750 0.042760 3.210712 -0.936174
    3 15.693467 0.000000 0.000000 0.000000 0.000000 -1.312748
    4 22.146629 -0.000001 0.000000 -0.040621 -0.079714 0.280729
    5 0.000008 -0.000006 -5.615750 -0.104474 3.025023 -0.279565
    6 15.693467 0.000000 0.000000 0.000000 0.000000 -1.217053
    7 22.146629 0.000000 0.000000 -0.022758 0.138944 0.851587
    8 1.384163 -0.004728 0.000002 -0.209717 -0.020372 0.211884
    9 5.939814 -0.004730 0.000000 0.178714 -0.141466 0.196100
    10 5.939809 -0.003975 0.000000 -0.260486 -0.045002 0.142882
    11 4.991439 -0.003975 0.000000 0.190112 0.046057 0.057682
    12 4.991436 -0.001575 0.000000 0.000000 0.000000 0.000000
    13 1.977383 0.000000 0.000000 -0.063794 0.249889 -0.264669
    14 3.723980 2.768055 -0.395205 0.000000 -3.141591 -1.570795
    15 2.863741 -0.721077 0.000003 0.000000 0.000000 0.000000
    16 0.000005 0.001564 3.638375 -1.051830 -1.033555 4.124875
    17 8.842831 0.000000 -0.000001 -0.078342 0.216273 -1.447649
    18 9.341934 0.000000 -0.000002 0.000000 0.000000 -0.687519
    19 9.664096 0.000000 0.000003 -3.820704 -0.067348 -0.377013
    20 0.000005 0.001585 -3.638375 -0.011067 1.082912 3.130969
    21 8.842831 0.000000 0.000001 -0.001779 0.340427 -1.539002
    22 9.341934 0.000000 -0.000001 0.000000 0.000000 -0.777631
    23 9.664095 0.000000 -0.000002 2.841611 0.151846 0.485366
    24 6.829857 -0.000001 0.000000 0.001241 0.000000 0.000000
    25 0.103265 -0.365850 1.319815 0.024842 0.006382 -0.003186
  time 24
    0 2.610680 -4.886868 23.947698 0.009044 -0.095536 -1.635199
    1 -4.233185 -0.808617 9.745319 -1.570795 -1.570451 0.000000
    2 -0.000008 0.000010 5.615750 0.037679 3.210424 -0.890557
    3 15.693467 0.000000 0.000000 0.000000 0.000000 -1.239961
    4 22.146629 -0.000001 0.000000 -0.026758 -0.075548 0.253407
    5 0.000008 -0.000006 -5.615750 -0.092876 3.029624 -0.241330
    6 15.693467 0.000000 0.000000 0.000000 0.000000 -1.146141
    7 22.146629 0.000000 0.000000 -0.012225 0.129989 0.817371
    8 1.384163 -0.004728 0.000002 -0.240492 -0.036475 0.218750
    9 5.939814 -0.004730 0.000000 0.139944 -0.125886 0.202214
    10 5.939809 -0.003975 0.000000 -0.237275 -0.048346 0.141801
    11 4.991439 -0.003975 0.000000 0.151078 0.048310 0.055843
    12 4.991436 -0.001575 0.000000 0.000000 0.000000 0.000000
    13 1.977383 0.000000 0.000000 0.009788 0.272026 -0.252011
    14 3.723980 2.768055 -0.395205 0.000000 -3.141591 -1.570795
    15 2.863741 -0.721077 0.000003 0.000000 0.000000 0.000000
    16 0.000005 0.001564 3.638375 -0.991622 -1.075840 4.072430
    17 8.842831 0.000000 -0.000001 -0.070502 0.086432 -1.425721
    18 9.341934 0.000000 -0.000002 0.000000 0.000000 -0.814863
    19 9.664096 0.000000 0.000003 -3.797334 -0.066017 -0.367672
    20 0.000005 0.001585 -3.638375 -0.003346 1.082936 3.137927
    21 8.842831 0.000000 0.000001 -0.009100 0.327601 -1.622923
    22 9.341934 0.000000 -0.000001 0.000000 0.000000 -0.793260
    23 9.664095 0.000000 -0.000002 2.840950 0.150539 0.481063
    24 6.829857 -0.000001 0.000000 0.001241 0.000000 0.000000
    25 0.103265 -0.365850 1.319815 0.024842 0.006382 -0.003186
  time 25
    0 2.626305 -4.879055 24.740691 0.007739 -0.095623 -1.621140
    1 -4.319125 -0.808617 9.745319 -1.570795 -1.570451 0.000000
    2 -0.000008 0.000010 5.615750 0.032406 3.210137 -0.842302
    3 15.693467 0.000000 0.000000 0.000000 0.000000 -1.162865
    4 22.146629 -0.000001 0.000000 -0.013444 -0.071500 0.224452
    5 0.000008 -0.000006 -5.615750 -0.081758 3.034034 -0.200346
    6 15.693467 0.000000 0.000000 0.000000 0.000000 -1.069982
    7 22.146629 0.000000 0.000000 -0.002311 0.121780 0.780899
    8 1.384163 -0.004728 0.000002 -0.272296 -0.052811 0.226306
    9 5.939814 -0.004730 0.000000 0.100227 -0.109635 0.207843
    10 5.939809 -0.003975 0.000000 -0.213376 -0.051761 0.140595
    11 4.991439 -0.003975 0.000000 0.110903 0.050539 0.053854
    12 4.991436 -0.001575 0.000000 0.000000 0.000000 0.000000
    13 1.977383 0.000000 0.000000 0.087109 0.293341 -0.234969
    14 3.723980 2.768055 -0.395205 0.000000 -3.141591 -1.570795
    15 2.863741 -0.721077 0.000003 0.000000 0.000000 0.000000
    16 0.000005 0.001564 3.638375 -0.925470 -1.114206 4.013659
    17 8.842831 0.000000 -0.000001 -0.050254 -0.036579 -1.394629
    18 9.341934 0.000000 -0.000002 0.000000 0.000000 -0.916500
    19 9.664096 0.000000 0.000003 -3.771219 -0.064815 -0.357200
    20 0.000005 0.001585 -3.638375 -0.000010 1.082936 3.140787
    21 8.842831 0.000000 0.000001 -0.018131 0.300586 -1.710634
    22 9.341934 0.000000 -0.000001 0.000000 0.000000 -0.803304
    23 9.664095 0.000000 -0.000002 2.840650 0.149945 0.479203
    24 6.829857 -0.000001 0.000000 0.001241 0.000000 0.000000
    25 0.103265 -0.365850 1.319815 0.024842 0.006382 -0.003186
  time 26
    0 2.638025 -4.871242 25.486808 0.006433 -0.095710 -1.608038
    1 -4.401159 -0.804711 9.745319 -1.570795 -1.570451 0.000000
    2 -0.000008 0.000010 5.615750 0.027516 3.209657 -0.794706
    3 15.693467 0.000000 0.000000 0.000000 0.000000 -1.086239
    4 22.146629 -0.000001 0.000000 -0.000891 -0.067758 0.195234
    5 0.000008 -0.000006 -5.615750 -0.071502 3.038156 -0.158904
    6 15.693467 0.000000 0.000000 0.000000 0.000000 -0.993298
    7 22.146629 0.000000 0.000000 0.006878 0.114504 0.744644
    8 1.384163 -0.004728 0.000002 -0.304666 -0.069112 0.234515
    9 5.939814 -0.004730 0.000000 0.060127 -0.092941 0.212883
    10 5.939809 -0.003975 0.000000 -0.189141 -0.055189 0.139301
    11 4.991439 -0.003975 0.000000 0.070168 0.052720 0.051761
    12 4.991436 -0.001575 0.000000 0.000000 0.000000 0.000000
    13 1.977383 0.000000 0.000000 0.167053 0.313033 -0.213676
    14 3.723980 2.768055 -0.395205 0.000000 -3.141591 -1.570795
    15 2.863741 -0.721077 0.000003 0.000000 0.000000 0.000000
    16 0.000005 0.001564 3.638375 -0.851935 -1.149102 3.947025
    17 8.842831 0.000000 -0.000001 -0.019628 -0.152761 -1.358955
    18 9.341934 0.000000 -0.000002 0.000000 0.000000 -0.999470
    19 9.664096 0.000000 0.000003 -3.742980 -0.063808 -0.345864
    20 0.000005 0.001585 -3.638375 -0.000010 1.082936 3.140787
    21 8.842831 0.000000 0.000001 -0.029420 0.253741 -1.799888
    22 9.341934 0.000000 -0.000001 0.000000 0.000000 -0.806037
    23 9.664095 0.000000 -0.000002 2.840650 0.149945 0.479203
    24 6.829857 -0.000001 0.000000 0.001241 0.000000 0.000000
    25 0.103265 -0.365850 1.319815 0.024842 0.006382 -0.003186
  time 27
    0 2.649744 -4.867336 26.127452 0.005315 -0.095797 -1.596083
    1 -4.471474 -0.796898 9.745319 -1.570795 -1.570451 0.000000
    2 -0.000008 0.000010 5.615750 0.023106 3.209178 -0.751576
    3 15.693467 0.000000 0.000000 0.000000 0.000000 -1.015876
    4 22.146629 -0.000001 0.000000 0.010614 -0.064463 0.167912
    5 0.000008 -0.000006 -5.615750 -0.062588 3.041895 -0.120263
    6 15.693467 0.000000 0.000000 0.000000 0.000000 -0.922312
    7 22.146629 0.000000 0.000000 0.015261 0.108301 0.711302
    8 1.384163 -0.004728 0.000002 -0.337242 -0.085161 0.243223
    9 5.939814 -0.004730 0.000000 0.020170 -0.076066 0.217232
    10 5.939809 -0.003975 0.000000 -0.164906 -0.058581 0.137932
    11 4.991439 -0.003975 0.000000 0.029433 0.054818 0.049563
    12 4.991436 -0.001575 0.000000 0.000000 0.000000 0.000000
    13 1.977383 0.000000 0.000000 0.248394 0.330392 -0.188451
    14 3.723980 2.768055 -0.395205 0.000000 -3.141591 -1.570795
    15 2.863741 -0.721077 0.000003 0.000000 0.000000 0.000000
    16 0.000005 0.001564 3.638375 -0.768910 -1.180763 3.870804
    17 8.842831 0.000000 -0.000001 0.020700 -0.262297 -1.322545
    18 9.341934 0.000000 -0.000002 0.000000 0.000000 -1.070808
    19 9.664096 0.000000 0.000003 -3.713502 -0.063094 -0.334030
    20 0.000005 0.001585 -3.638375 -0.000010 1.082936 3.140787
    21 8.842831 0.000000 0.000001 -0.040914 0.188612 -1.887107
    22 9.341934 0.000000 -0.000001 0.000000 0.000000 -0.802828
    23 9.664095 0.000000 -0.000002 2.840650 0.149945 0.479203
    24 6.829857 -0.000001 0.000000 0.001241 0.000000 0.000000
    25 0.103265 -0.365850 1.319815 0.024842 0.006382 -0.003186
  time 28
    0 2.657556 -4.863430 26.615749 0.004289 -0.095883 -1.585658
    1 -4.537882 -0.789086 9.745319 -1.570795 -1.570451 0.000000
    2 -0.000008 0.000010 5.615750 0.019655 3.208603 -0.717629
    3 15.693467 0.000000 0.000000 0.000000 0.000000 -0.959182
    4 22.146629 -0.000001 0.000000 0.020809 -0.061756 0.145101
    5 0.000008 -0.000006 -5.615750 -0.055400 3.045442 -0.088799
    6 15.693467 0.000000 0.000000 0.000000 0.000000 -0.864892
    7 22.146629 0.000000 0.000000 0.022677 0.103264 0.684730
    8 1.384163 -0.004728 0.000002 -0.369535 -0.100673 0.252390
    9 5.939814 -0.004730 0.000000 -0.019103 -0.059264 0.220839
    10 5.939809 -0.003975 0.000000 -0.140980 -0.061900 0.136488
    11 4.991439 -0.003975 0.000000 -0.010720 0.056795 0.047321
    12 4.991436 -0.001575 0.000000 0.000000 0.000000 0.000000
    13 1.977383 0.000000 0.000000 0.329841 0.344727 -0.159925
    14 3.723980 2.768055 -0.395205 0.000000 -3.141591 -1.570795
    15 2.863741 -0.721077 0.000003 0.000000 0.000000 0.000000
    16 0.000005 0.001564 3.638375 -0.673900 -1.209321 3.782311
    17 8.842831 0.000000 -0.000001 0.071292 -0.365550 -1.289244
    18 9.341934 0.000000 -0.000002 0.000000 0.000000 -1.137480
    19 9.664096 0.000000 0.000003 -3.683581 -0.062737 -0.321962
    20 0.000005 0.001585 -3.638375 -0.000010 1.082936 3.140787
    21 8.842831 0.000000 0.000001 -0.050698 0.113387 -1.971379
    22 9.341934 0.000000 -0.000001 0.000000 0.000000 -0.796291
    23 9.664095 0.000000 -0.000002 2.840650 0.149945 0.479203
    24 6.829857 -0.000001 0.000000 0.001241 0.000000 0.000000
    25 0.103265 -0.365850 1.319815 0.024842 0.006382 -0.003186
  time 29
    0 2.661463 -4.863430 26.291520 0.003543 -0.095883 -1.577051
    1 -4.592571 -0.781273 9.745319 -1.570795 -1.570451 0.000000
    2 -0.000008 0.000010 5.615750 0.021380 3.208124 -0.744675
    3 15.693467 0.000000 0.000000 0.000000 0.000000 -0.993926
    4 22.146629 -0.000001 0.000000 0.029483 -0.060886 0.152879
    5 0.000008 -0.000006 -5.615750 -0.055016 3.049084 -0.108706
    6 15.693467 0.000000 0.000000 0.000000 0.000000 -0.904471
    7 22.146629 0.000000 0.000000 0.029475 0.101142 0.704095
    8 1.384163 -0.004728 0.000002 -0.401108 -0.115485 0.261750
    9 5.939814 -0.004730 0.000000 -0.057214 -0.042809 0.223730
    10 5.939809 -0.003975 0.000000 -0.117726 -0.065088 0.135005
    11 4.991439 -0.003975 0.000000 -0.049800 0.058629 0.045063
    12 4.991436 -0.001575 0.000000 0.000000 0.000000 0.000000
    13 1.977383 0.000000 0.000000 0.409959 0.355641 -0.129049
    14 3.723980 2.768055 -0.395205 0.000000 -3.141591 -1.570795
    15 2.863741 -0.721077 0.000003 0.000000 0.000000 0.000000
    16 0.000005 0.001564 3.638375 -0.563646 -1.234566 3.678765
    17 8.842831 0.000000 -0.000001 0.133842 -0.462702 -1.263471
    18 9.341934 0.000000 -0.000002 0.000000 0.000000 -1.206449
    19 9.664096 0.000000 0.000003 -3.653837 -0.062737 -0.309995
    20 0.000005 0.001585 -3.638375 -0.000010 1.082936 3.140787
    21 8.842831 0.000000 0.000001 -0.057335 0.036252 -2.052354
    22 9.341934 0.000000 -0.000001 0.000000 0.000000 -0.788982
    23 9.664095 0.000000 -0.000002 2.840650 0.149945 0.479203
    24 6.829857 -0.000001 0.000000 0.001241 0.000000 0.000000
    25 0.103265 -0.365850 1.319815 0.024842 0.006382 -0.003186
  time 30
    0 2.665369 -4.859523 25.486808 0.002890 -0.095883 -1.571121
    1 -4.639448 -0.773460 9.745319 -1.570795 -1.570451 0.000000
    2 -0.000008 0.000010 5.615750 0.025886 3.207644 -0.805210
    3 15.693467 0.000000 0.000000 0.000000 0.000000 -1.078159
    4 22.146629 -0.000001 0.000000 0.035721 -0.061333 0.176736
    5 0.000008 -0.000006 -5.615750 -0.058658 3.052056 -0.155850
    6 15.693467 0.000000 0.000000 0.000000 0.000000 -0.995322
    7 22.146629 0.000000 0.000000 0.034741 0.101258 0.747920
    8 1.384163 -0.004728 0.000002 -0.431549 -0.129382 0.271186
    9 5.939814 -0.004730 0.000000 -0.093624 -0.026965 0.225905
    10 5.939809 -0.003975 0.000000 -0.095440 -0.068108 0.133523
    11 4.991439 -0.003975 0.000000 -0.087226 0.060306 0.042835
    12 4.991436 -0.001575 0.000000 0.000000 0.000000 0.000000
    13 1.977383 0.000000 0.000000 0.487211 0.362931 -0.096772
    14 3.723980 2.768055 -0.395205 0.000000 -3.141591 -1.570795
    15 2.863741 -0.721077 0.000003 0.000000 0.000000 0.000000
    16 0.000005 0.001564 3.638375 -0.434985 -1.255866 3.556811
    17 8.842831 0.000000 -0.000001 0.211282 -0.553299 -1.250134
    18 9.341934 0.000000 -0.000002 0.000000 0.000000 -1.284751
    19 9.664096 0.000000 0.000003 -3.625156 -0.063061 -0.298426
    20 0.000005 0.001585 -3.638375 -0.000010 1.082936 3.140787
    21 8.842831 0.000000 0.000001 -0.059593 -0.034879 -2.129820
    22 9.341934 0.000000 -0.000001 0.000000 0.000000 -0.783277
    23 9.664095 0.000000 -0.000002 2.840650 0.149945 0.479203
    24 6.829857 -0.000001 0.000000 0.001241 0.000000 0.000000
    25 0.103265 -0.365850 1.319815 0.024842 0.006382 -0.003186
end
