version 1
nodes
  0 "Bip01" -1
  1 "Bip01 Pelvis" 0
  2 "Bip01 L Thigh" 1
  3 "Bip01 L Calf" 2
  4 "Bip01 L Foot" 3
  5 "Bip01 R Thigh" 1
  6 "Bip01 R Calf" 5
  7 "Bip01 R Foot" 6
  8 "Bip01 Spine" 1
  9 "Bip01 Spine1" 8
  10 "Bip01 Spine2" 9
  11 "Bip01 Spine3" 10
  12 "Bip01 Neck" 11
  13 "Bip01 Head" 12
  14 "Bone05" 13
  15 "Bone06" 14
  16 "Bip01 L Clavicle" 12
  17 "Bip01 L UpperArm" 16
  18 "Bip01 L Forearm" 17
  19 "Bip01 L Hand" 18
  20 "Bip01 R Clavicle" 12
  21 "Bip01 R UpperArm" 20
  22 "Bip01 R Forearm" 21
  23 "Bip01 R Hand" 22
  24 "Bip01 R Finger0" 23
  25 "p_desert_eagle" 24
end
skeleton
  time 0
    0 0.173106 2.445387 25.498527 0.003077 -0.296509 -1.571791
    1 -3.471443 -1.550828 9.745319 -1.570795 -1.570451 0.000000
    2 -0.000008 0.000010 5.615750 0.017258 3.207836 -0.695912
    3 15.693467 0.000000 0.000000 0.000000 0.000000 -0.916829
    4 22.146629 -0.000001 0.000000 0.046099 -0.050671 -0.076219
    5 0.000008 -0.000006 -5.615750 -0.076295 3.055124 -0.297027
    6 15.693467 0.000000 0.000000 0.000000 0.000000 -1.243364
    7 22.146629 0.000000 0.000000 0.015073 0.114318 0.653935
    8 1.384163 -0.004728 0.000002 -0.431549 -0.129382 0.271186
    9 5.939814 -0.004730 0.000000 -0.096092 -0.048502 0.000256
    10 5.939809 -0.003975 0.000000 -0.096056 -0.073933 0.072798
    11 4.991439 -0.003975 0.000000 -0.087296 0.057262 0.008089
    12 4.991436 -0.001575 0.000000 0.000000 0.000000 0.000000
    13 1.977383 0.000000 0.000000 0.287440 0.512113 -0.285962
    14 3.723980 2.768055 -0.395205 0.000000 -3.141591 -1.570795
    15 2.863741 -0.721077 0.000003 0.000000 0.000000 0.000000
    16 0.000005 0.001564 3.638375 -0.000010 -1.283530 3.140806
    17 8.842831 0.000000 -0.000001 0.406432 -0.490929 -1.389311
    18 9.341934 0.000000 -0.000002 0.000000 0.000000 -0.446982
    19 9.664096 0.000000 0.000003 -3.820704 -0.067348 -0.377013
    20 0.000005 0.001585 -3.638375 -0.000010 1.082936 3.140787
    21 8.842831 0.000000 0.000001 -0.125822 0.056718 -1.981414
    22 9.341934 0.000000 -0.000001 0.000000 0.000000 -0.783277
    23 9.664095 0.000000 -0.000002 2.840650 0.149945 0.479203
    24 6.829857 -0.000001 0.000000 0.001241 0.000000 0.000000
    25 0.021231 -0.065060 1.351066 0.024842 0.006382 -0.003186
  time 1
    0 0.173106 2.246162 25.506340 0.003077 -0.286174 -1.571695
    1 -3.737076 -1.378947 9.745319 -1.570795 -1.570451 0.000000
    2 -0.000008 0.000010 5.615750 0.015245 3.203234 -0.707380
    3 15.693467 0.000000 0.000000 0.000000 0.000000 -0.920398
    4 22.146629 -0.000001 0.000000 0.043295 -0.046458 -0.073670
    5 0.000008 -0.000006 -5.615750 -0.080704 3.051673 -0.305224
    6 15.693467 0.000000 0.000000 0.000000 0.000000 -1.241265
    7 22.146629 0.000000 0.000000 0.017142 0.119588 0.654445
    8 1.384163 -0.004728 0.000002 -0.431549 -0.129382 0.271186
    9 5.939814 -0.004730 0.000000 -0.096009 -0.044607 0.040729
    10 5.939809 -0.003975 0.000000 -0.095748 -0.070589 0.107670
    11 4.991439 -0.003975 0.000000 -0.087296 0.057430 0.009898
    12 4.991436 -0.001575 0.000000 0.000000 0.000000 0.000000
    13 1.977383 0.000000 0.000000 0.345361 0.482641 -0.230538
    14 3.723980 2.768055 -0.395205 0.000000 -3.141591 -1.570795
    15 2.863741 -0.721077 0.000003 0.000000 0.000000 0.000000
    16 0.000005 0.001564 3.638375 -0.000010 -1.283530 3.140806
    17 8.842831 0.000000 -0.000001 0.406545 -0.562860 -1.417048
    18 9.341934 0.000000 -0.000002 0.000000 0.000000 -0.446982
    19 9.664096 0.000000 0.000003 -3.820704 -0.067348 -0.377013
    20 0.000005 0.001585 -3.638375 -0.000010 1.082936 3.140787
    21 8.842831 0.000000 0.000001 -0.136700 0.110568 -2.016007
    22 9.341934 0.000000 -0.000001 0.000000 0.000000 -0.783277
    23 9.664095 0.000000 -0.000002 2.840650 0.149945 0.479203
    24 6.829857 -0.000001 0.000000 0.001241 0.000000 0.000000
    25 0.021231 -0.065060 1.351066 0.024842 0.006382 -0.003186
  time 2
    0 0.173106 2.043031 25.486808 0.003077 -0.264982 -1.571695
    1 -4.186309 -1.070344 9.745319 -1.570795 -1.570451 0.000000
    2 -0.000008 0.000010 5.615750 0.011793 3.194702 -0.729604
    3 15.693467 0.000000 0.000000 0.000000 0.000000 -0.920128
    4 22.146629 -0.000001 0.000000 0.038106 -0.038880 -0.074847
    5 0.000008 -0.000006 -5.615750 -0.089330 3.046113 -0.327014
    6 15.693467 0.000000 0.000000 0.000000 0.000000 -1.238791
    7 22.146629 0.000000 0.000000 0.021199 0.128963 0.652407
    8 1.384163 -0.004728 0.000002 -0.431549 -0.129382 0.271186
    9 5.939814 -0.004730 0.000000 -0.095481 -0.037799 0.111699
    10 5.939809 -0.003975 0.000000 -0.094921 -0.064681 0.169526
    11 4.991439 -0.003975 0.000000 -0.087296 0.057694 0.012948
    12 4.991436 -0.001575 0.000000 0.000000 0.000000 0.000000
    13 1.977383 0.000000 0.000000 0.434288 0.416273 -0.143425
    14 3.723980 2.768055 -0.395205 0.000000 -3.141591 -1.570795
    15 2.863741 -0.721077 0.000003 0.000000 0.000000 0.000000
    16 0.000005 0.001564 3.638375 -0.000010 -1.283530 3.140806
    17 8.842831 0.000000 -0.000001 0.414667 -0.689149 -1.470722
    18 9.341934 0.000000 -0.000002 0.000000 0.000000 -0.446982
    19 9.664096 0.000000 0.000003 -3.820704 -0.067348 -0.377013
    20 0.000005 0.001585 -3.638375 -0.000010 1.082936 3.140787
    21 8.842831 0.000000 0.000001 -0.159484 0.199528 -2.080211
    22 9.341934 0.000000 -0.000001 0.000000 0.000000 -0.783277
    23 9.664095 0.000000 -0.000002 2.840650 0.149945 0.479203
    24 6.829857 -0.000001 0.000000 0.001241 0.000000 0.000000
    25 0.021231 -0.065060 1.351066 0.024842 0.006382 -0.003186
  time 3
    0 0.173106 1.839900 25.439932 0.002984 -0.243443 -1.571599
    1 -4.580852 -0.781273 9.745319 -1.570795 -1.570451 0.000000
    2 -0.000008 0.000010 5.615750 0.008629 3.186745 -0.752235
    3 15.693467 0.000000 0.000000 0.000000 0.000000 -0.922216
    4 22.146629 -0.000001 0.000000 0.033179 -0.031820 -0.073801
    5 0.000008 -0.000006 -5.615750 -0.097381 3.040936 -0.346869
    6 15.693467 0.000000 0.000000 0.000000 0.000000 -1.235418
    7 22.146629 0.000000 0.000000 0.025310 0.137708 0.651679
    8 1.384163 -0.004728 0.000002 -0.431549 -0.129382 0.271186
    9 5.939814 -0.004730 0.000000 -0.094546 -0.031448 0.178396
    10 5.939809 -0.003975 0.000000 -0.093800 -0.059180 0.227777
    11 4.991439 -0.003975 0.000000 -0.087296 0.057945 0.015789
    12 4.991436 -0.001575 0.000000 0.000000 0.000000 0.000000
    13 1.977383 0.000000 0.000000 0.501088 0.339971 -0.073852
    14 3.723980 2.768055 -0.395205 0.000000 -3.141591 -1.570795
    15 2.863741 -0.721077 0.000003 0.000000 0.000000 0.000000
    16 0.000005 0.001564 3.638375 -0.000010 -1.283530 3.140806
    17 8.842831 0.000000 -0.000001 0.433844 -0.807425 -1.529224
    18 9.341934 0.000000 -0.000002 0.000000 0.000000 -0.446982
    19 9.664096 0.000000 0.000003 -3.820704 -0.067348 -0.377013
    20 0.000005 0.001585 -3.638375 -0.000010 1.082936 3.140787
    21 8.842831 0.000000 0.000001 -0.186988 0.278482 -2.145116
    22 9.341934 0.000000 -0.000001 0.000000 0.000000 -0.783277
    23 9.664095 0.000000 -0.000002 2.840650 0.149945 0.479203
    24 6.829857 -0.000001 0.000000 0.001241 0.000000 0.000000
    25 0.021231 -0.065060 1.351066 0.024842 0.006382 -0.003186
  time 4
    0 0.173106 1.636769 25.357898 0.002984 -0.222338 -1.571504
    1 -4.877736 -0.550797 9.745319 -1.570795 -1.570451 0.000000
    2 -0.000008 0.000010 5.615750 0.006233 3.180322 -0.774663
    3 15.693467 0.000000 0.000000 0.000000 0.000000 -0.928612
    4 22.146629 -0.000001 0.000000 0.029169 -0.026312 -0.068637
    5 0.000008 -0.000006 -5.615750 -0.103803 3.036814 -0.362805
    6 15.693467 0.000000 0.000000 0.000000 0.000000 -1.231370
    7 22.146629 0.000000 0.000000 0.029206 0.144471 0.653717
    8 1.384163 -0.004728 0.000002 -0.431549 -0.129382 0.271186
    9 5.939814 -0.004730 0.000000 -0.093492 -0.026378 0.232147
    10 5.939809 -0.003975 0.000000 -0.092706 -0.054901 0.273679
    11 4.991439 -0.003975 0.000000 -0.087296 0.058161 0.018270
    12 4.991436 -0.001575 0.000000 0.000000 0.000000 0.000000
    13 1.977383 0.000000 0.000000 0.542266 0.271670 -0.026069
    14 3.723980 2.768055 -0.395205 0.000000 -3.141591 -1.570795
    15 2.863741 -0.721077 0.000003 0.000000 0.000000 0.000000
    16 0.000005 0.001564 3.638375 -0.000010 -1.283530 3.140806
    17 8.842831 0.000000 -0.000001 0.461594 -0.900754 -1.586416
    18 9.341934 0.000000 -0.000002 0.000000 0.000000 -0.446982
    19 9.664096 0.000000 0.000003 -3.820704 -0.067348 -0.377013
    20 0.000005 0.001585 -3.638375 -0.000010 1.082936 3.140787
    21 8.842831 0.000000 0.000001 -0.211345 0.334150 -2.200339
    22 9.341934 0.000000 -0.000001 0.000000 0.000000 -0.783277
    23 9.664095 0.000000 -0.000002 2.840650 0.149945 0.479203
    24 6.829857 -0.000001 0.000000 0.001241 0.000000 0.000000
    25 0.021231 -0.065060 1.351066 0.024842 0.006382 -0.003186
  time 5
    0 0.173106 1.433637 25.236800 0.002984 -0.201842 -1.571408
    1 -4.975396 -0.472670 9.745319 -1.570795 -1.570451 0.000000
    2 -0.000008 0.000010 5.615750 0.006137 3.178117 -0.796939
    3 15.693467 0.000000 0.000000 0.000000 0.000000 -0.943897
    4 22.146629 -0.000001 0.000000 0.027361 -0.024994 -0.055172
    5 0.000008 -0.000006 -5.615750 -0.106008 3.035855 -0.371256
    6 15.693467 0.000000 0.000000 0.000000 0.000000 -1.226423
    7 22.146629 0.000000 0.000000 0.032377 0.146127 0.661215
    8 1.384163 -0.004728 0.000002 -0.431549 -0.129382 0.271186
    9 5.939814 -0.004730 0.000000 -0.092964 -0.024281 0.254584
    10 5.939809 -0.003975 0.000000 -0.092566 -0.054410 0.278992
    11 4.991439 -0.003975 0.000000 -0.087273 0.058473 0.021859
    12 4.991436 -0.001575 0.000000 0.000000 0.000000 0.000000
    13 1.977383 0.000000 0.000000 0.552543 0.250822 -0.013772
    14 3.723980 2.768055 -0.395205 0.000000 -3.141591 -1.570795
    15 2.863741 -0.721077 0.000003 0.000000 0.000000 0.000000
    16 0.000005 0.001564 3.638375 -0.000010 -1.283530 3.140806
    17 8.842831 0.000000 -0.000001 0.479191 -0.926886 -1.613826
    18 9.341934 0.000000 -0.000002 0.000000 0.000000 -0.446982
    19 9.664096 0.000000 0.000003 -3.820704 -0.067348 -0.377013
    20 0.000005 0.001585 -3.638375 -0.000010 1.082936 3.140787
    21 8.842831 0.000000 0.000001 -0.207855 0.332604 -2.216267
    22 9.341934 0.000000 -0.000001 0.000000 0.000000 -0.783277
    23 9.664095 0.000000 -0.000002 2.840650 0.149945 0.479203
    24 6.829857 -0.000001 0.000000 0.001241 0.000000 0.000000
    25 0.021231 -0.065060 1.351066 0.024842 0.006382 -0.003186
  time 6
    0 0.173106 1.230506 25.088358 0.002984 -0.182126 -1.571408
    1 -4.928519 -0.519546 9.745319 -1.570795 -1.570451 0.000000
    2 -0.000008 0.000010 5.615750 0.007958 3.178980 -0.818301
    3 15.693467 0.000000 0.000000 0.000000 0.000000 -0.965040
    4 22.146629 -0.000001 0.000000 0.027203 -0.026948 -0.035563
    5 0.000008 -0.000006 -5.615750 -0.105049 3.037389 -0.373700
    6 15.693467 0.000000 0.000000 0.000000 0.000000 -1.220576
    7 22.146629 0.000000 0.000000 0.034849 0.143748 0.672645
    8 1.384163 -0.004728 0.000002 -0.431549 -0.129382 0.271186
    9 5.939814 -0.004730 0.000000 -0.093048 -0.024604 0.251130
    10 5.939809 -0.003975 0.000000 -0.093197 -0.056723 0.254107
    11 4.991439 -0.003975 0.000000 -0.087273 0.058808 0.025746
    12 4.991436 -0.001575 0.000000 0.000000 0.000000 0.000000
    13 1.977383 0.000000 0.000000 0.543978 0.269870 -0.026249
    14 3.723980 2.768055 -0.395205 0.000000 -3.141591 -1.570795
    15 2.863741 -0.721077 0.000003 0.000000 0.000000 0.000000
    16 0.000005 0.001564 3.638375 -0.000010 -1.283530 3.140806
    17 8.842831 0.000000 -0.000001 0.480770 -0.900663 -1.610962
    18 9.341934 0.000000 -0.000002 0.000000 0.000000 -0.446982
    19 9.664096 0.000000 0.000003 -3.820704 -0.067348 -0.377013
    20 0.000005 0.001585 -3.638375 -0.000010 1.082936 3.140787
    21 8.842831 0.000000 0.000001 -0.180420 0.287305 -2.200409
    22 9.341934 0.000000 -0.000001 0.000000 0.000000 -0.783277
    23 9.664095 0.000000 -0.000002 2.840650 0.149945 0.479203
    24 6.829857 -0.000001 0.000000 0.001241 0.000000 0.000000
    25 0.021231 -0.065060 1.351066 0.024842 0.006382 -0.003186
  time 7
    0 0.173106 1.027375 24.955542 0.002984 -0.163280 -1.571313
    1 -4.869924 -0.574235 9.745319 -1.570795 -1.570451 0.000000
    2 -0.000008 0.000010 5.615750 0.009876 3.180130 -0.838090
    3 15.693467 0.000000 0.000000 0.000000 0.000000 -0.985509
    4 22.146629 -0.000001 0.000000 0.027177 -0.029113 -0.016020
    5 0.000008 -0.000006 -5.615750 -0.103707 3.038923 -0.374820
    6 15.693467 0.000000 0.000000 0.000000 0.000000 -1.214130
    7 22.146629 0.000000 0.000000 0.037025 0.141113 0.684002
    8 1.384163 -0.004728 0.000002 -0.431549 -0.129382 0.271186
    9 5.939814 -0.004730 0.000000 -0.093180 -0.025108 0.245758
    10 5.939809 -0.003975 0.000000 -0.093800 -0.059168 0.227952
    11 4.991439 -0.003975 0.000000 -0.087273 0.059144 0.029484
    12 4.991436 -0.001575 0.000000 0.000000 0.000000 0.000000
    13 1.977383 0.000000 0.000000 0.533457 0.290829 -0.040535
    14 3.723980 2.768055 -0.395205 0.000000 -3.141591 -1.570795
    15 2.863741 -0.721077 0.000003 0.000000 0.000000 0.000000
    16 0.000005 0.001564 3.638375 -0.000010 -1.283530 3.140806
    17 8.842831 0.000000 -0.000001 0.480939 -0.871526 -1.605971
    18 9.341934 0.000000 -0.000002 0.000000 0.000000 -0.446982
    19 9.664096 0.000000 0.000003 -3.820704 -0.067348 -0.377013
    20 0.000005 0.001585 -3.638375 -0.000010 1.082936 3.140787
    21 8.842831 0.000000 0.000001 -0.153121 0.240278 -2.184200
    22 9.341934 0.000000 -0.000001 0.000000 0.000000 -0.783277
    23 9.664095 0.000000 -0.000002 2.840650 0.149945 0.479203
    24 6.829857 -0.000001 0.000000 0.001241 0.000000 0.000000
    25 0.021231 -0.065060 1.351066 0.024842 0.006382 -0.003186
  time 8
    0 0.173106 0.824244 24.830538 0.002984 -0.145649 -1.571313
    1 -4.811328 -0.625018 9.745319 -1.570795 -1.570451 0.000000
    2 -0.000008 0.000010 5.615750 0.011601 3.181280 -0.856002
    3 15.693467 0.000000 0.000000 0.000000 0.000000 -1.004632
    4 22.146629 -0.000001 0.000000 0.027151 -0.031208 0.002805
    5 0.000008 -0.000006 -5.615750 -0.102270 3.040265 -0.374820
    6 15.693467 0.000000 0.000000 0.000000 0.000000 -1.207308
    7 22.146629 0.000000 0.000000 0.038959 0.138548 0.694703
    8 1.384163 -0.004728 0.000002 -0.431549 -0.129382 0.271186
    9 5.939814 -0.004730 0.000000 -0.093300 -0.025587 0.240590
    10 5.939809 -0.003975 0.000000 -0.094318 -0.061493 0.203243
    11 4.991439 -0.003975 0.000000 -0.087249 0.059444 0.032982
    12 4.991436 -0.001575 0.000000 0.000000 0.000000 0.000000
    13 1.977383 0.000000 0.000000 0.522551 0.310344 -0.054549
    14 3.723980 2.768055 -0.395205 0.000000 -3.141591 -1.570795
    15 2.863741 -0.721077 0.000003 0.000000 0.000000 0.000000
    16 0.000005 0.001564 3.638375 -0.000010 -1.283530 3.140806
    17 8.842831 0.000000 -0.000001 0.480996 -0.843755 -1.601226
    18 9.341934 0.000000 -0.000002 0.000000 0.000000 -0.446982
    19 9.664096 0.000000 0.000003 -3.820704 -0.067348 -0.377013
    20 0.000005 0.001585 -3.638375 -0.000010 1.082936 3.140787
    21 8.842831 0.000000 0.000001 -0.128011 0.195798 -2.170026
    22 9.341934 0.000000 -0.000001 0.000000 0.000000 -0.783277
    23 9.664095 0.000000 -0.000002 2.840650 0.149945 0.479203
    24 6.829857 -0.000001 0.000000 0.001241 0.000000 0.000000
    25 0.021231 -0.065060 1.351066 0.024842 0.006382 -0.003186
  time 9
    0 0.173106 0.621113 24.725066 0.002984 -0.129495 -1.571217
    1 -4.756639 -0.671895 9.745319 -1.570795 -1.570451 0.000000
    2 -0.000008 0.000010 5.615750 0.013231 3.182239 -0.871884
    3 15.693467 0.000000 0.000000 0.000000 0.000000 -1.022340
    4 22.146629 -0.000001 0.000000 0.027098 -0.033138 0.020780
    5 0.000008 -0.000006 -5.615750 -0.100832 3.041415 -0.373649
    6 15.693467 0.000000 0.000000 0.000000 0.000000 -1.200187
    7 22.146629 0.000000 0.000000 0.040598 0.136146 0.704750
    8 1.384163 -0.004728 0.000002 -0.431549 -0.129382 0.271186
    9 5.939814 -0.004730 0.000000 -0.093408 -0.026031 0.235831
    10 5.939809 -0.003975 0.000000 -0.094725 -0.063626 0.180669
    11 4.991439 -0.003975 0.000000 -0.087249 0.059719 0.036167
    12 4.991436 -0.001575 0.000000 0.000000 0.000000 0.000000
    13 1.977383 0.000000 0.000000 0.511854 0.327769 -0.067794
    14 3.723980 2.768055 -0.395205 0.000000 -3.141591 -1.570795
    15 2.863741 -0.721077 0.000003 0.000000 0.000000 0.000000
    16 0.000005 0.001564 3.638375 -0.000010 -1.283530 3.140806
    17 8.842831 0.000000 -0.000001 0.481109 -0.818443 -1.596971
    18 9.341934 0.000000 -0.000002 0.000000 0.000000 -0.446982
    19 9.664096 0.000000 0.000003 -3.820704 -0.067348 -0.377013
    20 0.000005 0.001585 -3.638375 -0.000010 1.082936 3.140787
    21 8.842831 0.000000 0.000001 -0.105570 0.155048 -2.158097
    22 9.341934 0.000000 -0.000001 0.000000 0.000000 -0.783277
    23 9.664095 0.000000 -0.000002 2.840650 0.149945 0.479203
    24 6.829857 -0.000001 0.000000 0.001241 0.000000 0.000000
    25 0.021231 -0.065060 1.351066 0.024842 0.006382 -0.003186
  time 10
    0 0.173106 0.417982 24.631313 0.002984 -0.115425 -1.571217
    1 -4.705856 -0.714865 9.745319 -1.570795 -1.570451 0.000000
    2 -0.000008 0.000010 5.615750 0.014765 3.183102 -0.885230
    3 15.693467 0.000000 0.000000 0.000000 0.000000 -1.038433
    4 22.146629 -0.000001 0.000000 0.027020 -0.034879 0.037578
    5 0.000008 -0.000006 -5.615750 -0.099298 3.042278 -0.371256
    6 15.693467 0.000000 0.000000 0.000000 0.000000 -1.192991
    7 22.146629 0.000000 0.000000 0.041915 0.134000 0.713995
    8 1.384163 -0.004728 0.000002 -0.431549 -0.129382 0.271186
    9 5.939814 -0.004730 0.000000 -0.093504 -0.026426 0.231661
    10 5.939809 -0.003975 0.000000 -0.095061 -0.065508 0.160908
    11 4.991439 -0.003975 0.000000 -0.087226 0.059971 0.038963
    12 4.991436 -0.001575 0.000000 0.000000 0.000000 0.000000
    13 1.977383 0.000000 0.000000 0.501892 0.342727 -0.079729
    14 3.723980 2.768055 -0.395205 0.000000 -3.141591 -1.570795
    15 2.863741 -0.721077 0.000003 0.000000 0.000000 0.000000
    16 0.000005 0.001564 3.638375 -0.000010 -1.283530 3.140806
    17 8.842831 0.000000 -0.000001 0.481165 -0.796226 -1.593289
    18 9.341934 0.000000 -0.000002 0.000000 0.000000 -0.446982
    19 9.664096 0.000000 0.000003 -3.820704 -0.067348 -0.377013
    20 0.000005 0.001585 -3.638375 -0.000010 1.082936 3.140787
    21 8.842831 0.000000 0.000001 -0.086207 0.119209 -2.148414
    22 9.341934 0.000000 -0.000001 0.000000 0.000000 -0.783277
    23 9.664095 0.000000 -0.000002 2.840650 0.149945 0.479203
    24 6.829857 -0.000001 0.000000 0.001241 0.000000 0.000000
    25 0.021231 -0.065060 1.351066 0.024842 0.006382 -0.003186
  time 11
    0 0.173106 0.218757 24.557092 0.002984 -0.103874 -1.571121
    1 -4.666792 -0.750022 9.745319 -1.570795 -1.570451 0.000000
    2 -0.000008 0.000010 5.615750 0.016012 3.183869 -0.895784
    3 15.693467 0.000000 0.000000 0.000000 0.000000 -1.052708
    4 22.146629 -0.000001 0.000000 0.026941 -0.036338 0.052939
    5 0.000008 -0.000006 -5.615750 -0.097765 3.042757 -0.367438
    6 15.693467 0.000000 0.000000 0.000000 0.000000 -1.185870
    7 22.146629 0.000000 0.000000 0.042802 0.132205 0.722222
    8 1.384163 -0.004728 0.000002 -0.431549 -0.129382 0.271186
    9 5.939814 -0.004730 0.000000 -0.093576 -0.026738 0.228233
    10 5.939809 -0.003975 0.000000 -0.095299 -0.067054 0.144666
    11 4.991439 -0.003975 0.000000 -0.087226 0.060163 0.041265
    12 4.991436 -0.001575 0.000000 0.000000 0.000000 0.000000
    13 1.977383 0.000000 0.000000 0.493293 0.354796 -0.089765
    14 3.723980 2.768055 -0.395205 0.000000 -3.141591 -1.570795
    15 2.863741 -0.721077 0.000003 0.000000 0.000000 0.000000
    16 0.000005 0.001564 3.638375 -0.000010 -1.283530 3.140806
    17 8.842831 0.000000 -0.000001 0.481278 -0.778016 -1.590344
    18 9.341934 0.000000 -0.000002 0.000000 0.000000 -0.446982
    19 9.664096 0.000000 0.000003 -3.820704 -0.067348 -0.377013
    20 0.000005 0.001585 -3.638375 -0.000010 1.082936 3.140787
    21 8.842831 0.000000 0.000001 -0.070403 0.089828 -2.140976
    22 9.341934 0.000000 -0.000001 0.000000 0.000000 -0.783277
    23 9.664095 0.000000 -0.000002 2.840650 0.149945 0.479203
    24 6.829857 -0.000001 0.000000 0.001241 0.000000 0.000000
    25 0.021231 -0.065060 1.351066 0.024842 0.006382 -0.003186
  time 12
    0 0.173106 0.015625 24.506309 0.002890 -0.095883 -1.571121
    1 -4.639448 -0.773460 9.745319 -1.570795 -1.570451 0.000000
    2 -0.000008 0.000010 5.615750 0.016970 3.184348 -0.902533
    3 15.693467 0.000000 0.000000 0.000000 0.000000 -1.064760
    4 22.146629 -0.000001 0.000000 0.026758 -0.037468 0.066207
    5 0.000008 -0.000006 -5.615750 -0.095944 3.042566 -0.361837
    6 15.693467 0.000000 0.000000 0.000000 0.000000 -1.179273
    7 22.146629 0.000000 0.000000 0.042828 0.131039 0.729065
    8 1.384163 -0.004728 0.000002 -0.431549 -0.129382 0.271186
    9 5.939814 -0.004730 0.000000 -0.093624 -0.026965 0.225905
    10 5.939809 -0.003975 0.000000 -0.095440 -0.068108 0.133523
    11 4.991439 -0.003975 0.000000 -0.087226 0.060306 0.042835
    12 4.991436 -0.001575 0.000000 0.000000 0.000000 0.000000
    13 1.977383 0.000000 0.000000 0.487211 0.362931 -0.096772
    14 3.723980 2.768055 -0.395205 0.000000 -3.141591 -1.570795
    15 2.863741 -0.721077 0.000003 0.000000 0.000000 0.000000
    16 0.000005 0.001564 3.638375 -0.000010 -1.283530 3.140806
    17 8.842831 0.000000 -0.000001 0.481278 -0.765450 -1.588380
    18 9.341934 0.000000 -0.000002 0.000000 0.000000 -0.446982
    19 9.664096 0.000000 0.000003 -3.820704 -0.067348 -0.377013
    20 0.000005 0.001585 -3.638375 -0.000010 1.082936 3.140787
    21 8.842831 0.000000 0.000001 -0.059661 0.069635 -2.136065
    22 9.341934 0.000000 -0.000001 0.000000 0.000000 -0.783277
    23 9.664095 0.000000 -0.000002 2.840650 0.149945 0.479203
    24 6.829857 -0.000001 0.000000 0.001241 0.000000 0.000000
    25 0.021231 -0.065060 1.351066 0.024842 0.006382 -0.003186
end
