// Created by Crowbar 0.71

// Stored modelname (without quotes): "valve/models/barney.mdl"
$modelname "editormodels/_random_bar.mdl"
$cd "."
$cdtexture "_rand"
$cdtexture "."
$cdtexture "_weapons"
$cdtexture "_barney"
$cdtexture "_barney_dead"
$cdtexture "_otis"
$cdtexture "_scientist"
$cdtexture "_hev"
$cliptotextures
$scale 1.0

$bodygroup "shirt"
{
	studio "_barney/BARNEY-X_Template_Biped1_body"
}
$bodygroup "gun"
{
	studio "_weapons/reference_9mm"
}
$bodygroup "head"
{
	studio "_barney_dead/dead_barney_ref_head"
}
$bodygroup "helmet"
{
	studio "_barney/BARNEY-X_Template_Biped1_helmet"
}
$bodygroup "holster"
{
	studio "_scientist/sciholster"
}

$sequence "DEFAULT" {
	"barney_anims\idle1"
	fps 1
	loop
}

