version 1
nodes
  0 "Bip01" -1
  1 "Bip01 Pelvis" 0
  2 "Bip01 L Thigh" 1
  3 "Bip01 L Calf" 2
  4 "Bip01 L Foot" 3
  5 "Bip01 L Toe0" 4
  6 "Bip01 L Toe01" 5
  7 "Bip01 L Toe02" 6
  8 "Bip01 R Thigh" 1
  9 "Bip01 R Calf" 8
  10 "Bip01 R Foot" 9
  11 "Bip01 R Toe0" 10
  12 "Bip01 R Toe01" 11
  13 "Bip01 R Toe02" 12
  14 "Bip01 Spine" 1
  15 "Bip01 Spine1" 14
  16 "Bip01 Spine2" 15
  17 "Bip01 Spine3" 16
  18 "Bip01 Neck" 17
  19 "Bip01 L Clavicle" 18
  20 "Bip01 L UpperArm" 19
  21 "Bip01 L Forearm" 20
  22 "Bip01 L Hand" 21
  23 "Bip01 R Clavicle" 18
  24 "Bip01 R UpperArm" 23
  25 "Bip01 R Forearm" 24
  26 "Bip01 R Hand" 25
  27 "Bip01 Head" 18
  28 "Line01" 26
  29 "Shotgun" 26
end
skeleton
  time 0
    0 -0.317114 -0.287846 31.139324 0.000000 0.000000 -1.570795
    1 -0.526041 0.000001 9.745319 -1.570795 -1.570796 0.000000
    2 -0.000007 0.000010 5.615750 0.000001 3.141591 -0.100000
    3 15.693467 0.000000 0.000000 0.000000 0.000000 -0.200000
    4 22.146627 0.000000 0.000000 0.000000 0.000000 0.100000
    5 3.310129 5.734394 0.000000 0.000000 0.000000 1.570796
    6 1.055919 0.000000 0.000000 0.000000 0.000000 0.000000
    7 1.055919 0.000000 -0.000001 0.000000 0.000000 0.000000
    8 0.000008 -0.000006 -5.615750 0.000001 3.141591 -0.100000
    9 15.693467 0.000000 0.000000 0.000000 0.000000 -0.200000
    10 22.146627 0.000000 0.000000 0.000000 0.000000 0.100000
    11 3.310129 5.734393 0.000000 0.000000 0.000000 1.570796
    12 1.055919 0.000000 0.000000 0.000000 0.000000 0.000000
    13 1.055919 0.000000 -0.000001 0.000000 0.000000 0.000000
    14 1.384163 -0.004728 0.000002 -0.000004 -0.000001 0.000796
    15 5.939814 -0.004730 0.000000 0.000000 0.000000 0.000000
    16 5.939809 -0.003975 0.000000 0.000000 0.000000 0.000000
    17 4.991439 -0.003975 0.000000 0.000000 0.000000 0.000000
    18 4.991436 -0.001575 0.000000 0.000000 0.000000 0.000000
    19 0.000005 0.001564 3.638375 -0.000010 -1.283530 3.140806
    20 8.842831 0.000000 -0.000002 0.000000 0.747197 0.000000
    21 9.341936 0.000000 0.000003 0.000000 0.000000 -0.200000
    22 9.664094 0.000000 -0.000003 -1.569555 0.349021 0.000000
    23 0.000005 0.001585 -3.638375 -0.000010 1.283530 3.140787
    24 8.842831 0.000000 0.000001 0.000000 -0.747197 0.000000
    25 9.341935 0.000000 -0.000001 0.000000 0.000000 -0.200000
    26 9.664097 0.000000 -0.000002 1.569555 -0.261799 0.000000
    27 1.977383 0.000000 0.000000 0.000000 0.000000 -0.000798
    28 14.749151 -0.637065 0.609129 1.516377 -0.033041 -3.136054
    29 14.827692 0.339927 1.738213 1.712062 0.032858 0.003941
end
triangles
filterfront.bmp
  27 5.692906 -4.021816 66.098692 0.688028 -0.725329 -0.022701 0.842105 0.631579
  27 3.382900 -6.581817 63.408699 0.671423 -0.741026 0.008500 0.157895 0.000000
  27 5.142903 -4.751818 63.968694 0.644381 -0.763578 0.041499 0.684211 0.105263
filterfront.bmp
  27 5.692906 -4.021816 66.098692 0.688028 -0.725329 -0.022701 0.842105 0.631579
  27 2.822900 -7.321813 64.978701 0.688028 -0.725329 -0.022701 0.000000 0.315789
  27 3.382900 -6.581817 63.408699 0.671423 -0.741026 0.008500 0.157895 0.000000
filterfront.bmp
  27 5.692906 -4.021816 66.098692 0.688028 -0.725329 -0.022701 0.842105 0.631579
  27 3.322903 -6.971810 67.088700 0.703624 -0.708525 -0.053902 0.105263 0.842105
  27 2.822900 -7.321813 64.978701 0.688028 -0.725329 -0.022701 0.000000 0.315789
filterfront.bmp
  27 5.692906 -4.021816 66.098692 0.688028 -0.725329 -0.022701 0.842105 0.631579
  27 4.752906 -5.321811 67.648695 0.703624 -0.708525 -0.053902 0.526316 1.000000
  27 3.322903 -6.971810 67.088700 0.703624 -0.708525 -0.053902 0.105263 0.842105
filterside.bmp
  27 0.632903 -5.341809 65.188700 -0.627194 -0.738493 -0.247498 1.000000 1.000000
  27 1.852902 -4.891814 63.618698 -0.163199 0.001700 -0.986592 0.857143 0.769231
  27 3.382900 -6.581817 63.408699 -0.461701 -0.423701 -0.779301 0.857143 0.076923
filterside.bmp
  27 3.382900 -6.581817 63.408699 -0.461701 -0.423701 -0.779301 0.857143 0.076923
  27 1.852902 -4.891814 63.618698 -0.163199 0.001700 -0.986592 0.857143 0.769231
  27 5.142903 -4.751818 63.968694 0.314496 0.492193 -0.811689 0.714286 0.000000
filterside.bmp
  27 1.852902 -4.891814 63.618698 -0.163199 0.001700 -0.986592 0.857143 0.769231
  27 3.572906 -3.021815 64.178693 0.486705 0.679007 -0.549606 0.685714 0.769231
  27 5.142903 -4.751818 63.968694 0.314496 0.492193 -0.811689 0.714286 0.000000
filterside.bmp
  27 5.142903 -4.751818 63.968694 0.314496 0.492193 -0.811689 0.714286 0.000000
  27 3.572906 -3.021815 64.178693 0.486705 0.679007 -0.549606 0.685714 0.769231
  27 5.692906 -4.021816 66.098692 0.627501 0.778201 0.025400 0.514286 0.000000
filterside.bmp
  27 3.572906 -3.021815 64.178693 0.486705 0.679007 -0.549606 0.685714 0.769231
  27 3.502909 -2.041812 66.298691 0.590315 0.728918 0.346709 0.485714 1.000000
  27 5.692906 -4.021816 66.098692 0.627501 0.778201 0.025400 0.514286 0.000000
filterside.bmp
  27 5.692906 -4.021816 66.098692 0.627501 0.778201 0.025400 0.514286 0.000000
  27 3.502909 -2.041812 66.298691 0.590315 0.728918 0.346709 0.485714 1.000000
  27 4.752906 -5.321811 67.648695 0.371976 0.358677 0.856145 0.342857 0.000000
filterside.bmp
  27 3.502909 -2.041812 66.298691 0.590315 0.728918 0.346709 0.485714 1.000000
  27 2.562909 -3.341808 67.858694 0.102501 -0.021200 0.994507 0.314286 0.923077
  27 4.752906 -5.321811 67.648695 0.371976 0.358677 0.856145 0.342857 0.000000
filterside.bmp
  27 4.752906 -5.321811 67.648695 0.371976 0.358677 0.856145 0.342857 0.000000
  27 2.562909 -3.341808 67.858694 0.102501 -0.021200 0.994507 0.314286 0.923077
  27 3.322903 -6.971810 67.088700 -0.318812 -0.546320 0.774528 0.200000 0.000000
filterside.bmp
  27 2.562909 -3.341808 67.858694 0.102501 -0.021200 0.994507 0.314286 0.923077
  27 1.132906 -4.981806 67.298699 -0.482784 -0.720576 0.497684 0.200000 0.923077
  27 3.322903 -6.971810 67.088700 -0.318812 -0.546320 0.774528 0.200000 0.000000
filterside.bmp
  27 3.322903 -6.971810 67.088700 -0.318812 -0.546320 0.774528 0.200000 0.000000
  27 1.132906 -4.981806 67.298699 -0.482784 -0.720576 0.497684 0.200000 0.923077
  27 2.822900 -7.321813 64.978701 -0.601311 -0.799014 -0.001000 0.000000 0.076923
filterside.bmp
  27 1.132906 -4.981806 67.298699 -0.482784 -0.720576 0.497684 0.200000 0.923077
  27 0.632903 -5.341809 65.188700 -0.627194 -0.738493 -0.247498 0.028571 1.000000
  27 2.822900 -7.321813 64.978701 -0.601311 -0.799014 -0.001000 0.000000 0.076923
filterside.bmp
  27 0.632903 -5.341809 65.188700 -0.627194 -0.738493 -0.247498 1.000000 1.000000
  27 3.382900 -6.581817 63.408699 -0.461701 -0.423701 -0.779301 0.857143 0.076923
  27 2.822900 -7.321813 64.978701 -0.601311 -0.799014 -0.001000 0.971429 0.076923
helmet.bmp
  27 -0.187089 -5.401795 72.718701 -0.012100 -0.963872 0.266092 0.000000 0.704545
  27 -3.927081 -0.991787 74.328697 -0.817398 -0.299499 0.492099 0.372093 0.818182
  27 -4.907085 -1.001792 70.628698 -0.963310 -0.263403 -0.051501 0.372093 0.522727
helmet.bmp
  27 -4.907085 -1.001792 70.628698 -0.963310 -0.263403 -0.051501 0.372093 0.522727
  27 -3.927081 -0.991787 74.328697 -0.817398 -0.299499 0.492099 0.372093 0.818182
  27 -3.007076 5.378204 70.038685 -0.582619 0.810827 -0.055802 0.813953 0.477273
helmet.bmp
  27 -3.927081 -0.991787 74.328697 -0.817398 -0.299499 0.492099 0.372093 0.818182
  27 -2.447074 4.368210 73.808686 -0.456604 0.747206 0.482904 0.813953 0.795455
  27 -3.007076 5.378204 70.038685 -0.582619 0.810827 -0.055802 0.813953 0.477273
helmet.bmp
  27 -3.007076 5.378204 70.038685 -0.582619 0.810827 -0.055802 0.813953 0.477273
  27 -2.447074 4.368210 73.808686 -0.456604 0.747206 0.482904 0.813953 0.795455
  27 2.892924 5.458195 70.028679 0.567396 0.819893 -0.076399 0.930233 0.477273
helmet.bmp
  27 -2.447074 4.368210 73.808686 -0.456604 0.747206 0.482904 0.813953 0.795455
  27 2.342926 4.368203 73.798682 0.491787 0.715780 0.495786 0.813953 0.795455
  27 2.892924 5.458195 70.028679 0.567396 0.819893 -0.076399 0.930233 0.477273
helmet.bmp
  27 2.892924 5.458195 70.028679 0.567396 0.819893 -0.076399 0.930233 0.477273
  27 2.342926 4.368203 73.798682 0.491787 0.715780 0.495786 0.813953 0.795455
  27 5.132915 -0.991807 70.678688 0.968127 -0.248207 0.033501 0.372093 0.522727
helmet.bmp
  27 2.342926 4.368203 73.798682 0.491787 0.715780 0.495786 0.813953 0.795455
  27 3.822919 -0.981799 74.318689 0.767529 -0.296111 0.568522 0.372093 0.818182
  27 5.132915 -0.991807 70.678688 0.968127 -0.248207 0.033501 0.372093 0.522727
helmet.bmp
  27 5.132915 -0.991807 70.678688 0.968127 -0.248207 0.033501 0.372093 0.522727
  27 3.822919 -0.981799 74.318689 0.767529 -0.296111 0.568522 0.372093 0.818182
  27 -0.187089 -5.401795 72.718701 -0.012100 -0.963872 0.266092 0.000000 0.704545
helmet.bmp
  27 3.822919 -0.981799 74.318689 0.767529 -0.296111 0.568522 0.372093 0.818182
  27 -0.057086 -4.301793 74.268698 0.010000 -0.832193 0.554396 0.093023 0.818182
  27 -0.187089 -5.401795 72.718701 -0.012100 -0.963872 0.266092 0.000000 0.704545
helmet.bmp
  27 -0.187089 -5.401795 72.718701 -0.012100 -0.963872 0.266092 0.000000 0.704545
  27 -0.057086 -4.301793 74.268698 0.010000 -0.832193 0.554396 0.093023 0.818182
  27 -3.927081 -0.991787 74.328697 -0.817398 -0.299499 0.492099 0.372093 0.818182
helmet.bmp
  27 -0.057086 -4.301793 74.268698 0.010000 -0.832193 0.554396 0.093023 0.818182
  27 0.052919 -1.901790 76.078695 0.014400 -0.515295 0.856892 0.279070 0.977273
  27 -3.927081 -0.991787 74.328697 -0.817398 -0.299499 0.492099 0.372093 0.818182
helmet.bmp
  27 -3.927081 -0.991787 74.328697 -0.817398 -0.299499 0.492099 0.372093 0.818182
  27 0.052919 -1.901790 76.078695 0.014400 -0.515295 0.856892 0.279070 0.977273
  27 -1.987079 -0.251788 75.848693 -0.530988 0.063699 0.844982 0.418605 0.954545
helmet.bmp
  27 0.052919 -1.901790 76.078695 0.014400 -0.515295 0.856892 0.279070 0.977273
  27 0.042923 0.488210 76.298690 0.015301 0.191706 0.981333 0.488372 1.000000
  27 -1.987079 -0.251788 75.848693 -0.530988 0.063699 0.844982 0.418605 0.954545
helmet.bmp
  27 -1.987079 -0.251788 75.848693 -0.530988 0.063699 0.844982 0.418605 0.954545
  27 0.042923 0.488210 76.298690 0.015301 0.191706 0.981333 0.488372 1.000000
  27 -1.247075 2.428211 75.468688 -0.211410 0.594329 0.775938 0.651163 0.931818
helmet.bmp
  27 0.042923 0.488210 76.298690 0.015301 0.191706 0.981333 0.488372 1.000000
  27 1.142925 2.428207 75.468686 0.382890 0.502486 0.775179 0.651163 0.931818
  27 -1.247075 2.428211 75.468688 -0.211410 0.594329 0.775938 0.651163 0.931818
helmet.bmp
  27 -1.247075 2.428211 75.468688 -0.211410 0.594329 0.775938 0.651163 0.931818
  27 1.142925 2.428207 75.468686 0.382890 0.502486 0.775179 0.651163 0.931818
  27 2.342926 4.368203 73.798682 0.491787 0.715780 0.495786 0.813953 0.795455
helmet.bmp
  27 1.142925 2.428207 75.468686 0.382890 0.502486 0.775179 0.651163 0.931818
  27 3.822919 -0.981799 74.318689 0.767529 -0.296111 0.568522 0.372093 0.818182
  27 2.342926 4.368203 73.798682 0.491787 0.715780 0.495786 0.813953 0.795455
helmet.bmp
  27 3.782911 -1.491809 67.958690 0.945031 -0.230108 -0.232308 0.325581 0.318182
  27 2.302919 4.188192 67.248682 0.594094 0.774992 -0.215498 0.790698 0.250000
  27 2.892924 5.458195 70.028679 0.567396 0.819893 -0.076399 0.930233 0.477273
helmet.bmp
  27 2.892924 5.458195 70.028679 0.567396 0.819893 -0.076399 0.930233 0.477273
  27 2.302919 4.188192 67.248682 0.594094 0.774992 -0.215498 0.790698 0.250000
  27 -3.007076 5.378204 70.038685 -0.582619 0.810827 -0.055802 0.813953 0.477273
helmet.bmp
  27 2.302919 4.188192 67.248682 0.594094 0.774992 -0.215498 0.790698 0.250000
  27 -2.437081 4.178199 67.268687 -0.586787 0.786283 -0.193496 0.790698 0.250000
  27 -3.007076 5.378204 70.038685 -0.582619 0.810827 -0.055802 0.813953 0.477273
helmet.bmp
  27 -3.007076 5.378204 70.038685 -0.582619 0.810827 -0.055802 0.813953 0.477273
  27 -2.437081 4.178199 67.268687 -0.586787 0.786283 -0.193496 0.790698 0.250000
  27 -4.907085 -1.001792 70.628698 -0.963310 -0.263403 -0.051501 0.372093 0.522727
helmet.bmp
  27 -2.437081 4.178199 67.268687 -0.586787 0.786283 -0.193496 0.790698 0.250000
  27 -3.907088 -1.501798 67.978698 -0.953610 -0.243002 -0.177702 0.325581 0.318182
  27 -4.907085 -1.001792 70.628698 -0.963310 -0.263403 -0.051501 0.372093 0.522727
helmet.bmp
  27 0.042923 0.488210 76.298690 0.015301 0.191706 0.981333 0.488372 1.000000
  27 1.882921 -0.241793 75.848690 0.506512 0.004700 0.862220 0.418605 0.954545
  27 1.142925 2.428207 75.468686 0.382890 0.502486 0.775179 0.651163 0.931818
helmet.bmp
  27 1.142925 2.428207 75.468686 0.382890 0.502486 0.775179 0.651163 0.931818
  27 1.882921 -0.241793 75.848690 0.506512 0.004700 0.862220 0.418605 0.954545
  27 3.822919 -0.981799 74.318689 0.767529 -0.296111 0.568522 0.372093 0.818182
helmet.bmp
  27 1.882921 -0.241793 75.848690 0.506512 0.004700 0.862220 0.418605 0.954545
  27 0.052919 -1.901790 76.078695 0.014400 -0.515295 0.856892 0.279070 0.977273
  27 3.822919 -0.981799 74.318689 0.767529 -0.296111 0.568522 0.372093 0.818182
helmet.bmp
  27 3.822919 -0.981799 74.318689 0.767529 -0.296111 0.568522 0.372093 0.818182
  27 0.052919 -1.901790 76.078695 0.014400 -0.515295 0.856892 0.279070 0.977273
  27 -0.057086 -4.301793 74.268698 0.010000 -0.832193 0.554396 0.093023 0.818182
helmet.bmp
  27 2.342926 4.368203 73.798682 0.491787 0.715780 0.495786 0.813953 0.795455
  27 -2.447074 4.368210 73.808686 -0.456604 0.747206 0.482904 0.813953 0.795455
  27 -1.247075 2.428211 75.468688 -0.211410 0.594329 0.775938 0.651163 0.931818
helmet.bmp
  27 -1.247075 2.428211 75.468688 -0.211410 0.594329 0.775938 0.651163 0.931818
  27 -2.447074 4.368210 73.808686 -0.456604 0.747206 0.482904 0.813953 0.795455
  27 -1.987079 -0.251788 75.848693 -0.530988 0.063699 0.844982 0.418605 0.954545
helmet.bmp
  27 -2.447074 4.368210 73.808686 -0.456604 0.747206 0.482904 0.813953 0.795455
  27 -3.927081 -0.991787 74.328697 -0.817398 -0.299499 0.492099 0.372093 0.818182
  27 -1.987079 -0.251788 75.848693 -0.530988 0.063699 0.844982 0.418605 0.954545
helmet.bmp
  27 1.882916 4.198187 64.208682 0.389491 0.920179 -0.039599 0.790698 0.000000
  27 2.302919 4.188192 67.248682 0.594094 0.774992 -0.215498 0.790698 0.250000
  27 3.102908 -1.231815 64.108690 0.989480 -0.053299 -0.134497 0.348837 0.000000
helmet.bmp
  27 3.102908 -1.231815 64.108690 0.989480 -0.053299 -0.134497 0.348837 0.000000
  27 2.302919 4.188192 67.248682 0.594094 0.774992 -0.215498 0.790698 0.250000
  27 3.782911 -1.491809 67.958690 0.945031 -0.230108 -0.232308 0.325581 0.318182
helmet.bmp
  27 -3.237092 -1.241806 64.128697 -0.953610 -0.243002 -0.177702 0.348837 0.000000
  27 -3.907088 -1.501798 67.978698 -0.953610 -0.243002 -0.177702 0.325581 0.318182
  27 -2.027084 4.198193 64.218686 -0.776915 0.623312 -0.088802 0.790698 0.000000
helmet.bmp
  27 -2.027084 4.198193 64.218686 -0.776915 0.623312 -0.088802 0.790698 0.000000
  27 -3.907088 -1.501798 67.978698 -0.953610 -0.243002 -0.177702 0.325581 0.318182
  27 -2.437081 4.178199 67.268687 -0.586787 0.786283 -0.193496 0.790698 0.250000
helmet.bmp
  27 1.882921 -0.241793 75.848690 0.506512 0.004700 0.862220 0.418605 0.954545
  27 0.042923 0.488210 76.298690 0.015301 0.191706 0.981333 0.488372 1.000000
  27 0.052919 -1.901790 76.078695 0.014400 -0.515295 0.856892 0.279070 0.977273
helmet.bmp
  27 3.782911 -1.491809 67.958690 0.945031 -0.230108 -0.232308 0.325581 0.318182
  27 2.892924 5.458195 70.028679 0.567396 0.819893 -0.076399 0.930233 0.477273
  27 5.132915 -0.991807 70.678688 0.968127 -0.248207 0.033501 0.372093 0.522727
face.bmp
  27 -0.067096 -6.421804 67.978702 -0.010600 -0.995984 -0.088899 0.505051 0.443038
  27 3.782911 -1.491809 67.958690 0.945031 -0.230108 -0.232308 0.868687 0.443038
  27 5.132915 -0.991807 70.678688 0.968127 -0.248207 0.033501 1.000000 0.759494
face.bmp
  27 -0.067096 -6.421804 67.978702 -0.010600 -0.995984 -0.088899 0.505051 0.443038
  27 -0.067098 -5.301810 64.128700 0.000500 -0.981785 -0.189997 0.505051 0.000000
  27 3.782911 -1.491809 67.958690 0.945031 -0.230108 -0.232308 0.868687 0.443038
face.bmp
  27 -0.067096 -6.421804 67.978702 -0.010600 -0.995984 -0.088899 0.505051 0.443038
  27 -3.907088 -1.501798 67.978698 -0.953610 -0.243002 -0.177702 0.141414 0.443038
  27 -0.067098 -5.301810 64.128700 0.000500 -0.981785 -0.189997 0.505051 0.000000
face.bmp
  27 -0.067096 -6.421804 67.978702 -0.010600 -0.995984 -0.088899 0.505051 0.443038
  27 -4.907085 -1.001792 70.628698 -0.963310 -0.263403 -0.051501 0.000000 0.759494
  27 -3.907088 -1.501798 67.978698 -0.953610 -0.243002 -0.177702 0.141414 0.443038
face.bmp
  27 -0.067096 -6.421804 67.978702 -0.010600 -0.995984 -0.088899 0.505051 0.443038
  27 -0.187089 -5.401795 72.718701 -0.012100 -0.963872 0.266092 0.494949 1.000000
  27 -4.907085 -1.001792 70.628698 -0.963310 -0.263403 -0.051501 0.000000 0.759494
face.bmp
  27 -0.067096 -6.421804 67.978702 -0.010600 -0.995984 -0.088899 0.505051 0.443038
  27 5.132915 -0.991807 70.678688 0.968127 -0.248207 0.033501 1.000000 0.759494
  27 -0.187089 -5.401795 72.718701 -0.012100 -0.963872 0.266092 0.494949 1.000000
face.bmp
  27 3.102908 -1.231815 64.108690 0.989480 -0.053299 -0.134497 0.808081 0.000000
  27 3.782911 -1.491809 67.958690 0.945031 -0.230108 -0.232308 0.868687 0.443038
  27 -0.067098 -5.301810 64.128700 0.000500 -0.981785 -0.189997 0.505051 0.000000
face.bmp
  27 -3.237092 -1.241806 64.128697 -0.953610 -0.243002 -0.177702 0.212121 0.000000
  27 -0.067098 -5.301810 64.128700 0.000500 -0.981785 -0.189997 0.505051 0.000000
  27 -3.907088 -1.501798 67.978698 -0.953610 -0.243002 -0.177702 0.141414 0.443038
newarm.bmp
  27 -2.027084 4.198193 64.218686 -0.776915 0.623312 -0.088802 0.426667 0.120690
  27 -2.437081 4.178199 67.268687 -0.586787 0.786283 -0.193496 0.413333 0.077586
  27 1.882916 4.198187 64.208682 0.389491 0.920179 -0.039599 0.506667 0.120690
newarm.bmp
  27 1.882916 4.198187 64.208682 0.389491 0.920179 -0.039599 0.506667 0.120690
  27 -2.437081 4.178199 67.268687 -0.586787 0.786283 -0.193496 0.413333 0.077586
  27 2.302919 4.188192 67.248682 0.594094 0.774992 -0.215498 0.506667 0.077586
end
