// Created by Crowbar 0.71

// Stored modelname (without quotes): "valve/models/hgrunt.mdl"
$modelname "hgrunt2/assassin.mdl"
$cd "."
$cdtexture "."
$cdtexture "_weapons"
$cdtexture "_classicgrunt"
$cdtexture "_op4grunt"
$cdtexture "_op4medic"
$cdtexture "_op4torch"
$cdtexture "_massn"

$cliptotextures
$scale 1.0

$bodygroup "heads"
{
	studio "_op4grunt/grunt_head_mask_reference"
	studio "_op4grunt/grunt_head_commander_reference"
	studio "_op4grunt/grunt_head_shotgun_reference"
	studio "_op4grunt/grunt_head_saw_wht_reference"
	studio "_op4grunt/grunt_head_MP_reference"
	studio "_op4grunt/grunt_head_major_reference"
	studio "_op4medic/grunt_medic_head_wht_reference"
	studio "_op4torch/engineer_reference_head"
	studio "_classicgrunt/grunthead"
	studio "_classicgrunt/commanderhead"
	studio "_classicgrunt/shotgunhead"
	studio "_classicgrunt/m203_head"	
	studio "_massn/Massn_Head_reference"
	studio "_massn/Massn_NVHead_reference"
}
$bodygroup "weapons"
{
	studio "_op4grunt/MP5_reference"
	studio "_op4grunt/shotgun_reference"
	studio "_weapons/p_saw"
	studio "_weapons/p_m40a1"
	studio "_weapons/reference_9mm"
	studio "_weapons/p_desert_eagle"
	studio "_weapons/reference_python"
	studio "_weapons/reference_hgun"
	studio "_weapons/p_shock_reference"
	studio "_weapons/p_spore_launcher_Reference"
	blank
	studio "_weapons/reference_9mm_holster_otis"
	studio "_weapons/p_desert_eagle_holster_otis"
	studio "_weapons/reference_python_holster_otis"
}
$bodygroup "props"
{
	blank


}
$bodygroup "torso"
{
	studio "_massn/Massn_reference"
}

$flags 0

$texturegroup "skinfamilies"
{
	{ 
		"newarm.bmp"      	"Handback.bmp"      	"helmet.bmp"      	"headmap_white.bmp"		"headside.bmp"			"face2.bmp"			"medic_head.BMP"		"face_commander.BMP"	"face_commander_old.bmp"	"saw_head.BMP"		"Massn_head_wht2.bmp"	"engineer_head.BMP"			"mask_face.BMP"
	}
	{ 
		"newarm(dark).bmp"	"handback(dark).bmp"	"helmet(dark).bmp"	"headmap.bmp"			"headside_black.bmp"	"face2_black.bmp"	"medic_head_blk.BMP"	"face_commander_blk.bmp"	"face_commander_blk.bmp"	"saw_head_blk.BMP"	"Massn_head.bmp"		"engineer_head_black.BMP"	"mask_face_black.BMP"
	}
}


$eyeposition 0 0 73


$attachment 0 "Bip01 R Hand" 25 0 5
$attachment 1 "Bip01 R Hand" 0 0 0
$attachment 2 "Bip01 Head" 0 0 0

$cbox 0 0 0 0 0 0

$bbox 0 0 0 0 0 0

$hbox 3 "Bip01 Pelvis" -3.64 -6.05 -8.07 6.34 8.41 8.3
$hbox 6 "Bip01 L Thigh" 0 -6.35 -6.05 16.309999 5.57 3.84
$hbox 6 "Bip01 L Calf" 0 -5.19 -4.44 22.15 5.68 4.78
$hbox 6 "Bip01 L Foot" -1.08 -1.9 -3.24 3.23 11.21 2.86
$hbox 7 "Bip01 R Thigh" 0 -6.35 -4.06 16.309999 5.57 5.82
$hbox 7 "Bip01 R Calf" 0 -5.19 -5.01 22.15 5.68 4.22
$hbox 7 "Bip01 R Foot" -1.08 -1.9 -3.72 3.23 11.21 2.39
$hbox 3 "Bip01 Spine1" -4.57 -9.99 -10.52 11.49 8.42 10.75
$hbox 2 "Bip01 Spine2" 0 -10.51 -11.44 14.05 9.26 12.42
$hbox 0 "Bip01 Head" 0 -5.43 -6.13 14.66 9.4 6.11
$hbox 4 "Bip01 L UpperArm" -2.81 -1.99 -4.74 12.06 4.78 3.5
$hbox 4 "Bip01 L Forearm" 0 -1.43 -2.15 10.21 4.01 2.98
$hbox 4 "Bip01 L Hand" -0.27 -2.65 -2.75 7.58 1.89 1.8
$hbox 5 "Bip01 R UpperArm" -2.83 -1.99 -3.46 12.03 4.78 4.78
$hbox 5 "Bip01 R Forearm" 0 -1.43 -2.94 10.19 4 2.18
$hbox 5 "Bip01 R Hand" -0.16 -2.04 -1.79 7.5 2.4 2.76

$controller Mouth "Bone05" ZR 0 45
$controller 0 "Bip01 Head" XR -70 70

$sequence "regular_walk1" {
	"hgrunt_opfor_anims\walk1"
	ACT_WALK 1
	fps 30
	loop
	LX
}
$sequence "regular_run" {
	"hgrunt_opfor_anims\run"
	ACT_RUN 1
	fps 30
	loop
	LX
}
$sequence "victorydance" {
	"hgrunt_opfor_anims\victorydance"
	ACT_VICTORY_DANCE 1
	fps 21
}
$sequence "cower" {
	"hgrunt_opfor_anims\cower"
	ACT_COWER 1
	fps 28
}
$sequence "smflinch" {
	"hgrunt_opfor_anims\smflinch"
	ACT_SMALL_FLINCH 5
	fps 20
}
$sequence "leftlegsmflinch" {
	"hgrunt_anims\leftlegsmflinch"
	ACT_FLINCH_LEFTLEG 1
	fps 22
}
$sequence "rightlegsmflinch" {
	"hgrunt_anims\rightlegsmflinch"
	ACT_FLINCH_RIGHTLEG 1
	fps 22
}
$sequence "rightarmflinch" {
	"hgrunt_anims\rightarmflinch"
	ACT_FLINCH_RIGHTARM 1
	fps 22
}
$sequence "leftarmflinch" {
	"hgrunt_anims\leftarmflinch"
	ACT_FLINCH_LEFTARM 1
	fps 22
}
$sequence "launchgrenade" {
	"hgrunt_opfor_anims\launchgrenade"
	ACT_RANGE_ATTACK2 1
	{ event 8 16 }
	fps 30
}
$sequence "throwgrenade" {
	"hgrunt_opfor_anims\throwgrenade"
	ACT_RANGE_ATTACK2 1
	{ event 7 36 }
	fps 30
}
$sequence "regular_idle1" {
	"hgrunt_opfor_anims\idle1"
	fps 30
	loop
}
$sequence "regular_idle2" {
	"hgrunt_opfor_anims\idle2"
	fps 10
	loop
}
$sequence "regular_combatidle" {
	"hgrunt_opfor_anims\combatidle"
	fps 30
	loop
}
$sequence "regular_frontkick" {
	"hgrunt_opfor_anims\frontkick"
	ACT_MELEE_ATTACK1 1
	{ event 3 14 }
	{ event 2010 14 }
	fps 35
}
$sequence "regular_crouching_idle" {
	"hgrunt_opfor_anims\crouching_idle"
	fps 30
	loop
}
$sequence "regular_crouching_wait" {
	"hgrunt_opfor_anims\crouching_wait"
	ACT_CROUCH 0
	fps 30
}
$sequence "crouching_mp5" {
	"hgrunt_opfor_anims\crouching_mp5_blend01"
	"hgrunt_opfor_anims\crouching_mp5_blend02"
	ACT_RANGE_ATTACK1 1
	blend XR -45 45
	{ event 4 0 }
	{ event 5 2 }
	{ event 6 4 }
	{ event 5001 0 "50" }
	{ event 5001 2 "50" }
	{ event 5001 4 "50" }
	fps 20
	loop
}
$sequence "standing_mp5" {
	"hgrunt_opfor_anims\standing_mp5_blend01"
	"hgrunt_opfor_anims\standing_mp5_blend02"
	blend XR -45 45
	{ event 4 0 }
	{ event 5 2 }
	{ event 6 4 }
	{ event 5001 0 "50" }
	{ event 5001 2 "50" }
	{ event 5001 4 "50" }
	fps 20
	loop
}
$sequence "reload_mp5" {
	"hgrunt_opfor_anims\reload_mp5"
	ACT_RELOAD 1
	{ event 2 47 }
	fps 40
}
$sequence "crouching_shotgun" {
	"hgrunt_opfor_anims\crouching_shotgun_blend01"
	"hgrunt_opfor_anims\crouching_shotgun_blend02"
	ACT_RANGE_ATTACK1 1
	blend XR -45 45
	{ event 4 0 }
	{ event 5001 0 "51" }
	fps 20
}
$sequence "standing_shotgun" {
	"hgrunt_opfor_anims\standing_shotgun_blend01"
	"hgrunt_opfor_anims\standing_shotgun_blend02"
	blend XR -45 45
	{ event 4 0 }
	{ event 5001 0 "51" }
	fps 20
}
$sequence "reload_shotgun" {
	"hgrunt_opfor_anims\reload_shotgun"
	{ event 2 47 }
	fps 40
}
$sequence "crouching_saw" {
	"hgrunt_opfor_anims\crouching_saw_blend01"
	"hgrunt_opfor_anims\crouching_saw_blend02"
	ACT_RANGE_ATTACK1 1
	blend XR -45 45
	{ event 4 3 }
	{ event 5001 3 "50" }
	{ event 5 6 }
	{ event 5001 6 "50" }
	{ event 5 9 }
	{ event 5001 9 "50" }
	{ event 5 12 }
	{ event 5001 12 "50" }
	{ event 5 13 }
	{ event 5001 13 "50" }
	{ event 5 16 }
	{ event 5001 16 "50" }
	{ event 6 19 }
	{ event 5001 19 "50" }
	fps 20
	loop
}
$sequence "standing_saw" {
	"hgrunt_opfor_anims\standing_saw_blend01"
	"hgrunt_opfor_anims\standing_saw_blend02"
	blend XR -45 45
	{ event 4 3 }
	{ event 5001 3 "50" }
	{ event 5 6 }
	{ event 5001 6 "50" }
	{ event 5 9 }
	{ event 5001 9 "50" }
	{ event 5 12 }
	{ event 5001 12 "50" }
	{ event 5 13 }
	{ event 5001 13 "50" }
	{ event 5 16 }
	{ event 5001 16 "50" }
	{ event 6 19 }
	{ event 5001 19 "50" }
	fps 20
	loop
}
$sequence "reload_saw" {
	"hgrunt_opfor_anims\reload_saw"
	ACT_RELOAD 1
	{ event 2 47 }
	fps 40
}
$sequence "crouching_m40a1" {
	"massn_anims\crouching_m40a1_blend01"
	"massn_anims\crouching_m40a1_blend02"
	ACT_RANGE_ATTACK1 1
	blend XR -45 45
	{ event 4 1 }
	{ event 5001 1 "51" }
	fps 15
}
$sequence "standing_m40a1" {
	"massn_anims\standing_m40a1_blend01"
	"massn_anims\standing_m40a1_blend02"
	blend XR -45 45
	{ event 4 1 }
	{ event 5001 1 "51" }
	fps 15
}
$sequence "reload_m40a1" {
	"massn_anims\reload_m40a1"
	{ event 2 55 }
	fps 40
}
$sequence "advance_signal" {
	"hgrunt_opfor_anims\advance_signal"
	ACT_SIGNAL1 1
	{ event 10 1 }
	fps 30
}
$sequence "flank_signal" {
	"hgrunt_opfor_anims\flank_signal"
	ACT_SIGNAL2 1
	fps 40
}
$sequence "retreat_signal" {
	"hgrunt_opfor_anims\retreat_signal"
	ACT_SIGNAL3 1
	fps 30
}
$sequence "drop_grenade" {
	"hgrunt_opfor_anims\drop_grenade"
	ACT_SPECIAL_ATTACK1 1
	{ event 9 22 }
	fps 40
}
$sequence "limpingwalk" {
	"hgrunt_opfor_anims\limpingwalk"
	ACT_WALK_HURT 1
	fps 30
	loop
	LX
}
$sequence "limpingrun" {
	"hgrunt_opfor_anims\limpingrun"
	ACT_RUN_HURT 1
	fps 30
	loop
	LX
}
$sequence "180L" {
	"hgrunt_opfor_anims\180L"
	ACT_TURN_LEFT 1
	fps 12
}
$sequence "180R" {
	"hgrunt_opfor_anims\180R"
	ACT_TURN_RIGHT 1
	fps 12
}
$sequence "regular_strafeleft" {
	"hgrunt_anims\strafeleft"
	ACT_STRAFE_LEFT 1
	fps 30
	loop
	LX LY
}
$sequence "regular_straferight" {
	"hgrunt_anims\straferight"
	ACT_STRAFE_RIGHT 1
	fps 30
	loop
	LX LY
}
$sequence "dieback1" {
	"hgrunt_opfor_anims\dieback1"
	ACT_DIEBACKWARD 1
	{ event 11 5 }
	{ event 2001 17 }
	{ event 1000 26 }
	{ event 1001 26 }
	fps 25
	X
}
$sequence "dieforward" {
	"hgrunt_opfor_anims\dieforward"
	ACT_DIEFORWARD 1
	{ event 11 3 }
	{ event 2001 10 }
	{ event 1000 40 }
	{ event 1001 40 }
	fps 26
	X
}
$sequence "diesimple" {
	"hgrunt_opfor_anims\diesimple"
	ACT_DIESIMPLE 1
	{ event 11 3 }
	{ event 2001 10 }
	{ event 1000 14 }
	{ event 1001 14 }
	fps 15
	X
}
$sequence "diebackwards" {
	"hgrunt_opfor_anims\diebackwards"
	ACT_DIEBACKWARD 1
	{ event 11 6 }
	{ event 2001 12 }
	{ event 1000 53 }
	{ event 1001 53 }
	fps 30
	X
}
$sequence "dieheadshot" {
	"hgrunt_opfor_anims\dieheadshot"
	ACT_DIE_HEADSHOT 1
	{ event 11 1 }
	{ event 2001 20 }
	{ event 1000 32 }
	{ event 1001 32 }
	fps 30
	X
}
$sequence "diegutshot" {
	"hgrunt_opfor_anims\diegutshot"
	ACT_DIE_GUTSHOT 1
	{ event 11 0 }
	{ event 2001 29 }
	{ event 1000 68 }
	{ event 1001 68 }
	fps 30
	X
}
$sequence "barnacled1" {
	"hgrunt_opfor_anims\barnacled1"
	ACT_BARNACLE_HIT 1
	fps 18
}
$sequence "barnacled2" {
	"hgrunt_opfor_anims\barnacled2"
	ACT_BARNACLE_PULL 1
	fps 30
	loop
}
$sequence "barnacled3" {
	"hgrunt_opfor_anims\barnacled3"
	ACT_BARNACLE_CHOMP 1
	fps 18
}
$sequence "barnacled4" {
	"hgrunt_opfor_anims\barnacled4"
	ACT_BARNACLE_CHEW 1
	fps 15
	loop
}
$sequence "dead_on_stomach" {
	"hgrunt_opfor_anims\dead_on_stomach"
	fps 1
}
$sequence "deadstomach" {
	"hgrunt_opfor_anims\deadstomach"
	fps 1
}
$sequence "deadside" {
	"hgrunt_opfor_anims\deadside"
	fps 1
}
$sequence "deadsitting" {
	"hgrunt_opfor_anims\deadsitting"
	fps 1
}
$sequence "dead_on_back" {
	"hgrunt_opfor_anims\dead_on_back"
	fps 1
}
$sequence "dead_headcrabed" {
	"hgrunt_opfor_anims\dead_headcrabed"
	fps 1
}
$sequence "hgrunt_dead_stomach" {
	"hgrunt_opfor_anims\hgrunt_dead_stomach"
	fps 1
}
$sequence "dead_canyon" {
	"hgrunt_opfor_anims\dead_canyon"
	fps 1
}
$sequence "repel_jump" {
	"hgrunt_opfor_anims\repel_jump"
	ACT_HOVER 1
	fps 22
}
$sequence "repel_repel" {
	"hgrunt_opfor_anims\repel_repel"
	ACT_GLIDE 1
	fps 18
	loop
}
$sequence "repel_shoot" {
	"hgrunt_opfor_anims\repel_shoot_blend01"
	"hgrunt_opfor_anims\repel_shoot_blend02"
	ACT_FLY 1
	blend XR -90 45
	{ event 4 1 }
	{ event 5 3 }
	{ event 6 5 }
	{ event 5001 1 }
	{ event 5001 3 }
	{ event 5001 5 }
	fps 18
	loop
}
$sequence "repel_land" {
	"hgrunt_opfor_anims\repel_land"
	ACT_LAND 1
	fps 20
}
$sequence "repel_die" {
	"hgrunt_opfor_anims\repel_die"
	fps 12
}
$sequence "dragholeidle" {
	"hgrunt_anims\dragholeidle"
	fps 10
	loop
}
$sequence "draghole" {
	"hgrunt_anims\draghole"
	{ event 1000 1 }
	{ event 1004 21 "debris/bustflesh1.wav" }
	fps 10
}
$sequence "bustwall" {
	"hgrunt_anims\bustwall"
	{ event 1000 1 }
	fps 20
}
$sequence "hoprail" {
	"hgrunt_anims\hoprail"
	fps 22
}
$sequence "converse1" {
	"hgrunt_anims\converse1"
	fps 14
	loop
}
$sequence "converse2" {
	"hgrunt_anims\converse2"
	fps 14
	loop
}
$sequence "startleleft" {
	"hgrunt_anims\startleleft"
	fps 12
}
$sequence "startleright" {
	"hgrunt_anims\startleright"
	fps 12
}
$sequence "divecover" {
	"hgrunt_anims\divecover"
	fps 22
}
$sequence "defuse" {
	"hgrunt_anims\defuse"
	fps 14
	loop
}
$sequence "corner1" {
	"hgrunt_anims\corner1"
	fps 14
	loop
}
$sequence "corner2" {
	"hgrunt_anims\corner2"
	fps 10
	loop
}
$sequence "stone_toss" {
	"hgrunt_anims\stone_toss"
	fps 15
}
$sequence "cliffdie" {
	"hgrunt_anims\cliffdie"
	{ event 1001 0 }
	{ event 1000 0 }
	fps 36
	AX AY AZR
}
$sequence "diveaside_idle" {
	"hgrunt_anims\diveaside_idle"
	fps 30
	loop
}
$sequence "diveaside" {
	"hgrunt_anims\diveaside"
	{ event 4 0 }
	{ event 5 2 }
	{ event 6 4 }
	{ event 4 14 }
	{ event 5 16 }
	{ event 6 18 }
	fps 30
	AX AY AZR
}
$sequence "kneeldive_idle" {
	"hgrunt_anims\kneeldive_idle"
	fps 30
	loop
}
$sequence "kneeldive" {
	"hgrunt_anims\kneeldive"
	{ event 4 0 }
	{ event 5 2 }
	{ event 6 4 }
	{ event 4 14 }
	{ event 5 16 }
	{ event 6 18 }
	fps 30
	AX AY AZR
}
$sequence "WM_button" {
	"hgrunt_anims\WM_button"
	fps 30
	AX AY AZR
}
$sequence "WM_moatjump" {
	"hgrunt_anims\WM_moatjump"
	fps 30
	AX AY AZR
}
$sequence "bustwindow" {
	"hgrunt_anims\bustwindow"
	{ event 1003 5 "break" }
	fps 24
}
$sequence "dragleft" {
	"hgrunt_anims\dragleft"
	fps 28
	loop
	LX
}
$sequence "dragright" {
	"hgrunt_anims\dragright"
	fps 28
	loop
	LX
}
$sequence "trackwave" {
	"hgrunt_anims\trackwave"
	fps 24
	loop
}
$sequence "trackdive" {
	"hgrunt_anims\trackdive"
	{ event 1003 38 "switch" }
	fps 28
}
$sequence "flyback" {
	"hgrunt_anims\flyback"
	{ event 1003 29 "zap" }
	{ event 1008 24 "weapons/electro4.wav" }
	fps 25
}
$sequence "impaled" {
	"hgrunt_anims\impaled"
	{ event 1000 1 }
	fps 10
}
$sequence "jumptracks" {
	"hgrunt_anims\jumptracks"
	fps 30
}
$sequence "pipetoss" {
	"hgrunt_anims\pipetoss"
	fps 30
}
$sequence "plunger" {
	"hgrunt_anims\plunger"
	fps 22
}
$sequence "sitting" {
	"hgrunt_opfor_anims\sitting"
	fps 10
	loop
}
$sequence "sitting2" {
	"hgrunt_opfor_anims\sitting2"
	fps 8
	loop
}
$sequence "sitting3" {
	"hgrunt_opfor_anims\sitting3"
	fps 6
	loop
}
$sequence "react" {
	"hgrunt_opfor_anims\react"
	{ event 1000 1 }
	{ event 1001 1 }
	fps 30
}
$sequence "holding_on" {
	"hgrunt_opfor_anims\holding_on"
	fps 10
	loop
}
$sequence "open_floor_grate" {
	"hgrunt_opfor_anims\open_floor_grate"
	fps 25
}
$sequence "hgrunt_on_stretcher" {
	"hgrunt_opfor_anims\hgrunt_on_stretcher"
	fps 34
}
$sequence "crawling" {
	"hgrunt_opfor_anims\crawling"
	{ event 1001 120 }
	fps 17
}
$sequence "of2a2_speech_idle" {
	"hgrunt_opfor_anims\of2a2_speech_idle"
	{ event 1000 30 }
	{ event 1001 30 }
	fps 30
	loop
}
$sequence "of2a2_death_speech" {
	"hgrunt_opfor_anims\of2a2_death_speech"
	{ event 1000 120 }
	{ event 1001 120 }
	fps 17
}
$sequence "of1a6_get_on" {
	"hgrunt_opfor_anims\of1a6_get_on"
	fps 10
	loop
}
$sequence "cpr" {
	"hgrunt_opfor_anims\cpr"
	{ event 1000 120 }
	{ event 1001 120 }
	fps 30
}
$sequence "mic_idle1" {
	"hgrunt_opfor_anims\mic_idle1"
	fps 30
}
$sequence "mic_idle2" {
	"hgrunt_opfor_anims\mic_idle2"
	fps 30
}
$sequence "mic_idle3" {
	"hgrunt_opfor_anims\mic_idle3"
	fps 30
}
$sequence "mic_idle4" {
	"hgrunt_opfor_anims\mic_idle4"
	fps 30
}
$sequence "mic_stand" {
	"hgrunt_opfor_anims\mic_stand"
	fps 30
}
$sequence "interogation" {
	"hgrunt_opfor_anims\interogation"
	fps 30
}
$sequence "interogation_idle" {
	"hgrunt_opfor_anims\interogation_idle"
	fps 30
	loop
}
$sequence "shoot_shotgun" {
	"hgrunt_opfor_anims\shoot_shotgun"
	{ event 4 12 }
	{ event 5001 12 "51" }
	{ event 2 28 }
	fps 25
}
$sequence "pull_needle" {
	"hgrunt_medic_anims\pull_needle"
	ACT_ARM 1
	{ event 15 20 }
	{ event 16 50 }
	fps 30
}
$sequence "store_needle" {
	"hgrunt_medic_anims\store_needle"
	ACT_DISARM 1
	{ event 17 15 }
	{ event 18 36 }
	fps 30
}
$sequence "give_shot" {
	"hgrunt_medic_anims\give_shot"
	ACT_MELEE_ATTACK2 1
	fps 30
	loop
}
$sequence "heal_crouch" {
	"hgrunt_medic_anims\heal_crouch"
	{ event 15 10 }
	{ event 16 27 }
	{ event 17 100 }
	{ event 18 110 }
	fps 15
}
$sequence "working" {
	"massn_anims\working"
	fps 30
	loop
}
$sequence "standing" {
	"massn_anims\standing"
	fps 20
	loop
}



$sequence "open_floor_grate2" {
	"hgrunt_torch_anims\open_floor_grate"
	fps 25
}
$sequence "cut_floor_grate" {
	"hgrunt_torch_anims\cut_floor_grate"
	{ event 20 15 }
	{ event 1004 15 "fgrunt/torch_light.wav" }
	{ event 1004 24 "fgrunt/torch_cut_loop.wav" }
	{ event 1004 99 "fgrunt/torch_light.wav" }
	fps 25
}
$sequence "wounded" {
	"hgrunt_torch_anims\wounded"
	{ event 21 1 }
	fps 15
	loop
}
$sequence "get_up" {
	"hgrunt_torch_anims\get_up"
	{ event 21 1 }
	{ event 20 45 }
	fps 15
}
$sequence "pull_torch_wgun" {
	"hgrunt_torch_anims\pull_torch_wgun"
	{ event 21 20 }
	{ event 20 50 }
	{ event 22 85 }
	{ event 1004 85 "fgrunt/torch_light.wav" }
	fps 30
}
$sequence "store_torch" {
	"hgrunt_torch_anims\store_torch"
	{ event 20 1 }
	{ event 23 36 }
	{ event 21 65 }
	{ event 19 78 }
	fps 30
}
$sequence "pull_torch_nogun" {
	"hgrunt_torch_anims\pull_torch_nogun"
	{ event 20 1 }
	{ event 22 22 }
	{ event 1004 22 "fgrunt/torch_light.wav" }
	fps 30
}
$sequence "cut_door_wgun" {
	"hgrunt_torch_anims\cut_door_wgun"
	{ event 1004 8 "fgrunt/torch_cut_loop.wav" }
	{ event 1004 35 "fgrunt/torch_cut_loop.wav" }
	{ event 1004 62 "fgrunt/torch_cut_loop.wav" }
	{ event 1004 89 "fgrunt/torch_cut_loop.wav" }
	{ event 1004 116 "fgrunt/torch_cut_loop.wav" }
	{ event 1004 143 "fgrunt/torch_cut_loop.wav" }
	{ event 1004 170 "fgrunt/torch_cut_loop.wav" }
	{ event 23 170 }
	{ event 1004 170 "fgrunt/torch_light.wav" }
	{ event 21 189 }
	{ event 19 193 }
	fps 9
}
$sequence "cut_door_nogun" {
	"hgrunt_torch_anims\cut_door_nogun"
	{ event 1004 8 "fgrunt/torch_cut_loop.wav" }
	{ event 1004 35 "fgrunt/torch_cut_loop.wav" }
	{ event 1004 62 "fgrunt/torch_cut_loop.wav" }
	{ event 1004 89 "fgrunt/torch_cut_loop.wav" }
	{ event 1004 116 "fgrunt/torch_cut_loop.wav" }
	{ event 1004 143 "fgrunt/torch_cut_loop.wav" }
	{ event 23 165 }
	{ event 1004 165 "fgrunt/torch_light.wav" }
	fps 9
}



$sequence "assassin_frontkick" {
	"massn_anims\frontkick_2"
	ACT_MELEE_ATTACK1 1
	{ event 2010 5 }
	{ event 3 5 }
	{ event 2010 16 }
	{ event 3 16 }
	fps 25
}
$sequence "assassin_frontkick2" {
	"massn_anims\frontkick_3"
	ACT_MELEE_ATTACK1 1
	{ event 2010 12 }
	{ event 3 12 }
	{ event 2010 30 }
	{ event 3 30 }
	{ event 2010 43 }
	{ event 3 43 }
	{ event 2010 56 }
	{ event 3 56 }
	fps 40
	LX LY
}
$sequence "assassin_run" {
	"massn_anims\run"
	ACT_RUN 1
	fps 55
	loop
	LX
}
$sequence "assassin_strafeleft" {
	"massn_anims\strafeleft"
	ACT_STRAFE_LEFT 1
	fps 40
}
$sequence "assassin_straferight" {
	"massn_anims\straferight"
	ACT_STRAFE_RIGHT 1
	fps 40
}

$sequence "pistol_idle1" {
	"hgrunt_medic_anims\idle1"
	fps 30
	loop
}
$sequence "pistol_idle2" {
	"hgrunt_medic_anims\idle2"
	fps 20
	loop
}
$sequence "pistol_combatidle" {
	"hgrunt_medic_anims\combatidle"
	fps 30
	loop
}
$sequence "pistol_walk" {
	"hgrunt_medic_anims\walk1"
	ACT_WALK 1
	fps 30
	loop
	LX
}
$sequence "pistol_run" {
	"hgrunt_medic_anims\run"
	ACT_RUN 1
	fps 30
	loop
	LX
}
$sequence "pistol_crouching_idle" {
	"hgrunt_medic_anims\crouching_idle"
	fps 30
	loop
}
$sequence "pistol_crouching_wait" {
	"hgrunt_medic_anims\crouching_wait"
	ACT_CROUCH 0
	fps 30
}
$sequence "crouching_pistol" {
	"hgrunt_medic_anims\crouching_mp5_blend01"
	"hgrunt_medic_anims\crouching_mp5_blend02"
	ACT_RANGE_ATTACK1 1
	blend XR -45 45
	{ event 4 0 }
	{ event 5001 0 "50" }
	fps 20
	loop
}
$sequence "standing_pistol" {
	"hgrunt_medic_anims\standing_mp5_blend01"
	"hgrunt_medic_anims\standing_mp5_blend02"
	blend XR -45 45
	{ event 4 0 }
	{ event 5001 0 "50" }
	fps 20
	loop
}
$sequence "reload_pistol" {
	"hgrunt_medic_anims\reload_mp5"
	ACT_RELOAD 1
	{ event 2 47 }
	fps 40
}
