// Created by Crowbar 0.71

// Stored modelname (without quotes): "valve/models/hgrunt_f.mdl"
$modelname "editormodels/_match_weapon.mdl"
$cd "."
$cdtexture "_rand"
$cdtexture "."
$cdtexture "_weapons"
$cdtexture "_classicgrunt"
$cdtexture "_op4grunt"
$cdtexture "_op4medic"
$cdtexture "_op4torch"
$cdtexture "_massn"

$cliptotextures
$scale 1.0

$bodygroup "heads"
{
	studio "_classicgrunt/m203_head"	
}
$bodygroup "weapons"
{
	studio "_weapons/p_spore_launcher_Reference"
}
$bodygroup "torso"
{
	studio "_op4medic/grunt_medic_torso_reference"
}

$texturegroup "skinfamilies"
{
	{ 
	"headmap_white.BMP" "cigar.bmp" "w_spore_launcher.BMP" "boots.BMP" "fatigues.bmp" "Medic_torso.bmp" "w_spore_launcher_mouth.bmp"  "medic_head.BMP"
	}
	{ 
	"Untitled.BMP" "Untitled.bmp" "Untitled.bmp" "Untitled.bmp" "Untitled.bmp" "Untitled.bmp"  "Untitled.bmp"  "Untitled.bmp"
	}
	{ 
	"match_weapon_e.BMP" "match_weapon_e.bmp" "match_weapon_e.bmp" "match_weapon_e.bmp" "match_weapon_e.bmp" "match_weapon_e.bmp" "match_weapon_e.bmp" "match_weapon_e.bmp"
	}
	{ 
	"match_weapon_f.BMP" "match_weapon_f.BMP" "match_weapon_f.BMP" "match_weapon_f.BMP" "match_weapon_f.BMP" "match_weapon_f.BMP"  "match_weapon_f.BMP" "match_weapon_f.BMP"
	}
}

$sequence "DEFAULT" {
	"hgrunt_medic_anims\idle2"
	fps 1
	loop
}

$sequence "null" {
	"../error"
	fps 1
}

$sequence "null" {
	"../error"
	fps 1
}


$sequence "null" {
	"../error"
	fps 1
}


$sequence "null" {
	"../error"
	fps 1
}


$sequence "null" {
	"../error"
	fps 1
}


$sequence "null" {
	"../error"
	fps 1
}


$sequence "null" {
	"../error"
	fps 1
}


$sequence "null" {
	"../error"
	fps 1
}


$sequence "null" {
	"../error"
	fps 1
}


$sequence "null" {
	"../error"
	fps 1
}


$sequence "null" {
	"../error"
	fps 1
}


$sequence "null" {
	"../error"
	fps 1
}


$sequence "null" {
	"../error"
	fps 1
}


$sequence "null" {
	"../error"
	fps 1
}


$sequence "null" {
	"../error"
	fps 1
}


$sequence "null" {
	"../error"
	fps 1
}


$sequence "null" {
	"../error"
	fps 1
}


$sequence "null" {
	"../error"
	fps 1
}


$sequence "null" {
	"../error"
	fps 1
}


$sequence "null" {
	"../error"
	fps 1
}


$sequence "null" {
	"../error"
	fps 1
}


$sequence "null" {
	"../error"
	fps 1
}


$sequence "null" {
	"../error"
	fps 1
}


$sequence "null" {
	"../error"
	fps 1
}


$sequence "null" {
	"../error"
	fps 1
}


$sequence "null" {
	"../error"
	fps 1
}


$sequence "null" {
	"../error"
	fps 1
}


$sequence "null" {
	"../error"
	fps 1
}


$sequence "null" {
	"../error"
	fps 1
}


$sequence "null" {
	"../error"
	fps 1
}


$sequence "null" {
	"../error"
	fps 1
}


$sequence "null" {
	"../error"
	fps 1
}


$sequence "null" {
	"../error"
	fps 1
}


$sequence "null" {
	"../error"
	fps 1
}


$sequence "null" {
	"../error"
	fps 1
}


$sequence "null" {
	"../error"
	fps 1
}


$sequence "null" {
	"../error"
	fps 1
}


$sequence "null" {
	"../error"
	fps 1
}


$sequence "null" {
	"../error"
	fps 1
}


$sequence "null" {
	"../error"
	fps 1
}


$sequence "null" {
	"../error"
	fps 1
}


$sequence "null" {
	"../error"
	fps 1
}


$sequence "null" {
	"../error"
	fps 1
}


$sequence "null" {
	"../error"
	fps 1
}


$sequence "null" {
	"../error"
	fps 1
}


$sequence "null" {
	"../error"
	fps 1
}


$sequence "null" {
	"../error"
	fps 1
}


$sequence "null" {
	"../error"
	fps 1
}


$sequence "null" {
	"../error"
	fps 1
}


$sequence "null" {
	"../error"
	fps 1
}


$sequence "null" {
	"../error"
	fps 1
}


$sequence "null" {
	"../error"
	fps 1
}


$sequence "null" {
	"../error"
	fps 1
}


$sequence "null" {
	"../error"
	fps 1
}


$sequence "null" {
	"../error"
	fps 1
}


$sequence "null" {
	"../error"
	fps 1
}


$sequence "null" {
	"../error"
	fps 1
}


$sequence "repel_repel" {
	"hgrunt_opfor_anims\repel_repel"
	fps 18
	loop
}

