version 1
nodes
  0 "Bip01" -1
  1 "Bip01 Pelvis" 0
  2 "Bip01 L Leg" 1
  3 "Bip01 L Leg1" 2
  4 "Bip01 L Foot" 3
  5 "Bip01 R Leg" 1
  6 "Bip01 R Leg1" 5
  7 "Bip01 R Foot" 6
  8 "Bip01 Spine" 1
  9 "Bip01 Spine1" 8
  10 "Bip01 Spine2" 9
  11 "Bip01 Spine3" 10
  12 "Bip01 Neck" 11
  13 "Bip01 L Arm" 12
  14 "Bip01 L Arm1" 13
  15 "Bip01 L Arm2" 14
  16 "Bip01 L Hand" 15
  17 "Bip01 R Arm" 12
  18 "Bip01 R Arm1" 17
  19 "Bip01 R Arm2" 18
  20 "Bip01 R Hand" 19
  21 "Bip01 Head" 12
  22 "Bone05" 21
  23 "Bone03" 1
end
skeleton
  time 0
    0 1.727579 6.783989 40.724147 0.000000 0.000000 -1.701715
    1 0.000000 0.000000 0.000000 -1.570795 -1.570796 0.000000
    2 -0.000007 0.000008 4.427393 -0.170941 3.132617 -0.013434
    3 18.301065 0.000000 0.000000 0.000000 0.000000 -0.414314
    4 17.106758 0.000000 0.000000 0.018451 0.017483 0.385305
    5 0.000006 -0.000004 -4.427393 0.109168 -3.179402 -0.288364
    6 18.133167 0.000000 0.000000 0.000000 0.000000 -0.213599
    7 17.375956 0.000000 0.000000 -0.002024 0.005098 -0.077136
    8 2.255203 -0.002685 0.000003 0.139526 -0.000109 0.000796
    9 3.373776 -0.004248 0.000000 -0.017455 -0.017426 0.000302
    10 5.335510 -0.004100 0.000000 0.017407 0.000431 -0.026150
    11 5.172566 -0.004197 0.000000 -0.026157 -0.000431 -0.017444
    12 5.271970 -0.001935 0.000000 0.000024 0.043600 0.335253
    13 -3.089980 1.041727 2.401156 -0.875915 -1.358595 -2.606395
    14 6.063949 0.000000 0.000002 0.688695 1.101734 0.397655
    15 7.685221 0.000000 0.000000 0.000000 0.000000 -0.470426
    16 10.246255 0.000000 -0.000003 -1.516682 0.060939 0.003191
    17 -2.774085 1.007904 -2.548969 1.160443 1.415275 -2.327861
    18 6.269507 0.000000 -0.000001 -0.534474 -1.198292 0.213654
    19 8.573802 0.000000 -0.000004 0.000000 0.000000 -0.234206
    20 9.913458 0.000000 0.000003 1.546557 0.097033 -0.254306
    21 2.452246 0.000000 0.000000 0.000811 -0.008383 -0.101243
    22 0.946167 3.213873 -0.420090 -3.141592 -0.000002 1.413798
    23 1.827063 1.152534 -7.643625 -1.570796 -1.570796 0.000000
  time 1
    0 1.012714 9.349436 41.193261 -0.007095 -0.016358 -2.116957
    1 0.000000 0.000000 0.000000 -1.570795 -1.570796 0.000000
    2 -0.000007 0.000008 4.427393 -0.174296 3.106754 0.010629
    3 18.301065 0.000000 0.000000 0.000000 0.000000 -0.325173
    4 17.106758 0.000000 0.000000 -0.351736 0.040970 0.307369
    5 0.000006 -0.000004 -4.427393 0.112522 -3.150247 -0.420664
    6 18.133167 0.000000 0.000000 0.000000 0.000000 -0.640914
    7 17.375956 0.000000 0.000000 0.023026 0.042772 0.014128
    8 2.255203 -0.002685 0.000003 0.017460 0.032380 0.018796
    9 3.373776 -0.004248 0.000000 -0.069742 0.028427 0.030780
    10 5.335510 -0.004100 0.000000 -0.069338 0.011026 -0.108954
    11 5.172566 -0.004197 0.000000 -0.069758 -0.001151 -0.017413
    12 5.271970 -0.001935 0.000000 -0.082502 0.072183 0.330496
    13 -3.160295 0.834689 2.385530 0.596009 -1.406082 -4.071442
    14 6.063949 0.000000 0.000002 -0.923178 1.292652 -0.820987
    15 7.685221 0.000000 0.000000 0.000000 0.000000 -0.660344
    16 10.246255 0.000000 -0.000003 -1.516682 0.060939 0.003191
    17 -2.703771 1.207129 -2.537250 1.485294 1.273731 -2.009070
    18 6.269507 0.000000 -0.000001 -0.484364 -0.457337 -0.020144
    19 8.573802 0.000000 -0.000004 0.000000 0.000000 -0.523113
    20 9.913458 0.000000 0.000003 1.546557 0.097033 -0.254306
    21 2.452246 0.000000 0.000000 -0.005892 0.108058 -0.184674
    22 0.946167 3.213873 -0.420090 -3.141592 -0.000002 1.413798
    23 1.827063 1.152534 -7.643625 -1.570796 -1.570796 0.000000
  time 2
    0 0.098623 13.022475 41.712638 0.000000 -0.034855 -2.730856
    1 0.000000 0.000000 0.000000 -1.570795 -1.570796 0.000000
    2 -0.000007 0.000008 4.427393 -0.171900 3.083268 0.061917
    3 18.301065 0.000000 0.000000 0.000000 0.000000 -0.154897
    4 17.106758 0.000000 0.000000 -0.711708 0.041371 0.177127
    5 0.000006 -0.000004 -4.427393 0.122011 -3.157107 -0.578943
    6 18.133167 0.000000 0.000000 0.000000 0.000000 -1.123219
    7 17.375956 0.000000 0.000000 0.024404 0.108954 0.130931
    8 2.255203 -0.002685 0.000003 -0.104709 0.055771 0.030013
    9 3.373776 -0.004248 0.000000 -0.121977 0.060522 0.062867
    10 5.335510 -0.004100 0.000000 -0.155246 0.011481 -0.151872
    11 5.172566 -0.004197 0.000000 -0.113360 -0.001882 -0.017351
    12 5.271970 -0.001935 0.000000 -0.165387 0.100275 0.323328
    13 -3.230610 0.627652 2.354279 1.217592 -1.185543 -4.685734
    14 6.063949 0.000000 0.000002 -1.410864 0.737091 -0.884161
    15 7.685221 0.000000 0.000000 0.000000 0.000000 -0.897693
    16 10.246255 0.000000 -0.000003 -1.516682 0.060939 0.003191
    17 -2.637362 1.402447 -2.505999 -1.507683 1.993040 -4.998069
    18 6.269507 0.000000 -0.000001 -0.196496 0.158199 -0.255318
    19 8.573802 0.000000 -0.000004 0.000000 0.000000 -0.812098
    20 9.913458 0.000000 0.000003 1.546557 0.097033 -0.254306
    21 2.452246 0.000000 0.000000 -0.018975 0.203512 -0.190058
    22 0.946167 3.213873 -0.420090 -3.141592 -0.000002 1.413798
    23 1.827063 1.152534 -7.643625 -1.570796 -1.570796 0.000000
  time 3
    0 -0.143572 14.158467 41.243523 0.023777 -0.027698 -3.494322
    1 0.000000 0.000000 0.000000 -0.000025 -1.737601 -1.570793
    2 -0.000007 0.000008 4.427393 -0.185993 3.208877 -0.117256
    3 18.301065 0.000000 0.000000 0.000000 0.000000 -0.448151
    4 17.106758 0.000000 0.000000 -0.091149 0.099406 0.328572
    5 0.000006 -0.000004 -4.427393 0.229165 -3.170255 -0.715172
    6 18.133167 0.000000 0.000000 0.000000 0.000000 -1.419455
    7 17.375956 0.000000 0.000000 -0.086560 0.157326 0.250723
    8 2.227858 -0.002685 -0.371102 -0.098665 0.173674 0.035677
    9 3.373776 -0.004248 0.000000 -0.121429 -0.000156 0.105456
    10 5.335510 -0.004100 0.000000 -0.156983 0.032886 0.025725
    11 5.172566 -0.004197 0.000000 -0.113015 0.009204 0.080146
    12 5.271970 -0.001935 0.000000 -0.164848 -0.045973 0.347694
    13 -2.851692 0.627652 2.803512 1.602720 -1.062310 -5.031511
    14 6.063949 0.000000 0.000002 -1.313366 0.258404 -0.754757
    15 7.685221 0.000000 0.000000 0.000000 0.000000 -1.137847
    16 10.246255 0.000000 -0.000003 -1.516682 0.060939 0.003191
    17 -2.977216 1.406354 -2.091924 1.426378 1.160528 -2.023230
    18 6.269507 0.000000 -0.000001 0.021200 -0.132975 -0.195906
    19 8.573802 0.000000 -0.000004 0.000000 0.000000 -0.812098
    20 9.913458 0.000000 0.000003 1.546557 0.097033 -0.254306
    21 2.452246 0.000000 0.000000 -0.118930 0.205015 -0.130920
    22 0.946167 3.213873 -0.420090 -3.141592 -0.000002 1.413798
    23 1.827063 1.152534 -7.643625 -1.570796 -1.570796 0.000000
  time 4
    0 0.098623 15.436457 40.707393 0.034802 0.000558 -4.318190
    1 0.000000 0.000000 0.000000 -0.000025 -1.867348 -1.570793
    2 -0.000007 0.000008 4.427393 -0.153971 3.283520 -0.280994
    3 18.301065 0.000000 0.000000 0.000000 0.000000 -0.646661
    4 17.106758 0.000000 0.000000 0.510714 0.150627 0.407323
    5 0.000006 -0.000004 -4.427393 0.316863 -3.225040 -0.748828
    6 18.133167 0.000000 0.000000 0.000000 0.000000 -1.562881
    7 17.375956 0.000000 0.000000 -0.216461 0.201303 0.293063
    8 2.157544 -0.002685 -0.656267 -0.092415 0.247965 0.042199
    9 3.373776 -0.004248 0.000000 -0.121821 -0.073753 0.114452
    10 5.335510 -0.004100 0.000000 -0.154474 0.045841 0.178256
    11 5.172566 -0.004197 0.000000 -0.111980 0.017773 0.155997
    12 5.271970 -0.001935 0.000000 -0.167904 -0.192209 0.372413
    13 -2.406366 0.627652 3.194149 1.862924 -0.993046 -5.253477
    14 6.063949 0.000000 0.000002 -1.246502 0.015090 -0.659881
    15 7.685221 0.000000 0.000000 0.000000 0.000000 -1.277203
    16 10.246255 0.000000 -0.000003 -1.516682 0.060939 0.003191
    17 -3.250662 1.406354 -1.630973 1.168369 1.257278 -2.265768
    18 6.269507 0.000000 -0.000001 0.157498 -0.407789 -0.102593
    19 8.573802 0.000000 -0.000004 0.000000 0.000000 -0.812098
    20 9.913458 0.000000 0.000003 1.546557 0.097033 -0.254306
    21 2.452246 0.000000 0.000000 -0.110713 0.095483 -0.155945
    22 0.946167 3.213873 -0.420090 -3.141592 -0.000002 1.413798
    23 1.827063 1.152534 -7.643625 -1.570796 -1.570796 0.000000
  time 5
    0 4.856581 16.354717 38.814181 0.025023 0.024259 -5.071302
    1 0.000000 0.000000 0.000000 -0.000025 -1.737601 -1.570793
    2 -0.000007 0.000008 4.427393 -0.128661 3.264883 -0.286650
    3 18.301065 0.000000 0.000000 0.000000 0.000000 -0.841751
    4 17.106758 0.000000 0.000000 0.110309 0.065258 0.570028
    5 0.000006 -0.000004 -4.427393 0.255043 -3.317935 -0.583496
    6 18.133167 0.000000 0.000000 0.000000 0.000000 -1.394071
    7 17.375956 0.000000 0.000000 -0.278615 0.229291 0.309068
    8 2.223952 -0.002685 -0.371102 -0.109030 0.111478 -0.025309
    9 3.373776 -0.004248 0.000000 -0.122603 -0.084695 0.025051
    10 5.335510 -0.004100 0.000000 -0.156758 0.026510 0.055157
    11 5.172566 -0.004197 0.000000 -0.112929 0.010079 0.087865
    12 5.271970 -0.001935 0.000000 -0.167904 -0.192209 0.372413
    13 -2.406366 0.627652 3.194149 1.857889 -0.978672 -5.245750
    14 6.063949 0.000000 0.000002 -1.241884 0.514817 -0.738486
    15 7.685221 0.000000 0.000000 0.000000 0.000000 -1.089307
    16 10.246255 0.000000 -0.000003 -1.516682 0.060939 0.003191
    17 -3.250662 1.406354 -1.630973 1.535902 1.407622 -1.912438
    18 6.269507 0.000000 -0.000001 -0.196661 -0.263190 0.236896
    19 8.573802 0.000000 -0.000004 0.000000 0.000000 -0.978908
    20 9.913458 0.000000 0.000003 1.546557 0.097033 -0.254306
    21 2.452246 0.000000 0.000000 -0.034328 -0.114822 -0.447632
    22 0.946167 3.213873 -0.420090 -3.141592 -0.000002 1.413798
    23 1.827063 1.152534 -7.643625 -1.570796 -1.570796 0.000000
  time 6
    0 8.145744 15.436457 35.999495 0.001246 0.034855 -5.835918
    1 0.000000 0.000000 0.000000 -1.570795 -1.570796 0.000000
    2 -0.000007 0.000008 4.427393 -0.090791 3.144693 -0.025896
    3 18.301065 0.000000 0.000000 0.000000 0.000000 -0.884174
    4 17.106758 0.000000 0.000000 -0.245458 0.300885 0.756616
    5 0.000006 -0.000004 -4.427393 0.191403 -3.446560 -0.383349
    6 18.133167 0.000000 0.000000 0.000000 0.000000 -1.250330
    7 17.375956 0.000000 0.000000 -0.257352 0.264276 0.352846
    8 2.255203 -0.002685 0.000003 -0.104503 -0.061055 -0.080482
    9 3.373776 -0.004248 0.000000 -0.122108 -0.099196 -0.093270
    10 5.335510 -0.004100 0.000000 -0.155246 -0.005741 -0.149187
    11 5.172566 -0.004197 0.000000 -0.113360 -0.001882 -0.017351
    12 5.271970 -0.001935 0.000000 -0.167904 -0.192209 0.372413
    13 -2.406366 0.627652 3.194149 1.884679 -1.046390 -5.285336
    14 6.063949 0.000000 0.000002 -1.019245 1.040251 -0.520165
    15 7.685221 0.000000 0.000000 0.000000 0.000000 -0.897693
    16 10.246255 0.000000 -0.000003 -1.516682 0.060939 0.003191
    17 -3.250662 1.406354 -1.630973 0.253498 1.306800 -3.226828
    18 6.269507 0.000000 -0.000001 -0.582438 0.137421 0.181335
    19 8.573802 0.000000 -0.000004 0.000000 0.000000 -0.812098
    20 9.913458 0.000000 0.000003 1.546557 0.097033 -0.254306
    21 2.452246 0.000000 0.000000 0.177638 -0.089210 -0.805221
    22 0.946167 3.213873 -0.420090 -3.141592 -0.000002 1.413798
    23 1.827063 1.152534 -7.643625 -1.570796 -1.570796 0.000000
  time 7
    0 9.555943 8.923439 31.442385 -0.039308 -0.070453 -0.492902
    1 0.000000 0.000000 0.000000 -1.570795 -1.570796 0.000000
    2 -0.000007 0.000008 4.427393 -0.002779 3.178544 0.303210
    3 18.301065 0.000000 0.000000 0.000000 0.000000 -1.071623
    4 17.106758 0.000000 0.000000 0.103805 -0.220869 0.834435
    5 0.000006 -0.000004 -4.427393 0.112810 -3.530976 -0.313895
    6 18.133167 0.000000 0.000000 0.000000 0.000000 -1.557338
    7 17.375956 0.000000 0.000000 -0.118755 0.349945 0.550696
    8 2.255203 -0.002685 0.000003 0.034641 -0.056506 0.119434
    9 3.373776 -0.004248 0.000000 0.104026 -0.073561 -0.135734
    10 5.335510 -0.004100 0.000000 -0.017149 0.014382 -0.177205
    11 5.172566 -0.004197 0.000000 0.218008 -0.004518 0.019640
    12 5.271970 -0.001935 0.000000 -0.167904 -0.192209 0.372413
    13 -2.406366 0.627652 3.194149 1.973884 -1.181448 -5.399800
    14 6.063949 0.000000 0.000002 -0.837973 0.683549 -1.132809
    15 7.685221 0.000000 0.000000 0.000000 0.000000 -0.897693
    16 10.246255 0.000000 -0.000003 -1.526817 0.013869 0.001987
    17 -3.250662 1.406354 -1.630973 0.253498 1.306800 -3.226828
    18 6.269507 0.000000 -0.000001 -0.376465 0.103104 1.051339
    19 8.573802 0.000000 -0.000004 0.000000 0.000000 -0.812098
    20 9.913458 0.000000 0.000003 1.546557 0.097033 -0.254306
    21 2.452246 0.000000 0.000000 -0.784182 -0.416650 -0.275945
    22 0.946167 3.213873 -0.420090 -3.141592 -0.000002 1.413798
    23 1.827063 1.152534 -7.643625 -1.570796 -1.570796 0.000000
  time 8
    0 8.907486 -0.259159 25.226620 -0.034802 -0.002324 -1.227413
    1 0.000000 0.000000 0.000000 -1.570795 -1.570796 0.000000
    2 -0.000007 0.000008 4.427393 0.057717 3.242918 0.612759
    3 18.301065 0.000000 0.000000 0.000000 0.000000 -0.763889
    4 17.106758 0.000000 0.000000 0.657742 -0.145279 -0.398129
    5 0.000006 -0.000004 -4.427393 0.044569 -3.609771 -0.257297
    6 18.133167 0.000000 0.000000 0.000000 0.000000 -1.890485
    7 17.375956 0.000000 0.000000 0.040674 0.425090 0.669050
    8 2.255203 -0.002685 0.000003 -0.002293 -0.028113 0.205333
    9 3.373776 -0.004248 0.000000 0.085449 0.002385 -0.077189
    10 5.335510 -0.004100 0.000000 0.069756 0.065879 -0.097415
    11 5.172566 -0.004197 0.000000 0.129878 0.053511 0.001762
    12 5.271970 -0.001935 0.000000 -0.167904 -0.192209 0.372413
    13 -2.406366 0.627652 3.194149 2.186683 -1.317400 -5.639031
    14 6.063949 0.000000 0.000002 -1.044677 0.237855 -0.968800
    15 7.685221 0.000000 0.000000 0.000000 0.000000 -0.897693
    16 10.246255 0.000000 -0.000003 -1.538887 -0.037786 0.001355
    17 -3.250662 1.406354 -1.630973 0.253498 1.306800 -3.226828
    18 6.269507 0.000000 -0.000001 -0.087029 0.062018 0.993853
    19 8.573802 0.000000 -0.000004 0.000000 0.000000 -0.812098
    20 9.913458 0.000000 0.000003 1.546557 0.097033 -0.254306
    21 2.452246 0.000000 0.000000 -0.380739 -0.220654 -0.497252
    22 0.946167 3.213873 -0.420090 -3.141592 -0.000002 1.413798
    23 1.827063 1.152534 -7.643625 -1.570796 -1.570796 0.000000
  time 9
    0 6.055836 -1.754881 15.475743 -0.234603 0.617530 -1.314373
    1 0.000000 0.000000 0.000000 -1.570795 -1.570796 0.000000
    2 -0.000007 0.000008 4.427393 0.151385 3.406562 0.348938
    3 18.301065 0.000000 0.000000 0.000000 0.000000 -0.591503
    4 17.106758 0.000000 0.000000 -0.789428 -0.338382 -0.408613
    5 0.000006 -0.000004 -4.427393 0.324339 -3.338325 0.015161
    6 18.133167 0.000000 0.000000 0.000000 0.000000 -1.165863
    7 17.375956 0.000000 0.000000 0.394826 0.175107 -0.027645
    8 2.255203 -0.002685 0.000003 -0.049412 0.007006 0.262836
    9 3.373776 -0.004248 0.000000 0.045556 0.075024 -0.023418
    10 5.335510 -0.004100 0.000000 0.138933 0.101138 -0.016415
    11 5.172566 -0.004197 0.000000 0.013801 0.104002 -0.030459
    12 5.271970 -0.001935 0.000000 -0.167904 -0.192209 0.372413
    13 -2.406366 0.627652 3.194149 -3.517570 -1.416523 0.039447
    14 6.063949 0.000000 0.000002 -1.320520 0.026797 -0.569971
    15 7.685221 0.000000 0.000000 0.000000 0.000000 -0.897693
    16 10.246255 0.000000 -0.000003 -1.542480 -0.095020 -0.000331
    17 -3.250662 1.406354 -1.630973 0.253498 1.306800 -3.226828
    18 6.269507 0.000000 -0.000001 0.153040 0.072925 0.834388
    19 8.573802 0.000000 -0.000004 0.000000 0.000000 -0.812098
    20 9.913458 0.000000 0.000003 1.546557 0.097033 -0.254306
    21 2.452246 0.000000 0.000000 0.114822 -0.020987 -0.547087
    22 0.946167 3.213873 -0.420090 -3.141592 -0.000002 1.413798
    23 1.827063 1.152534 -7.643625 -1.570796 -1.570796 0.000000
  time 10
    0 4.712045 -2.180878 7.249488 -0.460002 1.251789 -1.333165
    1 0.000000 0.000000 0.000000 -1.570795 -1.570796 0.000000
    2 -0.000007 0.000008 4.427393 0.057717 3.242918 0.612759
    3 18.301065 0.000000 0.000000 0.000000 0.000000 -0.763889
    4 17.106758 0.000000 0.000000 -0.336573 -0.145279 -0.398129
    5 0.000006 -0.000004 -4.427393 0.344658 -3.382915 0.252356
    6 18.133167 0.000000 0.000000 0.000000 0.000000 -1.443076
    7 17.375956 0.000000 0.000000 0.344811 0.155389 -0.253646
    8 2.255203 -0.002685 0.000003 -0.099617 0.049691 0.311431
    9 3.373776 -0.004248 0.000000 0.000104 0.156998 0.034876
    10 5.335510 -0.004100 0.000000 0.211199 0.130884 0.054747
    11 5.172566 -0.004197 0.000000 -0.114395 0.150155 -0.069859
    12 5.271970 -0.001935 0.000000 -0.167904 -0.192209 0.372413
    13 -2.406366 0.627652 3.194149 -2.639679 -1.406869 -0.861673
    14 6.063949 0.000000 0.000002 -1.536915 0.108830 -0.121870
    15 7.685221 0.000000 0.000000 0.000000 0.000000 -0.897693
    16 10.246255 0.000000 -0.000003 -1.516129 -0.165473 -0.008730
    17 -3.250662 1.406354 -1.630973 0.253498 1.306800 -3.226828
    18 6.269507 0.000000 -0.000001 0.380312 0.139395 0.653951
    19 8.573802 0.000000 -0.000004 0.000000 0.000000 -0.812098
    20 9.913458 0.000000 0.000003 1.546557 0.097033 -0.254306
    21 2.452246 0.000000 0.000000 0.685470 0.073224 -0.372212
    22 0.946167 3.213873 -0.420090 -3.141592 -0.000002 1.413798
    23 1.827063 1.152534 -7.643625 -1.570796 -1.570796 0.000000
  time 11
    0 4.712045 -2.199811 7.048439 -0.407176 1.306441 -1.386473
    1 0.000000 0.000000 0.000000 -1.570795 -1.570796 0.000000
    2 -0.000007 0.000008 4.427393 0.086670 3.275152 0.342802
    3 18.301065 0.000000 0.000000 0.000000 0.000000 -0.607293
    4 17.106758 0.000000 0.000000 -0.300276 0.015239 -0.308660
    5 0.000006 -0.000004 -4.427393 0.352901 -3.383201 0.119698
    6 18.133167 0.000000 0.000000 0.000000 0.000000 -0.971983
    7 17.375956 0.000000 0.000000 0.395084 -0.184687 -0.201317
    8 2.255203 -0.002685 0.000003 -0.101520 0.043008 0.245004
    9 3.373776 -0.004248 0.000000 0.000104 0.156998 0.110456
    10 5.335510 -0.004100 0.000000 0.209719 0.170169 -0.130782
    11 5.172566 -0.004197 0.000000 -0.114654 0.159155 0.009142
    12 5.271970 -0.001935 0.000000 -0.167904 -0.192209 0.372413
    13 -2.406366 0.627652 3.194149 -2.639679 -1.406869 -0.861673
    14 6.063949 0.000000 0.000002 -1.327220 0.274205 -0.112551
    15 7.685221 0.000000 0.000000 0.000000 0.000000 -1.268330
    16 10.246255 0.000000 -0.000003 -1.329185 -0.289453 -0.066737
    17 -3.250662 1.406354 -1.630973 0.253498 1.306800 -3.226828
    18 6.269507 0.000000 -0.000001 0.551200 0.254849 -0.026746
    19 8.573802 0.000000 -0.000004 0.000000 0.000000 -0.493203
    20 9.913458 0.000000 0.000003 1.613345 0.333300 -0.265863
    21 2.452246 0.000000 0.000000 0.727258 0.120199 -0.256347
    22 0.946167 3.213873 -0.420090 -3.141592 -0.000002 1.413798
    23 1.827063 1.152534 -7.643625 -1.570796 -1.570796 0.000000
  time 12
    0 4.712045 -2.199811 8.489291 -0.215812 1.251789 -1.333165
    1 0.000000 0.000000 0.000000 -1.570795 -1.570796 0.000000
    2 -0.000007 0.000008 4.427393 0.138825 3.312616 0.032774
    3 18.301065 0.000000 0.000000 0.000000 0.000000 -0.467289
    4 17.106758 0.000000 0.000000 -0.238601 0.118844 -0.194222
    5 0.000006 -0.000004 -4.427393 0.354242 -3.393586 -0.047151
    6 18.133167 0.000000 0.000000 0.000000 0.000000 -0.505363
    7 17.375956 0.000000 0.000000 0.142856 -0.441667 -0.009142
    8 2.255203 -0.002685 0.000003 -0.103397 0.033760 0.155135
    9 3.373776 -0.004248 0.000000 0.000104 0.156998 0.139553
    10 5.335510 -0.004100 0.000000 0.205246 0.091502 0.241793
    11 5.172566 -0.004197 0.000000 -0.114395 0.165927 0.068798
    12 5.271970 -0.001935 0.000000 -0.167904 -0.192209 0.372413
    13 -2.406366 0.627652 3.194149 -2.639679 -1.406869 -0.861673
    14 6.063949 0.000000 0.000002 -1.643584 0.309408 -0.400310
    15 7.685221 0.000000 0.000000 0.000000 0.000000 -1.649601
    16 10.246255 0.000000 -0.000003 -1.131278 -0.372782 -0.142956
    17 -3.250662 1.406354 -1.630973 0.253498 1.306800 -3.226828
    18 6.269507 0.000000 -0.000001 1.185714 0.524775 -0.636959
    19 8.573802 0.000000 -0.000004 0.000000 0.000000 -0.248164
    20 9.913458 0.000000 0.000003 1.682562 0.532993 -0.265302
    21 2.452246 0.000000 0.000000 0.674118 0.047033 -0.553634
    22 0.946167 3.213873 -0.420090 -3.141592 -0.000002 1.413798
    23 1.827063 1.152534 -7.643625 -1.570796 -1.570796 0.000000
  time 13
    0 4.712045 -2.209278 8.087193 -0.162123 1.309323 -1.349560
    1 0.000000 0.000000 0.000000 -1.570795 -1.570796 0.000000
    2 -0.000007 0.000008 4.427393 0.135662 3.285802 -0.003080
    3 18.301065 0.000000 0.000000 0.000000 0.000000 -0.771821
    4 17.106758 0.000000 0.000000 -0.052024 0.144656 -0.036293
    5 0.000006 -0.000004 -4.427393 0.315809 -3.508491 -0.086163
    6 18.133167 0.000000 0.000000 0.000000 0.000000 -0.817787
    7 17.375956 0.000000 0.000000 0.075624 -0.258474 0.369721
    8 2.255203 -0.002685 0.000003 -0.103757 0.031323 0.131695
    9 3.373776 -0.004248 0.000000 0.000104 0.156998 0.091109
    10 5.335510 -0.004100 0.000000 0.206662 0.097614 0.212443
    11 5.172566 -0.004197 0.000000 -0.114632 0.160570 0.021601
    12 5.271970 -0.001935 0.000000 -0.167904 -0.192209 0.372413
    13 -2.406366 0.627652 3.194149 -2.639679 -1.406869 -0.861673
    14 6.063949 0.000000 0.000002 -1.587388 0.404212 -0.456838
    15 7.685221 0.000000 0.000000 0.000000 0.000000 -1.724694
    16 10.246255 0.000000 -0.000003 -1.131278 -0.372782 -0.142956
    17 -3.250662 1.406354 -1.630973 0.253498 1.306800 -3.226828
    18 6.269507 0.000000 -0.000001 1.258527 0.435552 -0.703454
    19 8.573802 0.000000 -0.000004 0.000000 0.000000 -0.355613
    20 9.913458 0.000000 0.000003 1.688579 0.490014 -0.273677
    21 2.452246 0.000000 0.000000 0.548376 0.364905 -0.887619
    22 0.946167 3.213873 -0.420090 -3.141592 -0.000002 1.413798
    23 1.827063 1.152534 -7.643625 -1.570796 -1.570796 0.000000
  time 14
    0 4.712045 -2.209278 7.484046 -0.118500 1.376801 -1.362504
    1 0.000000 0.000000 0.000000 -1.570795 -1.570796 0.000000
    2 -0.000007 0.000008 4.427393 0.146879 3.321079 -0.016501
    3 18.301065 0.000000 0.000000 0.000000 0.000000 -0.305890
    4 17.106758 0.000000 0.000000 0.230900 0.118925 -0.469152
    5 0.000006 -0.000004 -4.427393 0.359226 -3.387393 -0.013853
    6 18.133167 0.000000 0.000000 0.000000 0.000000 -0.375102
    7 17.375956 0.000000 0.000000 0.107045 -0.227970 0.006711
    8 2.255203 -0.002685 0.000003 -0.103938 0.029814 0.117142
    9 3.373776 -0.004248 0.000000 0.000104 0.156998 0.040002
    10 5.335510 -0.004100 0.000000 0.209139 0.111169 0.147778
    11 5.172566 -0.004197 0.000000 -0.114611 0.154577 -0.030969
    12 5.271970 -0.001935 0.000000 -0.167904 -0.192209 0.372413
    13 -2.406366 0.627652 3.194149 -2.639679 -1.406869 -0.861673
    14 6.063949 0.000000 0.000002 -1.529956 0.504502 -0.480290
    15 7.685221 0.000000 0.000000 0.000000 0.000000 -1.735589
    16 10.246255 0.000000 -0.000003 -1.131278 -0.372782 -0.142956
    17 -3.250662 1.406354 -1.630973 0.253498 1.306800 -3.226828
    18 6.269507 0.000000 -0.000001 1.304840 0.243473 -0.641635
    19 8.573802 0.000000 -0.000004 0.000000 0.000000 -0.538989
    20 9.913458 0.000000 0.000003 1.681734 0.395136 -0.284766
    21 2.452246 0.000000 0.000000 0.586812 0.230252 -0.513921
    22 0.946167 3.213873 -0.420090 -3.141592 -0.000002 1.413798
    23 1.827063 1.152534 -7.643625 -1.570796 -1.570796 0.000000
  time 15
    0 4.712045 -2.218744 6.914407 -0.075261 1.436193 -1.364900
    1 0.000000 0.000000 0.000000 -1.570795 -1.570796 0.000000
    2 -0.000007 0.000008 4.427393 0.161643 3.323932 -0.075842
    3 18.301065 0.000000 0.000000 0.000000 0.000000 -0.263103
    4 17.106758 0.000000 0.000000 0.467559 0.100528 -0.520838
    5 0.000006 -0.000004 -4.427393 0.362102 -3.353664 -0.040009
    6 18.133167 0.000000 0.000000 0.000000 0.000000 -0.297563
    7 17.375956 0.000000 0.000000 0.130029 -0.159012 -0.115616
    8 2.255203 -0.002685 0.000003 -0.104040 0.028866 0.108068
    9 3.373776 -0.004248 0.000000 0.000104 0.156998 -0.001633
    10 5.335510 -0.004100 0.000000 0.210587 0.122938 0.092152
    11 5.172566 -0.004197 0.000000 -0.114373 0.149771 -0.073240
    12 5.271970 -0.001935 0.000000 -0.167904 -0.192209 0.372413
    13 -2.406366 0.627652 3.194149 -2.639679 -1.406869 -0.861673
    14 6.063949 0.000000 0.000002 -1.496329 0.583996 -0.484033
    15 7.685221 0.000000 0.000000 0.000000 0.000000 -1.730631
    16 10.246255 0.000000 -0.000003 -1.131278 -0.372782 -0.142956
    17 -3.250662 1.406354 -1.630973 0.253498 1.306800 -3.226828
    18 6.269507 0.000000 -0.000001 1.333982 0.072454 -0.541240
    19 8.573802 0.000000 -0.000004 0.000000 0.000000 -0.713469
    20 9.913458 0.000000 0.000003 1.673951 0.302382 -0.293657
    21 2.452246 0.000000 0.000000 0.566540 0.255431 -0.424546
    22 0.946167 3.213873 -0.420090 -3.141592 -0.000002 1.413798
    23 1.827063 1.152534 -7.643625 -1.570796 -1.570796 0.000000
  time 16
    0 4.712045 -2.218744 6.495555 -0.022243 1.478483 -1.349177
    1 0.000000 0.000000 0.000000 -1.570795 -1.570796 0.000000
    2 -0.000007 0.000008 4.427393 0.170943 3.321935 -0.117160
    3 18.301065 0.000000 0.000000 0.000000 0.000000 -0.279257
    4 17.106758 0.000000 0.000000 0.598401 0.091190 -0.524993
    5 0.000006 -0.000004 -4.427393 0.361047 -3.341564 -0.063934
    6 18.133167 0.000000 0.000000 0.000000 0.000000 -0.282697
    7 17.375956 0.000000 0.000000 0.143975 -0.114862 -0.176723
    8 2.255203 -0.002685 0.000003 -0.104092 0.028327 0.103074
    9 3.373776 -0.004248 0.000000 0.000104 0.156998 -0.034876
    10 5.335510 -0.004100 0.000000 0.211199 0.130884 0.054747
    11 5.172566 -0.004197 0.000000 -0.114050 0.146224 -0.104474
    12 5.271970 -0.001935 0.000000 -0.167904 -0.192209 0.372413
    13 -2.406366 0.627652 3.194149 -2.639679 -1.406869 -0.861673
    14 6.063949 0.000000 0.000002 -1.475841 0.639503 -0.473796
    15 7.685221 0.000000 0.000000 0.000000 0.000000 -1.733958
    16 10.246255 0.000000 -0.000003 -1.131278 -0.372782 -0.142956
    17 -3.250662 1.406354 -1.630973 0.253498 1.306800 -3.226828
    18 6.269507 0.000000 -0.000001 1.350823 -0.039239 -0.457072
    19 8.573802 0.000000 -0.000004 0.000000 0.000000 -0.838864
    20 9.913458 0.000000 0.000003 1.669591 0.238093 -0.299412
    21 2.452246 0.000000 0.000000 0.569676 0.285900 -0.377295
    22 0.946167 3.213873 -0.420090 -3.141592 -0.000002 1.413798
    23 1.827063 1.152534 -7.643625 -1.570796 -1.570796 0.000000
  time 17
    0 4.712045 -2.218744 6.294506 0.022818 1.494377 -1.329234
    1 0.000000 0.000000 0.000000 -1.570795 -1.570796 0.000000
    2 -0.000007 0.000008 4.427393 0.174107 3.320794 -0.132403
    3 18.301065 0.000000 0.000000 0.000000 0.000000 -0.288426
    4 17.106758 0.000000 0.000000 0.624095 0.098203 -0.540487
    5 0.000006 -0.000004 -4.427393 0.361047 -3.337753 -0.069826
    6 18.133167 0.000000 0.000000 0.000000 0.000000 -0.273564
    7 17.375956 0.000000 0.000000 0.149571 -0.104396 -0.216301
    8 2.255203 -0.002685 0.000003 -0.104066 0.028693 0.106465
    9 3.373776 -0.004248 0.000000 0.000104 0.156998 -0.054223
    10 5.335510 -0.004100 0.000000 0.211263 0.132214 0.048496
    11 5.172566 -0.004197 0.000000 -0.114050 0.146224 -0.104474
    12 5.271970 -0.001935 0.000000 -0.167904 -0.192209 0.372413
    13 -2.406366 0.627652 3.194149 -2.863973 -1.421703 -0.630932
    14 6.063949 0.000000 0.000002 -1.506346 0.641141 -0.427122
    15 7.685221 0.000000 0.000000 0.000000 0.000000 -1.749943
    16 10.246255 0.000000 -0.000003 -1.136806 -0.340650 -0.127032
    17 -3.250662 1.406354 -1.630973 0.068347 1.314781 -3.417509
    18 6.269507 0.000000 -0.000001 1.387229 -0.071017 -0.371736
    19 8.573802 0.000000 -0.000004 0.000000 0.000000 -0.889942
    20 9.913458 0.000000 0.000003 1.669591 0.238093 -0.299412
    21 2.452246 0.000000 0.000000 0.661576 0.273990 -0.321817
    22 0.946167 3.213873 -0.420090 -3.141592 -0.000002 1.413798
    23 1.827063 1.152534 -7.643625 -1.570796 -1.570796 0.000000
  time 18
    0 4.712045 -2.209278 6.210735 0.035377 1.492611 -1.330577
    1 0.000000 0.000000 0.000000 -1.570795 -1.570796 0.000000
    2 -0.000007 0.000008 4.427393 0.175353 3.319558 -0.139784
    3 18.301065 0.000000 0.000000 0.000000 0.000000 -0.301960
    4 17.106758 0.000000 0.000000 0.616461 0.110428 -0.552680
    5 0.000006 -0.000004 -4.427393 0.360664 -3.337848 -0.071790
    6 18.133167 0.000000 0.000000 0.000000 0.000000 -0.272304
    7 17.375956 0.000000 0.000000 0.152325 -0.103817 -0.244224
    8 2.255203 -0.002685 0.000003 -0.103938 0.029814 0.117161
    9 3.373776 -0.004248 0.000000 0.000104 0.156998 -0.063219
    10 5.335510 -0.004100 0.000000 0.211102 0.129757 0.060076
    11 5.172566 -0.004197 0.000000 -0.114050 0.146224 -0.104474
    12 5.271970 -0.001935 0.000000 -0.167904 -0.192209 0.372413
    13 -2.406366 0.627652 3.194149 -3.243686 -1.426775 -0.241658
    14 6.063949 0.000000 0.000002 -1.549338 0.613223 -0.349205
    15 7.685221 0.000000 0.000000 0.000000 0.000000 -1.764035
    16 10.246255 0.000000 -0.000003 -1.143900 -0.293541 -0.104365
    17 -3.250662 1.406354 -1.630973 -0.207232 1.309697 -3.701187
    18 6.269507 0.000000 -0.000001 1.408363 -0.068384 -0.276154
    19 8.573802 0.000000 -0.000004 0.000000 0.000000 -0.899223
    20 9.913458 0.000000 0.000003 1.669591 0.238093 -0.299412
    21 2.452246 0.000000 0.000000 0.775154 0.260056 -0.291408
    22 0.946167 3.213873 -0.420090 -3.141592 -0.000002 1.413798
    23 1.827063 1.152534 -7.643625 -1.570796 -1.570460 0.000000
  time 19
    0 4.712045 -2.199811 6.210735 0.030680 1.483781 -1.342657
    1 0.000000 0.000000 0.000000 -1.570795 -1.570796 0.000000
    2 -0.000007 0.000008 4.427393 0.175928 3.318512 -0.144194
    3 18.301065 0.000000 0.000000 0.000000 0.000000 -0.314331
    4 17.106758 0.000000 0.000000 0.601688 0.121770 -0.562310
    5 0.000006 -0.000004 -4.427393 0.360281 -3.338992 -0.072326
    6 18.133167 0.000000 0.000000 0.000000 0.000000 -0.273249
    7 17.375956 0.000000 0.000000 0.154047 -0.105783 -0.264959
    8 2.255203 -0.002685 0.000003 -0.103783 0.031086 0.129515
    9 3.373776 -0.004248 0.000000 0.000104 0.156998 -0.066761
    10 5.335510 -0.004100 0.000000 0.210845 0.126054 0.077498
    11 5.172566 -0.004197 0.000000 -0.114050 0.146224 -0.104474
    12 5.271970 -0.001935 0.000000 -0.167904 -0.192209 0.372413
    13 -2.406366 0.627652 3.194149 -3.596420 -1.410937 0.120526
    14 6.063949 0.000000 0.000002 -1.592591 0.578757 -0.267621
    15 7.685221 0.000000 0.000000 0.000000 0.000000 -1.775387
    16 10.246255 0.000000 -0.000003 -1.149797 -0.246318 -0.082330
    17 -3.250662 1.406354 -1.630973 -0.454164 1.285975 -3.956163
    18 6.269507 0.000000 -0.000001 1.421159 -0.052589 -0.188135
    19 8.573802 0.000000 -0.000004 0.000000 0.000000 -0.890096
    20 9.913458 0.000000 0.000003 1.669591 0.238093 -0.299412
    21 2.452246 0.000000 0.000000 0.861703 0.295989 -0.323110
    22 0.946167 3.213873 -0.420090 -3.141592 -0.000002 1.413798
    23 1.827063 1.152534 -7.643625 -1.570796 -1.570460 0.000000
  time 20
    0 4.712045 -2.199811 6.177227 0.030008 1.478483 -1.349177
    1 0.000000 0.000000 0.000000 -1.570795 -1.570796 0.000000
    2 -0.000007 0.000008 4.427393 0.176504 3.317656 -0.147741
    3 18.301065 0.000000 0.000000 0.000000 0.000000 -0.323063
    4 17.106758 0.000000 0.000000 0.592675 0.129546 -0.569572
    5 0.000006 -0.000004 -4.427393 0.359993 -3.339563 -0.073040
    6 18.133167 0.000000 0.000000 0.000000 0.000000 -0.273438
    7 17.375956 0.000000 0.000000 0.155511 -0.106593 -0.280586
    8 2.255203 -0.002685 0.000003 -0.103655 0.031949 0.137788
    9 3.373776 -0.004248 0.000000 0.000104 0.156998 -0.069751
    10 5.335510 -0.004100 0.000000 0.210652 0.123657 0.088811
    11 5.172566 -0.004197 0.000000 -0.114050 0.146224 -0.104474
    12 5.271970 -0.001935 0.000000 -0.167904 -0.192209 0.372413
    13 -2.406366 0.627652 3.194149 -3.785754 -1.390570 0.316356
    14 6.063949 0.000000 0.000002 -1.622576 0.557389 -0.211399
    15 7.685221 0.000000 0.000000 0.000000 0.000000 -1.783477
    16 10.246255 0.000000 -0.000003 -1.153114 -0.213919 -0.067580
    17 -3.250662 1.406354 -1.630973 -0.595200 1.261049 -4.102833
    18 6.269507 0.000000 -0.000001 1.431148 -0.043752 -0.126867
    19 8.573802 0.000000 -0.000004 0.000000 0.000000 -0.885801
    20 9.913458 0.000000 0.000003 1.669591 0.238093 -0.299412
    21 2.452246 0.000000 0.000000 0.921222 0.335997 -0.352614
    22 0.946167 3.213873 -0.420090 -3.141592 -0.000002 1.413798
    23 1.827063 1.152534 -7.643625 -1.570796 -1.570460 0.000000
end
