version 1
nodes
  0 "Bip01" -1
  1 "Bip01 Pelvis" 0
  2 "Bip01 L Leg" 1
  3 "Bip01 L Leg1" 2
  4 "Bip01 L Foot" 3
  5 "Bip01 R Leg" 1
  6 "Bip01 R Leg1" 5
  7 "Bip01 R Foot" 6
  8 "Bip01 Spine" 1
  9 "Bip01 Spine1" 8
  10 "Bip01 Spine2" 9
  11 "Bip01 Spine3" 10
  12 "Bip01 Neck" 11
  13 "Bip01 L Arm" 12
  14 "Bip01 L Arm1" 13
  15 "Bip01 L Arm2" 14
  16 "Bip01 L Hand" 15
  17 "Bip01 R Arm" 12
  18 "Bip01 R Arm1" 17
  19 "Bip01 R Arm2" 18
  20 "Bip01 R Hand" 19
  21 "Bip01 Head" 12
  22 "Bone05" 21
  23 "Bone03" 1
end
skeleton
  time 0
    0 1.727579 6.783989 40.724147 0.000000 0.000000 -1.701715
    1 0.343760 -0.082034 0.000000 -1.570795 -1.570796 0.000000
    2 -0.000007 0.000008 4.427393 -0.170749 3.131952 0.002288
    3 18.301065 0.000000 0.000000 0.000000 0.000000 -0.394448
    4 17.106758 0.000000 0.000000 -0.011273 0.014437 0.380101
    5 0.000006 -0.000004 -4.427393 0.110606 -3.171017 -0.317377
    6 18.133167 0.000000 0.000000 0.000000 0.000000 -0.271422
    7 17.375956 0.000000 0.000000 -0.030691 -0.007276 -0.047887
    8 2.255203 -0.002685 0.000003 0.139526 -0.000109 0.000796
    9 3.373776 -0.004248 0.000000 -0.017455 -0.017426 0.000302
    10 5.335510 -0.004100 0.000000 0.017407 0.000431 -0.026150
    11 5.172566 -0.004197 0.000000 -0.026157 -0.000431 -0.017444
    12 5.271970 -0.001935 0.000000 0.000024 0.043600 0.335253
    13 -3.089980 1.041727 2.401156 -0.875915 -1.358595 -2.606395
    14 6.063949 0.000000 0.000002 0.688695 1.101734 0.397655
    15 7.685221 0.000000 0.000000 0.000000 0.000000 -0.470426
    16 10.246255 0.000000 -0.000003 -1.516682 0.060939 0.003191
    17 -2.774085 1.007904 -2.548969 1.160443 1.415275 -2.327861
    18 6.269507 0.000000 -0.000001 -0.534474 -1.198292 0.213654
    19 8.573802 0.000000 -0.000004 0.000000 0.000000 -0.234206
    20 9.913458 0.000000 0.000003 1.546557 0.097033 -0.254306
    21 2.452246 0.000000 0.000000 0.000811 -0.008383 -0.101243
    22 0.946167 3.213873 -0.420090 -3.141592 -0.000002 1.413798
    23 1.827063 1.152534 -7.643625 -1.570796 -1.570796 0.000000
  time 1
    0 1.379912 6.708256 40.673885 0.000479 -0.000651 -1.731533
    1 0.328135 0.011719 0.000000 -0.000025 -1.553286 -1.570793
    2 -0.000007 0.000008 4.427393 -0.171037 3.121112 -0.026184
    3 18.301065 0.000000 0.000000 0.000000 0.000000 -0.473255
    4 17.106758 0.000000 0.000000 -0.041774 0.010269 0.393848
    5 0.000006 -0.000004 -4.427393 0.105909 -3.178354 -0.340855
    6 18.133167 0.000000 0.000000 0.000000 0.000000 -0.317971
    7 17.375956 0.000000 0.000000 -0.058324 -0.019536 -0.024088
    8 2.255203 -0.002685 0.039067 0.139526 -0.010435 0.001784
    9 3.373776 -0.004248 0.000000 -0.031466 -0.012572 0.000377
    10 5.335510 -0.004100 0.000000 0.010425 0.005093 -0.026109
    11 5.172566 -0.004197 0.000000 -0.030491 0.004326 -0.017583
    12 5.271970 -0.001935 0.000000 0.052852 0.038423 0.098118
    13 -3.234516 0.440146 2.389437 -0.654091 -1.417581 -2.586077
    14 6.063949 0.000000 0.000002 0.528496 1.172060 0.268709
    15 7.685221 0.000000 0.000000 0.000000 0.000000 -0.515247
    16 10.246255 0.000000 -0.000003 -1.516682 0.060939 0.003191
    17 -2.942059 0.171941 -2.552876 1.703388 1.363292 -1.541217
    18 6.269507 0.000000 -0.000001 -1.152890 -1.111702 0.806883
    19 8.573802 0.000000 -0.000004 0.000000 0.000000 -0.578870
    20 9.913458 0.000000 0.000003 1.599160 0.133158 -0.131107
    21 2.452246 0.000000 0.000000 -0.013407 -0.022288 0.104860
    22 0.946167 3.213873 -0.420090 -3.141592 -0.000002 1.413798
    23 1.827063 1.152534 -7.643625 -1.570796 -1.570796 0.000000
  time 2
    0 0.571294 6.452658 40.606868 0.001630 -0.002045 -1.778129
    1 0.312510 0.148442 0.000000 -0.000025 -1.531398 -1.570793
    2 -0.000007 0.000008 4.427393 -0.166531 3.095819 0.055494
    3 18.301065 0.000000 0.000000 0.000000 0.000000 -0.330122
    4 17.106758 0.000000 0.000000 -0.089452 -0.000392 0.364879
    5 0.000006 -0.000004 -4.427393 0.102459 -3.177115 -0.364870
    6 18.133167 0.000000 0.000000 0.000000 0.000000 -0.379952
    7 17.375956 0.000000 0.000000 -0.101280 -0.045210 0.015263
    8 2.255203 -0.002685 0.085943 0.139448 -0.022594 0.003162
    9 3.373776 -0.004248 0.000000 -0.050148 -0.006004 0.000302
    10 5.335510 -0.004100 0.000000 0.001062 0.011409 -0.026150
    11 5.172566 -0.004197 0.000000 -0.036097 0.010774 -0.017830
    12 5.271970 -0.001935 0.000000 0.127912 -0.024748 0.490129
    13 -2.722782 1.807375 2.389437 -0.088178 -1.478357 -3.543571
    14 6.063949 0.000000 0.000002 0.192684 1.245905 -0.019661
    15 7.685221 0.000000 0.000000 0.000000 0.000000 -0.580554
    16 10.246255 0.000000 -0.000003 -1.516682 0.060939 0.003191
    17 -2.754553 1.125095 -2.521625 -1.111885 1.885550 -4.734483
    18 6.269507 0.000000 -0.000001 -1.584403 -0.839614 1.176834
    19 8.573802 0.000000 -0.000004 0.000000 0.000000 -1.058747
    20 9.913458 0.000000 0.000003 1.681072 0.172576 0.047352
    21 2.452246 0.000000 0.000000 -0.018272 -0.032579 -0.117653
    22 0.946167 3.213873 -0.420090 -3.141592 -0.000002 1.413798
    23 1.827063 1.152534 -7.643625 -1.570796 -1.570796 0.000000
  time 3
    0 -0.420924 6.433724 40.523098 0.002493 -0.002881 -1.826259
    1 0.296884 0.304697 0.000000 -0.000025 -1.504326 -1.570793
    2 -0.000007 0.000008 4.427393 -0.161162 3.078418 0.085787
    3 18.301065 0.000000 0.000000 0.000000 0.000000 -0.292064
    4 17.106758 0.000000 0.000000 -0.140029 -0.016143 0.353890
    5 0.000006 -0.000004 -4.427393 0.097954 -3.174066 -0.387545
    6 18.133167 0.000000 0.000000 0.000000 0.000000 -0.431918
    7 17.375956 0.000000 0.000000 -0.143978 -0.076639 0.046667
    8 2.251297 -0.002685 0.148445 0.139294 -0.038203 0.004765
    9 3.373776 -0.004248 0.000000 -0.072430 0.001714 -0.000101
    10 5.335510 -0.004100 0.000000 -0.010039 0.018852 -0.026355
    11 5.172566 -0.004197 0.000000 -0.042912 0.018372 -0.018247
    12 5.271970 -0.001935 0.000000 0.197206 -0.080117 0.556124
    13 -2.472774 2.174574 2.358186 0.969928 -1.463929 -4.673047
    14 6.063949 0.000000 0.000002 -0.345019 1.267109 -0.491901
    15 7.685221 0.000000 0.000000 0.000000 0.000000 -0.659887
    16 10.246255 0.000000 -0.000003 -1.516682 0.060939 0.003191
    17 -2.777992 1.148533 -2.482561 -1.063855 1.992794 -4.740702
    18 6.269507 0.000000 -0.000001 -1.731102 -0.583509 1.255707
    19 8.573802 0.000000 -0.000004 0.000000 0.000000 -1.452726
    20 9.913458 0.000000 0.000003 1.771650 0.197268 0.234420
    21 2.452246 0.000000 0.000000 -0.024219 -0.049490 -0.218831
    22 0.946167 3.213873 -0.420090 -3.141592 -0.000002 1.413798
    23 1.827063 1.152534 -7.643625 -1.570796 -1.570796 0.000000
  time 4
    0 -1.155321 7.635982 40.338803 0.002013 -0.002231 -1.861542
    1 0.281259 0.480483 0.000000 -0.000025 -1.469579 -1.570793
    2 -0.000007 0.000008 4.427393 -0.161258 3.067008 0.030089
    3 18.301065 0.000000 0.000000 0.000000 0.000000 -0.360175
    4 17.106758 0.000000 0.000000 -0.177457 -0.030411 0.363870
    5 0.000006 -0.000004 -4.427393 0.089424 -3.174257 -0.423521
    6 18.133167 0.000000 0.000000 0.000000 0.000000 -0.441933
    7 17.375956 0.000000 0.000000 -0.171525 -0.110785 0.024230
    8 2.247390 -0.002685 0.226572 0.139037 -0.060300 0.006554
    9 3.373776 -0.004248 0.000000 -0.097817 0.010199 -0.000980
    10 5.335510 -0.004100 0.000000 -0.022716 0.027025 -0.026786
    11 5.172566 -0.004197 0.000000 -0.051300 0.026726 -0.018834
    12 5.271970 -0.001935 0.000000 0.254852 -0.123765 0.572550
    13 -2.320426 2.373799 2.315216 1.419466 -1.397051 -5.149219
    14 6.063949 0.000000 0.000002 -0.860738 1.196457 -0.921744
    15 7.685221 0.000000 0.000000 0.000000 0.000000 -0.749138
    16 10.246255 0.000000 -0.000003 -1.516682 0.060939 0.003191
    17 -2.844400 1.074312 -2.439591 -1.354807 2.019059 -5.074705
    18 6.269507 0.000000 -0.000001 -1.621552 -0.573073 1.187699
    19 8.573802 0.000000 -0.000004 0.000000 0.000000 -1.476041
    20 9.913458 0.000000 0.000003 1.857371 0.206816 0.403567
    21 2.452246 0.000000 0.000000 -0.018164 -0.078543 -0.284301
    22 0.946167 3.213873 -0.420090 -3.141592 -0.000002 1.413798
    23 1.827063 1.152534 -7.643625 -1.570796 -1.570796 0.000000
  time 5
    0 -1.588928 8.885573 40.154508 0.000000 0.000000 -1.876115
    1 0.277352 0.628925 0.000000 -0.000025 -1.431245 -1.570793
    2 -0.000007 0.000008 4.427393 -0.164326 3.051509 -0.030018
    3 18.301065 0.000000 0.000000 0.000000 0.000000 -0.421663
    4 17.106758 0.000000 0.000000 -0.193821 -0.041954 0.365229
    5 0.000006 -0.000004 -4.427393 0.076102 -3.184928 -0.461462
    6 18.133167 0.000000 0.000000 0.000000 0.000000 -0.447854
    7 17.375956 0.000000 0.000000 -0.179015 -0.134841 -0.003769
    8 2.235671 -0.002685 0.312513 0.138651 -0.087830 0.008082
    9 3.373776 -0.004248 0.000000 -0.122108 0.017402 -0.002111
    10 5.335510 -0.004100 0.000000 -0.034846 0.033976 -0.027360
    11 5.172566 -0.004197 0.000000 -0.061047 0.033797 -0.019528
    12 5.271970 -0.001935 0.000000 0.289943 -0.151809 0.581068
    13 -2.226673 2.490990 2.283965 1.601675 -1.342405 -5.350676
    14 6.063949 0.000000 0.000002 -1.161362 1.062274 -1.125628
    15 7.685221 0.000000 0.000000 0.000000 0.000000 -0.834996
    16 10.246255 0.000000 -0.000003 -1.516682 0.060939 0.003191
    17 -2.891276 1.031342 -2.412246 1.449963 1.085943 -2.324130
    18 6.269507 0.000000 -0.000001 -1.427466 -0.677997 1.034561
    19 8.573802 0.000000 -0.000004 0.000000 0.000000 -1.320888
    20 9.913458 0.000000 0.000003 1.922558 0.201009 0.537949
    21 2.452246 0.000000 0.000000 0.000162 -0.108925 -0.321085
    22 0.946167 3.213873 -0.420090 -3.141592 -0.000002 1.413798
    23 1.827063 1.152534 -7.643625 -1.570796 -1.570796 0.000000
  time 6
    0 -1.635805 9.084371 40.003721 -0.003260 0.003625 -1.874773
    1 0.562517 0.632832 0.000000 -0.000025 -1.367846 -1.570793
    2 -0.000007 0.000008 4.427393 -0.162696 2.993030 -0.015447
    3 18.301065 0.000000 0.000000 0.000000 0.000000 -0.388117
    4 17.106758 0.000000 0.000000 -0.193574 -0.046523 0.349580
    5 0.000006 -0.000004 -4.427393 0.042748 -3.237521 -0.515114
    6 18.133167 0.000000 0.000000 0.000000 0.000000 -0.546179
    7 17.375956 0.000000 0.000000 -0.175227 -0.137039 0.046440
    8 2.212233 -0.002685 0.453142 0.124300 -0.149250 -0.007868
    9 3.373776 -0.004248 0.000000 -0.147234 0.014729 -0.020353
    10 5.335510 -0.004100 0.000000 -0.048842 0.032718 -0.045806
    11 5.172566 -0.004197 0.000000 -0.078556 0.033473 -0.020130
    12 5.271970 -0.001935 0.000000 0.292064 -0.193275 0.568467
    13 -2.125107 2.490990 2.377718 1.739235 -1.314335 -5.484218
    14 6.063949 0.000000 0.000002 -1.164224 0.996615 -1.059704
    15 7.685221 0.000000 0.000000 0.000000 0.000000 -0.804789
    16 10.246255 0.000000 -0.000003 -1.516682 0.060939 0.003191
    17 -2.992842 1.031342 -2.283336 1.389137 1.047845 -2.377612
    18 6.269507 0.000000 -0.000001 -1.455287 -0.754433 0.976868
    19 8.573802 0.000000 -0.000004 0.000000 0.000000 -1.236678
    20 9.913458 0.000000 0.000003 1.942760 0.175749 0.610334
    21 2.452246 0.000000 0.000000 0.066709 -0.073022 -0.279046
    22 0.946167 3.213873 -0.420090 -3.141592 -0.000002 1.413798
    23 1.827063 1.152534 -7.643625 -1.570796 -1.570796 0.000000
  time 7
    0 -1.588928 9.254770 39.970213 -0.007095 0.007900 -1.866719
    1 0.867214 0.628925 0.000000 -0.000025 -1.309128 -1.570793
    2 -0.000007 0.000008 4.427393 -0.156176 2.935598 0.015614
    3 18.301065 0.000000 0.000000 0.000000 0.000000 -0.318406
    4 17.106758 0.000000 0.000000 -0.186753 -0.049329 0.314709
    5 0.000006 -0.000004 -4.427393 0.007477 -3.286875 -0.551180
    6 18.133167 0.000000 0.000000 0.000000 0.000000 -0.606774
    7 17.375956 0.000000 0.000000 -0.165499 -0.133887 0.078640
    8 2.180982 -0.002685 0.582052 0.112314 -0.205949 -0.028999
    9 3.373776 -0.004248 0.000000 -0.156887 0.011901 -0.037187
    10 5.335510 -0.004100 0.000000 -0.052220 0.031687 -0.062777
    11 5.172566 -0.004197 0.000000 -0.095936 0.033125 -0.020702
    12 5.271970 -0.001935 0.000000 0.295864 -0.249639 0.550980
    13 -1.984478 2.490990 2.498815 1.882304 -1.270374 -5.621861
    14 6.063949 0.000000 0.000002 -1.129362 0.987527 -0.996759
    15 7.685221 0.000000 0.000000 0.000000 0.000000 -0.695248
    16 10.246255 0.000000 -0.000003 -1.516682 0.060939 0.003191
    17 -3.117846 1.031342 -2.103643 1.317903 0.994742 -2.438079
    18 6.269507 0.000000 -0.000001 -1.480797 -0.755844 0.936847
    19 8.573802 0.000000 -0.000004 0.000000 0.000000 -1.230235
    20 9.913458 0.000000 0.000003 1.940608 0.163866 0.637472
    21 2.452246 0.000000 0.000000 0.099739 -0.017721 -0.224387
    22 0.946167 3.213873 -0.420090 -3.141592 -0.000002 1.413798
    23 1.827063 1.152534 -7.643625 -1.570796 -1.570796 0.000000
  time 8
    0 -0.182635 8.592108 40.338803 -0.011025 0.012362 -1.855693
    1 0.652364 0.660176 0.000000 -0.000025 -1.453680 -1.570793
    2 -0.000007 0.000008 4.427393 -0.169119 3.044662 -0.030402
    3 18.301065 0.000000 0.000000 0.000000 0.000000 -0.405800
    4 17.106758 0.000000 0.000000 -0.169682 -0.003438 0.367869
    5 0.000006 -0.000004 -4.427393 0.075431 -3.198553 -0.451820
    6 18.133167 0.000000 0.000000 0.000000 0.000000 -0.419698
    7 17.375956 0.000000 0.000000 -0.164552 -0.086903 -0.013342
    8 2.243484 -0.002685 0.261730 0.132298 -0.060796 -0.027079
    9 3.373776 -0.004248 0.000000 -0.134658 0.015868 -0.013593
    10 5.335510 -0.004100 0.000000 -0.022973 0.034000 -0.039514
    11 5.172566 -0.004197 0.000000 -0.095936 0.033125 -0.020702
    12 5.271970 -0.001935 0.000000 0.299375 -0.291345 0.537704
    13 -1.871193 2.490990 2.580849 1.688030 -1.259228 -5.408576
    14 6.063949 0.000000 0.000002 -1.047864 0.881098 -0.995842
    15 7.685221 0.000000 0.000000 0.000000 0.000000 -0.757684
    16 10.246255 0.000000 -0.000003 -1.516682 0.060939 0.003191
    17 -3.203786 1.031342 -1.966920 1.557578 0.992173 -2.131439
    18 6.269507 0.000000 -0.000001 -1.679175 -0.329566 1.042881
    19 8.573802 0.000000 -0.000004 0.000000 0.000000 -1.840262
    20 9.913458 0.000000 0.000003 1.903515 0.288166 0.504541
    21 2.452246 0.000000 0.000000 0.002649 0.030498 -0.264445
    22 0.946167 3.213873 -0.420090 -3.141592 -0.000002 1.413798
    23 1.827063 1.152534 -7.643625 -1.570796 -1.570796 0.000000
  time 9
    0 1.004901 7.541316 40.623622 -0.015052 0.017102 -1.842366
    1 0.398450 0.664083 0.000000 -0.000025 -1.466144 -1.570793
    2 -0.000007 0.000008 4.427393 -0.168065 3.013949 0.025392
    3 18.301065 0.000000 0.000000 0.000000 0.000000 -0.299341
    4 17.106758 0.000000 0.000000 -0.151233 0.033155 0.328766
    5 0.000006 -0.000004 -4.427393 0.075527 -3.225611 -0.417451
    6 18.133167 0.000000 0.000000 0.000000 0.000000 -0.368425
    7 17.375956 0.000000 0.000000 -0.160937 -0.042146 -0.028893
    8 2.243484 -0.002685 0.234385 0.142483 -0.048055 -0.026464
    9 3.373776 -0.004248 0.000000 -0.104652 0.019247 0.015503
    10 5.335510 -0.004100 0.000000 0.000000 0.034887 -0.008708
    11 5.172566 -0.004197 0.000000 -0.095936 0.033125 -0.020702
    12 5.271970 -0.001935 0.000000 0.300382 -0.302048 0.534233
    13 -1.843849 2.490990 2.600381 1.319241 -1.244773 -5.017490
    14 6.063949 0.000000 0.000002 -0.916544 0.774505 -0.939849
    15 7.685221 0.000000 0.000000 0.000000 0.000000 -0.846021
    16 10.246255 0.000000 -0.000003 -1.516682 0.060939 0.003191
    17 -3.227224 1.031342 -1.931763 -1.399018 2.165030 -5.044567
    18 6.269507 0.000000 -0.000001 -1.521991 -0.299293 0.884174
    19 8.573802 0.000000 -0.000004 0.000000 0.000000 -2.108999
    20 9.913458 0.000000 0.000003 1.952696 0.131692 0.719402
    21 2.452246 0.000000 0.000000 -0.086819 0.039546 -0.319621
    22 0.946167 3.213873 -0.420090 -3.141592 -0.000002 1.413798
    23 1.827063 1.152534 -7.643625 -1.570796 -1.570796 0.000000
  time 10
    0 1.266628 6.509457 40.657131 -0.019271 0.022307 -1.826355
    1 0.093753 0.605487 0.000000 -0.000025 -1.477605 -1.570793
    2 -0.000007 0.000008 4.427393 -0.165189 3.015946 0.055781
    3 18.301065 0.000000 0.000000 0.000000 0.000000 -0.259464
    4 17.106758 0.000000 0.000000 -0.134338 0.041010 0.326086
    5 0.000006 -0.000004 -4.427393 0.078498 -3.228470 -0.410309
    6 18.133167 0.000000 0.000000 0.000000 0.000000 -0.383039
    7 17.375956 0.000000 0.000000 -0.148368 -0.023757 -0.003732
    8 2.247390 -0.002685 0.207041 0.127540 -0.039302 -0.008856
    9 3.373776 -0.004248 0.000000 -0.085684 0.020290 0.031660
    10 5.335510 -0.004100 0.000000 0.000000 0.022567 0.010230
    11 5.172566 -0.004197 0.000000 -0.077478 0.035630 0.007536
    12 5.271970 -0.001935 0.000000 0.257669 -0.259275 0.559049
    13 -1.941508 2.420675 2.600381 0.968788 -1.201218 -4.661124
    14 6.063949 0.000000 0.000002 -0.822883 0.663082 -0.770340
    15 7.685221 0.000000 0.000000 0.000000 0.000000 -0.770798
    16 10.246255 0.000000 -0.000003 -1.574727 -0.005846 -0.009813
    17 -3.121752 1.136814 -2.045048 -1.293886 2.045214 -4.973576
    18 6.269507 0.000000 -0.000001 -1.438776 -0.861332 0.955757
    19 8.573802 0.000000 -0.000004 0.000000 0.000000 -1.795243
    20 9.913458 0.000000 0.000003 1.916652 0.203015 0.591711
    21 2.452246 0.000000 0.000000 -0.094712 0.001821 -0.409341
    22 0.946167 3.213873 -0.420090 -3.141592 -0.000002 1.413798
    23 1.827063 1.152534 -7.643625 -1.570796 -1.570796 0.000000
  time 11
    0 1.325223 5.401866 40.623622 -0.023873 0.028255 -1.806700
    1 -0.226569 0.539079 0.000000 -0.000025 -1.489187 -1.570793
    2 -0.000007 0.000008 4.427393 -0.161929 3.026120 0.085308
    3 18.301065 0.000000 0.000000 0.000000 0.000000 -0.226428
    4 17.106758 0.000000 0.000000 -0.115112 0.041491 0.328960
    5 0.000006 -0.000004 -4.427393 0.082331 -3.225802 -0.405667
    6 18.133167 0.000000 0.000000 0.000000 0.000000 -0.409746
    7 17.375956 0.000000 0.000000 -0.130635 -0.010399 0.031911
    8 2.251297 -0.002685 0.179696 0.107659 -0.030248 0.011827
    9 3.373776 -0.004248 0.000000 -0.067237 0.020685 0.046761
    10 5.335510 -0.004100 0.000000 0.000000 0.008018 0.028615
    11 5.172566 -0.004197 0.000000 -0.055591 0.037260 0.040993
    12 5.271970 -0.001935 0.000000 0.202935 -0.189153 0.589940
    13 -2.101669 2.323016 2.561317 0.937913 -1.243878 -4.658072
    14 6.063949 0.000000 0.000002 -1.007017 0.551658 -1.053822
    15 7.685221 0.000000 0.000000 0.000000 0.000000 -0.644556
    16 10.246255 0.000000 -0.000003 -1.629917 -0.070606 -0.018694
    17 -2.949872 1.281350 -2.213022 -1.072258 1.905173 -4.792941
    18 6.269507 0.000000 -0.000001 -0.774543 -1.464081 0.441263
    19 8.573802 0.000000 -0.000004 0.000000 0.000000 -1.430484
    20 9.913458 0.000000 0.000003 1.860351 0.286430 0.428647
    21 2.452246 0.000000 0.000000 -0.080224 -0.048334 -0.510992
    22 0.946167 3.213873 -0.420090 -3.141592 -0.000002 1.413798
    23 1.827063 1.152534 -7.643625 -1.570796 -1.570796 0.000000
  time 12
    0 1.293972 4.360540 40.590114 -0.028666 0.034855 -1.783019
    1 -0.515641 0.484390 0.000000 -0.000025 -1.498733 -1.570793
    2 -0.000007 0.000008 4.427393 -0.158765 3.039052 0.115314
    3 18.301065 0.000000 0.000000 0.000000 0.000000 -0.190553
    4 17.106758 0.000000 0.000000 -0.092987 0.037603 0.329426
    5 0.000006 -0.000004 -4.427393 0.085782 -3.221610 -0.400668
    6 18.133167 0.000000 0.000000 0.000000 0.000000 -0.435823
    7 17.375956 0.000000 0.000000 -0.108081 -0.000048 0.068348
    8 2.251297 -0.002685 0.160164 0.088909 -0.022314 0.031001
    9 3.373776 -0.004248 0.000000 -0.051322 0.020566 0.059600
    10 5.335510 -0.004100 0.000000 0.000000 -0.005429 0.044499
    11 5.172566 -0.004197 0.000000 -0.035343 0.037488 0.071994
    12 5.271970 -0.001935 0.000000 0.148189 -0.108413 0.616525
    13 -2.289175 2.221450 2.494909 0.939243 -1.305060 -4.688882
    14 6.063949 0.000000 0.000002 -1.150826 0.384400 -1.324623
    15 7.685221 0.000000 0.000000 0.000000 0.000000 -0.509375
    16 10.246255 0.000000 -0.000003 -1.685198 -0.136168 -0.024022
    17 -2.738928 1.429792 -2.384902 2.520671 1.339023 -1.233429
    18 6.269507 0.000000 -0.000001 1.488937 -1.106437 -1.707549
    19 8.573802 0.000000 -0.000004 0.000000 0.000000 -1.118415
    20 9.913458 0.000000 0.000003 1.799414 0.351258 0.279947
    21 2.452246 0.000000 0.000000 -0.049086 -0.092650 -0.607216
    22 0.946167 3.213873 -0.420090 -3.141592 -0.000002 1.413798
    23 1.827063 1.152534 -7.643625 -1.570796 -1.570796 0.000000
  time 13
    0 1.262721 3.480147 40.556606 -0.032693 0.041175 -1.757707
    1 -0.761742 0.441420 0.000000 -0.000025 -1.506470 -1.570793
    2 -0.000007 0.000008 4.427393 -0.160491 3.063965 0.085116
    3 18.301065 0.000000 0.000000 0.000000 0.000000 -0.269433
    4 17.106758 0.000000 0.000000 -0.057113 0.028145 0.363909
    5 0.000006 -0.000004 -4.427393 0.088753 -3.217608 -0.394954
    6 18.133167 0.000000 0.000000 0.000000 0.000000 -0.455098
    7 17.375956 0.000000 0.000000 -0.083288 0.008250 0.098580
    8 2.251297 -0.002685 0.144539 0.072526 -0.015394 0.047770
    9 3.373776 -0.004248 0.000000 -0.037859 0.020158 0.070405
    10 5.335510 -0.004100 0.000000 0.000000 -0.017174 0.057986
    11 5.172566 -0.004197 0.000000 -0.017725 0.036673 0.099059
    12 5.271970 -0.001935 0.000000 0.098597 -0.028164 0.635458
    13 -2.468868 2.123791 2.405062 0.997858 -1.366433 -4.772059
    14 6.063949 0.000000 0.000002 -1.226144 0.175880 -1.546381
    15 7.685221 0.000000 0.000000 0.000000 0.000000 -0.362647
    16 10.246255 0.000000 -0.000003 -1.745455 -0.207538 -0.025677
    17 -2.524078 1.574328 -2.521625 3.185554 1.356706 -0.592690
    18 6.269507 0.000000 -0.000001 -1.566818 -2.478817 1.434150
    19 8.573802 0.000000 -0.000004 0.000000 0.000000 -0.861259
    20 9.913458 0.000000 0.000003 1.740519 0.398039 0.151039
    21 2.452246 0.000000 0.000000 -0.010001 -0.124449 -0.693491
    22 0.946167 3.213873 -0.420090 -3.141592 -0.000002 1.413798
    23 1.827063 1.152534 -7.643625 -1.570796 -1.570796 0.000000
  time 14
    0 1.266628 2.874284 40.506344 -0.034898 0.048518 -1.698935
    1 -0.972686 0.406262 0.000000 -0.000025 -1.513066 -1.570793
    2 -0.000007 0.000008 4.427393 -0.160970 3.088592 0.056261
    3 18.301065 0.000000 0.000000 0.000000 0.000000 -0.339581
    4 17.106758 0.000000 0.000000 -0.015479 0.017684 0.394780
    5 0.000006 -0.000004 -4.427393 0.090382 -3.217608 -0.389955
    6 18.133167 0.000000 0.000000 0.000000 0.000000 -0.469900
    7 17.375956 0.000000 0.000000 -0.025439 0.017791 0.124688
    8 2.255203 -0.002685 0.128913 0.058663 -0.009056 0.062137
    9 3.373776 -0.004248 0.000000 -0.026378 0.019571 0.079576
    10 5.335510 -0.004100 0.000000 0.000000 -0.027217 0.069463
    11 5.172566 -0.004197 0.000000 -0.002717 0.035223 0.122202
    12 5.271970 -0.001935 0.000000 0.057166 0.042354 0.646837
    13 -2.625122 2.041757 2.311309 1.200682 -1.418205 -4.993834
    14 6.063949 0.000000 0.000002 -1.237722 -0.049259 -1.733154
    15 7.685221 0.000000 0.000000 0.000000 0.000000 -0.210373
    16 10.246255 0.000000 -0.000003 -1.809121 -0.281621 -0.022697
    17 -2.332666 1.695425 -2.627097 3.662325 1.301362 -0.131629
    18 6.269507 0.000000 -0.000001 -1.538089 -2.860718 1.471420
    19 8.573802 0.000000 -0.000004 0.000000 0.000000 -0.641606
    20 9.913458 0.000000 0.000003 1.684384 0.432039 0.036730
    21 2.452246 0.000000 0.000000 0.027895 -0.142632 -0.767576
    22 0.946167 3.213873 -0.420090 -3.141592 -0.000002 1.413798
    23 1.827063 1.152534 -7.643625 -1.570796 -1.570796 0.000000
  time 15
    0 1.278347 2.647086 40.489590 -0.032789 0.051678 -1.633643
    1 -1.136753 0.382824 0.000000 -0.000025 -1.518462 -1.570793
    2 -0.000007 0.000008 4.427393 -0.157327 3.102760 0.096524
    3 18.301065 0.000000 0.000000 0.000000 0.000000 -0.233704
    4 17.106758 0.000000 0.000000 0.046549 0.001973 0.365112
    5 0.000006 -0.000004 -4.427393 0.091053 -3.220181 -0.385848
    6 18.133167 0.000000 0.000000 0.000000 0.000000 -0.478718
    7 17.375956 0.000000 0.000000 0.038694 0.024123 0.140012
    8 2.255203 -0.002685 0.117194 0.048452 -0.003601 0.073112
    9 3.373776 -0.004248 0.000000 -0.017351 0.018972 0.086888
    10 5.335510 -0.004100 0.000000 0.000000 -0.034887 0.078502
    11 5.172566 -0.004197 0.000000 0.008669 0.033665 0.139848
    12 5.271970 -0.001935 0.000000 0.027972 0.092221 0.652141
    13 -2.734501 1.983162 2.237088 1.321236 -1.453162 -5.124704
    14 6.063949 0.000000 0.000002 -1.293073 0.162290 -1.781356
    15 7.685221 0.000000 0.000000 0.000000 0.000000 -0.640641
    16 10.246255 0.000000 -0.000003 -1.933320 0.024070 -0.047472
    17 -2.192036 1.781365 -2.689599 -2.395818 1.236042 0.084789
    18 6.269507 0.000000 -0.000001 -1.526449 -3.167874 1.508003
    19 8.573802 0.000000 -0.000004 0.000000 0.000000 -0.465669
    20 9.913458 0.000000 0.000003 1.636252 0.454487 -0.056757
    21 2.452246 0.000000 0.000000 0.054978 -0.148731 -0.823398
    22 0.946167 3.213873 -0.420090 -3.141592 -0.000002 1.413798
    23 1.827063 1.152534 -7.643625 -1.570796 -1.570796 0.000000
end
