version 1
nodes
  0 "Bip01" -1
  1 "Bip01 Pelvis" 0
  2 "Bip01 L Leg" 1
  3 "Bip01 L Leg1" 2
  4 "Bip01 L Foot" 3
  5 "Bip01 R Leg" 1
  6 "Bip01 R Leg1" 5
  7 "Bip01 R Foot" 6
  8 "Bip01 Spine" 1
  9 "Bip01 Spine1" 8
  10 "Bip01 Spine2" 9
  11 "Bip01 Spine3" 10
  12 "Bip01 Neck" 11
  13 "Bip01 L Arm" 12
  14 "Bip01 L Arm1" 13
  15 "Bip01 L Arm2" 14
  16 "Bip01 L Hand" 15
  17 "Bip01 R Arm" 12
  18 "Bip01 R Arm1" 17
  19 "Bip01 R Arm2" 18
  20 "Bip01 R Hand" 19
  21 "Bip01 Head" 12
  22 "Bone05" 21
  23 "Bone03" 1
end
skeleton
  time 0
    0 1.278347 7.484517 40.255033 -0.033268 0.164978 -1.637382
    1 0.000000 0.000000 0.000000 -0.000025 -1.518462 -1.570793
    2 -0.000007 0.000008 4.427393 -0.164805 3.147451 -0.271983
    3 18.301065 0.000000 0.000000 0.000000 0.000000 -0.555774
    4 17.106758 0.000000 0.000000 0.043828 -0.000432 0.428292
    5 0.000006 -0.000004 -4.427393 0.083865 -3.192169 -0.571534
    6 18.133167 0.000000 0.000000 0.000000 0.000000 -0.407352
    7 17.375956 0.000000 0.000000 0.047646 -0.006091 -0.000780
    8 2.255203 -0.002685 0.117194 0.048452 -0.003601 0.073112
    9 3.373776 -0.004248 0.000000 -0.017429 0.017749 0.017136
    10 5.335510 -0.004100 0.000000 0.000000 -0.034887 0.183154
    11 5.172566 -0.004197 0.000000 0.008669 0.033665 0.139848
    12 5.271970 -0.001935 0.000000 0.027217 0.091275 0.686923
    13 -2.664186 2.065196 2.244901 -0.639651 -1.538211 -3.188636
    14 6.063949 0.000000 0.000002 -1.207477 0.762143 -1.912364
    15 7.685221 0.000000 0.000000 0.000000 0.000000 -0.591384
    16 10.246255 0.000000 -0.000003 -2.078526 0.463675 0.009843
    17 -2.129534 1.863399 -2.681786 -2.383882 1.235741 0.061444
    18 6.269507 0.000000 -0.000001 1.425205 -0.452542 -1.813034
    19 8.573802 0.000000 -0.000004 0.000000 0.000000 -0.002512
    20 9.913458 0.000000 0.000003 2.208092 0.493037 0.189548
    21 2.452246 0.000000 0.000000 -0.034652 -0.151738 -0.276031
    22 0.946167 3.213873 -0.420090 -3.141592 -0.000002 1.413798
    23 1.827063 1.152534 -7.643625 -1.570796 -1.570796 0.000000
  time 1
    0 1.286159 7.512916 40.305295 -0.033268 0.164978 -1.637382
    1 0.000000 0.000000 0.000000 -0.000025 -1.526822 -1.570793
    2 -0.000007 0.000008 4.427393 -0.162696 3.155248 -0.272749
    3 18.301065 0.000000 0.000000 0.000000 0.000000 -0.555337
    4 17.106758 0.000000 0.000000 0.043898 0.000009 0.427127
    5 0.000006 -0.000004 -4.427393 0.088849 -3.184356 -0.559929
    6 18.133167 0.000000 0.000000 0.000000 0.000000 -0.383605
    7 17.375956 0.000000 0.000000 0.047560 -0.005889 -0.013039
    8 2.255203 -0.002685 0.097662 0.046086 0.004914 0.072963
    9 3.373776 -0.004248 0.000000 -0.017429 0.017749 0.017136
    10 5.335510 -0.004100 0.000000 0.000000 -0.034887 0.159932
    11 5.172566 -0.004197 0.000000 0.008669 0.033665 0.139848
    12 5.271970 -0.001935 0.000000 0.028787 0.093336 0.612860
    13 -2.808722 1.881596 2.225369 -1.027060 -1.520528 -2.724674
    14 6.063949 0.000000 0.000002 -1.242340 0.693537 -1.978364
    15 7.685221 0.000000 0.000000 0.000000 0.000000 -0.444917
    16 10.246255 0.000000 -0.000003 -2.085528 0.473953 -0.052318
    17 -2.258445 1.679800 -2.697411 3.788943 1.251812 0.026809
    18 6.269507 0.000000 -0.000001 1.434368 -0.460345 -1.847003
    19 8.573802 0.000000 -0.000004 0.000000 0.000000 -0.002512
    20 9.913458 0.000000 0.000003 2.207043 0.483728 0.194882
    21 2.452246 0.000000 0.000000 -0.042004 -0.155872 -0.184200
    22 0.946167 3.213873 -0.420090 -3.141592 -0.000002 1.413798
    23 1.827063 1.152534 -7.643625 -1.570796 -1.570796 0.000000
  time 2
    0 1.317410 7.579183 40.355557 -0.033268 0.164978 -1.637382
    1 0.000000 0.000000 0.000000 -0.000025 -1.540031 -1.570793
    2 -0.000007 0.000008 4.427393 -0.159244 3.167419 -0.276201
    3 18.301065 0.000000 0.000000 0.000000 0.000000 -0.557302
    4 17.106758 0.000000 0.000000 0.044040 0.001051 0.425884
    5 0.000006 -0.000004 -4.427393 0.096325 -3.171875 -0.541092
    6 18.133167 0.000000 0.000000 0.000000 0.000000 -0.343356
    7 17.375956 0.000000 0.000000 0.047474 -0.005426 -0.034720
    8 2.255203 -0.002685 0.066411 0.042768 0.018410 0.072776
    9 3.373776 -0.004248 0.000000 -0.017429 0.017749 0.017136
    10 5.335510 -0.004100 0.000000 0.000000 -0.034887 0.129127
    11 5.172566 -0.004197 0.000000 0.008669 0.033665 0.139848
    12 5.271970 -0.001935 0.000000 0.030657 0.096260 0.513660
    13 -2.980602 1.623776 2.205837 -1.242519 -1.492866 -2.406750
    14 6.063949 0.000000 0.000002 -1.107898 1.141441 -1.881426
    15 7.685221 0.000000 0.000000 0.000000 0.000000 -1.199435
    16 10.246255 0.000000 -0.000003 -2.078526 0.463675 0.009843
    17 -2.414699 1.418073 -2.713037 3.627759 1.267472 -0.032892
    18 6.269507 0.000000 -0.000001 1.429332 -1.013547 -1.895826
    19 8.573802 0.000000 -0.000004 0.000000 0.000000 -0.987114
    20 9.913458 0.000000 0.000003 1.834906 0.748400 -0.433326
    21 2.452246 0.000000 0.000000 -0.051789 -0.160179 -0.062348
    22 0.946167 3.213873 -0.420090 -3.141592 -0.000002 1.413798
    23 1.827063 1.152534 -7.643625 -1.570796 -1.570460 0.000000
  time 3
    0 1.352568 7.683315 40.422573 -0.033268 0.164978 -1.637382
    1 0.000000 0.000000 0.000000 -0.000025 -1.554897 -1.570793
    2 -0.000007 0.000008 4.427393 -0.155601 3.180446 -0.279652
    3 18.301065 0.000000 0.000000 0.000000 0.000000 -0.556065
    4 17.106758 0.000000 0.000000 0.031281 0.002895 0.421535
    5 0.000006 -0.000004 -4.427393 0.104280 -3.157202 -0.516185
    6 18.133167 0.000000 0.000000 0.000000 0.000000 -0.288933
    7 17.375956 0.000000 0.000000 0.047388 -0.004790 -0.064384
    8 2.255203 -0.002685 0.035160 0.039913 0.033522 0.072609
    9 3.373776 -0.004248 0.000000 -0.017429 0.017749 0.017136
    10 5.335510 -0.004100 0.000000 0.000000 -0.034887 0.113386
    11 5.172566 -0.004197 0.000000 0.008669 0.033665 0.139848
    12 5.271970 -0.001935 0.000000 0.031579 0.098010 0.457245
    13 -3.066542 1.467521 2.198025 -1.410668 -1.449013 -2.176963
    14 6.063949 0.000000 0.000002 -1.146793 1.133499 -1.961864
    15 7.685221 0.000000 0.000000 0.000000 0.000000 -1.175687
    16 10.246255 0.000000 -0.000003 -2.078526 0.463675 0.009843
    17 -2.488920 1.265724 -2.724756 3.478893 1.275972 -0.123593
    18 6.269507 0.000000 -0.000001 1.445183 -1.014487 -1.948981
    19 8.573802 0.000000 -0.000004 0.000000 0.000000 -0.981439
    20 9.913458 0.000000 0.000003 1.798089 0.758755 -0.487322
    21 2.452246 0.000000 0.000000 -0.055357 -0.163243 0.000279
    22 0.946167 3.213873 -0.420090 -3.141592 -0.000002 1.413798
    23 1.827063 1.152534 -7.643625 -1.570796 -1.570796 0.000000
  time 4
    0 1.395538 7.796914 40.506344 -0.033268 0.164978 -1.637382
    1 0.000000 0.000000 0.000000 -0.000025 -1.567999 -1.570793
    2 -0.000007 0.000008 4.427393 -0.152246 3.191951 -0.282432
    3 18.301065 0.000000 0.000000 0.000000 0.000000 -0.554828
    4 17.106758 0.000000 0.000000 0.019935 0.004418 0.417807
    5 0.000006 -0.000004 -4.427393 0.110797 -3.143101 -0.485387
    6 18.133167 0.000000 0.000000 0.000000 0.000000 -0.221094
    7 17.375956 0.000000 0.000000 0.047216 -0.004067 -0.101427
    8 2.255203 -0.002685 0.003909 0.036492 0.046910 0.072422
    9 3.373776 -0.004248 0.000000 -0.017429 0.017629 0.010026
    10 5.335510 -0.004100 0.000000 0.000000 -0.034887 0.118080
    11 5.172566 -0.004197 0.000000 0.008669 0.033725 0.132746
    12 5.271970 -0.001935 0.000000 0.031615 0.098070 0.454995
    13 -3.070449 1.459708 2.198025 -1.501013 -1.401987 -2.079191
    14 6.063949 0.000000 0.000002 -1.201949 1.071525 -2.052997
    15 7.685221 0.000000 0.000000 0.000000 0.000000 -1.067255
    16 10.246255 0.000000 -0.000003 -2.078526 0.463675 0.009843
    17 -2.492827 1.257912 -2.724756 3.371278 1.279251 -0.227975
    18 6.269507 0.000000 -0.000001 1.455337 -0.970957 -1.988314
    19 8.573802 0.000000 -0.000004 0.000000 0.000000 -0.901217
    20 9.913458 0.000000 0.000003 1.804658 0.757049 -0.477777
    21 2.452246 0.000000 0.000000 -0.051681 -0.166539 -0.000496
    22 0.946167 3.213873 -0.420090 -3.141592 -0.000002 1.413798
    23 1.827063 1.152534 -7.643625 -1.570796 -1.570796 0.000000
  time 5
    0 1.446321 7.910513 40.573360 -0.033268 0.164978 -1.637382
    1 0.000000 0.000000 0.000000 -0.000025 -1.576633 -1.570745
    2 -0.000007 0.000008 4.427393 -0.150041 3.199178 -0.285212
    3 18.301065 0.000000 0.000000 0.000000 0.000000 -0.553445
    4 17.106758 0.000000 0.000000 0.009403 0.005941 0.414079
    5 0.000006 -0.000004 -4.427393 0.114439 -3.131954 -0.447625
    6 18.133167 0.000000 0.000000 0.000000 0.000000 -0.138327
    7 17.375956 0.000000 0.000000 0.046958 -0.003200 -0.146226
    8 2.255203 -0.002685 -0.011716 0.032454 0.055879 0.072236
    9 3.373776 -0.004248 0.000000 -0.017429 0.017462 0.000302
    10 5.335510 -0.004100 0.000000 0.000000 -0.034887 0.132837
    11 5.172566 -0.004197 0.000000 0.008669 0.033809 0.123020
    12 5.271970 -0.001935 0.000000 0.031328 0.097507 0.473317
    13 -3.043104 1.510491 2.201931 -1.534928 -1.375491 -2.060781
    14 6.063949 0.000000 0.000002 -1.235445 1.016673 -2.101198
    15 7.685221 0.000000 0.000000 0.000000 0.000000 -0.972199
    16 10.246255 0.000000 -0.000003 -2.078526 0.463675 0.009843
    17 -2.469388 1.308695 -2.720850 3.274835 1.280044 -0.341829
    18 6.269507 0.000000 -0.000001 1.460703 -0.912290 -2.020977
    19 8.573802 0.000000 -0.000004 0.000000 0.000000 -0.800440
    20 9.913458 0.000000 0.000003 1.827896 0.750644 -0.443760
    21 2.452246 0.000000 0.000000 -0.044869 -0.170037 -0.028148
    22 0.946167 3.213873 -0.420090 -3.141592 -0.000002 1.413798
    23 1.827063 1.152534 -7.643625 -1.570796 -1.570796 0.000000
  time 6
    0 1.508822 8.005179 40.623622 -0.033268 0.164978 -1.637382
    1 0.000000 0.000000 0.000000 -0.000025 -1.579490 -1.570745
    2 -0.000007 0.000008 4.427393 -0.149561 3.200414 -0.287800
    3 18.301065 0.000000 0.000000 0.000000 0.000000 -0.551626
    4 17.106758 0.000000 0.000000 0.001274 0.007864 0.409963
    5 0.000006 -0.000004 -4.427393 0.114919 -3.124998 -0.397989
    6 18.133167 0.000000 0.000000 0.000000 0.000000 -0.031813
    7 17.375956 0.000000 0.000000 0.046700 -0.001899 -0.202944
    8 2.255203 -0.002685 -0.019529 0.029934 0.058940 0.072105
    9 3.373776 -0.004248 0.000000 -0.017429 0.017342 -0.006784
    10 5.335510 -0.004100 0.000000 0.000000 -0.034887 0.147778
    11 5.172566 -0.004197 0.000000 0.008690 0.033868 0.115902
    12 5.271970 -0.001935 0.000000 0.030836 0.096584 0.502891
    13 -3.000134 1.592525 2.205837 -1.546423 -1.368955 -2.078523
    14 6.063949 0.000000 0.000002 -1.249689 0.979750 -2.113726
    15 7.685221 0.000000 0.000000 0.000000 0.000000 -0.909697
    16 10.246255 0.000000 -0.000003 -2.078526 0.463675 0.009843
    17 -2.426418 1.390728 -2.716943 3.179252 1.278623 -0.466111
    18 6.269507 0.000000 -0.000001 1.463097 -0.836793 -2.048689
    19 8.573802 0.000000 -0.000004 0.000000 0.000000 -0.678496
    20 9.913458 0.000000 0.000003 1.883810 0.732387 -0.360848
    21 2.452246 0.000000 0.000000 -0.037679 -0.172118 -0.071092
    22 0.946167 3.213873 -0.420090 -3.141592 -0.000002 1.413798
    23 1.827063 1.152534 -7.643625 -1.570796 -1.570796 0.000000
  time 7
    0 1.575231 7.929447 40.623622 -0.033268 0.164978 -1.637382
    1 0.000000 0.000000 0.000000 -0.000025 -1.577180 -1.570793
    2 -0.000007 0.000008 4.427393 -0.150903 3.195945 -0.284157
    3 18.301065 0.000000 0.000000 0.000000 0.000000 -0.548497
    4 17.106758 0.000000 0.000000 0.045135 0.009628 0.410740
    5 0.000006 -0.000004 -4.427393 0.114344 -3.132335 -0.423521
    6 18.133167 0.000000 0.000000 0.000000 0.000000 -0.088062
    7 17.375956 0.000000 0.000000 0.046183 0.000270 -0.172674
    8 2.255203 -0.002685 -0.011716 0.029651 0.056612 0.072087
    9 3.373776 -0.004248 0.000000 -0.017429 0.017294 -0.009020
    10 5.335510 -0.004100 0.000000 0.000000 -0.034887 0.156981
    11 5.172566 -0.004197 0.000000 0.008690 0.033892 0.113679
    12 5.271970 -0.001935 0.000000 0.030201 0.095493 0.539022
    13 -2.941538 1.690184 2.213650 -1.544808 -1.378637 -2.117727
    14 6.063949 0.000000 0.000002 -1.253137 0.951341 -2.103337
    15 7.685221 0.000000 0.000000 0.000000 0.000000 -0.862267
    16 10.246255 0.000000 -0.000003 -2.078526 0.463675 0.009843
    17 -2.375636 1.488388 -2.709131 3.307396 1.282695 -0.375793
    18 6.269507 0.000000 -0.000001 1.460538 -0.783015 -2.015751
    19 8.573802 0.000000 -0.000004 0.000000 0.000000 -0.568363
    20 9.913458 0.000000 0.000003 2.164486 0.547060 0.101909
    21 2.452246 0.000000 0.000000 -0.032381 -0.172031 -0.116576
    22 0.946167 3.213873 -0.420090 -3.141592 -0.000002 1.413798
    23 1.827063 1.152534 -7.643625 -1.570796 -1.570796 0.000000
  time 8
    0 1.614294 7.825314 40.539852 -0.033268 0.164978 -1.637382
    1 0.000000 0.000000 0.000000 -1.570795 -1.570203 0.000000
    2 -0.000007 0.000008 4.427393 -0.152725 3.189669 -0.284253
    3 18.301065 0.000000 0.000000 0.000000 0.000000 -0.555919
    4 17.106758 0.000000 0.000000 0.045241 0.010389 0.418118
    5 0.000006 -0.000004 -4.427393 0.111947 -3.144244 -0.469585
    6 18.133167 0.000000 0.000000 0.000000 0.000000 -0.187207
    7 17.375956 0.000000 0.000000 0.045839 0.001716 -0.120043
    8 2.255203 -0.002685 0.000003 0.031143 0.050769 0.072161
    9 3.373776 -0.004248 0.000000 -0.017429 0.017318 -0.007563
    10 5.335510 -0.004100 0.000000 0.000000 -0.034887 0.162330
    11 5.172566 -0.004197 0.000000 0.008690 0.033880 0.115146
    12 5.271970 -0.001935 0.000000 0.028895 0.093480 0.607620
    13 -2.816535 1.869877 2.225369 -1.545473 -1.395126 -2.188409
    14 6.063949 0.000000 0.000002 -1.251120 0.922360 -2.080955
    15 7.685221 0.000000 0.000000 0.000000 0.000000 -0.815880
    16 10.246255 0.000000 -0.000003 -2.078526 0.463675 0.009843
    17 -2.270164 1.668081 -2.697411 3.431053 1.283925 -0.322598
    18 6.269507 0.000000 -0.000001 1.456493 -0.733749 -1.984463
    19 8.573802 0.000000 -0.000004 0.000000 0.000000 -0.475640
    20 9.913458 0.000000 0.000003 2.215433 0.482621 0.205269
    21 2.452246 0.000000 0.000000 -0.031895 -0.168591 -0.154437
    22 0.946167 3.213873 -0.420090 -3.141592 -0.000002 1.413798
    23 1.827063 1.152534 -7.643625 -1.570796 -1.570796 0.000000
  time 9
    0 1.614294 7.730648 40.472836 -0.033268 0.164978 -1.637382
    1 0.000000 0.000000 0.000000 -0.000025 -1.563789 -1.570793
    2 -0.000007 0.000008 4.427393 -0.154930 3.182348 -0.283007
    3 18.301065 0.000000 0.000000 0.000000 0.000000 -0.560140
    4 17.106758 0.000000 0.000000 0.045241 0.010189 0.423399
    5 0.000006 -0.000004 -4.427393 0.108114 -3.154630 -0.497795
    6 18.133167 0.000000 0.000000 0.000000 0.000000 -0.248998
    7 17.375956 0.000000 0.000000 0.045666 0.002149 -0.086595
    8 2.255203 -0.002685 0.015628 0.033689 0.042879 0.072292
    9 3.373776 -0.004248 0.000000 -0.017429 0.017378 -0.004272
    10 5.335510 -0.004100 0.000000 0.000000 -0.034887 0.166860
    11 5.172566 -0.004197 0.000000 0.008690 0.033844 0.118419
    12 5.271970 -0.001935 0.000000 0.027732 0.091922 0.663071
    13 -2.711063 2.010507 2.237088 -1.538063 -1.416957 -2.254226
    14 6.063949 0.000000 0.000002 -1.245462 0.893378 -2.053149
    15 7.685221 0.000000 0.000000 0.000000 0.000000 -0.772755
    16 10.246255 0.000000 -0.000003 -2.078526 0.463675 0.009843
    17 -2.172504 1.804803 -2.685692 3.544111 1.281274 -0.266628
    18 6.269507 0.000000 -0.000001 1.451292 -0.683638 -1.952556
    19 8.573802 0.000000 -0.000004 0.000000 0.000000 -0.387288
    20 9.913458 0.000000 0.000003 2.217310 0.479957 0.209247
    21 2.452246 0.000000 0.000000 -0.033138 -0.164255 -0.182090
    22 0.946167 3.213873 -0.420090 -3.141592 -0.000002 1.413798
    23 1.827063 1.152534 -7.643625 -1.570796 -1.570796 0.000000
  time 10
    0 1.559605 7.654915 40.422573 -0.033268 0.164978 -1.637382
    1 0.000000 0.000000 0.000000 -0.000025 -1.555155 -1.570745
    2 -0.000007 0.000008 4.427393 -0.156943 3.175406 -0.280227
    3 18.301065 0.000000 0.000000 0.000000 0.000000 -0.559267
    4 17.106758 0.000000 0.000000 0.044994 0.008385 0.424952
    5 0.000006 -0.000004 -4.427393 0.103801 -3.162823 -0.515918
    6 18.133167 0.000000 0.000000 0.000000 0.000000 -0.288807
    7 17.375956 0.000000 0.000000 0.045925 0.000935 -0.064801
    8 2.255203 -0.002685 0.035160 0.036569 0.034018 0.072441
    9 3.373776 -0.004248 0.000000 -0.017429 0.017450 -0.000251
    10 5.335510 -0.004100 0.000000 0.000000 -0.034887 0.170652
    11 5.172566 -0.004197 0.000000 0.008669 0.033809 0.122449
    12 5.271970 -0.001935 0.000000 0.027469 0.091574 0.675672
    13 -2.683718 2.037851 2.240995 -1.503008 -1.443318 -2.304590
    14 6.063949 0.000000 0.000002 -1.238307 0.865789 -2.024121
    15 7.685221 0.000000 0.000000 0.000000 0.000000 -0.733415
    16 10.246255 0.000000 -0.000003 -2.078526 0.463675 0.009843
    17 -2.149066 1.836054 -2.685692 3.642082 1.274004 -0.182337
    18 6.269507 0.000000 -0.000001 1.445761 -0.630236 -1.919206
    19 8.573802 0.000000 -0.000004 0.000000 0.000000 -0.293874
    20 9.913458 0.000000 0.000003 2.216095 0.481693 0.206720
    21 2.452246 0.000000 0.000000 -0.033355 -0.161538 -0.203195
    22 0.946167 3.213873 -0.420090 -3.141592 -0.000002 1.413798
    23 1.827063 1.152534 -7.643625 -1.570796 -1.570796 0.000000
  time 11
    0 1.481478 7.607582 40.389065 -0.033268 0.164978 -1.637382
    1 0.000000 0.000000 0.000000 -0.000025 -1.546263 -1.570793
    2 -0.000007 0.000008 4.427393 -0.158861 3.168845 -0.277926
    3 18.301065 0.000000 0.000000 0.000000 0.000000 -0.558612
    4 17.106758 0.000000 0.000000 0.044676 0.005981 0.426195
    5 0.000006 -0.000004 -4.427393 0.099200 -3.170160 -0.531808
    6 18.133167 0.000000 0.000000 0.000000 0.000000 -0.323325
    7 17.375956 0.000000 0.000000 0.046355 -0.000944 -0.045996
    8 2.255203 -0.002685 0.054692 0.039476 0.024877 0.072590
    9 3.373776 -0.004248 0.000000 -0.017429 0.017521 0.003920
    10 5.335510 -0.004100 0.000000 0.000000 -0.034887 0.173911
    11 5.172566 -0.004197 0.000000 0.008669 0.033773 0.126633
    12 5.271970 -0.001935 0.000000 0.027349 0.091430 0.681136
    13 -2.675905 2.053477 2.240995 -1.446008 -1.469136 -2.369549
    14 6.063949 0.000000 0.000002 -1.230762 0.840246 -1.996086
    15 7.685221 0.000000 0.000000 0.000000 0.000000 -0.697923
    16 10.246255 0.000000 -0.000003 -2.078526 0.463675 0.009843
    17 -2.141253 1.851680 -2.685692 3.719714 1.265613 -0.110868
    18 6.269507 0.000000 -0.000001 1.440560 -0.582945 -1.890118
    19 8.573802 0.000000 -0.000004 0.000000 0.000000 -0.213882
    20 9.913458 0.000000 0.000003 2.214219 0.484417 0.202602
    21 2.452246 0.000000 0.000000 -0.033571 -0.159052 -0.222277
    22 0.946167 3.213873 -0.420090 -3.141592 -0.000002 1.413798
    23 1.827063 1.152534 -7.643625 -1.570796 -1.570796 0.000000
  time 12
    0 1.403350 7.560249 40.338803 -0.033268 0.164978 -1.637382
    1 0.000000 0.000000 0.000000 -0.000025 -1.537630 -1.570793
    2 -0.000007 0.000008 4.427393 -0.160587 3.162570 -0.275817
    3 18.301065 0.000000 0.000000 0.000000 0.000000 -0.557666
    4 17.106758 0.000000 0.000000 0.044358 0.003576 0.426933
    5 0.000006 -0.000004 -4.427393 0.094695 -3.176925 -0.545377
    6 18.133167 0.000000 0.000000 0.000000 0.000000 -0.352300
    7 17.375956 0.000000 0.000000 0.046786 -0.002939 -0.030218
    8 2.255203 -0.002685 0.074224 0.042228 0.016017 0.072758
    9 3.373776 -0.004248 0.000000 -0.017429 0.017593 0.007965
    10 5.335510 -0.004100 0.000000 0.000000 -0.034887 0.176739
    11 5.172566 -0.004197 0.000000 0.008669 0.033737 0.130693
    12 5.271970 -0.001935 0.000000 0.027289 0.091359 0.683547
    13 -2.668092 2.057383 2.240995 -1.354713 -1.493002 -2.465508
    14 6.063949 0.000000 0.000002 -1.223543 0.816831 -1.969961
    15 7.685221 0.000000 0.000000 0.000000 0.000000 -0.665890
    16 10.246255 0.000000 -0.000003 -2.078526 0.463675 0.009843
    17 -2.133441 1.855586 -2.681786 3.779298 1.257442 -0.054228
    18 6.269507 0.000000 -0.000001 1.435854 -0.542705 -1.865776
    19 8.573802 0.000000 -0.000004 0.000000 0.000000 -0.148231
    20 9.913458 0.000000 0.000003 2.212287 0.487141 0.198532
    21 2.452246 0.000000 0.000000 -0.033895 -0.156797 -0.239075
    22 0.946167 3.213873 -0.420090 -3.141592 -0.000002 1.413798
    23 1.827063 1.152534 -7.643625 -1.570796 -1.570796 0.000000
  time 13
    0 1.336942 7.522383 40.305295 -0.033268 0.164978 -1.637382
    1 0.000000 0.000000 0.000000 -0.000025 -1.529741 -1.570793
    2 -0.000007 0.000008 4.427393 -0.162216 3.156769 -0.273900
    3 18.301065 0.000000 0.000000 0.000000 0.000000 -0.556502
    4 17.106758 0.000000 0.000000 0.044075 0.001492 0.427438
    5 0.000006 -0.000004 -4.427393 0.090382 -3.182927 -0.556447
    6 18.133167 0.000000 0.000000 0.000000 0.000000 -0.376110
    7 17.375956 0.000000 0.000000 0.047216 -0.004588 -0.017277
    8 2.255203 -0.002685 0.089849 0.044723 0.007933 0.072888
    9 3.373776 -0.004248 0.000000 -0.017429 0.017653 0.011684
    10 5.335510 -0.004100 0.000000 0.000000 -0.034887 0.179178
    11 5.172566 -0.004197 0.000000 0.008669 0.033713 0.134414
    12 5.271970 -0.001935 0.000000 0.027265 0.091335 0.684705
    13 -2.668092 2.061289 2.244901 -1.204424 -1.513694 -2.618890
    14 6.063949 0.000000 0.000002 -1.216908 0.795627 -1.946586
    15 7.685221 0.000000 0.000000 0.000000 0.000000 -0.637118
    16 10.246255 0.000000 -0.000003 -2.078526 0.463675 0.009843
    17 -2.133441 1.859493 -2.681786 -2.456166 1.249707 -0.008112
    18 6.269507 0.000000 -0.000001 1.431644 -0.508012 -1.845078
    19 8.573802 0.000000 -0.000004 0.000000 0.000000 -0.092551
    20 9.913458 0.000000 0.000003 2.210576 0.489565 0.194835
    21 2.452246 0.000000 0.000000 -0.034165 -0.154773 -0.253806
    22 0.946167 3.213873 -0.420090 -3.141592 -0.000002 1.413798
    23 1.827063 1.152534 -7.643625 -1.570796 -1.570460 0.000000
  time 14
    0 1.293972 7.493983 40.271787 -0.033268 0.164978 -1.637382
    1 0.000000 0.000000 0.000000 -0.000025 -1.523129 -1.570793
    2 -0.000007 0.000008 4.427393 -0.163655 3.151540 -0.272462
    3 18.301065 0.000000 0.000000 0.000000 0.000000 -0.555774
    4 17.106758 0.000000 0.000000 0.043898 0.000089 0.427865
    5 0.000006 -0.000004 -4.427393 0.086644 -3.188167 -0.565374
    6 18.133167 0.000000 0.000000 0.000000 0.000000 -0.394817
    7 17.375956 0.000000 0.000000 0.047474 -0.005715 -0.007213
    8 2.255203 -0.002685 0.105475 0.046883 0.001142 0.073019
    9 3.373776 -0.004248 0.000000 -0.017429 0.017713 0.014850
    10 5.335510 -0.004100 0.000000 0.000000 -0.034887 0.181330
    11 5.172566 -0.004197 0.000000 0.008669 0.033677 0.137579
    12 5.271970 -0.001935 0.000000 0.027241 0.091311 0.685573
    13 -2.664186 2.061289 2.244901 -0.959325 -1.529451 -2.866419
    14 6.063949 0.000000 0.000002 -1.211315 0.777043 -1.926725
    15 7.685221 0.000000 0.000000 0.000000 0.000000 -0.611935
    16 10.246255 0.000000 -0.000003 -2.078526 0.463675 0.009843
    17 -2.133441 1.863399 -2.681786 -2.416061 1.242301 0.030828
    18 6.269507 0.000000 -0.000001 1.428011 -0.477457 -1.827268
    19 8.573802 0.000000 -0.000004 0.000000 0.000000 -0.043467
    20 9.913458 0.000000 0.000003 2.209085 0.491660 0.191653
    21 2.452246 0.000000 0.000000 -0.034490 -0.153039 -0.266340
    22 0.946167 3.213873 -0.420090 -3.141592 -0.000002 1.413798
    23 1.827063 1.152534 -7.643625 -1.570796 -1.570796 0.000000
  time 15
    0 1.278347 7.484517 40.255033 -0.033268 0.164978 -1.637382
    1 0.000000 0.000000 0.000000 -0.000025 -1.518462 -1.570793
    2 -0.000007 0.000008 4.427393 -0.164805 3.147451 -0.271983
    3 18.301065 0.000000 0.000000 0.000000 0.000000 -0.555774
    4 17.106758 0.000000 0.000000 0.043828 -0.000432 0.428292
    5 0.000006 -0.000004 -4.427393 0.083865 -3.192169 -0.571534
    6 18.133167 0.000000 0.000000 0.000000 0.000000 -0.407352
    7 17.375956 0.000000 0.000000 0.047646 -0.006091 -0.000780
    8 2.255203 -0.002685 0.117194 0.048452 -0.003601 0.073112
    9 3.373776 -0.004248 0.000000 -0.017429 0.017749 0.017136
    10 5.335510 -0.004100 0.000000 0.000000 -0.034887 0.183154
    11 5.172566 -0.004197 0.000000 0.008669 0.033665 0.139848
    12 5.271970 -0.001935 0.000000 0.027217 0.091275 0.686923
    13 -2.664186 2.065196 2.244901 -0.639651 -1.538211 -3.188636
    14 6.063949 0.000000 0.000002 -1.207477 0.762143 -1.912364
    15 7.685221 0.000000 0.000000 0.000000 0.000000 -0.591384
    16 10.246255 0.000000 -0.000003 -2.078526 0.463675 0.009843
    17 -2.129534 1.863399 -2.681786 -2.383882 1.235741 0.061444
    18 6.269507 0.000000 -0.000001 1.425205 -0.452542 -1.813034
    19 8.573802 0.000000 -0.000004 0.000000 0.000000 -0.002512
    20 9.913458 0.000000 0.000003 2.208092 0.493037 0.189548
    21 2.452246 0.000000 0.000000 -0.034652 -0.151738 -0.276031
    22 0.946167 3.213873 -0.420090 -3.141592 -0.000002 1.413798
    23 1.827063 1.152534 -7.643625 -1.570796 -1.570796 0.000000
end
