version 1
nodes
  0 "Bip01" -1
  1 "Bip01 Pelvis" 0
  2 "Bip01 L Leg" 1
  3 "Bip01 L Leg1" 2
  4 "Bip01 L Foot" 3
  5 "Bip01 R Leg" 1
  6 "Bip01 R Leg1" 5
  7 "Bip01 R Foot" 6
  8 "Bip01 Spine" 1
  9 "Bip01 Spine1" 8
  10 "Bip01 Spine2" 9
  11 "Bip01 Spine3" 10
  12 "Bip01 Neck" 11
  13 "Bip01 L Arm" 12
  14 "Bip01 L Arm1" 13
  15 "Bip01 L Arm2" 14
  16 "Bip01 L Hand" 15
  17 "Bip01 R Arm" 12
  18 "Bip01 R Arm1" 17
  19 "Bip01 R Arm2" 18
  20 "Bip01 R Hand" 19
  21 "Bip01 Head" 12
  22 "Bone05" 21
  23 "Bone03" 1
end
skeleton
  time 0
    0 0.422852 0.327770 39.702148 0.000000 1.273353 -1.570844
    1 -1.300821 0.457045 0.000000 -1.570795 -1.570796 0.000000
    2 -0.000007 0.000008 4.427393 -3.103798 6.185467 -0.469753
    3 18.301065 0.000000 0.000000 0.000000 0.000000 -1.124526
    4 17.106758 0.000000 0.000000 0.101826 -0.024199 -0.581532
    5 0.000006 -0.000004 -4.427393 0.426701 -6.054689 0.625245
    6 18.133167 0.000000 0.000000 0.000000 0.000000 -0.234889
    7 17.375956 0.000000 0.000000 2.824222 0.234408 0.908105
    8 2.255203 -0.002685 0.000003 -0.000004 -0.000001 0.000796
    9 3.373776 -0.004248 0.000000 -0.239858 0.046308 0.186289
    10 5.335510 -0.004100 0.000000 0.000000 0.000000 0.095944
    11 5.172566 -0.004197 0.000000 -0.194439 0.078032 0.376157
    12 5.271970 -0.001935 0.000000 0.000000 0.000000 0.134667
    13 -3.129044 0.428427 2.530066 -0.672806 -1.317183 -2.620035
    14 6.063949 0.000000 0.000002 -0.545934 -0.406943 -0.923272
    15 7.685221 0.000000 0.000000 0.000000 0.000000 -0.200000
    16 10.246255 0.000000 -0.000003 -1.569107 0.000000 0.000000
    17 -3.024093 0.414136 -2.427872 0.672786 1.317186 -2.620054
    18 6.269507 0.000000 -0.000001 -0.016527 0.561160 -1.210109
    19 8.573802 0.000000 -0.000004 0.000000 0.000000 -1.072168
    20 9.913458 0.000000 0.000003 1.568967 0.165722 0.000000
    21 2.452246 0.000000 0.000000 1.314124 -0.389708 0.342147
    22 0.946167 3.213873 -0.420090 -3.141592 -0.000002 1.413798
    23 1.827063 1.152534 -7.643625 -1.570796 -1.570796 0.000000
  time 1
    0 0.422852 0.327770 39.702148 0.000000 1.273353 -1.570844
    1 -1.300821 0.457045 0.000000 -1.570795 -1.570796 0.000000
    2 -0.000007 0.000008 4.427393 -3.103798 6.185467 -0.469753
    3 18.301065 0.000000 0.000000 0.000000 0.000000 -1.124526
    4 17.106758 0.000000 0.000000 0.101826 -0.024199 -0.581532
    5 0.000006 -0.000004 -4.427393 0.426701 -6.054689 0.625245
    6 18.133167 0.000000 0.000000 0.000000 0.000000 -0.234889
    7 17.375956 0.000000 0.000000 2.824222 0.234408 0.908105
    8 2.255203 -0.002685 0.000003 -0.000004 -0.000001 0.000796
    9 3.373776 -0.004248 0.000000 -0.239858 0.046308 0.186289
    10 5.335510 -0.004100 0.000000 0.000000 0.000000 0.095944
    11 5.172566 -0.004197 0.000000 -0.194439 0.078032 0.376157
    12 5.271970 -0.001935 0.000000 0.000000 0.000000 0.134667
    13 -3.129044 0.428427 2.530066 -0.672806 -1.317183 -2.620035
    14 6.063949 0.000000 0.000002 -0.545934 -0.406943 -0.923272
    15 7.685221 0.000000 0.000000 0.000000 0.000000 -0.200000
    16 10.246255 0.000000 -0.000003 -1.569107 0.000000 0.000000
    17 -3.024093 0.414136 -2.427872 0.672786 1.317186 -2.620054
    18 6.269507 0.000000 -0.000001 -0.016527 0.561160 -1.210109
    19 8.573802 0.000000 -0.000004 0.000000 0.000000 -1.072168
    20 9.913458 0.000000 0.000003 1.568967 0.165722 0.000000
    21 2.452246 0.000000 0.000000 1.314124 -0.389708 0.342147
    22 0.946167 3.213873 -0.420090 -3.141592 -0.000002 1.413798
    23 1.827063 1.152534 -7.643625 -1.570796 -1.570796 0.000000
end
