version 1
nodes
  0 "Bip01" -1
  1 "Bip01 Pelvis" 0
  2 "Bip01 L Thigh" 1
  3 "Bip01 L Calf" 2
  4 "Bip01 L Foot" 3
  5 "Bip01 R Thigh" 1
  6 "Bip01 R Calf" 5
  7 "Bip01 R Foot" 6
  8 "Bip01 Spine" 1
  9 "Bip01 Spine1" 8
  10 "Bip01 Spine2" 9
  11 "Bip01 Spine3" 10
  12 "Bip01 Neck" 11
  13 "Bip01 L Clavicle" 12
  14 "Bip01 L UpperArm" 13
  15 "Bip01 L Forearm" 14
  16 "Bip01 L Hand" 15
  17 "Bip01 R Clavicle" 12
  18 "Bip01 R UpperArm" 17
  19 "Bip01 R Forearm" 18
  20 "Bip01 R Hand" 19
  21 "Bip01 Head" 12
  22 "Bip01 R Finger0" 20
  23 "Line01" 22
  24 "w_m40a1" 22
end
skeleton
  time 0
    0 0.419207 0.000698 30.256485 0.000000 0.000000 -1.570834
    1 0.739623 0.000001 9.745319 -1.570795 -1.570451 0.000000
    2 -0.000007 0.000010 5.615750 -0.213122 3.222695 -0.285967
    3 15.693467 0.000000 0.000000 0.000000 0.000000 -0.671130
    4 22.146629 0.000000 0.000000 0.188063 0.129467 -0.291618
    5 0.000008 -0.000006 -5.615750 0.073083 3.054261 -0.195586
    6 15.693467 0.000000 0.000000 0.000000 0.000000 -1.141988
    7 22.146629 0.000000 0.000000 -0.106902 -0.039208 -0.083893
    8 1.384163 -0.004728 0.000002 -0.000004 -0.000001 -0.060223
    9 5.939814 -0.004730 0.000000 0.000000 0.000000 -0.209330
    10 5.939809 -0.003975 0.000000 0.000000 0.000000 0.200604
    11 4.991439 -0.003975 0.000000 0.000000 0.000000 0.000000
    12 4.991436 -0.001575 0.000000 0.000000 0.000000 0.000000
    13 0.000005 0.001564 3.638375 -0.000010 -1.283530 3.140806
    14 6.703436 0.000000 0.000000 -0.099886 0.347296 -1.292026
    15 10.007079 0.000000 0.000002 0.000000 0.000000 -2.057809
    16 9.664095 -0.000001 -0.000002 -1.569555 0.000011 0.000000
    17 0.000005 0.001585 -3.638375 -0.000010 1.283530 3.140787
    18 6.703436 0.000000 -0.000001 0.595956 -0.169221 -1.007296
    19 10.007080 0.000000 -0.000002 0.000000 0.000000 -1.274069
    20 9.664097 -0.000001 0.000001 1.569555 0.165706 0.000000
    21 1.977383 0.000000 0.000000 0.000000 0.000000 0.042766
    22 6.829860 -0.000001 0.000000 0.001241 0.000000 0.000000
    23 -4.603199 -0.446935 0.691439 -1.751612 -0.047171 1.544023
    24 -6.751354 0.809404 1.239717 0.422884 1.599155 -1.196952
  time 1
    0 0.419207 0.000698 30.256485 0.000000 0.000000 -1.570834
    1 0.735716 -0.269538 9.745319 -1.570795 -1.570451 0.000000
    2 -0.000007 0.000010 5.615750 -0.078134 3.273122 -0.379094
    3 15.693467 0.000000 0.000000 0.000000 0.000000 -0.679547
    4 22.146629 0.000000 0.000000 0.189513 0.136975 -0.117946
    5 0.000008 -0.000006 -5.615750 0.069739 3.006234 -0.100560
    6 15.693467 0.000000 0.000000 0.000000 0.000000 -1.132272
    7 22.146629 0.000000 0.000000 -0.067703 -0.067054 -0.171471
    8 1.384163 -0.004728 0.000002 -0.000004 -0.000001 -0.060223
    9 5.939814 -0.004730 0.000000 -0.000024 -0.039094 -0.209330
    10 5.939809 -0.003975 0.000000 -0.000069 -0.019211 0.201581
    11 4.991439 -0.003975 0.000000 0.000000 0.000000 0.000000
    12 4.991436 -0.001575 0.000000 0.000000 0.000000 0.000000
    13 0.000005 0.001564 3.638375 -0.000010 -1.283530 3.140806
    14 6.703436 0.000000 0.000000 -0.031512 0.319981 -1.242198
    15 10.007079 0.000000 0.000002 0.000000 0.000000 -2.057809
    16 9.664095 -0.000001 -0.000002 -1.569555 0.000011 0.000000
    17 0.000005 0.001585 -3.638375 -0.000010 1.283530 3.140787
    18 6.703436 0.000000 -0.000001 0.645040 -0.200618 -1.024188
    19 10.007080 0.000000 -0.000002 0.000000 0.000000 -1.274069
    20 9.664097 -0.000001 0.000001 1.569555 0.165706 0.000000
    21 1.977383 0.000000 0.000000 0.010341 0.057088 0.042059
    22 6.829860 -0.000001 0.000000 0.001241 0.000000 0.000000
    23 -4.603199 -0.446935 0.691439 -1.751612 -0.047171 1.544023
    24 -6.751354 0.809404 1.239717 0.422884 1.599155 -1.196952
  time 2
    0 0.419207 0.000698 30.256485 0.000000 0.000000 -1.570834
    1 0.723997 -0.589861 9.745319 -1.570795 -1.570451 0.000000
    2 -0.000007 0.000010 5.615750 0.072959 3.312716 -0.489754
    3 15.693467 0.000000 0.000000 0.000000 0.000000 -0.697996
    4 22.146629 0.000000 0.000000 0.173122 0.155168 0.077394
    5 0.000008 -0.000006 -5.615750 0.071841 2.954948 0.005612
    6 15.693467 0.000000 0.000000 0.000000 0.000000 -1.110915
    7 22.146629 0.000000 0.000000 -0.022625 -0.093559 -0.276594
    8 1.384163 -0.004728 0.000002 -0.000004 -0.000001 -0.060223
    9 5.939814 -0.004730 0.000000 -0.000060 -0.084983 -0.209330
    10 5.939809 -0.003975 0.000000 -0.000262 -0.042294 0.203712
    11 4.991439 -0.003975 0.000000 0.000000 0.000000 0.000000
    12 4.991436 -0.001575 0.000000 0.000000 0.000000 0.000000
    13 0.000005 0.001564 3.638375 -0.000010 -1.283530 3.140806
    14 6.703436 0.000000 0.000000 0.044387 0.282467 -1.190242
    15 10.007079 0.000000 0.000002 0.000000 0.000000 -2.057809
    16 9.664095 -0.000001 -0.000002 -1.569555 0.000011 0.000000
    17 0.000005 0.001585 -3.638375 -0.000010 1.283530 3.140787
    18 6.703436 0.000000 -0.000001 0.704774 -0.235589 -1.046735
    19 10.007080 0.000000 -0.000002 0.000000 0.000000 -1.274069
    20 9.664097 -0.000001 0.000001 1.569555 0.165706 0.000000
    21 1.977383 0.000000 0.000000 0.022567 0.124716 0.040746
    22 6.829860 -0.000001 0.000000 0.001241 0.000000 0.000000
    23 -4.603199 -0.446935 0.691439 -1.751612 -0.047171 1.544023
    24 -6.751354 0.809404 1.239717 0.422884 1.599155 -1.196952
  time 3
    0 0.419207 0.000698 30.256485 0.000000 0.000000 -1.570834
    1 0.708372 -0.910183 9.745319 -1.570795 -1.570451 0.000000
    2 -0.000007 0.000010 5.615750 0.228463 3.335149 -0.605779
    3 15.693467 0.000000 0.000000 0.000000 0.000000 -0.716446
    4 22.146629 0.000000 0.000000 0.145127 0.195154 0.265086
    5 0.000008 -0.000006 -5.615750 0.079579 2.904045 0.113210
    6 15.693467 0.000000 0.000000 0.000000 0.000000 -1.089637
    7 22.146629 0.000000 0.000000 0.025011 -0.115902 -0.382883
    8 1.384163 -0.004728 0.000002 -0.000004 -0.000001 -0.060223
    9 5.939814 -0.004730 0.000000 -0.000096 -0.130872 -0.209311
    10 5.939809 -0.003975 0.000000 -0.000496 -0.065388 0.205860
    11 4.991439 -0.003975 0.000000 0.000000 0.000000 0.000000
    12 4.991436 -0.001575 0.000000 0.000000 0.000000 0.000000
    13 0.000005 0.001564 3.638375 -0.000010 -1.283530 3.140806
    14 6.703436 0.000000 0.000000 0.117171 0.239491 -1.141477
    15 10.007079 0.000000 0.000002 0.000000 0.000000 -2.057809
    16 9.664095 -0.000001 -0.000002 -1.569555 0.000011 0.000000
    17 0.000005 0.001585 -3.638375 -0.000010 1.283530 3.140787
    18 6.703436 0.000000 -0.000001 0.765964 -0.269028 -1.071787
    19 10.007080 0.000000 -0.000002 0.000000 0.000000 -1.274069
    20 9.664097 -0.000001 0.000001 1.569555 0.165706 0.000000
    21 1.977383 0.000000 0.000000 0.034931 0.192263 0.040090
    22 6.829860 -0.000001 0.000000 0.001241 0.000000 0.000000
    23 -4.603199 -0.446935 0.691439 -1.751612 -0.047171 1.544023
    24 -6.751354 0.809404 1.239717 0.422884 1.599155 -1.196952
  time 4
    0 0.419207 0.000698 30.256485 0.000000 0.000000 -1.570834
    1 0.692746 -1.175816 9.745319 -1.570795 -1.570451 0.000000
    2 -0.000007 0.000010 5.615750 0.374667 3.340134 -0.713086
    3 15.693467 0.000000 0.000000 0.000000 0.000000 -0.724862
    4 22.146629 0.000000 0.000000 0.118473 0.257640 0.418701
    5 0.000008 -0.000006 -5.615750 0.091234 2.857361 0.211595
    6 15.693467 0.000000 0.000000 0.000000 0.000000 -1.079922
    7 22.146629 0.000000 0.000000 0.071154 -0.132791 -0.473591
    8 1.384163 -0.004728 0.000002 -0.000004 -0.000001 -0.060223
    9 5.939814 -0.004730 0.000000 -0.000132 -0.169965 -0.209311
    10 5.939809 -0.003975 0.000000 -0.000661 -0.084599 0.206836
    11 4.991439 -0.003975 0.000000 0.000000 0.000000 0.000000
    12 4.991436 -0.001575 0.000000 0.000000 0.000000 0.000000
    13 0.000005 0.001564 3.638375 -0.000010 -1.283530 3.140806
    14 6.703436 0.000000 0.000000 0.177667 0.197789 -1.099176
    15 10.007079 0.000000 0.000002 0.000000 0.000000 -2.057809
    16 9.664095 -0.000001 -0.000002 -1.569555 0.000011 0.000000
    17 0.000005 0.001585 -3.638375 -0.000010 1.283530 3.140787
    18 6.703436 0.000000 -0.000001 0.818422 -0.296724 -1.094619
    19 10.007080 0.000000 -0.000002 0.000000 0.000000 -1.274069
    20 9.664097 -0.000001 0.000001 1.569555 0.165706 0.000000
    21 1.977383 0.000000 0.000000 0.045640 0.249352 0.040847
    22 6.829860 -0.000001 0.000000 0.001241 0.000000 0.000000
    23 -4.603199 -0.446935 0.691439 -1.751612 -0.047171 1.544023
    24 -6.751354 0.809404 1.239717 0.422884 1.599155 -1.196952
  time 5
    0 0.419207 0.000698 30.256485 0.000000 0.000000 -1.570834
    1 0.684933 -1.347696 9.745319 -1.570795 -1.570451 0.000000
    2 -0.000007 0.000010 5.615750 0.498054 3.333327 -0.797973
    3 15.693467 0.000000 0.000000 0.000000 0.000000 -0.713079
    4 22.146629 0.000000 0.000000 0.103678 0.331376 0.516103
    5 0.000008 -0.000006 -5.615750 0.103844 2.817674 0.289672
    6 15.693467 0.000000 0.000000 0.000000 0.000000 -1.093491
    7 22.146629 0.000000 0.000000 0.111120 -0.144585 -0.531759
    8 1.384163 -0.004728 0.000002 -0.000004 -0.000001 -0.060223
    9 5.939814 -0.004730 0.000000 -0.000156 -0.195481 -0.209311
    10 5.939809 -0.003975 0.000000 -0.000565 -0.096080 0.205486
    11 4.991439 -0.003975 0.000000 0.000000 0.000000 0.000000
    12 4.991436 -0.001575 0.000000 0.000000 0.000000 0.000000
    13 0.000005 0.001564 3.638375 -0.000010 -1.283530 3.140806
    14 6.703436 0.000000 0.000000 0.218351 0.165466 -1.064729
    15 10.007079 0.000000 0.000002 0.000000 0.000000 -2.057809
    16 9.664095 -0.000001 -0.000002 -1.569555 0.000011 0.000000
    17 0.000005 0.001585 -3.638375 -0.000010 1.283530 3.140787
    18 6.703436 0.000000 -0.000001 0.851431 -0.315231 -1.109293
    19 10.007080 0.000000 -0.000002 0.000000 0.000000 -1.274069
    20 9.664097 -0.000001 0.000001 1.569555 0.165706 0.000000
    21 1.977383 0.000000 0.000000 0.052672 0.285521 0.043624
    22 6.829860 -0.000001 0.000000 0.001241 0.000000 0.000000
    23 -4.603199 -0.446935 0.691439 -1.751612 -0.047171 1.544023
    24 -6.751354 0.809404 1.239717 0.422884 1.599155 -1.196952
  time 6
    0 0.419207 0.000698 30.256485 0.000000 0.000000 -1.570834
    1 0.696653 -1.375041 9.745319 -1.570795 -1.570451 0.000000
    2 -0.000007 0.000010 5.615750 0.586831 3.324220 -0.849040
    3 15.693467 0.000000 0.000000 0.000000 0.000000 -0.671130
    4 22.146629 0.000000 0.000000 0.102662 0.398592 0.538910
    5 0.000008 -0.000006 -5.615750 0.112824 2.787477 0.335378
    6 15.693467 0.000000 0.000000 0.000000 0.000000 -1.141988
    7 22.146629 0.000000 0.000000 0.140306 -0.152742 -0.540131
    8 1.384163 -0.004728 0.000002 -0.000004 -0.000001 -0.060223
    9 5.939814 -0.004730 0.000000 -0.000156 -0.200598 -0.209311
    10 5.939809 -0.003975 0.000000 -0.000069 -0.095937 0.200604
    11 4.991439 -0.003975 0.000000 0.000000 0.000000 0.000000
    12 4.991436 -0.001575 0.000000 0.000000 0.000000 0.000000
    13 0.000005 0.001564 3.638375 -0.000010 -1.283530 3.140806
    14 6.703436 0.000000 0.000000 0.232402 0.151444 -1.038629
    15 10.007079 0.000000 0.000002 0.000000 0.000000 -2.057809
    16 9.664095 -0.000001 -0.000002 -1.569555 0.000011 0.000000
    17 0.000005 0.001585 -3.638375 -0.000010 1.283530 3.140787
    18 6.703436 0.000000 -0.000001 0.853747 -0.321740 -1.109651
    19 10.007080 0.000000 -0.000002 0.000000 0.000000 -1.274069
    20 9.664097 -0.000001 0.000001 1.569555 0.165706 0.000000
    21 1.977383 0.000000 0.000000 0.053959 0.290391 0.048773
    22 6.829860 -0.000001 0.000000 0.001241 0.000000 0.000000
    23 -4.603199 -0.446935 0.691439 -1.751612 -0.047171 1.544023
    24 -6.751354 0.809404 1.239717 0.422884 1.599155 -1.196952
  time 7
    0 0.419207 0.000698 30.256485 0.000000 0.000000 -1.570834
    1 0.727904 -1.269569 9.745319 -1.570795 -1.570451 0.000000
    2 -0.000007 0.000010 5.615750 0.586544 3.332560 -0.811483
    3 15.693467 0.000000 0.000000 0.000000 0.000000 -0.491014
    4 22.146629 0.000000 0.000000 0.119017 0.423610 0.316940
    5 0.000008 -0.000006 -5.615750 0.103557 2.779521 0.289163
    6 15.693467 0.000000 0.000000 0.000000 0.000000 -1.335813
    7 22.146629 0.000000 0.000000 0.138431 -0.157431 -0.363590
    8 1.384163 -0.004728 0.000002 -0.000004 -0.000001 -0.060223
    9 5.939814 -0.004730 0.000000 -0.000144 -0.186312 -0.209311
    10 5.939809 -0.003975 0.000000 0.000785 -0.084455 0.191851
    11 4.991439 -0.003975 0.000000 0.000000 0.000000 0.000000
    12 4.991436 -0.001575 0.000000 0.000000 0.000000 0.000000
    13 0.000005 0.001564 3.638375 -0.000010 -1.283530 3.140806
    14 6.703436 0.000000 0.000000 0.222701 0.157635 -1.018992
    15 10.007079 0.000000 0.000002 0.000000 0.000000 -2.057809
    16 9.664095 -0.000001 -0.000002 -1.569555 0.000011 0.000000
    17 0.000005 0.001585 -3.638375 -0.000010 1.283530 3.140787
    18 6.703436 0.000000 -0.000001 0.826096 -0.317209 -1.095693
    19 10.007080 0.000000 -0.000002 0.000000 0.000000 -1.274069
    20 9.664097 -0.000001 0.000001 1.569555 0.165706 0.000000
    21 1.977383 0.000000 0.000000 0.049593 0.265081 0.056546
    22 6.829860 -0.000001 0.000000 0.001241 0.000000 0.000000
    23 -4.603199 -0.446935 0.691439 -1.751612 -0.047171 1.544023
    24 -6.751354 0.809404 1.239717 0.422884 1.599155 -1.196952
  time 8
    0 0.419207 0.000698 30.256485 0.000000 0.000000 -1.570834
    1 0.766967 -1.074251 9.745319 -1.570795 -1.570451 0.000000
    2 -0.000007 0.000010 5.615750 0.494603 3.353172 -0.685685
    3 15.693467 0.000000 0.000000 0.000000 0.000000 -0.230300
    4 22.146629 0.000000 0.000000 0.141464 0.410619 -0.092321
    5 0.000008 -0.000006 -5.615750 0.077095 2.796680 0.153215
    6 15.693467 0.000000 0.000000 0.000000 0.000000 -1.622617
    7 22.146629 0.000000 0.000000 0.104729 -0.155757 -0.053754
    8 1.384163 -0.004728 0.000002 -0.000004 -0.000001 -0.060223
    9 5.939814 -0.004730 0.000000 -0.000120 -0.160078 -0.209311
    10 5.939809 -0.003975 0.000000 0.001749 -0.065723 0.180266
    11 4.991439 -0.003975 0.000000 0.000000 0.000000 0.000000
    12 4.991436 -0.001575 0.000000 0.000000 0.000000 0.000000
    13 0.000005 0.001564 3.638375 -0.000010 -1.283530 3.140806
    14 6.703436 0.000000 0.000000 0.198949 0.177849 -1.003446
    15 10.007079 0.000000 0.000002 0.000000 0.000000 -2.057809
    16 9.664095 -0.000001 -0.000002 -1.569555 0.000011 0.000000
    17 0.000005 0.001585 -3.638375 -0.000010 1.283530 3.140787
    18 6.703436 0.000000 -0.000001 0.779790 -0.305339 -1.073433
    19 10.007080 0.000000 -0.000002 0.000000 0.000000 -1.274069
    20 9.664097 -0.000001 0.000001 1.569555 0.165706 0.000000
    21 1.977383 0.000000 0.000000 0.041641 0.220927 0.066592
    22 6.829860 -0.000001 0.000000 0.001241 0.000000 0.000000
    23 -4.603199 -0.446935 0.691439 -1.751612 -0.047171 1.544023
    24 -6.751354 0.809404 1.239717 0.422884 1.599155 -1.196952
  time 9
    0 0.419207 0.000698 30.256485 0.000000 0.000000 -1.570834
    1 0.813844 -0.816430 9.745319 -1.570795 -1.570451 0.000000
    2 -0.000007 0.000010 5.615750 0.381282 3.360841 -0.546186
    3 15.693467 0.000000 0.000000 0.000000 0.000000 -0.127347
    4 22.146629 0.000000 0.000000 0.152488 0.394497 -0.363999
    5 0.000008 -0.000006 -5.615750 0.052639 2.823809 0.008310
    6 15.693467 0.000000 0.000000 0.000000 0.000000 -1.769953
    7 22.146629 0.000000 0.000000 0.065360 -0.146953 0.126572
    8 1.384163 -0.004728 0.000002 -0.000004 -0.000001 -0.060223
    9 5.939814 -0.004730 0.000000 -0.000096 -0.124855 -0.209311
    10 5.939809 -0.003975 0.000000 0.002576 -0.041634 0.166777
    11 4.991439 -0.003975 0.000000 0.000000 0.000000 0.000000
    12 4.991436 -0.001575 0.000000 0.000000 0.000000 0.000000
    13 0.000005 0.001564 3.638375 -0.000010 -1.283530 3.140806
    14 6.703436 0.000000 0.000000 0.164909 0.209262 -0.991664
    15 10.007079 0.000000 0.000002 0.000000 0.000000 -2.057809
    16 9.664095 -0.000001 -0.000002 -1.569555 0.000011 0.000000
    17 0.000005 0.001585 -3.638375 -0.000010 1.283530 3.140787
    18 6.703436 0.000000 -0.000001 0.720320 -0.286769 -1.046162
    19 10.007080 0.000000 -0.000002 0.000000 0.000000 -1.274069
    20 9.664097 -0.000001 0.000001 1.569555 0.165706 0.000000
    21 1.977383 0.000000 0.000000 0.031024 0.162801 0.078505
    22 6.829860 -0.000001 0.000000 0.001241 0.000000 0.000000
    23 -4.603199 -0.446935 0.691439 -1.751612 -0.047171 1.544023
    24 -6.751354 0.809404 1.239717 0.422884 1.599155 -1.196952
  time 10
    0 0.419207 0.000698 30.256485 0.000000 0.000000 -1.570834
    1 0.860720 -0.511733 9.745319 -1.570795 -1.570451 0.000000
    2 -0.000007 0.000010 5.615750 0.275344 3.353939 -0.417226
    3 15.693467 0.000000 0.000000 0.000000 0.000000 -0.219325
    4 22.146629 0.000000 0.000000 0.150095 0.382424 -0.432153
    5 0.000008 -0.000006 -5.615750 0.034201 2.852088 -0.123871
    6 15.693467 0.000000 0.000000 0.000000 0.000000 -1.748274
    7 22.146629 0.000000 0.000000 0.029996 -0.133796 0.135017
    8 1.384163 -0.004728 0.000002 -0.000004 -0.000001 -0.060223
    9 5.939814 -0.004730 0.000000 -0.000060 -0.083593 -0.209330
    10 5.939809 -0.003975 0.000000 0.003058 -0.014106 0.152280
    11 4.991439 -0.003975 0.000000 0.000000 0.000000 0.000000
    12 4.991436 -0.001575 0.000000 0.000000 0.000000 0.000000
    13 0.000005 0.001564 3.638375 -0.000010 -1.283530 3.140806
    14 6.703436 0.000000 0.000000 0.123814 0.248596 -0.983972
    15 10.007079 0.000000 0.000002 0.000000 0.000000 -2.057809
    16 9.664095 -0.000001 -0.000002 -1.569555 0.000011 0.000000
    17 0.000005 0.001585 -3.638375 -0.000010 1.283530 3.140787
    18 6.703436 0.000000 -0.000001 0.652846 -0.262328 -1.017317
    19 10.007080 0.000000 -0.000002 0.000000 0.000000 -1.274069
    20 9.664097 -0.000001 0.000001 1.569555 0.165706 0.000000
    21 1.977383 0.000000 0.000000 0.018477 0.095413 0.091781
    22 6.829860 -0.000001 0.000000 0.001241 0.000000 0.000000
    23 -4.603199 -0.446935 0.691439 -1.751612 -0.047171 1.544023
    24 -6.751354 0.809404 1.239717 0.422884 1.599155 -1.196952
  time 11
    0 0.419207 0.000698 30.256485 0.000000 0.000000 -1.570834
    1 0.903690 -0.183598 9.745319 -1.570795 -1.570451 0.000000
    2 -0.000007 0.000010 5.615750 0.160778 3.331026 -0.278206
    3 15.693467 0.000000 0.000000 0.000000 0.000000 -0.371363
    4 22.146629 0.000000 0.000000 0.134248 0.370491 -0.459589
    5 0.000008 -0.000006 -5.615750 0.018916 2.885927 -0.266639
    6 15.693467 0.000000 0.000000 0.000000 0.000000 -1.686610
    7 22.146629 0.000000 0.000000 -0.006732 -0.114132 0.106115
    8 1.384163 -0.004728 0.000002 -0.000004 -0.000001 -0.060223
    9 5.939814 -0.004730 0.000000 -0.000024 -0.039238 -0.209330
    10 5.939809 -0.003975 0.000000 0.003099 0.014969 0.137685
    11 4.991439 -0.003975 0.000000 0.000000 0.000000 0.000000
    12 4.991436 -0.001575 0.000000 0.000000 0.000000 0.000000
    13 0.000005 0.001564 3.638375 -0.000010 -1.283530 3.140806
    14 6.703436 0.000000 0.000000 0.078780 0.292574 -0.980127
    15 10.007079 0.000000 0.000002 0.000000 0.000000 -2.057809
    16 9.664095 -0.000001 -0.000002 -1.569555 0.000011 0.000000
    17 0.000005 0.001585 -3.638375 -0.000010 1.283530 3.140787
    18 6.703436 0.000000 -0.000001 0.582527 -0.233611 -0.989688
    19 10.007080 0.000000 -0.000002 0.000000 0.000000 -1.274069
    20 9.664097 -0.000001 0.000001 1.569555 0.165706 0.000000
    21 1.977383 0.000000 0.000000 0.004826 0.023474 0.105764
    22 6.829860 -0.000001 0.000000 0.001241 0.000000 0.000000
    23 -4.603199 -0.446935 0.691439 -1.751612 -0.047171 1.544023
    24 -6.751354 0.809404 1.239717 0.422884 1.599155 -1.196952
  time 12
    0 0.419207 0.000698 30.256485 0.000000 0.000000 -1.570834
    1 0.938847 0.140630 9.745319 -1.570795 -1.570451 0.000000
    2 -0.000007 0.000010 5.615750 0.046786 3.291241 -0.140815
    3 15.693467 0.000000 0.000000 0.000000 0.000000 -0.562859
    4 22.146629 0.000000 0.000000 0.104294 0.351687 -0.453887
    5 0.000008 -0.000006 -5.615750 0.009172 2.923218 -0.410068
    6 15.693467 0.000000 0.000000 0.000000 0.000000 -1.590098
    7 22.146629 0.000000 0.000000 -0.041500 -0.088536 0.043944
    8 1.384163 -0.004728 0.000002 -0.000004 -0.000001 -0.060223
    9 5.939814 -0.004730 0.000000 0.000000 0.005225 -0.209330
    10 5.939809 -0.003975 0.000000 0.002672 0.043696 0.123854
    11 4.991439 -0.003975 0.000000 0.000000 0.000000 0.000000
    12 4.991436 -0.001575 0.000000 0.000000 0.000000 0.000000
    13 0.000005 0.001564 3.638375 -0.000010 -1.283530 3.140806
    14 6.703436 0.000000 0.000000 0.032688 0.337372 -0.979881
    15 10.007079 0.000000 0.000002 0.000000 0.000000 -2.057809
    16 9.664095 -0.000001 -0.000002 -1.569555 0.000011 0.000000
    17 0.000005 0.001585 -3.638375 -0.000010 1.283530 3.140787
    18 6.703436 0.000000 -0.000001 0.514061 -0.202533 -0.965424
    19 10.007080 0.000000 -0.000002 0.000000 0.000000 -1.274069
    20 9.664097 -0.000001 0.000001 1.569555 0.165706 0.000000
    21 1.977383 0.000000 0.000000 -0.009146 -0.048146 0.119797
    22 6.829860 -0.000001 0.000000 0.001241 0.000000 0.000000
    23 -4.603199 -0.446935 0.691439 -1.751612 -0.047171 1.544023
    24 -6.751354 0.809404 1.239717 0.422884 1.599155 -1.196952
  time 13
    0 0.419207 0.000698 30.256485 0.000000 0.000000 -1.570834
    1 0.966192 0.449233 9.745319 -1.570795 -1.570451 0.000000
    2 -0.000007 0.000010 5.615750 -0.058960 3.237939 -0.015879
    3 15.693467 0.000000 0.000000 0.000000 0.000000 -0.773207
    4 22.146629 0.000000 0.000000 0.066217 0.320291 -0.420682
    5 0.000008 -0.000006 -5.615750 0.005828 2.961371 -0.544946
    6 15.693467 0.000000 0.000000 0.000000 0.000000 -1.463718
    7 22.146629 0.000000 0.000000 -0.071666 -0.059040 -0.047347
    8 1.384163 -0.004728 0.000002 -0.000004 -0.000001 -0.060223
    9 5.939814 -0.004730 0.000000 0.000036 0.046896 -0.209330
    10 5.939809 -0.003975 0.000000 0.001901 0.070170 0.111684
    11 4.991439 -0.003975 0.000000 0.000000 0.000000 0.000000
    12 4.991436 -0.001575 0.000000 0.000000 0.000000 0.000000
    13 0.000005 0.001564 3.638375 -0.000010 -1.283530 3.140806
    14 6.703436 0.000000 0.000000 -0.011288 0.379438 -0.982500
    15 10.007079 0.000000 0.000002 0.000000 0.000000 -2.057809
    16 9.664095 -0.000001 -0.000002 -1.569555 0.000011 0.000000
    17 0.000005 0.001585 -3.638375 -0.000010 1.283530 3.140787
    18 6.703436 0.000000 -0.000001 0.451680 -0.171710 -0.945812
    19 10.007080 0.000000 -0.000002 0.000000 0.000000 -1.274069
    20 9.664097 -0.000001 0.000001 1.569555 0.165706 0.000000
    21 1.977383 0.000000 0.000000 -0.022521 -0.114815 0.132922
    22 6.829860 -0.000001 0.000000 0.001241 0.000000 0.000000
    23 -4.603199 -0.446935 0.691439 -1.751612 -0.047171 1.544023
    24 -6.751354 0.809404 1.239717 0.422884 1.599155 -1.196952
  time 14
    0 0.419207 0.000698 30.256485 0.000000 0.000000 -1.570834
    1 0.985724 0.710960 9.745319 -1.570795 -1.570451 0.000000
    2 -0.000007 0.000010 5.615750 -0.151093 3.177925 0.088553
    3 15.693467 0.000000 0.000000 0.000000 0.000000 -0.981873
    4 22.146629 0.000000 0.000000 0.029446 0.276539 -0.365944
    5 0.000008 -0.000006 -5.615750 0.008599 2.997415 -0.662265
    6 15.693467 0.000000 0.000000 0.000000 0.000000 -1.312689
    7 22.146629 0.000000 0.000000 -0.095824 -0.028683 -0.162954
    8 1.384163 -0.004728 0.000002 -0.000004 -0.000001 -0.060223
    9 5.939814 -0.004730 0.000000 0.000060 0.082790 -0.209311
    10 5.939809 -0.003975 0.000000 0.000950 0.092473 0.102084
    11 4.991439 -0.003975 0.000000 0.000000 0.000000 0.000000
    12 4.991436 -0.001575 0.000000 0.000000 0.000000 0.000000
    13 0.000005 0.001564 3.638375 -0.000010 -1.283530 3.140806
    14 6.703436 0.000000 0.000000 -0.049914 0.415130 -0.986673
    15 10.007079 0.000000 0.000002 0.000000 0.000000 -2.057809
    16 9.664095 -0.000001 -0.000002 -1.569555 0.000011 0.000000
    17 0.000005 0.001585 -3.638375 -0.000010 1.283530 3.140787
    18 6.703436 0.000000 -0.000001 0.399619 -0.143886 -0.931497
    19 10.007080 0.000000 -0.000002 0.000000 0.000000 -1.274069
    20 9.664097 -0.000001 0.000001 1.569555 0.165706 0.000000
    21 1.977383 0.000000 0.000000 -0.034287 -0.171664 0.143976
    22 6.829860 -0.000001 0.000000 0.001241 0.000000 0.000000
    23 -4.603199 -0.446935 0.691439 -1.751612 -0.047171 1.544023
    24 -6.751354 0.809404 1.239717 0.422884 1.599155 -1.196952
  time 15
    0 0.419207 0.000698 30.256485 0.000000 0.000000 -1.570834
    1 0.993537 0.906279 9.745319 -1.570795 -1.570451 0.000000
    2 -0.000007 0.000010 5.615750 -0.226831 3.119925 0.165968
    3 15.693467 0.000000 0.000000 0.000000 0.000000 -1.168319
    4 22.146629 0.000000 0.000000 0.001487 0.227891 -0.299333
    5 0.000008 -0.000006 -5.615750 0.015859 3.028858 -0.753321
    6 15.693467 0.000000 0.000000 0.000000 0.000000 -1.141988
    7 22.146629 0.000000 0.000000 -0.113847 -0.001029 -0.298070
    8 1.384163 -0.004728 0.000002 -0.000004 -0.000001 -0.060223
    9 5.939814 -0.004730 0.000000 0.000084 0.109971 -0.209311
    10 5.939809 -0.003975 0.000000 0.000083 0.108712 0.095950
    11 4.991439 -0.003975 0.000000 0.000000 0.000000 0.000000
    12 4.991436 -0.001575 0.000000 0.000000 0.000000 0.000000
    13 0.000005 0.001564 3.638375 -0.000010 -1.283530 3.140806
    14 6.703436 0.000000 0.000000 -0.079368 0.440807 -0.990682
    15 10.007079 0.000000 0.000002 0.000000 0.000000 -2.057809
    16 9.664095 -0.000001 -0.000002 -1.569555 0.000011 0.000000
    17 0.000005 0.001585 -3.638375 -0.000010 1.283530 3.140787
    18 6.703436 0.000000 -0.000001 0.361648 -0.121806 -0.922550
    19 10.007080 0.000000 -0.000002 0.000000 0.000000 -1.274069
    20 9.664097 -0.000001 0.000001 1.569555 0.165706 0.000000
    21 1.977383 0.000000 0.000000 -0.043250 -0.214141 0.151548
    22 6.829860 -0.000001 0.000000 0.001241 0.000000 0.000000
    23 -4.603199 -0.446935 0.691439 -1.751612 -0.047171 1.544023
    24 -6.751354 0.809404 1.239717 0.422884 1.599155 -1.196952
  time 16
    0 0.419207 0.000698 30.256485 0.000000 0.000000 -1.570834
    1 0.974005 0.910185 9.745319 -1.570795 -1.570451 0.000000
    2 -0.000007 0.000010 5.615750 -0.261153 3.106216 0.142111
    3 15.693467 0.000000 0.000000 0.000000 0.000000 -1.358468
    4 22.146629 0.000000 0.000000 0.017660 0.202544 -0.096145
    5 0.000008 -0.000006 -5.615750 0.027514 3.044100 -0.723139
    6 15.693467 0.000000 0.000000 0.000000 0.000000 -0.745666
    7 22.146629 0.000000 0.000000 -0.121346 0.006292 -0.651442
    8 1.384163 -0.004728 0.000002 -0.000004 -0.000001 -0.060223
    9 5.939814 -0.004730 0.000000 0.000084 0.111936 -0.209311
    10 5.939809 -0.003975 0.000000 -0.000124 0.105273 0.104085
    11 4.991439 -0.003975 0.000000 0.000000 0.000000 0.000000
    12 4.991436 -0.001575 0.000000 0.000000 0.000000 0.000000
    13 0.000005 0.001564 3.638375 -0.000010 -1.283530 3.140806
    14 6.703436 0.000000 0.000000 -0.098299 0.440443 -1.020955
    15 10.007079 0.000000 0.000002 0.000000 0.000000 -2.057809
    16 9.664095 -0.000001 -0.000002 -1.569555 0.000011 0.000000
    17 0.000005 0.001585 -3.638375 -0.000010 1.283530 3.140787
    18 6.703436 0.000000 -0.000001 0.367470 -0.116701 -0.926343
    19 10.007080 0.000000 -0.000002 0.000000 0.000000 -1.274069
    20 9.664097 -0.000001 0.000001 1.569555 0.165706 0.000000
    21 1.977383 0.000000 0.000000 -0.042101 -0.212783 0.143169
    22 6.829860 -0.000001 0.000000 0.001241 0.000000 0.000000
    23 -4.603199 -0.446935 0.691439 -1.751612 -0.047171 1.544023
    24 -6.751354 0.809404 1.239717 0.422884 1.599155 -1.196952
  time 17
    0 0.419207 0.000698 30.256485 0.000000 0.000000 -1.570834
    1 0.919316 0.714867 9.745319 -1.570795 -1.570451 0.000000
    2 -0.000007 0.000010 5.615750 -0.266618 3.127594 0.048122
    3 15.693467 0.000000 0.000000 0.000000 0.000000 -1.474954
    4 22.146629 0.000000 0.000000 0.063461 0.191176 0.124954
    5 0.000008 -0.000006 -5.615750 0.040506 3.049468 -0.606685
    6 15.693467 0.000000 0.000000 0.000000 0.000000 -0.339548
    7 22.146629 0.000000 0.000000 -0.122411 -0.001435 -1.009327
    8 1.384163 -0.004728 0.000002 -0.000004 -0.000001 -0.060223
    9 5.939814 -0.004730 0.000000 0.000060 0.088530 -0.209311
    10 5.939809 -0.003975 0.000000 0.000069 0.081567 0.127467
    11 4.991439 -0.003975 0.000000 0.000000 0.000000 0.000000
    12 4.991436 -0.001575 0.000000 0.000000 0.000000 0.000000
    13 0.000005 0.001564 3.638375 -0.000010 -1.283530 3.140806
    14 6.703436 0.000000 0.000000 -0.107764 0.415494 -1.084612
    15 10.007079 0.000000 0.000002 0.000000 0.000000 -2.057809
    16 9.664095 -0.000001 -0.000002 -1.569555 0.000011 0.000000
    17 0.000005 0.001585 -3.638375 -0.000010 1.283530 3.140787
    18 6.703436 0.000000 -0.000001 0.417943 -0.127869 -0.943521
    19 10.007080 0.000000 -0.000002 0.000000 0.000000 -1.274069
    20 9.664097 -0.000001 0.000001 1.569555 0.165706 0.000000
    21 1.977383 0.000000 0.000000 -0.031162 -0.166873 0.118081
    22 6.829860 -0.000001 0.000000 0.001241 0.000000 0.000000
    23 -4.603199 -0.446935 0.691439 -1.751612 -0.047171 1.544023
    24 -6.751354 0.809404 1.239717 0.422884 1.599155 -1.196952
  time 18
    0 0.419207 0.000698 30.256485 0.000000 0.000000 -1.570834
    1 0.860720 0.492204 9.745319 -1.570795 -1.570451 0.000000
    2 -0.000007 0.000010 5.615750 -0.255209 3.161819 -0.070586
    3 15.693467 0.000000 0.000000 0.000000 0.000000 -1.231208
    4 22.146629 0.000000 0.000000 0.115354 0.176702 0.019100
    5 0.000008 -0.000006 -5.615750 0.053021 3.051385 -0.459693
    6 15.693467 0.000000 0.000000 0.000000 0.000000 -0.546220
    7 22.146629 0.000000 0.000000 -0.119258 -0.014784 -0.755109
    8 1.384163 -0.004728 0.000002 -0.000004 -0.000001 -0.060223
    9 5.939814 -0.004730 0.000000 0.000048 0.061289 -0.209330
    10 5.939809 -0.003975 0.000000 0.000041 0.055237 0.152247
    11 4.991439 -0.003975 0.000000 0.000000 0.000000 0.000000
    12 4.991436 -0.001575 0.000000 0.000000 0.000000 0.000000
    13 0.000005 0.001564 3.638375 -0.000010 -1.283530 3.140806
    14 6.703436 0.000000 0.000000 -0.110939 0.389636 -1.151868
    15 10.007079 0.000000 0.000002 0.000000 0.000000 -2.057809
    16 9.664095 -0.000001 -0.000002 -1.569555 0.000011 0.000000
    17 0.000005 0.001585 -3.638375 -0.000010 1.283530 3.140787
    18 6.703436 0.000000 -0.000001 0.474568 -0.140887 -0.963277
    19 10.007080 0.000000 -0.000002 0.000000 0.000000 -1.274069
    20 9.664097 -0.000001 0.000001 1.569555 0.165706 0.000000
    21 1.977383 0.000000 0.000000 -0.019947 -0.114416 0.092033
    22 6.829860 -0.000001 0.000000 0.001241 0.000000 0.000000
    23 -4.603199 -0.446935 0.691439 -1.751612 -0.047171 1.544023
    24 -6.751354 0.809404 1.239717 0.422884 1.599155 -1.196952
  time 19
    0 0.419207 0.000698 30.256485 0.000000 0.000000 -1.570834
    1 0.790405 0.246102 9.745319 -1.570795 -1.570451 0.000000
    2 -0.000007 0.000010 5.615750 -0.251662 3.189046 -0.182492
    3 15.693467 0.000000 0.000000 0.000000 0.000000 -0.904036
    4 22.146629 0.000000 0.000000 0.159560 0.147307 -0.181270
    5 0.000008 -0.000006 -5.615750 0.067160 3.060780 -0.310003
    6 15.693467 0.000000 0.000000 0.000000 0.000000 -0.867308
    7 22.146629 0.000000 0.000000 -0.118108 -0.025214 -0.374147
    8 1.384163 -0.004728 0.000002 -0.000004 -0.000001 -0.060223
    9 5.939814 -0.004730 0.000000 0.000024 0.031771 -0.209330
    10 5.939809 -0.003975 0.000000 0.000220 0.025659 0.181079
    11 4.991439 -0.003975 0.000000 0.000000 0.000000 0.000000
    12 4.991436 -0.001575 0.000000 0.000000 0.000000 0.000000
    13 0.000005 0.001564 3.638375 -0.000010 -1.283530 3.140806
    14 6.703436 0.000000 0.000000 -0.117641 0.366782 -1.242443
    15 10.007079 0.000000 0.000002 0.000000 0.000000 -2.057809
    16 9.664095 -0.000001 -0.000002 -1.569555 0.000011 0.000000
    17 0.000005 0.001585 -3.638375 -0.000010 1.283530 3.140787
    18 6.703436 0.000000 -0.000001 0.538272 -0.152501 -0.986324
    19 10.007080 0.000000 -0.000002 0.000000 0.000000 -1.274069
    20 9.664097 -0.000001 0.000001 1.569555 0.165706 0.000000
    21 1.977383 0.000000 0.000000 -0.009514 -0.056370 0.062503
    22 6.829860 -0.000001 0.000000 0.001241 0.000000 0.000000
    23 -4.603199 -0.446935 0.691439 -1.751612 -0.047171 1.544023
    24 -6.751354 0.809404 1.239717 0.422884 1.599155 -1.196952
  time 20
    0 0.419207 0.000698 30.256485 0.000000 0.000000 -1.570834
    1 0.739623 0.000001 9.745319 -1.570795 -1.570451 0.000000
    2 -0.000007 0.000010 5.615750 -0.213122 3.222695 -0.285967
    3 15.693467 0.000000 0.000000 0.000000 0.000000 -0.671130
    4 22.146629 0.000000 0.000000 0.188063 0.129467 -0.291618
    5 0.000008 -0.000006 -5.615750 0.073083 3.054261 -0.195586
    6 15.693467 0.000000 0.000000 0.000000 0.000000 -1.141988
    7 22.146629 0.000000 0.000000 -0.106902 -0.039208 -0.083893
    8 1.384163 -0.004728 0.000002 -0.000004 -0.000001 -0.060223
    9 5.939814 -0.004730 0.000000 0.000000 0.000000 -0.209330
    10 5.939809 -0.003975 0.000000 0.000000 0.000000 0.200604
    11 4.991439 -0.003975 0.000000 0.000000 0.000000 0.000000
    12 4.991436 -0.001575 0.000000 0.000000 0.000000 0.000000
    13 0.000005 0.001564 3.638375 -0.000010 -1.283530 3.140806
    14 6.703436 0.000000 0.000000 -0.099886 0.347296 -1.292026
    15 10.007079 0.000000 0.000002 0.000000 0.000000 -2.057809
    16 9.664095 -0.000001 -0.000002 -1.569555 0.000011 0.000000
    17 0.000005 0.001585 -3.638375 -0.000010 1.283530 3.140787
    18 6.703436 0.000000 -0.000001 0.595956 -0.169221 -1.007296
    19 10.007080 0.000000 -0.000002 0.000000 0.000000 -1.274069
    20 9.664097 -0.000001 0.000001 1.569555 0.165706 0.000000
    21 1.977383 0.000000 0.000000 0.000000 0.000000 0.042766
    22 6.829860 -0.000001 0.000000 0.001241 0.000000 0.000000
    23 -4.603199 -0.446935 0.691439 -1.751612 -0.047171 1.544023
    24 -6.751354 0.809404 1.239717 0.422884 1.599155 -1.196952
  time 21
    0 0.419207 0.000698 30.256485 0.000000 0.000000 -1.570834
    1 0.743529 -0.203130 9.745319 -1.570795 -1.570451 0.000000
    2 -0.000007 0.000010 5.615750 -0.067780 3.273122 -0.384842
    3 15.693467 0.000000 0.000000 0.000000 0.000000 -0.799804
    4 22.146629 0.000000 0.000000 0.189006 0.172254 -0.037583
    5 0.000008 -0.000006 -5.615750 0.073656 3.014862 -0.125907
    6 15.693467 0.000000 0.000000 0.000000 0.000000 -1.325536
    7 22.146629 0.000000 0.000000 -0.075159 -0.066240 0.038630
    8 1.384163 -0.004728 0.000002 -0.000004 -0.000001 -0.060223
    9 5.939814 -0.004730 0.000000 -0.000024 -0.029902 -0.209330
    10 5.939809 -0.003975 0.000000 -0.000248 -0.013303 0.198750
    11 4.991439 -0.003975 0.000000 0.000000 0.000000 0.000000
    12 4.991436 -0.001575 0.000000 0.000000 0.000000 0.000000
    13 0.000005 0.001564 3.638375 -0.000010 -1.283530 3.140806
    14 6.703436 0.000000 0.000000 -0.046798 0.328722 -1.250380
    15 10.007079 0.000000 0.000002 0.000000 0.000000 -2.057809
    16 9.664095 -0.000001 -0.000002 -1.569555 0.000011 0.000000
    17 0.000005 0.001585 -3.638375 -0.000010 1.283530 3.140787
    18 6.703436 0.000000 -0.000001 0.630817 -0.194747 -1.019035
    19 10.007080 0.000000 -0.000002 0.000000 0.000000 -1.274069
    20 9.664097 -0.000001 0.000001 1.569555 0.165706 0.000000
    21 1.977383 0.000000 0.000000 0.008043 0.042237 0.044785
    22 6.829860 -0.000001 0.000000 0.001241 0.000000 0.000000
    23 -4.603199 -0.446935 0.691439 -1.751612 -0.047171 1.544023
    24 -6.751354 0.809404 1.239717 0.422884 1.599155 -1.196952
  time 22
    0 0.419207 0.000698 30.256485 0.000000 0.000000 -1.570834
    1 0.763061 -0.421887 9.745319 -1.570795 -1.570451 0.000000
    2 -0.000007 0.000010 5.615750 0.095202 3.310894 -0.464747
    3 15.693467 0.000000 0.000000 0.000000 0.000000 -0.913732
    4 22.146629 0.000000 0.000000 0.179396 0.239753 0.185729
    5 0.000008 -0.000006 -5.615750 0.079197 2.965205 -0.058213
    6 15.693467 0.000000 0.000000 0.000000 0.000000 -1.508120
    7 22.146629 0.000000 0.000000 -0.032808 -0.100473 0.139530
    8 1.384163 -0.004728 0.000002 -0.000004 -0.000001 -0.060223
    9 5.939814 -0.004730 0.000000 -0.000048 -0.062871 -0.209330
    10 5.939809 -0.003975 0.000000 -0.000344 -0.024892 0.190972
    11 4.991439 -0.003975 0.000000 0.000000 0.000000 0.000000
    12 4.991436 -0.001575 0.000000 0.000000 0.000000 0.000000
    13 0.000005 0.001564 3.638375 -0.000010 -1.283530 3.140806
    14 6.703436 0.000000 0.000000 0.019284 0.302681 -1.182796
    15 10.007079 0.000000 0.000002 0.000000 0.000000 -2.057809
    16 9.664095 -0.000001 -0.000002 -1.569555 0.000011 0.000000
    17 0.000005 0.001585 -3.638375 -0.000010 1.283530 3.140787
    18 6.703436 0.000000 -0.000001 0.664290 -0.225506 -1.030201
    19 10.007080 0.000000 -0.000002 0.000000 0.000000 -1.274069
    20 9.664097 -0.000001 0.000001 1.569555 0.165706 0.000000
    21 1.977383 0.000000 0.000000 0.016868 0.085832 0.053013
    22 6.829860 -0.000001 0.000000 0.001241 0.000000 0.000000
    23 -4.603199 -0.446935 0.691439 -1.751612 -0.047171 1.544023
    24 -6.751354 0.809404 1.239717 0.422884 1.599155 -1.196952
  time 23
    0 0.419207 0.000698 30.256485 0.000000 0.000000 -1.570834
    1 0.782593 -0.617205 9.745319 -1.570795 -1.570451 0.000000
    2 -0.000007 0.000010 5.615750 0.225683 3.332752 -0.524054
    3 15.693467 0.000000 0.000000 0.000000 0.000000 -0.671198
    4 22.146629 0.000000 0.000000 0.170511 0.300662 0.036139
    5 0.000008 -0.000006 -5.615750 0.083496 2.912481 -0.004364
    6 15.693467 0.000000 0.000000 0.000000 0.000000 -1.661639
    7 22.146629 0.000000 0.000000 0.012782 -0.130949 0.200100
    8 1.384163 -0.004728 0.000002 -0.000004 -0.000001 -0.060223
    9 5.939814 -0.004730 0.000000 -0.000072 -0.093324 -0.209311
    10 5.939809 -0.003975 0.000000 -0.000262 -0.034060 0.180900
    11 4.991439 -0.003975 0.000000 0.000000 0.000000 0.000000
    12 4.991436 -0.001575 0.000000 0.000000 0.000000 0.000000
    13 0.000005 0.001564 3.638375 -0.000010 -1.283530 3.140806
    14 6.703436 0.000000 0.000000 0.082308 0.271723 -1.111776
    15 10.007079 0.000000 0.000002 0.000000 0.000000 -2.057809
    16 9.664095 -0.000001 -0.000002 -1.569555 0.000011 0.000000
    17 0.000005 0.001585 -3.638375 -0.000010 1.283530 3.140787
    18 6.703436 0.000000 -0.000001 0.693066 -0.255053 -1.039792
    19 10.007080 0.000000 -0.000002 0.000000 0.000000 -1.274069
    20 9.664097 -0.000001 0.000001 1.569555 0.165706 0.000000
    21 1.977383 0.000000 0.000000 0.025049 0.124476 0.063765
    22 6.829860 -0.000001 0.000000 0.001241 0.000000 0.000000
    23 -4.603199 -0.446935 0.691439 -1.751612 -0.047171 1.544023
    24 -6.751354 0.809404 1.239717 0.422884 1.599155 -1.196952
  time 24
    0 0.419207 0.000698 30.256485 0.000000 0.000000 -1.570834
    1 0.802125 -0.761741 9.745319 -1.570795 -1.570451 0.000000
    2 -0.000007 0.000010 5.615750 0.340058 3.347612 -0.566401
    3 15.693467 0.000000 0.000000 0.000000 0.000000 -0.326384
    4 22.146629 0.000000 0.000000 0.161264 0.362842 -0.228294
    5 0.000008 -0.000006 -5.615750 0.078146 2.863112 0.022561
    6 15.693467 0.000000 0.000000 0.000000 0.000000 -1.758230
    7 22.146629 0.000000 0.000000 0.050277 -0.148819 0.201774
    8 1.384163 -0.004728 0.000002 -0.000004 -0.000001 -0.060223
    9 5.939814 -0.004730 0.000000 -0.000084 -0.115675 -0.209311
    10 5.939809 -0.003975 0.000000 -0.000110 -0.040088 0.172195
    11 4.991439 -0.003975 0.000000 0.000000 0.000000 0.000000
    12 4.991436 -0.001575 0.000000 0.000000 0.000000 0.000000
    13 0.000005 0.001564 3.638375 -0.000010 -1.283530 3.140806
    14 6.703436 0.000000 0.000000 0.128518 0.244408 -1.056874
    15 10.007079 0.000000 0.000002 0.000000 0.000000 -2.057809
    16 9.664095 -0.000001 -0.000002 -1.569555 0.000011 0.000000
    17 0.000005 0.001585 -3.638375 -0.000010 1.283530 3.140787
    18 6.703436 0.000000 -0.000001 0.713242 -0.277260 -1.046663
    19 10.007080 0.000000 -0.000002 0.000000 0.000000 -1.274069
    20 9.664097 -0.000001 0.000001 1.569555 0.165706 0.000000
    21 1.977383 0.000000 0.000000 0.031116 0.152182 0.073205
    22 6.829860 -0.000001 0.000000 0.001241 0.000000 0.000000
    23 -4.603199 -0.446935 0.691439 -1.751612 -0.047171 1.544023
    24 -6.751354 0.809404 1.239717 0.422884 1.599155 -1.196952
  time 25
    0 0.419207 0.000698 30.256485 0.000000 0.000000 -1.570834
    1 0.809937 -0.816430 9.745319 -1.570795 -1.570451 0.000000
    2 -0.000007 0.000010 5.615750 0.381282 3.360841 -0.546186
    3 15.693467 0.000000 0.000000 0.000000 0.000000 -0.127347
    4 22.146629 0.000000 0.000000 0.152488 0.394497 -0.363999
    5 0.000008 -0.000006 -5.615750 0.052639 2.823809 0.008310
    6 15.693467 0.000000 0.000000 0.000000 0.000000 -1.769953
    7 22.146629 0.000000 0.000000 0.065360 -0.146953 0.126572
    8 1.384163 -0.004728 0.000002 -0.000004 -0.000001 -0.060223
    9 5.939814 -0.004730 0.000000 -0.000096 -0.124364 -0.209311
    10 5.939809 -0.003975 0.000000 -0.000028 -0.042246 0.168469
    11 4.991439 -0.003975 0.000000 0.000000 0.000000 0.000000
    12 4.991436 -0.001575 0.000000 0.000000 0.000000 0.000000
    13 0.000005 0.001564 3.638375 -0.000010 -1.283530 3.140806
    14 6.703436 0.000000 0.000000 0.146390 0.232571 -1.034865
    15 10.007079 0.000000 0.000002 0.000000 0.000000 -2.057809
    16 9.664095 -0.000001 -0.000002 -1.569555 0.000011 0.000000
    17 0.000005 0.001585 -3.638375 -0.000010 1.283530 3.140787
    18 6.703436 0.000000 -0.000001 0.720915 -0.286003 -1.049168
    19 10.007080 0.000000 -0.000002 0.000000 0.000000 -1.274069
    20 9.664097 -0.000001 0.000001 1.569555 0.165706 0.000000
    21 1.977383 0.000000 0.000000 0.033506 0.162721 0.077192
    22 6.829860 -0.000001 0.000000 0.001241 0.000000 0.000000
    23 -4.603199 -0.446935 0.691439 -1.751612 -0.047171 1.544023
    24 -6.751354 0.809404 1.239717 0.422884 1.599155 -1.196952
  time 26
    0 0.419207 0.000698 30.256485 0.000000 0.000000 -1.570834
    1 0.809937 -0.808617 9.745319 -1.570795 -1.570451 0.000000
    2 -0.000007 0.000010 5.615750 0.355589 3.375318 -0.464939
    3 15.693467 0.000000 0.000000 0.000000 0.000000 -0.102973
    4 22.146629 0.000000 0.000000 0.143531 0.394356 -0.329586
    5 0.000008 -0.000006 -5.615750 -0.003820 2.798310 -0.064117
    6 15.693467 0.000000 0.000000 0.000000 0.000000 -1.632974
    7 22.146629 0.000000 0.000000 0.048274 -0.120543 -0.091537
    8 1.384163 -0.004728 0.000002 -0.000004 -0.000001 -0.060223
    9 5.939814 -0.004730 0.000000 -0.000096 -0.123297 -0.209311
    10 5.939809 -0.003975 0.000000 -0.000028 -0.041886 0.168746
    11 4.991439 -0.003975 0.000000 0.000000 0.000000 0.000000
    12 4.991436 -0.001575 0.000000 0.000000 0.000000 0.000000
    13 0.000005 0.001564 3.638375 -0.000010 -1.283530 3.140806
    14 6.703436 0.000000 0.000000 0.144509 0.233846 -1.036828
    15 10.007079 0.000000 0.000002 0.000000 0.000000 -2.057809
    16 9.664095 -0.000001 -0.000002 -1.569555 0.000011 0.000000
    17 0.000005 0.001585 -3.638375 -0.000010 1.283530 3.140787
    18 6.703436 0.000000 -0.000001 0.719791 -0.285046 -1.048811
    19 10.007080 0.000000 -0.000002 0.000000 0.000000 -1.274069
    20 9.664097 -0.000001 0.000001 1.569555 0.165706 0.000000
    21 1.977383 0.000000 0.000000 0.033230 0.161364 0.076890
    22 6.829860 -0.000001 0.000000 0.001241 0.000000 0.000000
    23 -4.603199 -0.446935 0.691439 -1.751612 -0.047171 1.544023
    24 -6.751354 0.809404 1.239717 0.422884 1.599155 -1.196952
  time 27
    0 0.419207 0.000698 30.256485 0.000000 0.000000 -1.570834
    1 0.806031 -0.789086 9.745319 -1.570795 -1.570451 0.000000
    2 -0.000007 0.000010 5.615750 0.310433 3.387493 -0.359836
    3 15.693467 0.000000 0.000000 0.000000 0.000000 -0.111861
    4 22.146629 0.000000 0.000000 0.135517 0.385483 -0.255864
    5 0.000008 -0.000006 -5.615750 -0.087028 2.788819 -0.186373
    6 15.693467 0.000000 0.000000 0.000000 0.000000 -1.366003
    7 22.146629 0.000000 0.000000 0.006775 -0.074876 -0.441123
    8 1.384163 -0.004728 0.000002 -0.000004 -0.000001 -0.060223
    9 5.939814 -0.004730 0.000000 -0.000096 -0.120241 -0.209311
    10 5.939809 -0.003975 0.000000 -0.000041 -0.040843 0.169543
    11 4.991439 -0.003975 0.000000 0.000000 0.000000 0.000000
    12 4.991436 -0.001575 0.000000 0.000000 0.000000 0.000000
    13 0.000005 0.001564 3.638375 -0.000010 -1.283530 3.140806
    14 6.703436 0.000000 0.000000 0.138982 0.237670 -1.042556
    15 10.007079 0.000000 0.000002 0.000000 0.000000 -2.057809
    16 9.664095 -0.000001 -0.000002 -1.569555 0.000011 0.000000
    17 0.000005 0.001585 -3.638375 -0.000010 1.283530 3.140787
    18 6.703436 0.000000 -0.000001 0.716549 -0.282238 -1.047594
    19 10.007080 0.000000 -0.000002 0.000000 0.000000 -1.274069
    20 9.664097 -0.000001 0.000001 1.569555 0.165706 0.000000
    21 1.977383 0.000000 0.000000 0.032357 0.157372 0.075981
    22 6.829860 -0.000001 0.000000 0.001241 0.000000 0.000000
    23 -4.603199 -0.446935 0.691439 -1.751612 -0.047171 1.544023
    24 -6.751354 0.809404 1.239717 0.422884 1.599155 -1.196952
  time 28
    0 0.419207 0.000698 30.256485 0.000000 0.000000 -1.570834
    1 0.806031 -0.757835 9.745319 -1.570795 -1.570451 0.000000
    2 -0.000007 0.000010 5.615750 0.250418 3.392957 -0.239307
    3 15.693467 0.000000 0.000000 0.000000 0.000000 -0.146403
    4 22.146629 0.000000 0.000000 0.130984 0.368585 -0.154035
    5 0.000008 -0.000006 -5.615750 -0.181413 2.798885 -0.333111
    6 15.693467 0.000000 0.000000 0.000000 0.000000 -1.064666
    7 22.146629 0.000000 0.000000 -0.046783 -0.016865 -0.823978
    8 1.384163 -0.004728 0.000002 -0.000004 -0.000001 -0.060223
    9 5.939814 -0.004730 0.000000 -0.000084 -0.115412 -0.209311
    10 5.939809 -0.003975 0.000000 -0.000069 -0.039214 0.170796
    11 4.991439 -0.003975 0.000000 0.000000 0.000000 0.000000
    12 4.991436 -0.001575 0.000000 0.000000 0.000000 0.000000
    13 0.000005 0.001564 3.638375 -0.000010 -1.283530 3.140806
    14 6.703436 0.000000 0.000000 0.130223 0.243497 -1.051556
    15 10.007079 0.000000 0.000002 0.000000 0.000000 -2.057809
    16 9.664095 -0.000001 -0.000002 -1.569555 0.000011 0.000000
    17 0.000005 0.001585 -3.638375 -0.000010 1.283530 3.140787
    18 6.703436 0.000000 -0.000001 0.711522 -0.277835 -1.045733
    19 10.007080 0.000000 -0.000002 0.000000 0.000000 -1.274069
    20 9.664097 -0.000001 0.000001 1.569555 0.165706 0.000000
    21 1.977383 0.000000 0.000000 0.031024 0.151064 0.074568
    22 6.829860 -0.000001 0.000000 0.001241 0.000000 0.000000
    23 -4.603199 -0.446935 0.691439 -1.751612 -0.047171 1.544023
    24 -6.751354 0.809404 1.239717 0.422884 1.599155 -1.196952
  time 29
    0 0.419207 0.000698 30.256485 0.000000 0.000000 -1.570834
    1 0.802125 -0.714865 9.745319 -1.570795 -1.570451 0.000000
    2 -0.000007 0.000010 5.615750 0.181294 3.388643 -0.112359
    3 15.693467 0.000000 0.000000 0.000000 0.000000 -0.198855
    4 22.146629 0.000000 0.000000 0.131637 0.344744 -0.035973
    5 0.000008 -0.000006 -5.615750 -0.270831 2.825247 -0.478321
    6 15.693467 0.000000 0.000000 0.000000 0.000000 -0.824753
    7 22.146629 0.000000 0.000000 -0.100894 0.044830 -1.141095
    8 1.384163 -0.004728 0.000002 -0.000004 -0.000001 -0.060223
    9 5.939814 -0.004730 0.000000 -0.000084 -0.109036 -0.209311
    10 5.939809 -0.003975 0.000000 -0.000096 -0.037044 0.172439
    11 4.991439 -0.003975 0.000000 0.000000 0.000000 0.000000
    12 4.991436 -0.001575 0.000000 0.000000 0.000000 0.000000
    13 0.000005 0.001564 3.638375 -0.000010 -1.283530 3.140806
    14 6.703436 0.000000 0.000000 0.118523 0.251054 -1.063666
    15 10.007079 0.000000 0.000002 0.000000 0.000000 -2.057809
    16 9.664095 -0.000001 -0.000002 -1.569555 0.000011 0.000000
    17 0.000005 0.001585 -3.638375 -0.000010 1.283530 3.140787
    18 6.703436 0.000000 -0.000001 0.704907 -0.271964 -1.043299
    19 10.007080 0.000000 -0.000002 0.000000 0.000000 -1.274069
    20 9.664097 -0.000001 0.000001 1.569555 0.165706 0.000000
    21 1.977383 0.000000 0.000000 0.029232 0.142681 0.072700
    22 6.829860 -0.000001 0.000000 0.001241 0.000000 0.000000
    23 -4.603199 -0.446935 0.691439 -1.751612 -0.047171 1.544023
    24 -6.751354 0.809404 1.239717 0.422884 1.599155 -1.196952
  time 30
    0 0.419207 0.000698 30.256485 0.000000 0.000000 -1.570834
    1 0.798218 -0.664082 9.745319 -1.570795 -1.570451 0.000000
    2 -0.000007 0.000010 5.615750 0.109582 3.373592 0.011139
    3 15.693467 0.000000 0.000000 0.000000 0.000000 -0.261475
    4 22.146629 0.000000 0.000000 0.137983 0.315725 0.085779
    5 0.000008 -0.000006 -5.615750 -0.342766 2.857169 -0.598898
    6 15.693467 0.000000 0.000000 0.000000 0.000000 -0.741892
    7 22.146629 0.000000 0.000000 -0.146271 0.098870 -1.292009
    8 1.384163 -0.004728 0.000002 -0.000004 -0.000001 -0.060223
    9 5.939814 -0.004730 0.000000 -0.000072 -0.101330 -0.209311
    10 5.939809 -0.003975 0.000000 -0.000124 -0.034420 0.174425
    11 4.991439 -0.003975 0.000000 0.000000 0.000000 0.000000
    12 4.991436 -0.001575 0.000000 0.000000 0.000000 0.000000
    13 0.000005 0.001564 3.638375 -0.000010 -1.283530 3.140806
    14 6.703436 0.000000 0.000000 0.104178 0.259886 -1.078475
    15 10.007079 0.000000 0.000002 0.000000 0.000000 -2.057809
    16 9.664095 -0.000001 -0.000002 -1.569555 0.000011 0.000000
    17 0.000005 0.001585 -3.638375 -0.000010 1.283530 3.140787
    18 6.703436 0.000000 -0.000001 0.696969 -0.264880 -1.040436
    19 10.007080 0.000000 -0.000002 0.000000 0.000000 -1.274069
    20 9.664097 -0.000001 0.000001 1.569555 0.165706 0.000000
    21 1.977383 0.000000 0.000000 0.027117 0.132620 0.070479
    22 6.829860 -0.000001 0.000000 0.001241 0.000000 0.000000
    23 -4.603199 -0.446935 0.691439 -1.751612 -0.047171 1.544023
    24 -6.751354 0.809404 1.239717 0.422884 1.599155 -1.196952
  time 31
    0 0.419207 0.000698 30.256485 0.000000 0.000000 -1.570834
    1 0.794312 -0.605486 9.745319 -1.570795 -1.570451 0.000000
    2 -0.000007 0.000010 5.615750 0.041322 3.349721 0.122183
    3 15.693467 0.000000 0.000000 0.000000 0.000000 -0.326721
    4 22.146629 0.000000 0.000000 0.149297 0.283882 0.198139
    5 0.000008 -0.000006 -5.615750 -0.406677 2.895418 -0.710974
    6 15.693467 0.000000 0.000000 0.000000 0.000000 -1.069243
    7 22.146629 0.000000 0.000000 -0.189091 0.151451 -1.032186
    8 1.384163 -0.004728 0.000002 -0.000004 -0.000001 -0.060223
    9 5.939814 -0.004730 0.000000 -0.000072 -0.092533 -0.209311
    10 5.939809 -0.003975 0.000000 -0.000152 -0.031436 0.176702
    11 4.991439 -0.003975 0.000000 0.000000 0.000000 0.000000
    12 4.991436 -0.001575 0.000000 0.000000 0.000000 0.000000
    13 0.000005 0.001564 3.638375 -0.000010 -1.283530 3.140806
    14 6.703436 0.000000 0.000000 0.087599 0.269629 -1.095657
    15 10.007079 0.000000 0.000002 0.000000 0.000000 -2.057809
    16 9.664095 -0.000001 -0.000002 -1.569555 0.000011 0.000000
    17 0.000005 0.001585 -3.638375 -0.000010 1.283530 3.140787
    18 6.703436 0.000000 -0.000001 0.687906 -0.256776 -1.037215
    19 10.007080 0.000000 -0.000002 0.000000 0.000000 -1.274069
    20 9.664097 -0.000001 0.000001 1.569555 0.165706 0.000000
    21 1.977383 0.000000 0.000000 0.024727 0.121123 0.067955
    22 6.829860 -0.000001 0.000000 0.001241 0.000000 0.000000
    23 -4.603199 -0.446935 0.691439 -1.751612 -0.047171 1.544023
    24 -6.751354 0.809404 1.239717 0.422884 1.599155 -1.196952
  time 32
    0 0.419207 0.000698 30.256485 0.000000 0.000000 -1.570834
    1 0.790405 -0.542984 9.745319 -1.570795 -1.570451 0.000000
    2 -0.000007 0.000010 5.615750 -0.018598 3.320864 0.212244
    3 15.693467 0.000000 0.000000 0.000000 0.000000 -0.386850
    4 22.146629 0.000000 0.000000 0.163839 0.252156 0.288766
    5 0.000008 -0.000006 -5.615750 -0.451290 2.938460 -0.802742
    6 15.693467 0.000000 0.000000 0.000000 0.000000 -1.655777
    7 22.146629 0.000000 0.000000 -0.223220 0.202524 -0.491355
    8 1.384163 -0.004728 0.000002 -0.000004 -0.000001 -0.060223
    9 5.939814 -0.004730 0.000000 -0.000060 -0.082837 -0.209330
    10 5.939809 -0.003975 0.000000 -0.000165 -0.028140 0.179208
    11 4.991439 -0.003975 0.000000 0.000000 0.000000 0.000000
    12 4.991436 -0.001575 0.000000 0.000000 0.000000 0.000000
    13 0.000005 0.001564 3.638375 -0.000010 -1.283530 3.140806
    14 6.703436 0.000000 0.000000 0.069080 0.280009 -1.114885
    15 10.007079 0.000000 0.000002 0.000000 0.000000 -2.057809
    16 9.664095 -0.000001 -0.000002 -1.569555 0.000011 0.000000
    17 0.000005 0.001585 -3.638375 -0.000010 1.283530 3.140787
    18 6.703436 0.000000 -0.000001 0.678049 -0.247714 -1.033779
    19 10.007080 0.000000 -0.000002 0.000000 0.000000 -1.274069
    20 9.664097 -0.000001 0.000001 1.569555 0.165706 0.000000
    21 1.977383 0.000000 0.000000 0.022062 0.108428 0.065178
    22 6.829860 -0.000001 0.000000 0.001241 0.000000 0.000000
    23 -4.603199 -0.446935 0.691439 -1.751612 -0.047171 1.544023
    24 -6.751354 0.809404 1.239717 0.422884 1.599155 -1.196952
  time 33
    0 0.419207 0.000698 30.256485 0.000000 0.000000 -1.570834
    1 0.786499 -0.476576 9.745319 -1.570795 -1.570451 0.000000
    2 -0.000007 0.000010 5.615750 -0.066630 3.292487 0.274137
    3 15.693467 0.000000 0.000000 0.000000 0.000000 -0.434050
    4 22.146629 0.000000 0.000000 0.178997 0.223561 0.345516
    5 0.000008 -0.000006 -5.615750 -0.443265 2.961083 -0.817452
    6 15.693467 0.000000 0.000000 0.000000 0.000000 -1.991318
    7 22.146629 0.000000 0.000000 -0.223348 0.227666 -0.126044
    8 1.384163 -0.004728 0.000002 -0.000004 -0.000001 -0.060223
    9 5.939814 -0.004730 0.000000 -0.000048 -0.072483 -0.209330
    10 5.939809 -0.003975 0.000000 -0.000179 -0.024616 0.181877
    11 4.991439 -0.003975 0.000000 0.000000 0.000000 0.000000
    12 4.991436 -0.001575 0.000000 0.000000 0.000000 0.000000
    13 0.000005 0.001564 3.638375 -0.000010 -1.283530 3.140806
    14 6.703436 0.000000 0.000000 0.048973 0.290480 -1.135749
    15 10.007079 0.000000 0.000002 0.000000 0.000000 -2.057809
    16 9.664095 -0.000001 -0.000002 -1.569555 0.000011 0.000000
    17 0.000005 0.001585 -3.638375 -0.000010 1.283530 3.140787
    18 6.703436 0.000000 -0.000001 0.667531 -0.238078 -1.030129
    19 10.007080 0.000000 -0.000002 0.000000 0.000000 -1.274069
    20 9.664097 -0.000001 0.000001 1.569555 0.165706 0.000000
    21 1.977383 0.000000 0.000000 0.019258 0.094854 0.062251
    22 6.829860 -0.000001 0.000000 0.001241 0.000000 0.000000
    23 -4.603199 -0.446935 0.691439 -1.751612 -0.047171 1.544023
    24 -6.751354 0.809404 1.239717 0.422884 1.599155 -1.196952
  time 34
    0 0.419207 0.000698 30.256485 0.000000 0.000000 -1.570834
    1 0.778686 -0.402355 9.745319 -1.570795 -1.570451 0.000000
    2 -0.000007 0.000010 5.615750 -0.046880 3.296322 -0.098563
    3 15.693467 0.000000 0.000000 0.000000 0.000000 -0.471689
    4 22.146629 0.000000 0.000000 0.192415 0.199837 -0.033826
    5 0.000008 -0.000006 -5.615750 -0.390627 2.963096 -0.762432
    6 15.693467 0.000000 0.000000 0.000000 0.000000 -1.988588
    7 22.146629 0.000000 0.000000 -0.195397 0.222619 -0.030676
    8 1.384163 -0.004728 0.000002 -0.000004 -0.000001 -0.060223
    9 5.939814 -0.004730 0.000000 -0.000048 -0.061685 -0.209330
    10 5.939809 -0.003975 0.000000 -0.000179 -0.020949 0.184675
    11 4.991439 -0.003975 0.000000 0.000000 0.000000 0.000000
    12 4.991436 -0.001575 0.000000 0.000000 0.000000 0.000000
    13 0.000005 0.001564 3.638375 -0.000010 -1.283530 3.140806
    14 6.703436 0.000000 0.000000 0.027632 0.300769 -1.158005
    15 10.007079 0.000000 0.000002 0.000000 0.000000 -2.057809
    16 9.664095 -0.000001 -0.000002 -1.569555 0.000011 0.000000
    17 0.000005 0.001585 -3.638375 -0.000010 1.283530 3.140787
    18 6.703436 0.000000 -0.000001 0.656682 -0.227931 -1.026479
    19 10.007080 0.000000 -0.000002 0.000000 0.000000 -1.274069
    20 9.664097 -0.000001 0.000001 1.569555 0.165706 0.000000
    21 1.977383 0.000000 0.000000 0.016362 0.080722 0.059272
    22 6.829860 -0.000001 0.000000 0.001241 0.000000 0.000000
    23 -4.603199 -0.446935 0.691439 -1.751612 -0.047171 1.544023
    24 -6.751354 0.809404 1.239717 0.422884 1.599155 -1.196952
  time 35
    0 0.419207 0.000698 30.256485 0.000000 0.000000 -1.570834
    1 0.774780 -0.332040 9.745319 -1.570795 -1.570451 0.000000
    2 -0.000007 0.000010 5.615750 -0.075162 3.280696 -0.181438
    3 15.693467 0.000000 0.000000 0.000000 0.000000 -0.330155
    4 22.146629 0.000000 0.000000 0.196694 0.182021 -0.315030
    5 0.000008 -0.000006 -5.615750 -0.323755 2.963576 -0.685627
    6 15.693467 0.000000 0.000000 0.000000 0.000000 -1.913274
    7 22.146629 0.000000 0.000000 -0.163357 0.202572 0.012931
    8 1.384163 -0.004728 0.000002 -0.000004 -0.000001 -0.060223
    9 5.939814 -0.004730 0.000000 -0.000036 -0.050659 -0.209330
    10 5.939809 -0.003975 0.000000 -0.000165 -0.017210 0.187523
    11 4.991439 -0.003975 0.000000 0.000000 0.000000 0.000000
    12 4.991436 -0.001575 0.000000 0.000000 0.000000 0.000000
    13 0.000005 0.001564 3.638375 -0.000010 -1.283530 3.140806
    14 6.703436 0.000000 0.000000 0.005585 0.310694 -1.181078
    15 10.007079 0.000000 0.000002 0.000000 0.000000 -2.057809
    16 9.664095 -0.000001 -0.000002 -1.569555 0.000011 0.000000
    17 0.000005 0.001585 -3.638375 -0.000010 1.283530 3.140787
    18 6.703436 0.000000 -0.000001 0.645635 -0.217593 -1.022828
    19 10.007080 0.000000 -0.000002 0.000000 0.000000 -1.274069
    20 9.664097 -0.000001 0.000001 1.569555 0.165706 0.000000
    21 1.977383 0.000000 0.000000 0.013375 0.066270 0.056244
    22 6.829860 -0.000001 0.000000 0.001241 0.000000 0.000000
    23 -4.603199 -0.446935 0.691439 -1.751612 -0.047171 1.544023
    24 -6.751354 0.809404 1.239717 0.422884 1.599155 -1.196952
  time 36
    0 0.419207 0.000698 30.256485 0.000000 0.000000 -1.570834
    1 0.766967 -0.257819 9.745319 -1.570795 -1.570451 0.000000
    2 -0.000007 0.000010 5.615750 -0.112552 3.263344 -0.209894
    3 15.693467 0.000000 0.000000 0.000000 0.000000 -0.161687
    4 22.146629 0.000000 0.000000 0.198108 0.165923 -0.570742
    5 0.000008 -0.000006 -5.615750 -0.246470 2.966931 -0.592943
    6 15.693467 0.000000 0.000000 0.000000 0.000000 -1.785369
    7 22.146629 0.000000 0.000000 -0.133233 0.168435 0.017299
    8 1.384163 -0.004728 0.000002 -0.000004 -0.000001 -0.060223
    9 5.939814 -0.004730 0.000000 -0.000024 -0.039645 -0.209330
    10 5.939809 -0.003975 0.000000 -0.000152 -0.013471 0.190370
    11 4.991439 -0.003975 0.000000 0.000000 0.000000 0.000000
    12 4.991436 -0.001575 0.000000 0.000000 0.000000 0.000000
    13 0.000005 0.001564 3.638375 -0.000010 -1.283530 3.140806
    14 6.703436 0.000000 0.000000 -0.016814 0.319890 -1.204560
    15 10.007079 0.000000 0.000002 0.000000 0.000000 -2.057809
    16 9.664095 -0.000001 -0.000002 -1.569555 0.000011 0.000000
    17 0.000005 0.001585 -3.638375 -0.000010 1.283530 3.140787
    18 6.703436 0.000000 -0.000001 0.634720 -0.207127 -1.019249
    19 10.007080 0.000000 -0.000002 0.000000 0.000000 -1.274069
    20 9.664097 -0.000001 0.000001 1.569555 0.165706 0.000000
    21 1.977383 0.000000 0.000000 0.010433 0.051898 0.053265
    22 6.829860 -0.000001 0.000000 0.001241 0.000000 0.000000
    23 -4.603199 -0.446935 0.691439 -1.751612 -0.047171 1.544023
    24 -6.751354 0.809404 1.239717 0.422884 1.599155 -1.196952
  time 37
    0 0.419207 0.000698 30.256485 0.000000 0.000000 -1.570834
    1 0.759154 -0.187505 9.745319 -1.570795 -1.570451 0.000000
    2 -0.000007 0.000010 5.615750 -0.146395 3.248484 -0.230301
    3 15.693467 0.000000 0.000000 0.000000 0.000000 -0.098327
    4 22.146629 0.000000 0.000000 0.197310 0.152955 -0.705977
    5 0.000008 -0.000006 -5.615750 -0.163262 2.976709 -0.490842
    6 15.693467 0.000000 0.000000 0.000000 0.000000 -1.624544
    7 22.146629 0.000000 0.000000 -0.110055 0.122768 -0.004759
    8 1.384163 -0.004728 0.000002 -0.000004 -0.000001 -0.060223
    9 5.939814 -0.004730 0.000000 -0.000012 -0.028847 -0.209330
    10 5.939809 -0.003975 0.000000 -0.000124 -0.009791 0.193152
    11 4.991439 -0.003975 0.000000 0.000000 0.000000 0.000000
    12 4.991436 -0.001575 0.000000 0.000000 0.000000 0.000000
    13 0.000005 0.001564 3.638375 -0.000010 -1.283530 3.140806
    14 6.703436 0.000000 0.000000 -0.039096 0.328267 -1.227879
    15 10.007079 0.000000 0.000002 0.000000 0.000000 -2.057809
    16 9.664095 -0.000001 -0.000002 -1.569555 0.000011 0.000000
    17 0.000005 0.001585 -3.638375 -0.000010 1.283530 3.140787
    18 6.703436 0.000000 -0.000001 0.624070 -0.196917 -1.015885
    19 10.007080 0.000000 -0.000002 0.000000 0.000000 -1.274069
    20 9.664097 -0.000001 0.000001 1.569555 0.165706 0.000000
    21 1.977383 0.000000 0.000000 0.007584 0.037766 0.050337
    22 6.829860 -0.000001 0.000000 0.001241 0.000000 0.000000
    23 -4.603199 -0.446935 0.691439 -1.751612 -0.047171 1.544023
    24 -6.751354 0.809404 1.239717 0.422884 1.599155 -1.196952
  time 38
    0 0.419207 0.000698 30.256485 0.000000 0.000000 -1.570834
    1 0.755248 -0.121096 9.745319 -1.570795 -1.570451 0.000000
    2 -0.000007 0.000010 5.615750 -0.171226 3.238610 -0.254541
    3 15.693467 0.000000 0.000000 0.000000 0.000000 -0.219123
    4 22.146629 0.000000 0.000000 0.194699 0.143847 -0.648556
    5 0.000008 -0.000006 -5.615750 -0.079099 2.994827 -0.386095
    6 15.693467 0.000000 0.000000 0.000000 0.000000 -1.450470
    7 22.146629 0.000000 0.000000 -0.097273 0.069613 -0.038975
    8 1.384163 -0.004728 0.000002 -0.000004 -0.000001 -0.060223
    9 5.939814 -0.004730 0.000000 -0.000012 -0.018492 -0.209330
    10 5.939809 -0.003975 0.000000 -0.000083 -0.006280 0.195821
    11 4.991439 -0.003975 0.000000 0.000000 0.000000 0.000000
    12 4.991436 -0.001575 0.000000 0.000000 0.000000 0.000000
    13 0.000005 0.001564 3.638375 -0.000010 -1.283530 3.140806
    14 6.703436 0.000000 0.000000 -0.060673 0.335642 -1.250625
    15 10.007079 0.000000 0.000002 0.000000 0.000000 -2.057809
    16 9.664095 -0.000001 -0.000002 -1.569555 0.000011 0.000000
    17 0.000005 0.001585 -3.638375 -0.000010 1.283530 3.140787
    18 6.703436 0.000000 -0.000001 0.613883 -0.187025 -1.012736
    19 10.007080 0.000000 -0.000002 0.000000 0.000000 -1.274069
    20 9.664097 -0.000001 0.000001 1.569555 0.165706 0.000000
    21 1.977383 0.000000 0.000000 0.004826 0.024193 0.047612
    22 6.829860 -0.000001 0.000000 0.001241 0.000000 0.000000
    23 -4.603199 -0.446935 0.691439 -1.751612 -0.047171 1.544023
    24 -6.751354 0.809404 1.239717 0.422884 1.599155 -1.196952
  time 39
    0 0.419207 0.000698 30.256485 0.000000 0.000000 -1.570834
    1 0.747435 -0.054688 9.745319 -1.570795 -1.570451 0.000000
    2 -0.000007 0.000010 5.615750 -0.192126 3.230461 -0.270158
    3 15.693467 0.000000 0.000000 0.000000 0.000000 -0.445093
    4 22.146629 0.000000 0.000000 0.191834 0.136598 -0.470054
    5 0.000008 -0.000006 -5.615750 0.001052 3.021284 -0.285572
    6 15.693467 0.000000 0.000000 0.000000 0.000000 -1.283061
    7 22.146629 0.000000 0.000000 -0.096378 0.013851 -0.070498
    8 1.384163 -0.004728 0.000002 -0.000004 -0.000001 -0.060223
    9 5.939814 -0.004730 0.000000 0.000000 -0.008797 -0.209330
    10 5.939809 -0.003975 0.000000 -0.000041 -0.002984 0.198327
    11 4.991439 -0.003975 0.000000 0.000000 0.000000 0.000000
    12 4.991436 -0.001575 0.000000 0.000000 0.000000 0.000000
    13 0.000005 0.001564 3.638375 -0.000010 -1.283530 3.140806
    14 6.703436 0.000000 0.000000 -0.081132 0.342015 -1.272226
    15 10.007079 0.000000 0.000002 0.000000 0.000000 -2.057809
    16 9.664095 -0.000001 -0.000002 -1.569555 0.000011 0.000000
    17 0.000005 0.001585 -3.638375 -0.000010 1.283530 3.140787
    18 6.703436 0.000000 -0.000001 0.604489 -0.177708 -1.009873
    19 10.007080 0.000000 -0.000002 0.000000 0.000000 -1.274069
    20 9.664097 -0.000001 0.000001 1.569555 0.165706 0.000000
    21 1.977383 0.000000 0.000000 0.002298 0.011497 0.045088
    22 6.829860 -0.000001 0.000000 0.001241 0.000000 0.000000
    23 -4.603199 -0.446935 0.691439 -1.751612 -0.047171 1.544023
    24 -6.751354 0.809404 1.239717 0.422884 1.599155 -1.196952
  time 40
    0 0.419207 0.000698 30.256485 0.000000 0.000000 -1.570834
    1 0.739623 0.000001 9.745319 -1.570795 -1.570451 0.000000
    2 -0.000007 0.000010 5.615750 -0.213122 3.222695 -0.285967
    3 15.693467 0.000000 0.000000 0.000000 0.000000 -0.671130
    4 22.146629 0.000000 0.000000 0.188063 0.129467 -0.291618
    5 0.000008 -0.000006 -5.615750 0.073083 3.054261 -0.195586
    6 15.693467 0.000000 0.000000 0.000000 0.000000 -1.141988
    7 22.146629 0.000000 0.000000 -0.106902 -0.039208 -0.083893
    8 1.384163 -0.004728 0.000002 -0.000004 -0.000001 -0.060223
    9 5.939814 -0.004730 0.000000 0.000000 0.000000 -0.209330
    10 5.939809 -0.003975 0.000000 0.000000 0.000000 0.200604
    11 4.991439 -0.003975 0.000000 0.000000 0.000000 0.000000
    12 4.991436 -0.001575 0.000000 0.000000 0.000000 0.000000
    13 0.000005 0.001564 3.638375 -0.000010 -1.283530 3.140806
    14 6.703436 0.000000 0.000000 -0.099886 0.347296 -1.292026
    15 10.007079 0.000000 0.000002 0.000000 0.000000 -2.057809
    16 9.664095 -0.000001 -0.000002 -1.569555 0.000011 0.000000
    17 0.000005 0.001585 -3.638375 -0.000010 1.283530 3.140787
    18 6.703436 0.000000 -0.000001 0.595956 -0.169221 -1.007296
    19 10.007080 0.000000 -0.000002 0.000000 0.000000 -1.274069
    20 9.664097 -0.000001 0.000001 1.569555 0.165706 0.000000
    21 1.977383 0.000000 0.000000 0.000000 0.000000 0.042766
    22 6.829860 -0.000001 0.000000 0.001241 0.000000 0.000000
    23 -4.603199 -0.446935 0.691439 -1.751612 -0.047171 1.544023
    24 -6.751354 0.809404 1.239717 0.422884 1.599155 -1.196952
end
