version 1
nodes
  0 "Bip01" -1
  1 "Bip01 Pelvis" 0
  2 "Bip01 L Thigh" 1
  3 "Bip01 L Calf" 2
  4 "Bip01 L Foot" 3
  5 "Bip01 R Thigh" 1
  6 "Bip01 R Calf" 5
  7 "Bip01 R Foot" 6
  8 "Bip01 Spine" 1
  9 "Bip01 Spine1" 8
  10 "Bip01 Spine2" 9
  11 "Bip01 Spine3" 10
  12 "Bip01 Neck" 11
  13 "Bip01 L Clavicle" 12
  14 "Bip01 L UpperArm" 13
  15 "Bip01 L Forearm" 14
  16 "Bip01 L Hand" 15
  17 "Bip01 R Clavicle" 12
  18 "Bip01 R UpperArm" 17
  19 "Bip01 R Forearm" 18
  20 "Bip01 R Hand" 19
  21 "Bip01 Head" 12
  22 "Bip01 R Finger0" 20
  23 "Line01" 22
  24 "w_m40a1" 22
end
skeleton
  time 0
    0 -0.057370 -0.651666 24.967261 0.040372 -0.049594 -1.524067
    1 -4.639448 -0.773460 9.745319 -1.570795 -1.570451 0.000000
    2 -0.000007 0.000010 5.615750 0.025886 3.207644 -0.805159
    3 15.693467 0.000000 0.000000 0.000000 0.000000 -1.078159
    4 22.146629 0.000000 0.000000 0.029664 -0.064486 0.272800
    5 0.000008 -0.000006 -5.615750 -0.058655 3.052056 -0.155835
    6 15.693467 0.000000 0.000000 0.000000 0.000000 -0.995374
    7 22.146629 0.000000 0.000000 0.091137 0.055954 0.827418
    8 1.384163 -0.004728 0.000002 -0.431530 -0.129382 0.271166
    9 5.939814 -0.004730 0.000000 -0.093624 -0.026965 0.225909
    10 5.939809 -0.003975 0.000000 -0.095444 -0.068108 0.133519
    11 4.991439 -0.003975 0.000000 -0.087226 0.060312 0.042835
    12 4.991436 -0.001575 0.000000 0.000000 0.000000 0.000000
    13 0.000005 0.001564 3.638375 -0.000010 -1.283530 3.140806
    14 6.703436 0.000000 0.000000 0.481265 -0.765450 -1.588380
    15 10.007079 0.000000 0.000002 0.000000 0.000000 -0.446996
    16 9.664095 -0.000001 -0.000002 -3.820717 -0.067348 -0.377001
    17 0.000005 0.001585 -3.638375 -0.000010 1.082936 3.140787
    18 6.703436 0.000000 -0.000001 -0.059668 0.069576 -2.136058
    19 10.007080 0.000000 -0.000002 0.000000 0.000000 -0.783237
    20 9.664097 -0.000001 0.000001 2.840685 0.149945 0.479192
    21 1.977383 0.000000 0.000000 0.487194 0.362889 -0.096810
    22 6.829860 -0.000001 0.000000 0.001241 0.000000 0.000000
    23 -4.603199 -0.446935 0.691439 -1.751612 -0.047171 1.544023
    24 -6.751354 0.809404 1.239717 0.422884 1.599155 -1.196952
  time 1
    0 0.751248 -0.651666 24.564905 0.063588 -0.030366 -1.530953
    1 -3.592541 -1.218786 9.745319 -1.570795 -1.570451 0.000000
    2 -0.000007 0.000010 5.615750 0.016587 3.193647 -0.817902
    3 15.693467 0.000000 0.000000 0.000000 0.000000 -1.094454
    4 22.146629 0.000000 0.000000 0.017660 -0.071147 0.294669
    5 0.000008 -0.000006 -5.615750 -0.067826 3.033363 -0.170188
    6 15.693467 0.000000 0.000000 0.000000 0.000000 -1.012075
    7 22.146629 0.000000 0.000000 0.089859 0.052676 0.849476
    8 1.384163 -0.004728 0.000002 -0.381453 -0.114965 0.256204
    9 5.939814 -0.004730 0.000000 -0.089932 -0.038039 0.027173
    10 5.939809 -0.003975 0.000000 -0.077813 -0.070481 0.132267
    11 4.991439 -0.003975 0.000000 -0.075388 0.059792 0.043613
    12 4.991436 -0.001575 0.000000 0.000000 0.000000 0.000000
    13 0.000005 0.001564 3.638375 -0.000010 -1.278008 3.140806
    14 6.703436 0.000000 0.000000 0.374911 -0.360633 -1.328682
    15 10.007079 0.000000 0.000002 0.000000 0.000000 -0.456029
    16 9.664095 -0.000001 -0.000002 -3.820717 -0.067348 -0.377001
    17 0.000005 0.001585 -3.638375 -0.000010 1.072407 3.140787
    18 6.703436 0.000000 -0.000001 -0.062645 -0.178474 -1.905295
    19 10.007080 0.000000 -0.000002 0.000000 0.000000 -0.663103
    20 9.664097 -0.000001 0.000001 2.840345 0.151608 0.480859
    21 1.977383 0.000000 0.000000 0.541061 0.372231 -0.285299
    22 6.829860 -0.000001 0.000000 0.001241 0.000000 0.000000
    23 -4.603199 -0.446935 0.691439 -1.751612 -0.047171 1.544023
    24 -6.751354 0.809404 1.239717 0.422884 1.599155 -1.196952
  time 2
    0 1.673151 -0.651666 24.283646 0.103866 0.002189 -1.538413
    1 -2.424536 -1.531296 9.745319 -1.570795 -1.570451 0.000000
    2 -0.000007 0.000010 5.615750 -0.006135 3.162394 -0.834477
    3 15.693467 0.000000 0.000000 0.000000 0.000000 -1.110008
    4 22.146629 0.000000 0.000000 -0.000544 -0.073124 0.325526
    5 0.000008 -0.000006 -5.615750 -0.087219 2.994827 -0.189834
    6 15.693467 0.000000 0.000000 0.000000 0.000000 -1.027812
    7 22.146629 0.000000 0.000000 0.093779 0.052940 0.879907
    8 1.384163 -0.004728 0.000002 -0.331665 -0.099830 0.241976
    9 5.939814 -0.004730 0.000000 -0.084120 -0.048154 -0.171679
    10 5.939809 -0.003975 0.000000 -0.060181 -0.072830 0.130965
    11 4.991439 -0.003975 0.000000 -0.063549 0.059259 0.044375
    12 4.991436 -0.001575 0.000000 0.000000 0.000000 0.000000
    13 0.000005 0.001564 3.638375 -0.000010 -1.272459 3.140806
    14 6.703436 0.000000 0.000000 0.426824 0.046552 -1.123558
    15 10.007079 0.000000 0.000002 0.000000 0.000000 -0.465061
    16 9.664095 -0.000001 -0.000002 -3.820717 -0.067348 -0.377001
    17 0.000005 0.001585 -3.638375 -0.000010 1.061123 3.140787
    18 6.703436 0.000000 -0.000001 -0.130119 -0.431949 -1.655278
    19 10.007080 0.000000 -0.000002 0.000000 0.000000 -0.531523
    20 9.664097 -0.000001 0.000001 2.839615 0.155529 0.484741
    21 1.977383 0.000000 0.000000 0.608947 0.387721 -0.465409
    22 6.829860 -0.000001 0.000000 0.001241 0.000000 0.000000
    23 -4.603199 -0.446935 0.691439 -1.751612 -0.047171 1.544023
    24 -6.751354 0.809404 1.239717 0.422884 1.599155 -1.196952
  time 3
    0 2.638025 -0.651666 24.123485 0.142746 0.033793 -1.543386
    1 -1.795611 -1.796929 9.745319 -1.570795 -1.570451 0.000000
    2 -0.000007 0.000010 5.615750 -0.034321 3.126540 -0.859579
    3 15.693467 0.000000 0.000000 0.000000 0.000000 -1.127313
    4 22.146629 0.000000 0.000000 -0.017189 -0.066087 0.349809
    5 0.000008 -0.000006 -5.615750 -0.113777 2.952360 -0.220067
    6 15.693467 0.000000 0.000000 0.000000 0.000000 -1.051900
    7 22.146629 0.000000 0.000000 0.103152 0.060188 0.908371
    8 1.384163 -0.004728 0.000002 -0.285697 -0.113602 0.233932
    9 5.939814 -0.004730 0.000000 -0.079098 -0.049089 -0.267232
    10 5.939809 -0.003975 0.000000 -0.043293 -0.075048 0.129793
    11 4.991439 -0.003975 0.000000 -0.052200 0.058739 0.044928
    12 4.991436 -0.001575 0.000000 0.000000 0.000000 0.000000
    13 0.000005 0.001564 3.638375 -0.000010 -1.266069 3.140806
    14 6.703436 0.000000 0.000000 0.587794 0.313061 -0.954435
    15 10.007079 0.000000 0.000002 0.000000 0.000000 -0.493390
    16 9.664095 -0.000001 -0.000002 -3.820717 -0.067348 -0.377001
    17 0.000005 0.001585 -3.638375 -0.000010 1.049646 3.140787
    18 6.703436 0.000000 -0.000001 -0.215520 -0.590466 -1.431387
    19 10.007080 0.000000 -0.000002 0.000000 0.000000 -0.397101
    20 9.664097 -0.000001 0.000001 2.838789 0.160004 0.489169
    21 1.977383 0.000000 0.000000 0.615749 0.376063 -0.535373
    22 6.829860 -0.000001 0.000000 0.001241 0.000000 0.000000
    23 -4.603199 -0.446935 0.691439 -1.751612 -0.047171 1.544023
    24 -6.751354 0.809404 1.239717 0.422884 1.599155 -1.196952
  time 4
    0 3.583366 -0.651666 23.998481 0.178083 0.062254 -1.545682
    1 -1.885457 -2.160221 9.745319 -1.570795 -1.570451 0.000000
    2 -0.000007 0.000010 5.615750 -0.065096 3.090781 -0.893879
    3 15.693467 0.000000 0.000000 0.000000 0.000000 -1.147243
    4 22.146629 0.000000 0.000000 -0.031005 -0.053566 0.366043
    5 0.000008 -0.000006 -5.615750 -0.145876 2.911043 -0.261142
    6 15.693467 0.000000 0.000000 0.000000 0.000000 -1.086104
    7 22.146629 0.000000 0.000000 0.116105 0.072005 0.934725
    8 1.384163 -0.004728 0.000002 -0.239972 -0.164440 0.231554
    9 5.939814 -0.004730 0.000000 -0.076450 -0.039549 -0.236140
    10 5.939809 -0.003975 0.000000 -0.026020 -0.077301 0.128557
    11 4.991439 -0.003975 0.000000 -0.040618 0.058205 0.045482
    12 4.991436 -0.001575 0.000000 0.000000 0.000000 0.000000
    13 0.000005 0.001564 3.638375 -0.000010 -1.258312 3.140806
    14 6.703436 0.000000 0.000000 0.786979 0.397648 -0.848151
    15 10.007079 0.000000 0.000002 0.000000 0.000000 -0.597510
    16 9.664095 -0.000001 -0.000002 -3.820717 -0.067348 -0.377001
    17 0.000005 0.001585 -3.638375 -0.000010 1.038557 3.140787
    18 6.703436 0.000000 -0.000001 -0.240922 -0.641455 -1.287089
    19 10.007080 0.000000 -0.000002 0.000000 0.000000 -0.268363
    20 9.664097 -0.000001 0.000001 2.838156 0.163330 0.492504
    21 1.977383 0.000000 0.000000 0.546760 0.341012 -0.549709
    22 6.829860 -0.000001 0.000000 0.001241 0.000000 0.000000
    23 -4.603199 -0.446935 0.691439 -1.751612 -0.047171 1.544023
    24 -6.751354 0.809404 1.239717 0.422884 1.599155 -1.196952
  time 5
    0 4.438861 -0.651666 23.842227 0.208944 0.086718 -1.545586
    1 -2.299533 -2.621173 9.745319 -1.570795 -1.570451 0.000000
    2 -0.000007 0.000010 5.615750 -0.096254 3.058282 -0.933640
    3 15.693467 0.000000 0.000000 0.000000 0.000000 -1.172561
    4 22.146629 0.000000 0.000000 -0.041957 -0.038574 0.379325
    5 0.000008 -0.000006 -5.615750 -0.179503 2.873082 -0.304608
    6 15.693467 0.000000 0.000000 0.000000 0.000000 -1.124725
    7 22.146629 0.000000 0.000000 0.130251 0.086335 0.960569
    8 1.384163 -0.004728 0.000002 -0.191853 -0.233210 0.229564
    9 5.939814 -0.004730 0.000000 -0.073717 -0.025156 -0.146017
    10 5.939809 -0.003975 0.000000 -0.007893 -0.079638 0.127157
    11 4.991439 -0.003975 0.000000 -0.028454 0.057644 0.046154
    12 4.991436 -0.001575 0.000000 0.000000 0.000000 0.000000
    13 0.000005 0.001564 3.638375 -0.000010 -1.249686 3.140806
    14 6.703436 0.000000 0.000000 0.974641 0.394370 -0.798567
    15 10.007079 0.000000 0.000002 0.000000 0.000000 -0.720843
    16 9.664095 -0.000001 -0.000002 -3.820717 -0.067348 -0.377001
    17 0.000005 0.001585 -3.638375 -0.000010 1.028392 3.140787
    18 6.703436 0.000000 -0.000001 -0.205069 -0.646050 -1.209571
    19 10.007080 0.000000 -0.000002 0.000000 0.000000 -0.153989
    20 9.664097 -0.000001 0.000001 2.838059 0.163885 0.493050
    21 1.977383 0.000000 0.000000 0.460904 0.316979 -0.601299
    22 6.829860 -0.000001 0.000000 0.001241 0.000000 0.000000
    23 -4.603199 -0.446935 0.691439 -1.751612 -0.047171 1.544023
    24 -6.751354 0.809404 1.239717 0.422884 1.599155 -1.196952
  time 6
    0 5.130288 -0.651666 23.619563 0.235424 0.107470 -1.544725
    1 -2.834705 -3.152439 9.745319 -1.570795 -1.570451 0.000000
    2 -0.000007 0.000010 5.615750 -0.122235 3.027316 -0.977712
    3 15.693467 0.000000 0.000000 0.000000 0.000000 -1.205150
    4 22.146629 0.000000 0.000000 -0.057006 -0.024006 0.393345
    5 0.000008 -0.000006 -5.615750 -0.208640 2.836079 -0.348278
    6 15.693467 0.000000 0.000000 0.000000 0.000000 -1.166316
    7 22.146629 0.000000 0.000000 0.138346 0.104587 0.986923
    8 1.384163 -0.004728 0.000002 -0.145547 -0.308884 0.224894
    9 5.939814 -0.004730 0.000000 -0.069702 -0.009408 -0.029563
    10 5.939809 -0.003975 0.000000 0.009394 -0.081843 0.125856
    11 4.991439 -0.003975 0.000000 -0.016872 0.057084 0.046648
    12 4.991436 -0.001575 0.000000 0.000000 0.000000 0.000000
    13 0.000005 0.001564 3.638375 -0.000010 -1.240903 3.140806
    14 6.703436 0.000000 0.000000 1.122383 0.398286 -0.791122
    15 10.007079 0.000000 0.000002 0.000000 0.000000 -0.713453
    16 9.664095 -0.000001 -0.000002 -3.820717 -0.067348 -0.377001
    17 0.000005 0.001585 -3.638375 -0.000010 1.019735 3.140787
    18 6.703436 0.000000 -0.000001 -0.125753 -0.629458 -1.189315
    19 10.007080 0.000000 -0.000002 0.000000 0.000000 -0.062506
    20 9.664097 -0.000001 0.000001 2.838789 0.160004 0.489169
    21 1.977383 0.000000 0.000000 0.376288 0.302847 -0.657836
    22 6.829860 -0.000001 0.000000 0.001241 0.000000 0.000000
    23 -4.603199 -0.446935 0.691439 -1.751612 -0.047171 1.544023
    24 -6.751354 0.809404 1.239717 0.422884 1.599155 -1.196952
  time 7
    0 5.599052 -0.651666 23.314867 0.264980 0.135170 -1.552759
    1 -3.295657 -3.671986 9.745319 -1.570795 -1.570451 0.000000
    2 -0.000007 0.000010 5.615750 -0.146395 2.999802 -1.030216
    3 15.693467 0.000000 0.000000 0.000000 0.000000 -1.244405
    4 22.146629 0.000000 0.000000 -0.084893 -0.015298 0.413402
    5 0.000008 -0.000006 -5.615750 -0.243127 2.796297 -0.407523
    6 15.693467 0.000000 0.000000 0.000000 0.000000 -1.216499
    7 22.146629 0.000000 0.000000 0.134171 0.126021 1.016407
    8 1.384163 -0.004728 0.000002 -0.105383 -0.380272 0.216331
    9 5.939814 -0.004730 0.000000 -0.064657 0.004326 0.080523
    10 5.939809 -0.003975 0.000000 0.024161 -0.083712 0.125010
    11 4.991439 -0.003975 0.000000 -0.006968 0.056618 0.046633
    12 4.991436 -0.001575 0.000000 0.000000 0.000000 0.000000
    13 0.000005 0.001564 3.638375 -0.000010 -1.231436 3.140806
    14 6.703436 0.000000 0.000000 1.139256 0.713599 -0.984791
    15 10.007079 0.000000 0.000002 0.000000 0.000000 -0.002518
    16 9.664095 -0.000001 -0.000002 -3.820717 -0.067348 -0.377001
    17 0.000005 0.001585 -3.638375 -0.000010 1.013145 3.140787
    18 6.703436 0.000000 -0.000001 -0.033142 -0.606803 -1.200553
    19 10.007080 0.000000 -0.000002 0.000000 0.000000 -0.002515
    20 9.664097 -0.000001 0.000001 2.840685 0.149945 0.479192
    21 1.977383 0.000000 0.000000 0.308863 0.298296 -0.687922
    22 6.829860 -0.000001 0.000000 0.001241 0.000000 0.000000
    23 -4.603199 -0.446935 0.691439 -1.751612 -0.047171 1.544023
    24 -6.751354 0.809404 1.239717 0.422884 1.599155 -1.196952
  time 8
    0 5.767026 -0.651666 23.182050 0.363065 0.265200 -1.634529
    1 -3.518320 -4.101687 9.745319 -1.570795 -1.570451 0.000000
    2 -0.000007 0.000010 5.615750 -0.190496 2.965098 -1.137331
    3 15.693467 0.000000 0.000000 0.000000 0.000000 -1.271204
    4 22.146629 0.000000 0.000000 -0.219032 -0.040716 0.474714
    5 0.000008 -0.000006 -5.615750 -0.398939 2.740888 -0.626382
    6 15.693467 0.000000 0.000000 0.000000 0.000000 -1.313331
    7 22.146629 0.000000 0.000000 0.093395 0.147384 1.061033
    8 1.384163 -0.004728 0.000002 -0.076245 -0.436239 0.204050
    9 5.939814 -0.004730 0.000000 -0.060342 0.013231 0.151543
    10 5.939809 -0.003975 0.000000 0.034657 -0.085055 0.124896
    11 4.991439 -0.003975 0.000000 0.000023 0.056276 0.045781
    12 4.991436 -0.001575 0.000000 0.000000 0.000000 0.000000
    13 0.000005 0.001564 3.638375 -0.000010 -1.219287 3.140806
    14 6.703436 0.000000 0.000000 1.084286 0.669894 -1.131004
    15 10.007079 0.000000 0.000002 0.000000 0.000000 0.082141
    16 9.664095 -0.000001 -0.000002 -3.820717 -0.067348 -0.377001
    17 0.000005 0.001585 -3.638375 -0.000010 1.009425 3.140787
    18 6.703436 0.000000 -0.000001 0.049547 -0.582553 -1.216944
    19 10.007080 0.000000 -0.000002 0.000000 0.000000 0.011081
    20 9.664097 -0.000001 0.000001 2.844381 0.131728 0.461049
    21 1.977383 0.000000 0.000000 0.270990 0.300931 -0.659805
    22 6.829860 -0.000001 0.000000 0.001241 0.000000 0.000000
    23 -4.603199 -0.446935 0.691439 -1.751612 -0.047171 1.544023
    24 -6.751354 0.809404 1.239717 0.422884 1.599155 -1.196952
  time 9
    0 5.731869 -0.651666 22.697660 0.413413 0.342495 -1.679288
    1 -3.393316 -4.507949 9.745319 -1.570795 -1.570451 0.000000
    2 -0.000007 0.000010 5.615750 -0.197878 2.977848 -1.217907
    3 15.693467 0.000000 0.000000 0.000000 0.000000 -1.330255
    4 22.146629 0.000000 0.000000 -0.295729 -0.079125 0.533141
    5 0.000008 -0.000006 -5.615750 -0.479663 2.748557 -0.775970
    6 15.693467 0.000000 0.000000 0.000000 0.000000 -1.415704
    7 22.146629 0.000000 0.000000 0.049467 0.145901 1.106096
    8 1.384163 -0.004728 0.000002 -0.061157 -0.485463 0.178362
    9 5.939814 -0.004730 0.000000 -0.058293 0.016742 0.176173
    10 5.939809 -0.003975 0.000000 0.039643 -0.085738 0.125807
    11 4.991439 -0.003975 0.000000 0.003379 0.056112 0.043837
    12 4.991436 -0.001575 0.000000 0.000000 0.000000 0.000000
    13 0.000005 0.001564 3.638375 -0.000010 -1.206008 3.140806
    14 6.703436 0.000000 0.000000 1.046483 0.615445 -1.224443
    15 10.007079 0.000000 0.000002 0.000000 0.000000 0.081073
    16 9.664095 -0.000001 -0.000002 -3.820717 -0.067348 -0.377001
    17 0.000005 0.001585 -3.638375 -0.000010 1.008379 3.140787
    18 6.703436 0.000000 -0.000001 0.116360 -0.576682 -1.227609
    19 10.007080 0.000000 -0.000002 0.000000 0.000000 -0.019644
    20 9.664097 -0.000001 0.000001 2.850167 0.106026 0.435229
    21 1.977383 0.000000 0.000000 0.269106 0.319375 -0.556221
    22 6.829860 -0.000001 0.000000 0.001241 0.000000 0.000000
    23 -4.603199 -0.446935 0.691439 -1.751612 -0.047171 1.544023
    24 -6.751354 0.809404 1.239717 0.422884 1.599155 -1.196952
  time 10
    0 5.630303 -0.651666 22.010139 0.459659 0.418647 -1.719838
    1 -3.045649 -4.937650 9.745319 -1.570795 -1.570787 0.000000
    2 -0.000007 0.000010 5.615750 -0.201234 2.998748 -1.308064
    3 15.693467 0.000000 0.000000 0.000000 0.000000 -1.415566
    4 22.146629 0.000000 0.000000 -0.371847 -0.116970 0.606528
    5 0.000008 -0.000006 -5.615750 -0.558858 2.773577 -0.923217
    6 15.693467 0.000000 0.000000 0.000000 0.000000 -1.532850
    7 22.146629 0.000000 0.000000 0.007669 0.145326 1.162589
    8 1.384163 -0.004728 0.000002 -0.056151 -0.535494 0.140176
    9 5.939814 -0.004730 0.000000 -0.058077 0.017006 0.176211
    10 5.939809 -0.003975 0.000000 0.040263 -0.085882 0.127548
    11 4.991439 -0.003975 0.000000 0.003799 0.056099 0.040996
    12 4.991436 -0.001575 0.000000 0.000000 0.000000 0.000000
    13 0.000005 0.001564 3.638375 -0.000010 -1.194516 3.140806
    14 6.703436 0.000000 0.000000 1.017323 0.554167 -1.241625
    15 10.007079 0.000000 0.000002 0.000000 0.000000 0.038210
    16 9.664095 -0.000001 -0.000002 -3.820717 -0.067348 -0.377001
    17 0.000005 0.001585 -3.638375 -0.000010 1.009133 3.140787
    18 6.703436 0.000000 -0.000001 0.173911 -0.589382 -1.236627
    19 10.007080 0.000000 -0.000002 0.000000 0.000000 -0.077715
    20 9.664097 -0.000001 0.000001 2.857997 0.075255 0.404032
    21 1.977383 0.000000 0.000000 0.300084 0.349076 -0.402058
    22 6.829860 -0.000001 0.000000 0.001241 0.000000 0.000000
    23 -4.603199 -0.446935 0.691439 -1.751612 -0.047171 1.544023
    24 -6.751354 0.809404 1.239717 0.422884 1.599155 -1.196952
  time 11
    0 5.466236 -0.651666 21.213240 0.503760 0.495846 -1.757711
    1 -2.690170 -5.269691 9.745319 -1.570795 -1.570451 0.000000
    2 -0.000007 0.000010 5.615750 -0.199028 3.023769 -1.398413
    3 15.693467 0.000000 0.000000 0.000000 0.000000 -1.509159
    4 22.146629 0.000000 0.000000 -0.450140 -0.153850 0.688769
    5 0.000008 -0.000006 -5.615750 -0.634997 2.813552 -1.064509
    6 15.693467 0.000000 0.000000 0.000000 0.000000 -1.653208
    7 22.146629 0.000000 0.000000 -0.031615 0.145446 1.222867
    8 1.384163 -0.004728 0.000002 -0.058594 -0.573797 0.107655
    9 5.939814 -0.004730 0.000000 -0.058892 0.015424 0.162538
    10 5.939809 -0.003975 0.000000 0.038376 -0.085714 0.129728
    11 4.991439 -0.003975 0.000000 0.002540 0.056167 0.037677
    12 4.991436 -0.001575 0.000000 0.000000 0.000000 0.000000
    13 0.000005 0.001564 3.638375 -0.000010 -1.187600 3.140806
    14 6.703436 0.000000 0.000000 0.972936 0.492798 -1.181732
    15 10.007079 0.000000 0.000002 0.000000 0.000000 -0.002518
    16 9.664095 -0.000001 -0.000002 -3.820717 -0.067348 -0.377001
    17 0.000005 0.001585 -3.638375 -0.000010 1.010762 3.140787
    18 6.703436 0.000000 -0.000001 0.217307 -0.605399 -1.235267
    19 10.007080 0.000000 -0.000002 0.000000 0.000000 -0.146001
    20 9.664097 -0.000001 0.000001 2.867673 0.041831 0.369615
    21 1.977383 0.000000 0.000000 0.350642 0.365364 -0.231034
    22 6.829860 -0.000001 0.000000 0.001241 0.000000 0.000000
    23 -4.603199 -0.446935 0.691439 -1.751612 -0.047171 1.544023
    24 -6.751354 0.809404 1.239717 0.422884 1.599155 -1.196952
  time 12
    0 5.251386 -0.651666 20.334307 0.546183 0.573902 -1.793001
    1 -2.533915 -5.398601 9.745319 -1.570795 -1.570451 0.000000
    2 -0.000007 0.000010 5.615750 -0.187811 3.043135 -1.478414
    3 15.693467 0.000000 0.000000 0.000000 0.000000 -1.591306
    4 22.146629 0.000000 0.000000 -0.537281 -0.186187 0.773090
    5 0.000008 -0.000006 -5.615750 -0.698717 2.852184 -1.205597
    6 15.693467 0.000000 0.000000 0.000000 0.000000 -1.762245
    7 22.146629 0.000000 0.000000 -0.084192 0.156666 1.274410
    8 1.384163 -0.004728 0.000002 -0.068000 -0.587605 0.099871
    9 5.939814 -0.004730 0.000000 -0.059947 0.013411 0.146074
    10 5.939809 -0.003975 0.000000 0.035869 -0.085474 0.132006
    11 4.991439 -0.003975 0.000000 0.000862 0.056235 0.034298
    12 4.991436 -0.001575 0.000000 0.000000 0.000000 0.000000
    13 0.000005 0.001564 3.638375 -0.000010 -1.184813 3.140806
    14 6.703436 0.000000 0.000000 0.893215 0.423780 -1.086248
    15 10.007079 0.000000 0.000002 0.000000 0.000000 -0.033721
    16 9.664095 -0.000001 -0.000002 -3.820717 -0.067348 -0.377001
    17 0.000005 0.001585 -3.638375 -0.000010 1.012416 3.140787
    18 6.703436 0.000000 -0.000001 0.240989 -0.609675 -1.217158
    19 10.007080 0.000000 -0.000002 0.000000 0.000000 -0.207451
    20 9.664097 -0.000001 0.000001 2.878712 0.008129 0.334221
    21 1.977383 0.000000 0.000000 0.395087 0.353069 -0.082524
    22 6.829860 -0.000001 0.000000 0.001241 0.000000 0.000000
    23 -4.603199 -0.446935 0.691439 -1.751612 -0.047171 1.544023
    24 -6.751354 0.809404 1.239717 0.422884 1.599155 -1.196952
  time 13
    0 4.985752 -0.651666 19.330370 0.587114 0.652434 -1.825901
    1 -2.783922 -5.199376 9.745319 -1.570795 -1.570451 0.000000
    2 -0.000007 0.000010 5.615750 -0.176882 3.060295 -1.541552
    3 15.693467 0.000000 0.000000 0.000000 0.000000 -1.648606
    4 22.146629 0.000000 0.000000 -0.622936 -0.210169 0.849964
    5 0.000008 -0.000006 -5.615750 -0.752023 2.885927 -1.349535
    6 15.693467 0.000000 0.000000 0.000000 0.000000 -1.849362
    7 22.146629 0.000000 0.000000 -0.150447 0.181114 1.306733
    8 1.384163 -0.004728 0.000002 -0.082726 -0.563540 0.134641
    9 5.939814 -0.004730 0.000000 -0.060462 0.012392 0.137737
    10 5.939809 -0.003975 0.000000 0.034615 -0.085378 0.133991
    11 4.991439 -0.003975 0.000000 0.000023 0.056276 0.031233
    12 4.991436 -0.001575 0.000000 0.000000 0.000000 0.000000
    13 0.000005 0.001564 3.638375 -0.000010 -1.183498 3.140806
    14 6.703436 0.000000 0.000000 0.762404 0.336097 -1.021201
    15 10.007079 0.000000 0.000002 0.000000 0.000000 -0.074531
    16 9.664095 -0.000001 -0.000002 -3.820717 -0.067348 -0.377001
    17 0.000005 0.001585 -3.638375 -0.000010 1.013145 3.140787
    18 6.703436 0.000000 -0.000001 0.242378 -0.586510 -1.178937
    19 10.007080 0.000000 -0.000002 0.000000 0.000000 -0.245243
    20 9.664097 -0.000001 0.000001 2.890383 -0.023592 0.300149
    21 1.977383 0.000000 0.000000 0.402854 0.308995 0.003341
    22 6.829860 -0.000001 0.000000 0.001241 0.000000 0.000000
    23 -4.603199 -0.446935 0.691439 -1.751612 -0.047171 1.544023
    24 -6.751354 0.809404 1.239717 0.422884 1.599155 -1.196952
  time 14
    0 4.681056 -0.651666 17.427968 0.619747 0.716783 -1.850862
    1 -4.147245 -4.004027 9.745319 -1.570795 -1.570451 0.000000
    2 -0.000007 0.000010 5.615750 -0.158379 3.072566 -1.558032
    3 15.693467 0.000000 0.000000 0.000000 0.000000 -1.706647
    4 22.146629 0.000000 0.000000 -0.634395 -0.224573 0.881157
    5 0.000008 -0.000006 -5.615750 -0.740750 2.861195 -1.391373
    6 15.693467 0.000000 0.000000 0.000000 0.000000 -1.895128
    7 22.146629 0.000000 0.000000 -0.202555 0.217667 1.324642
    8 1.384163 -0.004728 0.000002 -0.105359 -0.427470 0.284962
    9 5.939814 -0.004730 0.000000 -0.060450 0.012452 0.138712
    10 5.939809 -0.003975 0.000000 0.034602 -0.085426 0.135504
    11 4.991439 -0.003975 0.000000 0.000023 0.056276 0.028811
    12 4.991436 -0.001575 0.000000 0.000000 0.000000 0.000000
    13 0.000005 0.001564 3.638375 -0.000010 -1.183314 3.140806
    14 6.703436 0.000000 0.000000 0.504311 0.230112 -1.072748
    15 10.007079 0.000000 0.000002 0.000000 0.000000 -0.121089
    16 9.664095 -0.000001 -0.000002 -3.820717 -0.067348 -0.377001
    17 0.000005 0.001585 -3.638375 -0.000010 1.013145 3.140787
    18 6.703436 0.000000 -0.000001 0.218365 -0.435714 -1.119099
    19 10.007080 0.000000 -0.000002 0.000000 0.000000 -0.259299
    20 9.664097 -0.000001 0.000001 2.902880 -0.054482 0.266135
    21 1.977383 0.000000 0.000000 0.322559 0.188830 -0.061777
    22 6.829860 -0.000001 0.000000 0.001241 0.000000 0.000000
    23 -4.603199 -0.446935 0.691439 -1.751612 -0.047171 1.544023
    24 -6.751354 0.809404 1.239717 0.422884 1.599155 -1.196952
  time 15
    0 4.341202 -0.651666 14.861484 0.651914 0.781322 -1.874389
    1 -6.112149 -1.980528 9.745319 -1.570795 -1.570451 0.000000
    2 -0.000007 0.000010 5.615750 2.998865 0.058665 1.554346
    3 15.693467 0.000000 0.000000 0.000000 0.000000 -1.783138
    4 22.146629 0.000000 0.000000 -0.636353 -0.232975 0.907520
    5 0.000008 -0.000006 -5.615750 -0.727854 2.839051 -1.433669
    6 15.693467 0.000000 0.000000 0.000000 0.000000 -1.942742
    7 22.146629 0.000000 0.000000 -0.253216 0.255464 1.329155
    8 1.384163 -0.004728 0.000002 -0.093728 -0.207764 0.495870
    9 5.939814 -0.004730 0.000000 -0.060426 0.012656 0.142020
    10 5.939809 -0.003975 0.000000 0.034602 -0.085474 0.136904
    11 4.991439 -0.003975 0.000000 0.000023 0.056276 0.026568
    12 4.991436 -0.001575 0.000000 0.000000 0.000000 0.000000
    13 0.000005 0.001564 3.638375 -0.000010 -1.183945 3.140806
    14 6.703436 0.000000 0.000000 0.159207 0.131867 -1.177641
    15 10.007079 0.000000 0.000002 0.000000 0.000000 -0.169536
    16 9.664095 -0.000001 -0.000002 -3.820717 -0.067348 -0.377001
    17 0.000005 0.001585 -3.638375 -0.000010 1.013145 3.140787
    18 6.703436 0.000000 -0.000001 0.203216 -0.195832 -1.054107
    19 10.007080 0.000000 -0.000002 0.000000 0.000000 -0.263217
    20 9.664097 -0.000001 0.000001 2.917225 -0.086441 0.229935
    21 1.977383 0.000000 0.000000 0.197451 0.005509 -0.208520
    22 6.829860 -0.000001 0.000000 0.001241 0.000000 0.000000
    23 -4.603199 -0.446935 0.691439 -1.751612 -0.047171 1.544023
    24 -6.751354 0.809404 1.239717 0.422884 1.599155 -1.196952
  time 16
    0 3.966190 -0.651666 13.099711 0.683988 0.846146 -1.896290
    1 -7.256715 -0.500014 9.745319 -1.570795 -1.570451 0.000000
    2 -0.000007 0.000010 5.615750 3.015451 0.048790 1.528285
    3 15.693467 0.000000 0.000000 0.000000 0.000000 -1.858753
    4 22.146629 0.000000 0.000000 -0.633235 -0.241659 0.931267
    5 0.000008 -0.000006 -5.615750 -0.712378 2.812593 -1.470111
    6 15.693467 0.000000 0.000000 0.000000 0.000000 -1.987946
    7 22.146629 0.000000 0.000000 -0.305623 0.290581 1.330102
    8 1.384163 -0.004728 0.000002 -0.056562 -0.050498 0.632569
    9 5.939814 -0.004730 0.000000 -0.060390 0.012907 0.146227
    10 5.939809 -0.003975 0.000000 0.034588 -0.085534 0.138694
    11 4.991439 -0.003975 0.000000 0.000023 0.056276 0.023713
    12 4.991436 -0.001575 0.000000 0.000000 0.000000 0.000000
    13 0.000005 0.001564 3.638375 -0.000010 -1.185023 3.140806
    14 6.703436 0.000000 0.000000 -0.130046 0.108012 -1.197524
    15 10.007079 0.000000 0.000002 0.000000 0.000000 -0.215684
    16 9.664095 -0.000001 -0.000002 -3.820717 -0.067348 -0.377001
    17 0.000005 0.001585 -3.638375 -0.000010 1.013145 3.140787
    18 6.703436 0.000000 -0.000001 0.209699 -0.062649 -0.981815
    19 10.007080 0.000000 -0.000002 0.000000 0.000000 -0.260451
    20 9.664097 -0.000001 0.000001 2.933029 -0.118439 0.192441
    21 1.977383 0.000000 0.000000 0.105988 -0.130305 -0.277576
    22 6.829860 -0.000001 0.000000 0.001241 0.000000 0.000000
    23 -4.603199 -0.446935 0.691439 -1.751612 -0.047171 1.544023
    24 -6.751354 0.809404 1.239717 0.422884 1.599155 -1.196952
  time 17
    0 3.571647 -0.651666 12.627041 0.716154 0.911161 -1.916565
    1 -7.221558 -0.171879 9.745319 -1.570795 -1.570451 0.000000
    2 -0.000007 0.000010 5.615750 3.036063 0.037861 1.520908
    3 15.693467 0.000000 0.000000 0.000000 0.000000 -1.914303
    4 22.146629 0.000000 0.000000 -0.629753 -0.256628 0.954745
    5 0.000008 -0.000006 -5.615750 -0.693558 2.775303 -1.494033
    6 15.693467 0.000000 0.000000 0.000000 0.000000 -2.026486
    7 22.146629 0.000000 0.000000 -0.361694 0.320843 1.338328
    8 1.384163 -0.004728 0.000002 -0.047253 -0.016176 0.623703
    9 5.939814 -0.004730 0.000000 -0.060342 0.013195 0.151103
    10 5.939809 -0.003975 0.000000 0.034574 -0.085618 0.141118
    11 4.991439 -0.003975 0.000000 0.000023 0.056276 0.019825
    12 4.991436 -0.001575 0.000000 0.000000 0.000000 0.000000
    13 0.000005 0.001564 3.638375 -0.000010 -1.186233 3.140806
    14 6.703436 0.000000 0.000000 -0.286196 0.192690 -1.087557
    15 10.007079 0.000000 0.000002 0.000000 0.000000 -0.256001
    16 9.664095 -0.000001 -0.000002 -3.820717 -0.067348 -0.377001
    17 0.000005 0.001585 -3.638375 -0.000010 1.013145 3.140787
    18 6.703436 0.000000 -0.000001 0.203018 -0.127677 -0.891342
    19 10.007080 0.000000 -0.000002 0.000000 0.000000 -0.254230
    20 9.664097 -0.000001 0.000001 2.950000 -0.149566 0.154603
    21 1.977383 0.000000 0.000000 0.066782 -0.157132 -0.208520
    22 6.829860 -0.000001 0.000000 0.001241 0.000000 0.000000
    23 -4.603199 -0.446935 0.691439 -1.751612 -0.047171 1.544023
    24 -6.751354 0.809404 1.239717 0.422884 1.599155 -1.196952
  time 18
    0 3.157572 -0.651666 12.603602 0.748974 0.976367 -1.934832
    1 -6.643415 -0.371104 9.745319 -1.570795 -1.570451 0.000000
    2 -0.000007 0.000010 5.615750 3.063578 0.023481 1.547447
    3 15.693467 0.000000 0.000000 0.000000 0.000000 -1.930463
    4 22.146629 0.000000 0.000000 -0.631421 -0.283952 0.980437
    5 0.000008 -0.000006 -5.615750 -0.669771 2.720853 -1.498207
    6 15.693467 0.000000 0.000000 0.000000 0.000000 -2.054027
    7 22.146629 0.000000 0.000000 -0.422282 0.346320 1.365483
    8 1.384163 -0.004728 0.000002 -0.055909 -0.038089 0.543007
    9 5.939814 -0.004730 0.000000 -0.060294 0.013543 0.156859
    10 5.939809 -0.003975 0.000000 0.034560 -0.085714 0.143916
    11 4.991439 -0.003975 0.000000 0.000023 0.056276 0.015355
    12 4.991436 -0.001575 0.000000 0.000000 0.000000 0.000000
    13 0.000005 0.001564 3.638375 -0.000010 -1.187206 3.140806
    14 6.703436 0.000000 0.000000 -0.354158 0.317340 -0.920725
    15 10.007079 0.000000 0.000002 0.000000 0.000000 -0.286383
    16 9.664095 -0.000001 -0.000002 -3.820717 -0.067348 -0.377001
    17 0.000005 0.001585 -3.638375 -0.000010 1.013145 3.140787
    18 6.703436 0.000000 -0.000001 0.166370 -0.274453 -0.785695
    19 10.007080 0.000000 -0.000002 0.000000 0.000000 -0.248085
    20 9.664097 -0.000001 0.000001 2.967555 -0.178991 0.117426
    21 1.977383 0.000000 0.000000 0.058693 -0.136373 -0.086764
    22 6.829860 -0.000001 0.000000 0.001241 0.000000 0.000000
    23 -4.603199 -0.446935 0.691439 -1.751612 -0.047171 1.544023
    24 -6.751354 0.809404 1.239717 0.422884 1.599155 -1.196952
  time 19
    0 2.731777 -0.651666 12.177808 0.782912 1.041762 -1.950899
    1 -6.135587 -0.570329 9.745319 -1.570795 -1.570451 0.000000
    2 -0.000007 0.000010 5.615750 -0.041511 3.140057 -1.518462
    3 15.693467 0.000000 0.000000 0.000000 0.000000 -1.888110
    4 22.146629 0.000000 0.000000 -0.646471 -0.329799 1.011495
    5 0.000008 -0.000006 -5.615750 -0.637385 2.643589 -1.473928
    6 15.693467 0.000000 0.000000 0.000000 0.000000 -2.066392
    7 22.146629 0.000000 0.000000 -0.486832 0.369309 1.424087
    8 1.384163 -0.004728 0.000002 -0.062366 -0.059859 0.475285
    9 5.939814 -0.004730 0.000000 -0.060235 0.013902 0.162787
    10 5.939809 -0.003975 0.000000 0.034547 -0.085822 0.146796
    11 4.991439 -0.003975 0.000000 0.000023 0.056276 0.010735
    12 4.991436 -0.001575 0.000000 0.000000 0.000000 0.000000
    13 0.000005 0.001564 3.638375 -0.000010 -1.187600 3.140806
    14 6.703436 0.000000 0.000000 -0.402249 0.424235 -0.776476
    15 10.007079 0.000000 0.000002 0.000000 0.000000 -0.302888
    16 9.664095 -0.000001 -0.000002 -3.820717 -0.067348 -0.377001
    17 0.000005 0.001585 -3.638375 -0.000010 1.013145 3.140787
    18 6.703436 0.000000 -0.000001 0.124232 -0.393341 -0.686276
    19 10.007080 0.000000 -0.000002 0.000000 0.000000 -0.245243
    20 9.664097 -0.000001 0.000001 2.985012 -0.205841 0.082060
    21 1.977383 0.000000 0.000000 0.057682 -0.119286 0.001019
    22 6.829860 -0.000001 0.000000 0.001241 0.000000 0.000000
    23 -4.603199 -0.446935 0.691439 -1.751612 -0.047171 1.544023
    24 -6.751354 0.809404 1.239717 0.422884 1.599155 -1.196952
  time 20
    0 2.298170 -0.651666 10.919957 0.818808 1.107253 -1.964097
    1 -6.073085 -0.570329 9.745319 -1.570795 -1.570451 0.000000
    2 -0.000007 0.000010 5.615750 0.020326 3.193552 -1.338819
    3 15.693467 0.000000 0.000000 0.000000 0.000000 -1.717421
    4 22.146629 0.000000 0.000000 -0.704275 -0.429235 1.054494
    5 0.000008 -0.000006 -5.615750 -0.596880 2.512833 -1.397073
    6 15.693467 0.000000 0.000000 0.000000 0.000000 -2.094895
    7 22.146629 0.000000 0.000000 -0.546184 0.415383 1.581626
    8 1.384163 -0.004728 0.000002 -0.062728 -0.060576 0.463782
    9 5.939814 -0.004730 0.000000 -0.060175 0.014262 0.168658
    10 5.939809 -0.003975 0.000000 0.034533 -0.085918 0.149676
    11 4.991439 -0.003975 0.000000 0.000023 0.056276 0.006130
    12 4.991436 -0.001575 0.000000 0.000000 0.000000 0.000000
    13 0.000005 0.001564 3.638375 -0.000010 -1.187600 3.140806
    14 6.703436 0.000000 0.000000 -0.479207 0.517382 -0.714292
    15 10.007079 0.000000 0.000002 0.000000 0.000000 -0.294923
    16 9.664095 -0.000001 -0.000002 -3.820717 -0.067348 -0.377001
    17 0.000005 0.001585 -3.638375 -0.000010 1.013145 3.140787
    18 6.703436 0.000000 -0.000001 0.109612 -0.458368 -0.612981
    19 10.007080 0.000000 -0.000002 0.000000 0.000000 -0.250773
    20 9.664097 -0.000001 0.000001 3.002421 -0.230513 0.048161
    21 1.977383 0.000000 0.000000 0.075561 -0.105394 -0.184896
    22 6.829860 -0.000001 0.000000 0.001241 0.000000 0.000000
    23 -4.603199 -0.446935 0.691439 -1.751612 -0.047171 1.544023
    24 -6.751354 0.809404 1.239717 0.422884 1.599155 -1.196952
  time 21
    0 1.868470 -0.651666 9.255844 0.857968 1.172935 -1.973183
    1 -6.162932 -0.562516 9.745319 -1.570795 -1.570451 0.000000
    2 -0.000007 0.000010 5.615750 0.086094 3.287694 -1.062121
    3 15.693467 0.000000 0.000000 0.000000 0.000000 -1.426003
    4 22.146629 0.000000 0.000000 -0.842766 -0.560820 1.132912
    5 0.000008 -0.000006 -5.615750 -0.510233 2.337310 -1.237408
    6 15.693467 0.000000 0.000000 0.000000 0.000000 -2.123640
    7 22.146629 0.000000 0.000000 -0.585681 0.480235 1.832204
    8 1.384163 -0.004728 0.000002 -0.062487 -0.060092 0.471523
    9 5.939814 -0.004730 0.000000 -0.060103 0.014621 0.174643
    10 5.939809 -0.003975 0.000000 0.034519 -0.086013 0.152605
    11 4.991439 -0.003975 0.000000 0.000023 0.056276 0.001435
    12 4.991436 -0.001575 0.000000 0.000000 0.000000 0.000000
    13 0.000005 0.001564 3.638375 -0.000010 -1.187600 3.140806
    14 6.703436 0.000000 0.000000 -0.562220 0.616082 -0.703574
    15 10.007079 0.000000 0.000002 0.000000 0.000000 -0.261503
    16 9.664095 -0.000001 -0.000002 -3.820717 -0.067348 -0.377001
    17 0.000005 0.001585 -3.638375 -0.000010 1.013145 3.140787
    18 6.703436 0.000000 -0.000001 0.103460 -0.515802 -0.548849
    19 10.007080 0.000000 -0.000002 0.000000 0.000000 -0.261911
    20 9.664097 -0.000001 0.000001 3.019927 -0.253483 0.015239
    21 1.977383 0.000000 0.000000 0.114674 -0.063715 -0.627649
    22 6.829860 -0.000001 0.000000 0.001241 0.000000 0.000000
    23 -4.603199 -0.446935 0.691439 -1.751612 -0.047171 1.544023
    24 -6.751354 0.809404 1.239717 0.422884 1.599155 -1.196952
  time 22
    0 1.442676 -0.651666 7.533135 0.902629 1.238616 -1.976148
    1 -6.116055 -0.562516 9.745319 -1.570795 -1.570451 0.000000
    2 -0.000007 0.000010 5.615750 0.113896 3.384617 -0.758212
    3 15.693467 0.000000 0.000000 0.000000 0.000000 -1.110479
    4 22.146629 0.000000 0.000000 -1.042252 -0.642817 1.257280
    5 0.000008 -0.000006 -5.615750 -0.297389 2.184890 -0.952534
    6 15.693467 0.000000 0.000000 0.000000 0.000000 -2.077873
    7 22.146629 0.000000 0.000000 -0.608944 0.521740 2.074992
    8 1.384163 -0.004728 0.000002 -0.062777 -0.060666 0.462441
    9 5.939814 -0.004730 0.000000 -0.060043 0.014981 0.180666
    10 5.939809 -0.003975 0.000000 0.034505 -0.086121 0.155566
    11 4.991439 -0.003975 0.000000 0.000023 0.056276 -0.003274
    12 4.991436 -0.001575 0.000000 0.000000 0.000000 0.000000
    13 0.000005 0.001564 3.638375 -0.000010 -1.187600 3.140806
    14 6.703436 0.000000 0.000000 -0.632476 0.717150 -0.708074
    15 10.007079 0.000000 0.000002 0.000000 0.000000 -0.212645
    16 9.664095 -0.000001 -0.000002 -3.820717 -0.067348 -0.377001
    17 0.000005 0.001585 -3.638375 -0.000010 1.013145 3.140787
    18 6.703436 0.000000 -0.000001 0.082689 -0.570620 -0.479491
    19 10.007080 0.000000 -0.000002 0.000000 0.000000 -0.270207
    20 9.664097 -0.000001 0.000001 3.036995 -0.274234 -0.015843
    21 1.977383 0.000000 0.000000 0.134484 -0.011737 -1.031079
    22 6.829860 -0.000001 0.000000 0.001241 0.000000 0.000000
    23 -4.603199 -0.446935 0.691439 -1.751612 -0.047171 1.544023
    24 -6.751354 0.809404 1.239717 0.422884 1.599155 -1.196952
  time 23
    0 1.028600 -0.651666 6.122936 0.957172 1.304297 -1.968592
    1 -5.639478 -0.593767 9.745319 -1.570795 -1.570451 0.000000
    2 -0.000007 0.000010 5.615750 0.099228 3.429100 -0.496844
    3 15.693467 0.000000 0.000000 0.000000 0.000000 -0.867339
    4 22.146629 0.000000 0.000000 -1.188285 -0.641099 1.369238
    5 0.000008 -0.000006 -5.615750 0.057607 2.145586 -0.556856
    6 15.693467 0.000000 0.000000 0.000000 0.000000 -1.882683
    7 22.146629 0.000000 0.000000 -0.656153 0.510042 2.190598
    8 1.384163 -0.004728 0.000002 -0.064590 -0.064593 0.400557
    9 5.939814 -0.004730 0.000000 -0.059971 0.015340 0.186651
    10 5.939809 -0.003975 0.000000 0.034492 -0.086217 0.158495
    11 4.991439 -0.003975 0.000000 0.000023 0.056276 -0.007969
    12 4.991436 -0.001575 0.000000 0.000000 0.000000 0.000000
    13 0.000005 0.001564 3.638375 -0.000010 -1.187600 3.140806
    14 6.703436 0.000000 0.000000 -0.657697 0.818855 -0.672400
    15 10.007079 0.000000 0.000002 0.000000 0.000000 -0.158779
    16 9.664095 -0.000001 -0.000002 -3.820717 -0.067348 -0.377001
    17 0.000005 0.001585 -3.638375 -0.000010 1.013145 3.140787
    18 6.703436 0.000000 -0.000001 0.020044 -0.621353 -0.383435
    19 10.007080 0.000000 -0.000002 0.000000 0.000000 -0.267441
    20 9.664097 -0.000001 0.000001 3.052897 -0.292491 -0.044250
    21 1.977383 0.000000 0.000000 0.134300 0.043435 -1.349704
    22 6.829860 -0.000001 0.000000 0.001241 0.000000 0.000000
    23 -4.603199 -0.446935 0.691439 -1.751612 -0.047171 1.544023
    24 -6.751354 0.809404 1.239717 0.422884 1.599155 -1.196952
  time 24
    0 0.630151 -0.651666 5.572138 1.031762 1.369788 -1.940762
    1 -4.268343 -0.687520 9.745319 -1.570795 -1.570451 0.000000
    2 -0.000007 0.000010 5.615750 0.054840 3.348762 -0.300146
    3 15.693467 0.000000 0.000000 0.000000 0.000000 -0.756980
    4 22.146629 0.000000 0.000000 -1.150063 -0.559314 1.425250
    5 0.000008 -0.000006 -5.615750 0.427314 2.319096 -0.201490
    6 15.693467 0.000000 0.000000 0.000000 0.000000 -1.314214
    7 22.146629 0.000000 0.000000 -0.833996 0.431984 2.001100
    8 1.384163 -0.004728 0.000002 -0.068121 -0.075281 0.239641
    9 5.939814 -0.004730 0.000000 -0.059911 0.015700 0.192560
    10 5.939809 -0.003975 0.000000 0.034478 -0.086325 0.161391
    11 4.991439 -0.003975 0.000000 0.000023 0.056276 -0.012604
    12 4.991436 -0.001575 0.000000 0.000000 0.000000 0.000000
    13 0.000005 0.001564 3.638375 -0.000010 -1.187600 3.140806
    14 6.703436 0.000000 0.000000 -0.564278 0.917737 -0.499268
    15 10.007079 0.000000 0.000002 0.000000 0.000000 -0.109922
    16 9.664095 -0.000001 -0.000002 -3.820717 -0.067348 -0.377001
    17 0.000005 0.001585 -3.638375 -0.000010 1.013145 3.140787
    18 6.703436 0.000000 -0.000001 -0.125952 -0.660153 -0.224607
    19 10.007080 0.000000 -0.000002 0.000000 0.000000 -0.245243
    20 9.664097 -0.000001 0.000001 3.067047 -0.307738 -0.068920
    21 1.977383 0.000000 0.000000 0.136966 0.077209 -1.350260
    22 6.829860 -0.000001 0.000000 0.001241 0.000000 0.000000
    23 -4.603199 -0.446935 0.691439 -1.751612 -0.047171 1.544023
    24 -6.751354 0.809404 1.239717 0.422884 1.599155 -1.196952
  time 25
    0 0.259046 -0.651666 5.861209 1.155208 1.434517 -1.863773
    1 -2.115933 -0.832056 9.745319 -1.570795 -1.570451 0.000000
    2 -0.000007 0.000010 5.615750 0.017546 3.187320 -0.158252
    3 15.693467 0.000000 0.000000 0.000000 0.000000 -0.718129
    4 22.146629 0.000000 0.000000 -1.001926 -0.444203 1.447454
    5 0.000008 -0.000006 -5.615750 0.644934 2.628826 -0.035309
    6 15.693467 0.000000 0.000000 0.000000 0.000000 -0.524461
    7 22.146629 0.000000 0.000000 -1.129138 0.426458 1.624141
    8 1.384163 -0.004728 0.000002 -0.070128 -0.091455 0.005985
    9 5.939814 -0.004730 0.000000 -0.059839 0.016047 0.198450
    10 5.939809 -0.003975 0.000000 0.034450 -0.086421 0.164288
    11 4.991439 -0.003975 0.000000 0.000023 0.056276 -0.017224
    12 4.991436 -0.001575 0.000000 0.000000 0.000000 0.000000
    13 0.000005 0.001564 3.638375 -0.000010 -1.187600 3.140806
    14 6.703436 0.000000 0.000000 -0.395841 0.822588 -0.305517
    15 10.007079 0.000000 0.000002 0.000000 0.000000 -0.058930
    16 9.664095 -0.000001 -0.000002 -3.820717 -0.067348 -0.377001
    17 0.000005 0.001585 -3.638375 -0.000010 1.013145 3.140787
    18 6.703436 0.000000 -0.000001 -0.212610 -0.623842 -0.231264
    19 10.007080 0.000000 -0.000002 0.000000 0.000000 -0.145617
    20 9.664097 -0.000001 0.000001 3.070354 -0.311143 -0.074556
    21 1.977383 0.000000 0.000000 0.181503 0.003673 -0.606700
    22 6.829860 -0.000001 0.000000 0.001241 0.000000 0.000000
    23 -4.603199 -0.446935 0.691439 -1.751612 -0.047171 1.544023
    24 -6.751354 0.809404 1.239717 0.422884 1.599155 -1.196952
  time 26
    0 -0.084715 -0.651666 6.337786 1.449371 1.495630 -1.615975
    1 0.114604 -0.988310 9.745319 -1.570795 -1.570451 0.000000
    2 -0.000007 0.000010 5.615750 0.004699 3.076784 -0.081221
    3 15.693467 0.000000 0.000000 0.000000 0.000000 -0.664666
    4 22.146629 0.000000 0.000000 -0.899953 -0.370585 1.426189
    5 0.000008 -0.000006 -5.615750 0.747058 2.865125 0.020474
    6 15.693467 0.000000 0.000000 0.000000 0.000000 -0.001839
    7 22.146629 0.000000 0.000000 -1.346648 0.516669 1.375820
    8 1.384163 -0.004728 0.000002 -0.068314 -0.107666 -0.228016
    9 5.939814 -0.004730 0.000000 -0.059767 0.016395 0.204320
    10 5.939809 -0.003975 0.000000 0.034436 -0.086517 0.167168
    11 4.991439 -0.003975 0.000000 0.000023 0.056276 -0.021829
    12 4.991436 -0.001575 0.000000 0.000000 0.000000 0.000000
    13 0.000005 0.001564 3.638375 -0.000010 -1.187600 3.140806
    14 6.703436 0.000000 0.000000 -0.276142 0.614079 -0.255116
    15 10.007079 0.000000 0.000002 0.000000 0.000000 -0.002518
    16 9.664095 -0.000001 -0.000002 -3.820717 -0.067348 -0.377001
    17 0.000005 0.001585 -3.638375 -0.000010 1.013145 3.140787
    18 6.703436 0.000000 -0.000001 -0.223855 -0.577193 -0.388875
    19 10.007080 0.000000 -0.000002 0.000000 0.000000 -0.002515
    20 9.664097 -0.000001 0.000001 3.067047 -0.307738 -0.068920
    21 1.977383 0.000000 0.000000 0.180078 -0.100363 0.139181
    22 6.829860 -0.000001 0.000000 0.001241 0.000000 0.000000
    23 -4.603199 -0.446935 0.691439 -1.751612 -0.047171 1.544023
    24 -6.751354 0.809404 1.239717 0.422884 1.599155 -1.196952
  time 27
    0 -0.084715 -0.651666 6.337786 1.449371 1.495630 -1.615975
    1 0.114604 -0.988310 9.745319 -1.570795 -1.570451 0.000000
    2 -0.000007 0.000010 5.615750 0.003548 3.048503 -0.050371
    3 15.693467 0.000000 0.000000 0.000000 0.000000 -0.571949
    4 22.146629 0.000000 0.000000 -0.876019 -0.352699 1.355620
    5 0.000008 -0.000006 -5.615750 0.772851 2.925806 0.035693
    6 15.693467 0.000000 0.000000 0.000000 0.000000 -0.038292
    7 22.146629 0.000000 0.000000 -1.396158 0.553820 1.484292
    8 1.384163 -0.004728 0.000002 -0.068314 -0.107666 -0.228016
    9 5.939814 -0.004730 0.000000 -0.059767 0.016395 0.204320
    10 5.939809 -0.003975 0.000000 0.034436 -0.086517 0.167168
    11 4.991439 -0.003975 0.000000 0.000023 0.056276 -0.021829
    12 4.991436 -0.001575 0.000000 0.000000 0.000000 0.000000
    13 0.000005 0.001564 3.638375 -0.000010 -1.187600 3.140806
    14 6.703436 0.000000 0.000000 -0.276142 0.614079 -0.255116
    15 10.007079 0.000000 0.000002 0.000000 0.000000 -0.002518
    16 9.664095 -0.000001 -0.000002 -3.820717 -0.067348 -0.377001
    17 0.000005 0.001585 -3.638375 -0.000010 1.013145 3.140787
    18 6.703436 0.000000 -0.000001 -0.223855 -0.577193 -0.388875
    19 10.007080 0.000000 -0.000002 0.000000 0.000000 -0.002515
    20 9.664097 -0.000001 0.000001 3.067047 -0.307738 -0.068920
    21 1.977383 0.000000 0.000000 0.196210 -0.062997 -0.056830
    22 6.829860 -0.000001 0.000000 0.001241 0.000000 0.000000
    23 -4.603199 -0.446935 0.691439 -1.751612 -0.047171 1.544023
    24 -6.751354 0.809404 1.239717 0.422884 1.599155 -1.196952
  time 28
    0 -0.084715 -0.651666 6.337786 1.449371 1.495630 -1.615975
    1 0.114604 -0.988310 9.745319 -1.570795 -1.570451 0.000000
    2 -0.000007 0.000010 5.615750 0.003357 3.040642 -0.041748
    3 15.693467 0.000000 0.000000 0.000000 0.000000 -0.473777
    4 22.146629 0.000000 0.000000 -0.869274 -0.347780 1.263652
    5 0.000008 -0.000006 -5.615750 0.760145 2.895418 0.028313
    6 15.693467 0.000000 0.000000 0.000000 0.000000 -0.341716
    7 22.146629 0.000000 0.000000 -1.371574 0.534682 1.751978
    8 1.384163 -0.004728 0.000002 -0.068314 -0.107666 -0.228016
    9 5.939814 -0.004730 0.000000 -0.059767 0.016395 0.204320
    10 5.939809 -0.003975 0.000000 0.034436 -0.086517 0.167168
    11 4.991439 -0.003975 0.000000 0.000023 0.056276 -0.021829
    12 4.991436 -0.001575 0.000000 0.000000 0.000000 0.000000
    13 0.000005 0.001564 3.638375 -0.000010 -1.187600 3.140806
    14 6.703436 0.000000 0.000000 -0.276142 0.614079 -0.255116
    15 10.007079 0.000000 0.000002 0.000000 0.000000 -0.002518
    16 9.664095 -0.000001 -0.000002 -3.820717 -0.067348 -0.377001
    17 0.000005 0.001585 -3.638375 -0.000010 1.013145 3.140787
    18 6.703436 0.000000 -0.000001 -0.223855 -0.577193 -0.388875
    19 10.007080 0.000000 -0.000002 0.000000 0.000000 -0.002515
    20 9.664097 -0.000001 0.000001 3.067047 -0.307738 -0.068920
    21 1.977383 0.000000 0.000000 0.205862 -0.004870 -0.340624
    22 6.829860 -0.000001 0.000000 0.001241 0.000000 0.000000
    23 -4.603199 -0.446935 0.691439 -1.751612 -0.047171 1.544023
    24 -6.751354 0.809404 1.239717 0.422884 1.599155 -1.196952
  time 29
    0 -0.084715 -0.651666 6.337786 1.449371 1.495630 -1.615975
    1 0.114604 -0.988310 9.745319 -1.570795 -1.570451 0.000000
    2 -0.000007 0.000010 5.615750 0.003548 3.046298 -0.047880
    3 15.693467 0.000000 0.000000 0.000000 0.000000 -0.371969
    4 22.146629 0.000000 0.000000 -0.874097 -0.351286 1.157396
    5 0.000008 -0.000006 -5.615750 0.747058 2.865125 0.020474
    6 15.693467 0.000000 0.000000 0.000000 0.000000 -0.525103
    7 22.146629 0.000000 0.000000 -1.346648 0.516669 1.899107
    8 1.384163 -0.004728 0.000002 -0.068314 -0.107666 -0.228016
    9 5.939814 -0.004730 0.000000 -0.059767 0.016395 0.204320
    10 5.939809 -0.003975 0.000000 0.034436 -0.086517 0.167168
    11 4.991439 -0.003975 0.000000 0.000023 0.056276 -0.021829
    12 4.991436 -0.001575 0.000000 0.000000 0.000000 0.000000
    13 0.000005 0.001564 3.638375 -0.000010 -1.187600 3.140806
    14 6.703436 0.000000 0.000000 -0.276142 0.614079 -0.255116
    15 10.007079 0.000000 0.000002 0.000000 0.000000 -0.002518
    16 9.664095 -0.000001 -0.000002 -3.820717 -0.067348 -0.377001
    17 0.000005 0.001585 -3.638375 -0.000010 1.013145 3.140787
    18 6.703436 0.000000 -0.000001 -0.223855 -0.577193 -0.388875
    19 10.007080 0.000000 -0.000002 0.000000 0.000000 -0.002515
    20 9.664097 -0.000001 0.000001 3.067047 -0.307738 -0.068920
    21 1.977383 0.000000 0.000000 0.205587 -0.011577 -0.308267
    22 6.829860 -0.000001 0.000000 0.001241 0.000000 0.000000
    23 -4.603199 -0.446935 0.691439 -1.751612 -0.047171 1.544023
    24 -6.751354 0.809404 1.239717 0.422884 1.599155 -1.196952
  time 30
    0 -0.084715 -0.651666 6.337786 1.449371 1.495630 -1.615975
    1 0.114604 -0.988310 9.745319 -1.570795 -1.570451 0.000000
    2 -0.000007 0.000010 5.615750 0.003836 3.058761 -0.061485
    3 15.693467 0.000000 0.000000 0.000000 0.000000 -0.268343
    4 22.146629 0.000000 0.000000 -0.884650 -0.359077 1.043962
    5 0.000008 -0.000006 -5.615750 0.747058 2.865125 0.020474
    6 15.693467 0.000000 0.000000 0.000000 0.000000 -0.419198
    7 22.146629 0.000000 0.000000 -1.346648 0.516669 1.793183
    8 1.384163 -0.004728 0.000002 -0.068314 -0.107666 -0.228016
    9 5.939814 -0.004730 0.000000 -0.059767 0.016395 0.204320
    10 5.939809 -0.003975 0.000000 0.034436 -0.086517 0.167168
    11 4.991439 -0.003975 0.000000 0.000023 0.056276 -0.021829
    12 4.991436 -0.001575 0.000000 0.000000 0.000000 0.000000
    13 0.000005 0.001564 3.638375 -0.000010 -1.187600 3.140806
    14 6.703436 0.000000 0.000000 -0.276142 0.614079 -0.255116
    15 10.007079 0.000000 0.000002 0.000000 0.000000 -0.002518
    16 9.664095 -0.000001 -0.000002 -3.820717 -0.067348 -0.377001
    17 0.000005 0.001585 -3.638375 -0.000010 1.013145 3.140787
    18 6.703436 0.000000 -0.000001 -0.223855 -0.577193 -0.388875
    19 10.007080 0.000000 -0.000002 0.000000 0.000000 -0.002515
    20 9.664097 -0.000001 0.000001 3.067047 -0.307738 -0.068920
    21 1.977383 0.000000 0.000000 0.202691 -0.036568 -0.187773
    22 6.829860 -0.000001 0.000000 0.001241 0.000000 0.000000
    23 -4.603199 -0.446935 0.691439 -1.751612 -0.047171 1.544023
    24 -6.751354 0.809404 1.239717 0.422884 1.599155 -1.196952
  time 31
    0 -0.084715 -0.651666 6.337786 1.449371 1.495630 -1.615975
    1 0.114604 -0.988310 9.745319 -1.570795 -1.570451 0.000000
    2 -0.000007 0.000010 5.615750 0.004411 3.071128 -0.074994
    3 15.693467 0.000000 0.000000 0.000000 0.000000 -0.164717
    4 22.146629 0.000000 0.000000 -0.895166 -0.366961 0.930596
    5 0.000008 -0.000006 -5.615750 0.747058 2.865125 0.020474
    6 15.693467 0.000000 0.000000 0.000000 0.000000 -0.193095
    7 22.146629 0.000000 0.000000 -1.346648 0.516669 1.566993
    8 1.384163 -0.004728 0.000002 -0.068314 -0.107666 -0.228016
    9 5.939814 -0.004730 0.000000 -0.059767 0.016395 0.204320
    10 5.939809 -0.003975 0.000000 0.034436 -0.086517 0.167168
    11 4.991439 -0.003975 0.000000 0.000023 0.056276 -0.021829
    12 4.991436 -0.001575 0.000000 0.000000 0.000000 0.000000
    13 0.000005 0.001564 3.638375 -0.000010 -1.187600 3.140806
    14 6.703436 0.000000 0.000000 -0.276142 0.614079 -0.255116
    15 10.007079 0.000000 0.000002 0.000000 0.000000 -0.002518
    16 9.664095 -0.000001 -0.000002 -3.820717 -0.067348 -0.377001
    17 0.000005 0.001585 -3.638375 -0.000010 1.013145 3.140787
    18 6.703436 0.000000 -0.000001 -0.223855 -0.577193 -0.388875
    19 10.007080 0.000000 -0.000002 0.000000 0.000000 -0.002515
    20 9.664097 -0.000001 0.000001 3.067047 -0.307738 -0.068920
    21 1.977383 0.000000 0.000000 0.196762 -0.061001 -0.067077
    22 6.829860 -0.000001 0.000000 0.001241 0.000000 0.000000
    23 -4.603199 -0.446935 0.691439 -1.751612 -0.047171 1.544023
    24 -6.751354 0.809404 1.239717 0.422884 1.599155 -1.196952
  time 32
    0 -0.084715 -0.651666 6.337786 1.449371 1.495630 -1.615975
    1 0.114604 -0.988310 9.745319 -1.570795 -1.570451 0.000000
    2 -0.000007 0.000010 5.615750 0.004699 3.076784 -0.081221
    3 15.693467 0.000000 0.000000 0.000000 0.000000 -0.062910
    4 22.146629 0.000000 0.000000 -0.899953 -0.370585 0.824340
    5 0.000008 -0.000006 -5.615750 0.747058 2.865125 0.020474
    6 15.693467 0.000000 0.000000 0.000000 0.000000 0.033008
    7 22.146629 0.000000 0.000000 -1.346648 0.516669 1.340876
    8 1.384163 -0.004728 0.000002 -0.068314 -0.107666 -0.228016
    9 5.939814 -0.004730 0.000000 -0.059767 0.016395 0.204320
    10 5.939809 -0.003975 0.000000 0.034436 -0.086517 0.167168
    11 4.991439 -0.003975 0.000000 0.000023 0.056276 -0.021829
    12 4.991436 -0.001575 0.000000 0.000000 0.000000 0.000000
    13 0.000005 0.001564 3.638375 -0.000010 -1.187600 3.140806
    14 6.703436 0.000000 0.000000 -0.276142 0.614079 -0.255116
    15 10.007079 0.000000 0.000002 0.000000 0.000000 -0.002518
    16 9.664095 -0.000001 -0.000002 -3.820717 -0.067348 -0.377001
    17 0.000005 0.001585 -3.638375 -0.000010 1.013145 3.140787
    18 6.703436 0.000000 -0.000001 -0.223855 -0.577193 -0.388875
    19 10.007080 0.000000 -0.000002 0.000000 0.000000 -0.002515
    20 9.664097 -0.000001 0.000001 3.067047 -0.307738 -0.068920
    21 1.977383 0.000000 0.000000 0.196762 -0.061001 -0.067077
    22 6.829860 -0.000001 0.000000 0.001241 0.000000 0.000000
    23 -4.603199 -0.446935 0.691439 -1.751612 -0.047171 1.544023
    24 -6.751354 0.809404 1.239717 0.422884 1.599155 -1.196952
  time 33
    0 -0.084715 -0.651666 6.337786 1.449371 1.495630 -1.615975
    1 0.114604 -0.988310 9.745319 -1.570795 -1.570451 0.000000
    2 -0.000007 0.000010 5.615750 0.004699 3.076784 -0.081221
    3 15.693467 0.000000 0.000000 0.000000 0.000000 -0.062910
    4 22.146629 0.000000 0.000000 -0.899953 -0.370585 0.824340
    5 0.000008 -0.000006 -5.615750 0.747058 2.865125 0.020474
    6 15.693467 0.000000 0.000000 0.000000 0.000000 0.033008
    7 22.146629 0.000000 0.000000 -1.346648 0.516669 1.340876
    8 1.384163 -0.004728 0.000002 -0.068314 -0.107666 -0.228016
    9 5.939814 -0.004730 0.000000 -0.059767 0.016395 0.204320
    10 5.939809 -0.003975 0.000000 0.034436 -0.086517 0.167168
    11 4.991439 -0.003975 0.000000 0.000023 0.056276 -0.021829
    12 4.991436 -0.001575 0.000000 0.000000 0.000000 0.000000
    13 0.000005 0.001564 3.638375 -0.000010 -1.187600 3.140806
    14 6.703436 0.000000 0.000000 -0.276142 0.614079 -0.255116
    15 10.007079 0.000000 0.000002 0.000000 0.000000 -0.002518
    16 9.664095 -0.000001 -0.000002 -3.820717 -0.067348 -0.377001
    17 0.000005 0.001585 -3.638375 -0.000010 1.013145 3.140787
    18 6.703436 0.000000 -0.000001 -0.223855 -0.577193 -0.388875
    19 10.007080 0.000000 -0.000002 0.000000 0.000000 -0.002515
    20 9.664097 -0.000001 0.000001 3.067047 -0.307738 -0.068920
    21 1.977383 0.000000 0.000000 0.196762 -0.061001 -0.067077
    22 6.829860 -0.000001 0.000000 0.001241 0.000000 0.000000
    23 -4.603199 -0.446935 0.691439 -1.751612 -0.047171 1.544023
    24 -6.751354 0.809404 1.239717 0.422884 1.599155 -1.196952
  time 34
    0 -0.084715 -0.651666 6.337786 1.449371 1.495630 -1.615975
    1 0.114604 -0.988310 9.745319 -1.570795 -1.570451 0.000000
    2 -0.000007 0.000010 5.615750 0.004699 3.076784 -0.081221
    3 15.693467 0.000000 0.000000 0.000000 0.000000 -0.062910
    4 22.146629 0.000000 0.000000 -0.899953 -0.370585 0.824340
    5 0.000008 -0.000006 -5.615750 0.747058 2.865125 0.020474
    6 15.693467 0.000000 0.000000 0.000000 0.000000 0.033008
    7 22.146629 0.000000 0.000000 -1.346648 0.516669 1.340876
    8 1.384163 -0.004728 0.000002 -0.068314 -0.107666 -0.228016
    9 5.939814 -0.004730 0.000000 -0.059767 0.016395 0.204320
    10 5.939809 -0.003975 0.000000 0.034436 -0.086517 0.167168
    11 4.991439 -0.003975 0.000000 0.000023 0.056276 -0.021829
    12 4.991436 -0.001575 0.000000 0.000000 0.000000 0.000000
    13 0.000005 0.001564 3.638375 -0.000010 -1.187600 3.140806
    14 6.703436 0.000000 0.000000 -0.276142 0.614079 -0.255116
    15 10.007079 0.000000 0.000002 0.000000 0.000000 -0.002518
    16 9.664095 -0.000001 -0.000002 -3.820717 -0.067348 -0.377001
    17 0.000005 0.001585 -3.638375 -0.000010 1.013145 3.140787
    18 6.703436 0.000000 -0.000001 -0.223855 -0.577193 -0.388875
    19 10.007080 0.000000 -0.000002 0.000000 0.000000 -0.002515
    20 9.664097 -0.000001 0.000001 3.067047 -0.307738 -0.068920
    21 1.977383 0.000000 0.000000 0.196762 -0.061001 -0.067077
    22 6.829860 -0.000001 0.000000 0.001241 0.000000 0.000000
    23 -4.603199 -0.446935 0.691439 -1.751612 -0.047171 1.544023
    24 -6.751354 0.809404 1.239717 0.422884 1.599155 -1.196952
  time 35
    0 -0.084715 -0.651666 6.337786 1.449371 1.495630 -1.615975
    1 0.114604 -0.988310 9.745319 -1.570795 -1.570451 0.000000
    2 -0.000007 0.000010 5.615750 0.004699 3.076784 -0.081221
    3 15.693467 0.000000 0.000000 0.000000 0.000000 -0.062910
    4 22.146629 0.000000 0.000000 -0.899953 -0.370585 0.824340
    5 0.000008 -0.000006 -5.615750 0.747058 2.865125 0.020474
    6 15.693467 0.000000 0.000000 0.000000 0.000000 0.033008
    7 22.146629 0.000000 0.000000 -1.346648 0.516669 1.340876
    8 1.384163 -0.004728 0.000002 -0.068314 -0.107666 -0.228016
    9 5.939814 -0.004730 0.000000 -0.059767 0.016395 0.204320
    10 5.939809 -0.003975 0.000000 0.034436 -0.086517 0.167168
    11 4.991439 -0.003975 0.000000 0.000023 0.056276 -0.021829
    12 4.991436 -0.001575 0.000000 0.000000 0.000000 0.000000
    13 0.000005 0.001564 3.638375 -0.000010 -1.187600 3.140806
    14 6.703436 0.000000 0.000000 -0.276142 0.614079 -0.255116
    15 10.007079 0.000000 0.000002 0.000000 0.000000 -0.002518
    16 9.664095 -0.000001 -0.000002 -3.820717 -0.067348 -0.377001
    17 0.000005 0.001585 -3.638375 -0.000010 1.013145 3.140787
    18 6.703436 0.000000 -0.000001 -0.223855 -0.577193 -0.388875
    19 10.007080 0.000000 -0.000002 0.000000 0.000000 -0.002515
    20 9.664097 -0.000001 0.000001 3.067047 -0.307738 -0.068920
    21 1.977383 0.000000 0.000000 0.196762 -0.061001 -0.067077
    22 6.829860 -0.000001 0.000000 0.001241 0.000000 0.000000
    23 -4.603199 -0.446935 0.691439 -1.751612 -0.047171 1.544023
    24 -6.751354 0.809404 1.239717 0.422884 1.599155 -1.196952
  time 36
    0 -0.084715 -0.651666 6.337786 1.449371 1.495630 -1.615975
    1 0.114604 -0.988310 9.745319 -1.570795 -1.570451 0.000000
    2 -0.000007 0.000010 5.615750 0.004699 3.076784 -0.081221
    3 15.693467 0.000000 0.000000 0.000000 0.000000 -0.062910
    4 22.146629 0.000000 0.000000 -0.899953 -0.370585 0.824340
    5 0.000008 -0.000006 -5.615750 0.747058 2.865125 0.020474
    6 15.693467 0.000000 0.000000 0.000000 0.000000 0.033008
    7 22.146629 0.000000 0.000000 -1.346648 0.516669 1.340876
    8 1.384163 -0.004728 0.000002 -0.068314 -0.107666 -0.228016
    9 5.939814 -0.004730 0.000000 -0.059767 0.016395 0.204320
    10 5.939809 -0.003975 0.000000 0.034436 -0.086517 0.167168
    11 4.991439 -0.003975 0.000000 0.000023 0.056276 -0.021829
    12 4.991436 -0.001575 0.000000 0.000000 0.000000 0.000000
    13 0.000005 0.001564 3.638375 -0.000010 -1.187600 3.140806
    14 6.703436 0.000000 0.000000 -0.276142 0.614079 -0.255116
    15 10.007079 0.000000 0.000002 0.000000 0.000000 -0.002518
    16 9.664095 -0.000001 -0.000002 -3.820717 -0.067348 -0.377001
    17 0.000005 0.001585 -3.638375 -0.000010 1.013145 3.140787
    18 6.703436 0.000000 -0.000001 -0.223855 -0.577193 -0.388875
    19 10.007080 0.000000 -0.000002 0.000000 0.000000 -0.002515
    20 9.664097 -0.000001 0.000001 3.067047 -0.307738 -0.068920
    21 1.977383 0.000000 0.000000 0.196762 -0.061001 -0.067077
    22 6.829860 -0.000001 0.000000 0.001241 0.000000 0.000000
    23 -4.603199 -0.446935 0.691439 -1.751612 -0.047171 1.544023
    24 -6.751354 0.809404 1.239717 0.422884 1.599155 -1.196952
  time 37
    0 -0.084715 -0.651666 6.337786 1.449371 1.495630 -1.615975
    1 0.114604 -0.988310 9.745319 -1.570795 -1.570451 0.000000
    2 -0.000007 0.000010 5.615750 0.004699 3.076784 -0.081221
    3 15.693467 0.000000 0.000000 0.000000 0.000000 -0.062910
    4 22.146629 0.000000 0.000000 -0.899953 -0.370585 0.824340
    5 0.000008 -0.000006 -5.615750 0.747058 2.865125 0.020474
    6 15.693467 0.000000 0.000000 0.000000 0.000000 0.033008
    7 22.146629 0.000000 0.000000 -1.346648 0.516669 1.340876
    8 1.384163 -0.004728 0.000002 -0.068314 -0.107666 -0.228016
    9 5.939814 -0.004730 0.000000 -0.059767 0.016395 0.204320
    10 5.939809 -0.003975 0.000000 0.034436 -0.086517 0.167168
    11 4.991439 -0.003975 0.000000 0.000023 0.056276 -0.021829
    12 4.991436 -0.001575 0.000000 0.000000 0.000000 0.000000
    13 0.000005 0.001564 3.638375 -0.000010 -1.187600 3.140806
    14 6.703436 0.000000 0.000000 -0.276142 0.614079 -0.255116
    15 10.007079 0.000000 0.000002 0.000000 0.000000 -0.002518
    16 9.664095 -0.000001 -0.000002 -3.820717 -0.067348 -0.377001
    17 0.000005 0.001585 -3.638375 -0.000010 1.013145 3.140787
    18 6.703436 0.000000 -0.000001 -0.223855 -0.577193 -0.388875
    19 10.007080 0.000000 -0.000002 0.000000 0.000000 -0.002515
    20 9.664097 -0.000001 0.000001 3.067047 -0.307738 -0.068920
    21 1.977383 0.000000 0.000000 0.196762 -0.061001 -0.067077
    22 6.829860 -0.000001 0.000000 0.001241 0.000000 0.000000
    23 -4.603199 -0.446935 0.691439 -1.751612 -0.047171 1.544023
    24 -6.751354 0.809404 1.239717 0.422884 1.599155 -1.196952
  time 38
    0 -0.084715 -0.651666 6.337786 1.449371 1.495630 -1.615975
    1 0.114604 -0.988310 9.745319 -1.570795 -1.570451 0.000000
    2 -0.000007 0.000010 5.615750 0.004699 3.076784 -0.081221
    3 15.693467 0.000000 0.000000 0.000000 0.000000 -0.062910
    4 22.146629 0.000000 0.000000 -0.899953 -0.370585 0.824340
    5 0.000008 -0.000006 -5.615750 0.747058 2.865125 0.020474
    6 15.693467 0.000000 0.000000 0.000000 0.000000 0.033008
    7 22.146629 0.000000 0.000000 -1.346648 0.516669 1.340876
    8 1.384163 -0.004728 0.000002 -0.068314 -0.107666 -0.228016
    9 5.939814 -0.004730 0.000000 -0.059767 0.016395 0.204320
    10 5.939809 -0.003975 0.000000 0.034436 -0.086517 0.167168
    11 4.991439 -0.003975 0.000000 0.000023 0.056276 -0.021829
    12 4.991436 -0.001575 0.000000 0.000000 0.000000 0.000000
    13 0.000005 0.001564 3.638375 -0.000010 -1.187600 3.140806
    14 6.703436 0.000000 0.000000 -0.276142 0.614079 -0.255116
    15 10.007079 0.000000 0.000002 0.000000 0.000000 -0.002518
    16 9.664095 -0.000001 -0.000002 -3.820717 -0.067348 -0.377001
    17 0.000005 0.001585 -3.638375 -0.000010 1.013145 3.140787
    18 6.703436 0.000000 -0.000001 -0.223855 -0.577193 -0.388875
    19 10.007080 0.000000 -0.000002 0.000000 0.000000 -0.002515
    20 9.664097 -0.000001 0.000001 3.067047 -0.307738 -0.068920
    21 1.977383 0.000000 0.000000 0.196762 -0.061001 -0.067077
    22 6.829860 -0.000001 0.000000 0.001241 0.000000 0.000000
    23 -4.603199 -0.446935 0.691439 -1.751612 -0.047171 1.544023
    24 -6.751354 0.809404 1.239717 0.422884 1.599155 -1.196952
  time 39
    0 -0.084715 -0.651666 6.337786 1.449371 1.495630 -1.615975
    1 0.114604 -0.988310 9.745319 -1.570795 -1.570451 0.000000
    2 -0.000007 0.000010 5.615750 0.004699 3.076784 -0.081221
    3 15.693467 0.000000 0.000000 0.000000 0.000000 -0.062910
    4 22.146629 0.000000 0.000000 -0.899953 -0.370585 0.824340
    5 0.000008 -0.000006 -5.615750 0.747058 2.865125 0.020474
    6 15.693467 0.000000 0.000000 0.000000 0.000000 0.033008
    7 22.146629 0.000000 0.000000 -1.346648 0.516669 1.340876
    8 1.384163 -0.004728 0.000002 -0.068314 -0.107666 -0.228016
    9 5.939814 -0.004730 0.000000 -0.059767 0.016395 0.204320
    10 5.939809 -0.003975 0.000000 0.034436 -0.086517 0.167168
    11 4.991439 -0.003975 0.000000 0.000023 0.056276 -0.021829
    12 4.991436 -0.001575 0.000000 0.000000 0.000000 0.000000
    13 0.000005 0.001564 3.638375 -0.000010 -1.187600 3.140806
    14 6.703436 0.000000 0.000000 -0.276142 0.614079 -0.255116
    15 10.007079 0.000000 0.000002 0.000000 0.000000 -0.002518
    16 9.664095 -0.000001 -0.000002 -3.820717 -0.067348 -0.377001
    17 0.000005 0.001585 -3.638375 -0.000010 1.013145 3.140787
    18 6.703436 0.000000 -0.000001 -0.223855 -0.577193 -0.388875
    19 10.007080 0.000000 -0.000002 0.000000 0.000000 -0.002515
    20 9.664097 -0.000001 0.000001 3.067047 -0.307738 -0.068920
    21 1.977383 0.000000 0.000000 0.196762 -0.061001 -0.067077
    22 6.829860 -0.000001 0.000000 0.001241 0.000000 0.000000
    23 -4.603199 -0.446935 0.691439 -1.751612 -0.047171 1.544023
    24 -6.751354 0.809404 1.239717 0.422884 1.599155 -1.196952
  time 40
    0 -0.084715 -0.651666 6.337786 1.449371 1.495630 -1.615975
    1 0.114604 -0.988310 9.745319 -1.570795 -1.570451 0.000000
    2 -0.000007 0.000010 5.615750 0.004699 3.076784 -0.081221
    3 15.693467 0.000000 0.000000 0.000000 0.000000 -0.062910
    4 22.146629 0.000000 0.000000 -0.899953 -0.370585 0.824340
    5 0.000008 -0.000006 -5.615750 0.747058 2.865125 0.020474
    6 15.693467 0.000000 0.000000 0.000000 0.000000 0.033008
    7 22.146629 0.000000 0.000000 -1.346648 0.516669 1.340876
    8 1.384163 -0.004728 0.000002 -0.068314 -0.107666 -0.228016
    9 5.939814 -0.004730 0.000000 -0.059767 0.016395 0.204320
    10 5.939809 -0.003975 0.000000 0.034436 -0.086517 0.167168
    11 4.991439 -0.003975 0.000000 0.000023 0.056276 -0.021829
    12 4.991436 -0.001575 0.000000 0.000000 0.000000 0.000000
    13 0.000005 0.001564 3.638375 -0.000010 -1.187600 3.140806
    14 6.703436 0.000000 0.000000 -0.276142 0.614079 -0.255116
    15 10.007079 0.000000 0.000002 0.000000 0.000000 -0.002518
    16 9.664095 -0.000001 -0.000002 -3.820717 -0.067348 -0.377001
    17 0.000005 0.001585 -3.638375 -0.000010 1.013145 3.140787
    18 6.703436 0.000000 -0.000001 -0.223855 -0.577193 -0.388875
    19 10.007080 0.000000 -0.000002 0.000000 0.000000 -0.002515
    20 9.664097 -0.000001 0.000001 3.067047 -0.307738 -0.068920
    21 1.977383 0.000000 0.000000 0.196762 -0.061001 -0.067077
    22 6.829860 -0.000001 0.000000 0.001241 0.000000 0.000000
    23 -4.603199 -0.446935 0.691439 -1.751612 -0.047171 1.544023
    24 -6.751354 0.809404 1.239717 0.422884 1.599155 -1.196952
  time 41
    0 -0.084715 -0.651666 6.337786 1.449371 1.495630 -1.615975
    1 0.114604 -0.988310 9.745319 -1.570795 -1.570451 0.000000
    2 -0.000007 0.000010 5.615750 0.004699 3.076784 -0.081221
    3 15.693467 0.000000 0.000000 0.000000 0.000000 -0.062910
    4 22.146629 0.000000 0.000000 -0.899953 -0.370585 0.824340
    5 0.000008 -0.000006 -5.615750 0.747058 2.865125 0.020474
    6 15.693467 0.000000 0.000000 0.000000 0.000000 0.033008
    7 22.146629 0.000000 0.000000 -1.346648 0.516669 1.340876
    8 1.384163 -0.004728 0.000002 -0.068314 -0.107666 -0.228016
    9 5.939814 -0.004730 0.000000 -0.059767 0.016395 0.204320
    10 5.939809 -0.003975 0.000000 0.034436 -0.086517 0.167168
    11 4.991439 -0.003975 0.000000 0.000023 0.056276 -0.021829
    12 4.991436 -0.001575 0.000000 0.000000 0.000000 0.000000
    13 0.000005 0.001564 3.638375 -0.000010 -1.187600 3.140806
    14 6.703436 0.000000 0.000000 -0.276142 0.614079 -0.255116
    15 10.007079 0.000000 0.000002 0.000000 0.000000 -0.002518
    16 9.664095 -0.000001 -0.000002 -3.820717 -0.067348 -0.377001
    17 0.000005 0.001585 -3.638375 -0.000010 1.013145 3.140787
    18 6.703436 0.000000 -0.000001 -0.223855 -0.577193 -0.388875
    19 10.007080 0.000000 -0.000002 0.000000 0.000000 -0.002515
    20 9.664097 -0.000001 0.000001 3.067047 -0.307738 -0.068920
    21 1.977383 0.000000 0.000000 0.196762 -0.061001 -0.067077
    22 6.829860 -0.000001 0.000000 0.001241 0.000000 0.000000
    23 -4.603199 -0.446935 0.691439 -1.751612 -0.047171 1.544023
    24 -6.751354 0.809404 1.239717 0.422884 1.599155 -1.196952
  time 42
    0 -0.084715 -0.651666 6.337786 1.449371 1.495630 -1.615975
    1 0.114604 -0.988310 9.745319 -1.570795 -1.570451 0.000000
    2 -0.000007 0.000010 5.615750 0.004699 3.076784 -0.081221
    3 15.693467 0.000000 0.000000 0.000000 0.000000 -0.062910
    4 22.146629 0.000000 0.000000 -0.899953 -0.370585 0.824340
    5 0.000008 -0.000006 -5.615750 0.747058 2.865125 0.020474
    6 15.693467 0.000000 0.000000 0.000000 0.000000 0.033008
    7 22.146629 0.000000 0.000000 -1.346648 0.516669 1.340876
    8 1.384163 -0.004728 0.000002 -0.068314 -0.107666 -0.228016
    9 5.939814 -0.004730 0.000000 -0.059767 0.016395 0.204320
    10 5.939809 -0.003975 0.000000 0.034436 -0.086517 0.167168
    11 4.991439 -0.003975 0.000000 0.000023 0.056276 -0.021829
    12 4.991436 -0.001575 0.000000 0.000000 0.000000 0.000000
    13 0.000005 0.001564 3.638375 -0.000010 -1.187600 3.140806
    14 6.703436 0.000000 0.000000 -0.276142 0.614079 -0.255116
    15 10.007079 0.000000 0.000002 0.000000 0.000000 -0.002518
    16 9.664095 -0.000001 -0.000002 -3.820717 -0.067348 -0.377001
    17 0.000005 0.001585 -3.638375 -0.000010 1.013145 3.140787
    18 6.703436 0.000000 -0.000001 -0.223855 -0.577193 -0.388875
    19 10.007080 0.000000 -0.000002 0.000000 0.000000 -0.002515
    20 9.664097 -0.000001 0.000001 3.067047 -0.307738 -0.068920
    21 1.977383 0.000000 0.000000 0.196762 -0.061001 -0.067077
    22 6.829860 -0.000001 0.000000 0.001241 0.000000 0.000000
    23 -4.603199 -0.446935 0.691439 -1.751612 -0.047171 1.544023
    24 -6.751354 0.809404 1.239717 0.422884 1.599155 -1.196952
  time 43
    0 -0.084715 -0.651666 6.337786 1.449371 1.495630 -1.615975
    1 0.114604 -0.988310 9.745319 -1.570795 -1.570451 0.000000
    2 -0.000007 0.000010 5.615750 0.004699 3.076784 -0.081221
    3 15.693467 0.000000 0.000000 0.000000 0.000000 -0.062910
    4 22.146629 0.000000 0.000000 -0.899953 -0.370585 0.824340
    5 0.000008 -0.000006 -5.615750 0.747058 2.865125 0.020474
    6 15.693467 0.000000 0.000000 0.000000 0.000000 0.033008
    7 22.146629 0.000000 0.000000 -1.346648 0.516669 1.340876
    8 1.384163 -0.004728 0.000002 -0.068314 -0.107666 -0.228016
    9 5.939814 -0.004730 0.000000 -0.059767 0.016395 0.204320
    10 5.939809 -0.003975 0.000000 0.034436 -0.086517 0.167168
    11 4.991439 -0.003975 0.000000 0.000023 0.056276 -0.021829
    12 4.991436 -0.001575 0.000000 0.000000 0.000000 0.000000
    13 0.000005 0.001564 3.638375 -0.000010 -1.187600 3.140806
    14 6.703436 0.000000 0.000000 -0.276142 0.614079 -0.255116
    15 10.007079 0.000000 0.000002 0.000000 0.000000 -0.002518
    16 9.664095 -0.000001 -0.000002 -3.820717 -0.067348 -0.377001
    17 0.000005 0.001585 -3.638375 -0.000010 1.013145 3.140787
    18 6.703436 0.000000 -0.000001 -0.223855 -0.577193 -0.388875
    19 10.007080 0.000000 -0.000002 0.000000 0.000000 -0.002515
    20 9.664097 -0.000001 0.000001 3.067047 -0.307738 -0.068920
    21 1.977383 0.000000 0.000000 0.196762 -0.061001 -0.067077
    22 6.829860 -0.000001 0.000000 0.001241 0.000000 0.000000
    23 -4.603199 -0.446935 0.691439 -1.751612 -0.047171 1.544023
    24 -6.751354 0.809404 1.239717 0.422884 1.599155 -1.196952
  time 44
    0 -0.084715 -0.651666 6.337786 1.449371 1.495630 -1.615975
    1 0.114604 -0.988310 9.745319 -1.570795 -1.570451 0.000000
    2 -0.000007 0.000010 5.615750 0.004699 3.076784 -0.081221
    3 15.693467 0.000000 0.000000 0.000000 0.000000 -0.062910
    4 22.146629 0.000000 0.000000 -0.899953 -0.370585 0.824340
    5 0.000008 -0.000006 -5.615750 0.747058 2.865125 0.020474
    6 15.693467 0.000000 0.000000 0.000000 0.000000 0.033008
    7 22.146629 0.000000 0.000000 -1.346648 0.516669 1.340876
    8 1.384163 -0.004728 0.000002 -0.068314 -0.107666 -0.228016
    9 5.939814 -0.004730 0.000000 -0.059767 0.016395 0.204320
    10 5.939809 -0.003975 0.000000 0.034436 -0.086517 0.167168
    11 4.991439 -0.003975 0.000000 0.000023 0.056276 -0.021829
    12 4.991436 -0.001575 0.000000 0.000000 0.000000 0.000000
    13 0.000005 0.001564 3.638375 -0.000010 -1.187600 3.140806
    14 6.703436 0.000000 0.000000 -0.276142 0.614079 -0.255116
    15 10.007079 0.000000 0.000002 0.000000 0.000000 -0.002518
    16 9.664095 -0.000001 -0.000002 -3.820717 -0.067348 -0.377001
    17 0.000005 0.001585 -3.638375 -0.000010 1.013145 3.140787
    18 6.703436 0.000000 -0.000001 -0.223855 -0.577193 -0.388875
    19 10.007080 0.000000 -0.000002 0.000000 0.000000 -0.002515
    20 9.664097 -0.000001 0.000001 3.067047 -0.307738 -0.068920
    21 1.977383 0.000000 0.000000 0.196762 -0.061001 -0.067077
    22 6.829860 -0.000001 0.000000 0.001241 0.000000 0.000000
    23 -4.603199 -0.446935 0.691439 -1.751612 -0.047171 1.544023
    24 -6.751354 0.809404 1.239717 0.422884 1.599155 -1.196952
  time 45
    0 -0.084715 -0.651666 6.337786 1.449371 1.495630 -1.615975
    1 0.114604 -0.988310 9.745319 -1.570795 -1.570451 0.000000
    2 -0.000007 0.000010 5.615750 0.004699 3.076784 -0.081221
    3 15.693467 0.000000 0.000000 0.000000 0.000000 -0.062910
    4 22.146629 0.000000 0.000000 -0.899953 -0.370585 0.824340
    5 0.000008 -0.000006 -5.615750 0.747058 2.865125 0.020474
    6 15.693467 0.000000 0.000000 0.000000 0.000000 0.033008
    7 22.146629 0.000000 0.000000 -1.346648 0.516669 1.340876
    8 1.384163 -0.004728 0.000002 -0.068314 -0.107666 -0.228016
    9 5.939814 -0.004730 0.000000 -0.059767 0.016395 0.204320
    10 5.939809 -0.003975 0.000000 0.034436 -0.086517 0.167168
    11 4.991439 -0.003975 0.000000 0.000023 0.056276 -0.021829
    12 4.991436 -0.001575 0.000000 0.000000 0.000000 0.000000
    13 0.000005 0.001564 3.638375 -0.000010 -1.187600 3.140806
    14 6.703436 0.000000 0.000000 -0.276142 0.614079 -0.255116
    15 10.007079 0.000000 0.000002 0.000000 0.000000 -0.002518
    16 9.664095 -0.000001 -0.000002 -3.820717 -0.067348 -0.377001
    17 0.000005 0.001585 -3.638375 -0.000010 1.013145 3.140787
    18 6.703436 0.000000 -0.000001 -0.223855 -0.577193 -0.388875
    19 10.007080 0.000000 -0.000002 0.000000 0.000000 -0.002515
    20 9.664097 -0.000001 0.000001 3.067047 -0.307738 -0.068920
    21 1.977383 0.000000 0.000000 0.196762 -0.061001 -0.067077
    22 6.829860 -0.000001 0.000000 0.001241 0.000000 0.000000
    23 -4.603199 -0.446935 0.691439 -1.751612 -0.047171 1.544023
    24 -6.751354 0.809404 1.239717 0.422884 1.599155 -1.196952
  time 46
    0 -0.084715 -0.651666 6.337786 1.449371 1.495630 -1.615975
    1 0.114604 -0.988310 9.745319 -1.570795 -1.570451 0.000000
    2 -0.000007 0.000010 5.615750 0.004699 3.076784 -0.081221
    3 15.693467 0.000000 0.000000 0.000000 0.000000 -0.062910
    4 22.146629 0.000000 0.000000 -0.899953 -0.370585 0.824340
    5 0.000008 -0.000006 -5.615750 0.747058 2.865125 0.020474
    6 15.693467 0.000000 0.000000 0.000000 0.000000 0.033008
    7 22.146629 0.000000 0.000000 -1.346648 0.516669 1.340876
    8 1.384163 -0.004728 0.000002 -0.068314 -0.107666 -0.228016
    9 5.939814 -0.004730 0.000000 -0.059767 0.016395 0.204320
    10 5.939809 -0.003975 0.000000 0.034436 -0.086517 0.167168
    11 4.991439 -0.003975 0.000000 0.000023 0.056276 -0.021829
    12 4.991436 -0.001575 0.000000 0.000000 0.000000 0.000000
    13 0.000005 0.001564 3.638375 -0.000010 -1.187600 3.140806
    14 6.703436 0.000000 0.000000 -0.276142 0.614079 -0.255116
    15 10.007079 0.000000 0.000002 0.000000 0.000000 -0.002518
    16 9.664095 -0.000001 -0.000002 -3.820717 -0.067348 -0.377001
    17 0.000005 0.001585 -3.638375 -0.000010 1.013145 3.140787
    18 6.703436 0.000000 -0.000001 -0.223855 -0.577193 -0.388875
    19 10.007080 0.000000 -0.000002 0.000000 0.000000 -0.002515
    20 9.664097 -0.000001 0.000001 3.067047 -0.307738 -0.068920
    21 1.977383 0.000000 0.000000 0.196762 -0.061001 -0.067077
    22 6.829860 -0.000001 0.000000 0.001241 0.000000 0.000000
    23 -4.603199 -0.446935 0.691439 -1.751612 -0.047171 1.544023
    24 -6.751354 0.809404 1.239717 0.422884 1.599155 -1.196952
  time 47
    0 -0.084715 -0.651666 6.337786 1.449371 1.495630 -1.615975
    1 0.114604 -0.988310 9.745319 -1.570795 -1.570451 0.000000
    2 -0.000007 0.000010 5.615750 0.004699 3.076784 -0.081221
    3 15.693467 0.000000 0.000000 0.000000 0.000000 -0.062910
    4 22.146629 0.000000 0.000000 -0.899953 -0.370585 0.824340
    5 0.000008 -0.000006 -5.615750 0.747058 2.865125 0.020474
    6 15.693467 0.000000 0.000000 0.000000 0.000000 0.033008
    7 22.146629 0.000000 0.000000 -1.346648 0.516669 1.340876
    8 1.384163 -0.004728 0.000002 -0.068314 -0.107666 -0.228016
    9 5.939814 -0.004730 0.000000 -0.059767 0.016395 0.204320
    10 5.939809 -0.003975 0.000000 0.034436 -0.086517 0.167168
    11 4.991439 -0.003975 0.000000 0.000023 0.056276 -0.021829
    12 4.991436 -0.001575 0.000000 0.000000 0.000000 0.000000
    13 0.000005 0.001564 3.638375 -0.000010 -1.187600 3.140806
    14 6.703436 0.000000 0.000000 -0.276142 0.614079 -0.255116
    15 10.007079 0.000000 0.000002 0.000000 0.000000 -0.002518
    16 9.664095 -0.000001 -0.000002 -3.820717 -0.067348 -0.377001
    17 0.000005 0.001585 -3.638375 -0.000010 1.013145 3.140787
    18 6.703436 0.000000 -0.000001 -0.223855 -0.577193 -0.388875
    19 10.007080 0.000000 -0.000002 0.000000 0.000000 -0.002515
    20 9.664097 -0.000001 0.000001 3.067047 -0.307738 -0.068920
    21 1.977383 0.000000 0.000000 0.196762 -0.061001 -0.067077
    22 6.829860 -0.000001 0.000000 0.001241 0.000000 0.000000
    23 -4.603199 -0.446935 0.691439 -1.751612 -0.047171 1.544023
    24 -6.751354 0.809404 1.239717 0.422884 1.599155 -1.196952
  time 48
    0 -0.084715 -0.651666 6.337786 1.449371 1.495630 -1.615975
    1 0.114604 -0.988310 9.745319 -1.570795 -1.570451 0.000000
    2 -0.000007 0.000010 5.615750 0.004699 3.076784 -0.081221
    3 15.693467 0.000000 0.000000 0.000000 0.000000 -0.062910
    4 22.146629 0.000000 0.000000 -0.899953 -0.370585 0.824340
    5 0.000008 -0.000006 -5.615750 0.747058 2.865125 0.020474
    6 15.693467 0.000000 0.000000 0.000000 0.000000 0.033008
    7 22.146629 0.000000 0.000000 -1.346648 0.516669 1.340876
    8 1.384163 -0.004728 0.000002 -0.068314 -0.107666 -0.228016
    9 5.939814 -0.004730 0.000000 -0.059767 0.016395 0.204320
    10 5.939809 -0.003975 0.000000 0.034436 -0.086517 0.167168
    11 4.991439 -0.003975 0.000000 0.000023 0.056276 -0.021829
    12 4.991436 -0.001575 0.000000 0.000000 0.000000 0.000000
    13 0.000005 0.001564 3.638375 -0.000010 -1.187600 3.140806
    14 6.703436 0.000000 0.000000 -0.276142 0.614079 -0.255116
    15 10.007079 0.000000 0.000002 0.000000 0.000000 -0.002518
    16 9.664095 -0.000001 -0.000002 -3.820717 -0.067348 -0.377001
    17 0.000005 0.001585 -3.638375 -0.000010 1.013145 3.140787
    18 6.703436 0.000000 -0.000001 -0.223855 -0.577193 -0.388875
    19 10.007080 0.000000 -0.000002 0.000000 0.000000 -0.002515
    20 9.664097 -0.000001 0.000001 3.067047 -0.307738 -0.068920
    21 1.977383 0.000000 0.000000 0.196762 -0.061001 -0.067077
    22 6.829860 -0.000001 0.000000 0.001241 0.000000 0.000000
    23 -4.603199 -0.446935 0.691439 -1.751612 -0.047171 1.544023
    24 -6.751354 0.809404 1.239717 0.422884 1.599155 -1.196952
  time 49
    0 -0.084715 -0.651666 6.337786 1.449371 1.495630 -1.615975
    1 0.114604 -0.988310 9.745319 -1.570795 -1.570451 0.000000
    2 -0.000007 0.000010 5.615750 0.004699 3.076784 -0.081221
    3 15.693467 0.000000 0.000000 0.000000 0.000000 -0.062910
    4 22.146629 0.000000 0.000000 -0.899953 -0.370585 0.824340
    5 0.000008 -0.000006 -5.615750 0.747058 2.865125 0.020474
    6 15.693467 0.000000 0.000000 0.000000 0.000000 0.033008
    7 22.146629 0.000000 0.000000 -1.346648 0.516669 1.340876
    8 1.384163 -0.004728 0.000002 -0.068314 -0.107666 -0.228016
    9 5.939814 -0.004730 0.000000 -0.059767 0.016395 0.204320
    10 5.939809 -0.003975 0.000000 0.034436 -0.086517 0.167168
    11 4.991439 -0.003975 0.000000 0.000023 0.056276 -0.021829
    12 4.991436 -0.001575 0.000000 0.000000 0.000000 0.000000
    13 0.000005 0.001564 3.638375 -0.000010 -1.187600 3.140806
    14 6.703436 0.000000 0.000000 -0.276142 0.614079 -0.255116
    15 10.007079 0.000000 0.000002 0.000000 0.000000 -0.002518
    16 9.664095 -0.000001 -0.000002 -3.820717 -0.067348 -0.377001
    17 0.000005 0.001585 -3.638375 -0.000010 1.013145 3.140787
    18 6.703436 0.000000 -0.000001 -0.223855 -0.577193 -0.388875
    19 10.007080 0.000000 -0.000002 0.000000 0.000000 -0.002515
    20 9.664097 -0.000001 0.000001 3.067047 -0.307738 -0.068920
    21 1.977383 0.000000 0.000000 0.196762 -0.061001 -0.067077
    22 6.829860 -0.000001 0.000000 0.001241 0.000000 0.000000
    23 -4.603199 -0.446935 0.691439 -1.751612 -0.047171 1.544023
    24 -6.751354 0.809404 1.239717 0.422884 1.599155 -1.196952
  time 50
    0 -0.084715 -0.651666 6.337786 1.449371 1.495630 -1.615975
    1 0.114604 -0.988310 9.745319 -1.570795 -1.570451 0.000000
    2 -0.000007 0.000010 5.615750 0.004699 3.076784 -0.081221
    3 15.693467 0.000000 0.000000 0.000000 0.000000 -0.062910
    4 22.146629 0.000000 0.000000 -0.899953 -0.370585 0.824340
    5 0.000008 -0.000006 -5.615750 0.747058 2.865125 0.020474
    6 15.693467 0.000000 0.000000 0.000000 0.000000 0.033008
    7 22.146629 0.000000 0.000000 -1.346648 0.516669 1.340876
    8 1.384163 -0.004728 0.000002 -0.068314 -0.107666 -0.228016
    9 5.939814 -0.004730 0.000000 -0.059767 0.016395 0.204320
    10 5.939809 -0.003975 0.000000 0.034436 -0.086517 0.167168
    11 4.991439 -0.003975 0.000000 0.000023 0.056276 -0.021829
    12 4.991436 -0.001575 0.000000 0.000000 0.000000 0.000000
    13 0.000005 0.001564 3.638375 -0.000010 -1.187600 3.140806
    14 6.703436 0.000000 0.000000 -0.276142 0.614079 -0.255116
    15 10.007079 0.000000 0.000002 0.000000 0.000000 -0.002518
    16 9.664095 -0.000001 -0.000002 -3.820717 -0.067348 -0.377001
    17 0.000005 0.001585 -3.638375 -0.000010 1.013145 3.140787
    18 6.703436 0.000000 -0.000001 -0.223855 -0.577193 -0.388875
    19 10.007080 0.000000 -0.000002 0.000000 0.000000 -0.002515
    20 9.664097 -0.000001 0.000001 3.067047 -0.307738 -0.068920
    21 1.977383 0.000000 0.000000 0.196762 -0.061001 -0.067077
    22 6.829860 -0.000001 0.000000 0.001241 0.000000 0.000000
    23 -4.603199 -0.446935 0.691439 -1.751612 -0.047171 1.544023
    24 -6.751354 0.809404 1.239717 0.422884 1.599155 -1.196952
  time 51
    0 -0.084715 -0.651666 6.337786 1.449371 1.495630 -1.615975
    1 0.114604 -0.988310 9.745319 -1.570795 -1.570451 0.000000
    2 -0.000007 0.000010 5.615750 0.004699 3.076784 -0.081221
    3 15.693467 0.000000 0.000000 0.000000 0.000000 -0.062910
    4 22.146629 0.000000 0.000000 -0.899953 -0.370585 0.824340
    5 0.000008 -0.000006 -5.615750 0.747058 2.865125 0.020474
    6 15.693467 0.000000 0.000000 0.000000 0.000000 0.033008
    7 22.146629 0.000000 0.000000 -1.346648 0.516669 1.340876
    8 1.384163 -0.004728 0.000002 -0.068314 -0.107666 -0.228016
    9 5.939814 -0.004730 0.000000 -0.059767 0.016395 0.204320
    10 5.939809 -0.003975 0.000000 0.034436 -0.086517 0.167168
    11 4.991439 -0.003975 0.000000 0.000023 0.056276 -0.021829
    12 4.991436 -0.001575 0.000000 0.000000 0.000000 0.000000
    13 0.000005 0.001564 3.638375 -0.000010 -1.187600 3.140806
    14 6.703436 0.000000 0.000000 -0.276142 0.614079 -0.255116
    15 10.007079 0.000000 0.000002 0.000000 0.000000 -0.002518
    16 9.664095 -0.000001 -0.000002 -3.820717 -0.067348 -0.377001
    17 0.000005 0.001585 -3.638375 -0.000010 1.013145 3.140787
    18 6.703436 0.000000 -0.000001 -0.223855 -0.577193 -0.388875
    19 10.007080 0.000000 -0.000002 0.000000 0.000000 -0.002515
    20 9.664097 -0.000001 0.000001 3.067047 -0.307738 -0.068920
    21 1.977383 0.000000 0.000000 0.196762 -0.061001 -0.067077
    22 6.829860 -0.000001 0.000000 0.001241 0.000000 0.000000
    23 -4.603199 -0.446935 0.691439 -1.751612 -0.047171 1.544023
    24 -6.751354 0.809404 1.239717 0.422884 1.599155 -1.196952
  time 52
    0 -0.084715 -0.651666 6.337786 1.449371 1.495630 -1.615975
    1 0.114604 -0.988310 9.745319 -1.570795 -1.570451 0.000000
    2 -0.000007 0.000010 5.615750 0.004699 3.076784 -0.081221
    3 15.693467 0.000000 0.000000 0.000000 0.000000 -0.062910
    4 22.146629 0.000000 0.000000 -0.899953 -0.370585 0.824340
    5 0.000008 -0.000006 -5.615750 0.747058 2.865125 0.020474
    6 15.693467 0.000000 0.000000 0.000000 0.000000 0.033008
    7 22.146629 0.000000 0.000000 -1.346648 0.516669 1.340876
    8 1.384163 -0.004728 0.000002 -0.068314 -0.107666 -0.228016
    9 5.939814 -0.004730 0.000000 -0.059767 0.016395 0.204320
    10 5.939809 -0.003975 0.000000 0.034436 -0.086517 0.167168
    11 4.991439 -0.003975 0.000000 0.000023 0.056276 -0.021829
    12 4.991436 -0.001575 0.000000 0.000000 0.000000 0.000000
    13 0.000005 0.001564 3.638375 -0.000010 -1.187600 3.140806
    14 6.703436 0.000000 0.000000 -0.276142 0.614079 -0.255116
    15 10.007079 0.000000 0.000002 0.000000 0.000000 -0.002518
    16 9.664095 -0.000001 -0.000002 -3.820717 -0.067348 -0.377001
    17 0.000005 0.001585 -3.638375 -0.000010 1.013145 3.140787
    18 6.703436 0.000000 -0.000001 -0.223855 -0.577193 -0.388875
    19 10.007080 0.000000 -0.000002 0.000000 0.000000 -0.002515
    20 9.664097 -0.000001 0.000001 3.067047 -0.307738 -0.068920
    21 1.977383 0.000000 0.000000 0.196762 -0.061001 -0.067077
    22 6.829860 -0.000001 0.000000 0.001241 0.000000 0.000000
    23 -4.603199 -0.446935 0.691439 -1.751612 -0.047171 1.544023
    24 -6.751354 0.809404 1.239717 0.422884 1.599155 -1.196952
  time 53
    0 -0.084715 -0.651666 6.337786 1.449371 1.495630 -1.615975
    1 0.114604 -0.988310 9.745319 -1.570795 -1.570451 0.000000
    2 -0.000007 0.000010 5.615750 0.004699 3.076784 -0.081221
    3 15.693467 0.000000 0.000000 0.000000 0.000000 -0.062910
    4 22.146629 0.000000 0.000000 -0.899953 -0.370585 0.824340
    5 0.000008 -0.000006 -5.615750 0.747058 2.865125 0.020474
    6 15.693467 0.000000 0.000000 0.000000 0.000000 0.033008
    7 22.146629 0.000000 0.000000 -1.346648 0.516669 1.340876
    8 1.384163 -0.004728 0.000002 -0.068314 -0.107666 -0.228016
    9 5.939814 -0.004730 0.000000 -0.059767 0.016395 0.204320
    10 5.939809 -0.003975 0.000000 0.034436 -0.086517 0.167168
    11 4.991439 -0.003975 0.000000 0.000023 0.056276 -0.021829
    12 4.991436 -0.001575 0.000000 0.000000 0.000000 0.000000
    13 0.000005 0.001564 3.638375 -0.000010 -1.187600 3.140806
    14 6.703436 0.000000 0.000000 -0.276142 0.614079 -0.255116
    15 10.007079 0.000000 0.000002 0.000000 0.000000 -0.002518
    16 9.664095 -0.000001 -0.000002 -3.820717 -0.067348 -0.377001
    17 0.000005 0.001585 -3.638375 -0.000010 1.013145 3.140787
    18 6.703436 0.000000 -0.000001 -0.223855 -0.577193 -0.388875
    19 10.007080 0.000000 -0.000002 0.000000 0.000000 -0.002515
    20 9.664097 -0.000001 0.000001 3.067047 -0.307738 -0.068920
    21 1.977383 0.000000 0.000000 0.196762 -0.061001 -0.067077
    22 6.829860 -0.000001 0.000000 0.001241 0.000000 0.000000
    23 -4.603199 -0.446935 0.691439 -1.751612 -0.047171 1.544023
    24 -6.751354 0.809404 1.239717 0.422884 1.599155 -1.196952
  time 54
    0 -0.084715 -0.651666 6.337786 1.449371 1.495630 -1.615975
    1 0.114604 -0.988310 9.745319 -1.570795 -1.570451 0.000000
    2 -0.000007 0.000010 5.615750 0.004699 3.076784 -0.081221
    3 15.693467 0.000000 0.000000 0.000000 0.000000 -0.062910
    4 22.146629 0.000000 0.000000 -0.899953 -0.370585 0.824340
    5 0.000008 -0.000006 -5.615750 0.747058 2.865125 0.020474
    6 15.693467 0.000000 0.000000 0.000000 0.000000 0.033008
    7 22.146629 0.000000 0.000000 -1.346648 0.516669 1.340876
    8 1.384163 -0.004728 0.000002 -0.068314 -0.107666 -0.228016
    9 5.939814 -0.004730 0.000000 -0.059767 0.016395 0.204320
    10 5.939809 -0.003975 0.000000 0.034436 -0.086517 0.167168
    11 4.991439 -0.003975 0.000000 0.000023 0.056276 -0.021829
    12 4.991436 -0.001575 0.000000 0.000000 0.000000 0.000000
    13 0.000005 0.001564 3.638375 -0.000010 -1.187600 3.140806
    14 6.703436 0.000000 0.000000 -0.276142 0.614079 -0.255116
    15 10.007079 0.000000 0.000002 0.000000 0.000000 -0.002518
    16 9.664095 -0.000001 -0.000002 -3.820717 -0.067348 -0.377001
    17 0.000005 0.001585 -3.638375 -0.000010 1.013145 3.140787
    18 6.703436 0.000000 -0.000001 -0.223855 -0.577193 -0.388875
    19 10.007080 0.000000 -0.000002 0.000000 0.000000 -0.002515
    20 9.664097 -0.000001 0.000001 3.067047 -0.307738 -0.068920
    21 1.977383 0.000000 0.000000 0.196762 -0.061001 -0.067077
    22 6.829860 -0.000001 0.000000 0.001241 0.000000 0.000000
    23 -4.603199 -0.446935 0.691439 -1.751612 -0.047171 1.544023
    24 -6.751354 0.809404 1.239717 0.422884 1.599155 -1.196952
  time 55
    0 -0.084715 -0.651666 6.337786 1.449371 1.495630 -1.615975
    1 0.114604 -0.988310 9.745319 -1.570795 -1.570451 0.000000
    2 -0.000007 0.000010 5.615750 0.004699 3.076784 -0.081221
    3 15.693467 0.000000 0.000000 0.000000 0.000000 -0.062910
    4 22.146629 0.000000 0.000000 -0.899953 -0.370585 0.824340
    5 0.000008 -0.000006 -5.615750 0.747058 2.865125 0.020474
    6 15.693467 0.000000 0.000000 0.000000 0.000000 0.033008
    7 22.146629 0.000000 0.000000 -1.346648 0.516669 1.340876
    8 1.384163 -0.004728 0.000002 -0.068314 -0.107666 -0.228016
    9 5.939814 -0.004730 0.000000 -0.059767 0.016395 0.204320
    10 5.939809 -0.003975 0.000000 0.034436 -0.086517 0.167168
    11 4.991439 -0.003975 0.000000 0.000023 0.056276 -0.021829
    12 4.991436 -0.001575 0.000000 0.000000 0.000000 0.000000
    13 0.000005 0.001564 3.638375 -0.000010 -1.187600 3.140806
    14 6.703436 0.000000 0.000000 -0.276142 0.614079 -0.255116
    15 10.007079 0.000000 0.000002 0.000000 0.000000 -0.002518
    16 9.664095 -0.000001 -0.000002 -3.820717 -0.067348 -0.377001
    17 0.000005 0.001585 -3.638375 -0.000010 1.013145 3.140787
    18 6.703436 0.000000 -0.000001 -0.223855 -0.577193 -0.388875
    19 10.007080 0.000000 -0.000002 0.000000 0.000000 -0.002515
    20 9.664097 -0.000001 0.000001 3.067047 -0.307738 -0.068920
    21 1.977383 0.000000 0.000000 0.196762 -0.061001 -0.067077
    22 6.829860 -0.000001 0.000000 0.001241 0.000000 0.000000
    23 -4.603199 -0.446935 0.691439 -1.751612 -0.047171 1.544023
    24 -6.751354 0.809404 1.239717 0.422884 1.599155 -1.196952
  time 56
    0 -0.084715 -0.651666 6.337786 1.449371 1.495630 -1.615975
    1 0.114604 -0.988310 9.745319 -1.570795 -1.570451 0.000000
    2 -0.000007 0.000010 5.615750 0.004699 3.076784 -0.081221
    3 15.693467 0.000000 0.000000 0.000000 0.000000 -0.062910
    4 22.146629 0.000000 0.000000 -0.899953 -0.370585 0.824340
    5 0.000008 -0.000006 -5.615750 0.747058 2.865125 0.020474
    6 15.693467 0.000000 0.000000 0.000000 0.000000 0.033008
    7 22.146629 0.000000 0.000000 -1.346648 0.516669 1.340876
    8 1.384163 -0.004728 0.000002 -0.068314 -0.107666 -0.228016
    9 5.939814 -0.004730 0.000000 -0.059767 0.016395 0.204320
    10 5.939809 -0.003975 0.000000 0.034436 -0.086517 0.167168
    11 4.991439 -0.003975 0.000000 0.000023 0.056276 -0.021829
    12 4.991436 -0.001575 0.000000 0.000000 0.000000 0.000000
    13 0.000005 0.001564 3.638375 -0.000010 -1.187600 3.140806
    14 6.703436 0.000000 0.000000 -0.276142 0.614079 -0.255116
    15 10.007079 0.000000 0.000002 0.000000 0.000000 -0.002518
    16 9.664095 -0.000001 -0.000002 -3.820717 -0.067348 -0.377001
    17 0.000005 0.001585 -3.638375 -0.000010 1.013145 3.140787
    18 6.703436 0.000000 -0.000001 -0.223855 -0.577193 -0.388875
    19 10.007080 0.000000 -0.000002 0.000000 0.000000 -0.002515
    20 9.664097 -0.000001 0.000001 3.067047 -0.307738 -0.068920
    21 1.977383 0.000000 0.000000 0.196762 -0.061001 -0.067077
    22 6.829860 -0.000001 0.000000 0.001241 0.000000 0.000000
    23 -4.603199 -0.446935 0.691439 -1.751612 -0.047171 1.544023
    24 -6.751354 0.809404 1.239717 0.422884 1.599155 -1.196952
  time 57
    0 -0.084715 -0.651666 6.337786 1.449371 1.495630 -1.615975
    1 0.114604 -0.988310 9.745319 -1.570795 -1.570451 0.000000
    2 -0.000007 0.000010 5.615750 0.004699 3.076784 -0.081221
    3 15.693467 0.000000 0.000000 0.000000 0.000000 -0.062910
    4 22.146629 0.000000 0.000000 -0.899953 -0.370585 0.824340
    5 0.000008 -0.000006 -5.615750 0.747058 2.865125 0.020474
    6 15.693467 0.000000 0.000000 0.000000 0.000000 0.033008
    7 22.146629 0.000000 0.000000 -1.346648 0.516669 1.340876
    8 1.384163 -0.004728 0.000002 -0.068314 -0.107666 -0.228016
    9 5.939814 -0.004730 0.000000 -0.059767 0.016395 0.204320
    10 5.939809 -0.003975 0.000000 0.034436 -0.086517 0.167168
    11 4.991439 -0.003975 0.000000 0.000023 0.056276 -0.021829
    12 4.991436 -0.001575 0.000000 0.000000 0.000000 0.000000
    13 0.000005 0.001564 3.638375 -0.000010 -1.187600 3.140806
    14 6.703436 0.000000 0.000000 -0.276142 0.614079 -0.255116
    15 10.007079 0.000000 0.000002 0.000000 0.000000 -0.002518
    16 9.664095 -0.000001 -0.000002 -3.820717 -0.067348 -0.377001
    17 0.000005 0.001585 -3.638375 -0.000010 1.013145 3.140787
    18 6.703436 0.000000 -0.000001 -0.223855 -0.577193 -0.388875
    19 10.007080 0.000000 -0.000002 0.000000 0.000000 -0.002515
    20 9.664097 -0.000001 0.000001 3.067047 -0.307738 -0.068920
    21 1.977383 0.000000 0.000000 0.196762 -0.061001 -0.067077
    22 6.829860 -0.000001 0.000000 0.001241 0.000000 0.000000
    23 -4.603199 -0.446935 0.691439 -1.751612 -0.047171 1.544023
    24 -6.751354 0.809404 1.239717 0.422884 1.599155 -1.196952
  time 58
    0 -0.084715 -0.651666 6.337786 1.449371 1.495630 -1.615975
    1 0.114604 -0.988310 9.745319 -1.570795 -1.570451 0.000000
    2 -0.000007 0.000010 5.615750 0.004699 3.076784 -0.081221
    3 15.693467 0.000000 0.000000 0.000000 0.000000 -0.062910
    4 22.146629 0.000000 0.000000 -0.899953 -0.370585 0.824340
    5 0.000008 -0.000006 -5.615750 0.747058 2.865125 0.020474
    6 15.693467 0.000000 0.000000 0.000000 0.000000 0.033008
    7 22.146629 0.000000 0.000000 -1.346648 0.516669 1.340876
    8 1.384163 -0.004728 0.000002 -0.068314 -0.107666 -0.228016
    9 5.939814 -0.004730 0.000000 -0.059767 0.016395 0.204320
    10 5.939809 -0.003975 0.000000 0.034436 -0.086517 0.167168
    11 4.991439 -0.003975 0.000000 0.000023 0.056276 -0.021829
    12 4.991436 -0.001575 0.000000 0.000000 0.000000 0.000000
    13 0.000005 0.001564 3.638375 -0.000010 -1.187600 3.140806
    14 6.703436 0.000000 0.000000 -0.276142 0.614079 -0.255116
    15 10.007079 0.000000 0.000002 0.000000 0.000000 -0.002518
    16 9.664095 -0.000001 -0.000002 -3.820717 -0.067348 -0.377001
    17 0.000005 0.001585 -3.638375 -0.000010 1.013145 3.140787
    18 6.703436 0.000000 -0.000001 -0.223855 -0.577193 -0.388875
    19 10.007080 0.000000 -0.000002 0.000000 0.000000 -0.002515
    20 9.664097 -0.000001 0.000001 3.067047 -0.307738 -0.068920
    21 1.977383 0.000000 0.000000 0.196762 -0.061001 -0.067077
    22 6.829860 -0.000001 0.000000 0.001241 0.000000 0.000000
    23 -4.603199 -0.446935 0.691439 -1.751612 -0.047171 1.544023
    24 -6.751354 0.809404 1.239717 0.422884 1.599155 -1.196952
  time 59
    0 -0.084715 -0.651666 6.337786 1.449371 1.495630 -1.615975
    1 0.114604 -0.988310 9.745319 -1.570795 -1.570451 0.000000
    2 -0.000007 0.000010 5.615750 0.004699 3.076784 -0.081221
    3 15.693467 0.000000 0.000000 0.000000 0.000000 -0.062910
    4 22.146629 0.000000 0.000000 -0.899953 -0.370585 0.824340
    5 0.000008 -0.000006 -5.615750 0.747058 2.865125 0.020474
    6 15.693467 0.000000 0.000000 0.000000 0.000000 0.033008
    7 22.146629 0.000000 0.000000 -1.346648 0.516669 1.340876
    8 1.384163 -0.004728 0.000002 -0.068314 -0.107666 -0.228016
    9 5.939814 -0.004730 0.000000 -0.059767 0.016395 0.204320
    10 5.939809 -0.003975 0.000000 0.034436 -0.086517 0.167168
    11 4.991439 -0.003975 0.000000 0.000023 0.056276 -0.021829
    12 4.991436 -0.001575 0.000000 0.000000 0.000000 0.000000
    13 0.000005 0.001564 3.638375 -0.000010 -1.187600 3.140806
    14 6.703436 0.000000 0.000000 -0.276142 0.614079 -0.255116
    15 10.007079 0.000000 0.000002 0.000000 0.000000 -0.002518
    16 9.664095 -0.000001 -0.000002 -3.820717 -0.067348 -0.377001
    17 0.000005 0.001585 -3.638375 -0.000010 1.013145 3.140787
    18 6.703436 0.000000 -0.000001 -0.223855 -0.577193 -0.388875
    19 10.007080 0.000000 -0.000002 0.000000 0.000000 -0.002515
    20 9.664097 -0.000001 0.000001 3.067047 -0.307738 -0.068920
    21 1.977383 0.000000 0.000000 0.196762 -0.061001 -0.067077
    22 6.829860 -0.000001 0.000000 0.001241 0.000000 0.000000
    23 -4.603199 -0.446935 0.691439 -1.751612 -0.047171 1.544023
    24 -6.751354 0.809404 1.239717 0.422884 1.599155 -1.196952
  time 60
    0 -0.084715 -0.651666 6.337786 1.449371 1.495630 -1.615975
    1 0.114604 -0.988310 9.745319 -1.570795 -1.570451 0.000000
    2 -0.000007 0.000010 5.615750 0.004699 3.076784 -0.081221
    3 15.693467 0.000000 0.000000 0.000000 0.000000 -0.062910
    4 22.146629 0.000000 0.000000 -0.899953 -0.370585 0.824340
    5 0.000008 -0.000006 -5.615750 0.747058 2.865125 0.020474
    6 15.693467 0.000000 0.000000 0.000000 0.000000 0.033008
    7 22.146629 0.000000 0.000000 -1.346648 0.516669 1.340876
    8 1.384163 -0.004728 0.000002 -0.068314 -0.107666 -0.228016
    9 5.939814 -0.004730 0.000000 -0.059767 0.016395 0.204320
    10 5.939809 -0.003975 0.000000 0.034436 -0.086517 0.167168
    11 4.991439 -0.003975 0.000000 0.000023 0.056276 -0.021829
    12 4.991436 -0.001575 0.000000 0.000000 0.000000 0.000000
    13 0.000005 0.001564 3.638375 -0.000010 -1.187600 3.140806
    14 6.703436 0.000000 0.000000 -0.276142 0.614079 -0.255116
    15 10.007079 0.000000 0.000002 0.000000 0.000000 -0.002518
    16 9.664095 -0.000001 -0.000002 -3.820717 -0.067348 -0.377001
    17 0.000005 0.001585 -3.638375 -0.000010 1.013145 3.140787
    18 6.703436 0.000000 -0.000001 -0.223855 -0.577193 -0.388875
    19 10.007080 0.000000 -0.000002 0.000000 0.000000 -0.002515
    20 9.664097 -0.000001 0.000001 3.067047 -0.307738 -0.068920
    21 1.977383 0.000000 0.000000 0.196762 -0.061001 -0.067077
    22 6.829860 -0.000001 0.000000 0.001241 0.000000 0.000000
    23 -4.603199 -0.446935 0.691439 -1.751612 -0.047171 1.544023
    24 -6.751354 0.809404 1.239717 0.422884 1.599155 -1.196952
end
