version 1
nodes
  0 "Bip01" -1
  1 "Bip01 Pelvis" 0
  2 "Bip01 L Thigh" 1
  3 "Bip01 L Calf" 2
  4 "Bip01 L Foot" 3
  5 "Bip01 R Thigh" 1
  6 "Bip01 R Calf" 5
  7 "Bip01 R Foot" 6
  8 "Bip01 Spine" 1
  9 "Bip01 Spine1" 8
  10 "Bip01 Spine2" 9
  11 "Bip01 Spine3" 10
  12 "Bip01 Neck" 11
  13 "Bip01 L Clavicle" 12
  14 "Bip01 L UpperArm" 13
  15 "Bip01 L Forearm" 14
  16 "Bip01 L Hand" 15
  17 "Bip01 R Clavicle" 12
  18 "Bip01 R UpperArm" 17
  19 "Bip01 R Forearm" 18
  20 "Bip01 R Hand" 19
  21 "Bip01 Head" 12
  22 "Bip01 R Finger0" 20
  23 "Line01" 22
  24 "w_m40a1" 22
end
skeleton
  time 0
    0 0.118416 0.934320 25.561029 0.000000 -0.087194 -1.570834
    1 -4.639448 -0.773460 9.745319 -1.570795 -1.570451 0.000000
    2 -0.000007 0.000010 5.615750 0.025886 3.207644 -0.805159
    3 15.693467 0.000000 0.000000 0.000000 0.000000 -1.078159
    4 22.146629 0.000000 0.000000 0.011641 -0.023912 0.189620
    5 0.000008 -0.000006 -5.615750 -0.057700 3.051960 -0.147589
    6 15.693467 0.000000 0.000000 0.000000 0.000000 -0.979476
    7 22.146629 0.000000 0.000000 0.020707 0.091645 0.719528
    8 1.384163 -0.004728 0.000002 -0.431530 -0.129382 0.271166
    9 5.939814 -0.004730 0.000000 -0.093624 -0.026965 0.225909
    10 5.939809 -0.003975 0.000000 -0.095444 -0.068108 0.133519
    11 4.991439 -0.003975 0.000000 -0.087226 0.060312 0.042850
    12 4.991436 -0.001575 0.000000 0.000000 0.000000 0.000000
    13 0.000005 0.001564 3.638375 -0.000010 -1.283530 3.140806
    14 6.703436 0.000000 0.000000 0.476855 -0.764631 -1.587725
    15 10.007079 0.000000 0.000002 0.000000 0.000000 -0.446996
    16 9.664095 -0.000001 -0.000002 -3.817266 -0.065043 -0.377231
    17 0.000005 0.001585 -3.638375 -0.000010 1.082936 3.140787
    18 6.703436 0.000000 -0.000001 -0.059668 0.069576 -2.136058
    19 10.007080 0.000000 -0.000002 0.000000 0.000000 -0.783237
    20 9.664097 -0.000001 0.000001 2.840685 0.149945 0.479192
    21 1.977383 0.000000 0.000000 0.487194 0.362889 -0.096810
    22 6.829860 -0.000001 0.000000 0.001241 0.000000 0.000000
    23 -4.603199 -0.446935 0.691439 -1.751612 -0.047171 1.544023
    24 -6.751354 0.809404 1.239717 0.422884 1.599155 -1.196952
  time 1
    0 0.645776 0.207736 26.529809 0.000000 -0.135456 -1.570834
    1 -4.979302 -0.605486 9.745319 -0.000020 -1.579583 -1.570776
    2 -0.000007 0.000010 5.615750 0.014957 3.198153 -0.716344
    3 15.693467 0.000000 0.000000 0.000000 0.000000 -1.017762
    4 22.146629 0.000000 0.000000 0.008123 -0.002118 0.169831
    5 0.000008 -0.000006 -5.615750 -0.053401 3.076788 -0.273612
    6 15.693467 0.000000 0.000000 0.000000 0.000000 -1.086827
    7 22.146629 0.000000 0.000000 0.011334 0.079182 0.690190
    8 1.384163 -0.004728 -0.007811 -0.355047 -0.092406 0.315017
    9 5.939814 -0.004730 0.000000 -0.077037 -0.024305 0.209904
    10 5.939809 -0.003975 0.000000 -0.078639 -0.053667 0.133340
    11 4.991439 -0.003975 0.000000 -0.071519 0.051762 0.059521
    12 4.991436 -0.001575 0.000000 0.000000 0.000000 0.000000
    13 0.000005 0.001564 3.638375 -0.000010 -1.283530 3.140806
    14 6.703436 0.000000 0.000000 0.147390 -0.653547 -1.344882
    15 10.007079 0.000000 0.000002 0.000000 0.000000 -0.742029
    16 9.664095 -0.000001 -0.000002 -3.424964 0.002707 -0.330522
    17 0.000005 0.001585 -3.638375 -0.000010 1.118221 3.140787
    18 6.703436 0.000000 -0.000001 -0.022690 0.067726 -1.913598
    19 10.007080 0.000000 -0.000002 0.000000 0.000000 -1.010449
    20 9.664097 -0.000001 0.000001 2.615636 0.178617 0.391669
    21 1.977383 0.000000 0.000000 0.361902 0.327119 -0.169803
    22 6.829860 -0.000001 0.000000 0.001241 0.000000 0.000000
    23 -4.603199 -0.446935 0.691439 -1.751612 -0.047171 1.544023
    24 -6.751354 0.809404 1.239717 0.422884 1.599155 -1.196952
  time 2
    0 1.141885 -0.452441 27.623592 0.000000 -0.182956 -1.570834
    1 -5.299624 -0.464857 9.745319 -0.000020 -1.588931 -1.570776
    2 -0.000007 0.000010 5.615750 0.006616 3.190100 -0.619288
    3 15.693467 0.000000 0.000000 0.000000 0.000000 -0.942281
    4 22.146629 0.000000 0.000000 0.003590 0.017016 0.143938
    5 0.000008 -0.000006 -5.615750 -0.044039 3.101904 -0.395715
    6 15.693467 0.000000 0.000000 0.000000 0.000000 -1.192331
    7 22.146629 0.000000 0.000000 0.003409 0.064470 0.656338
    8 1.384163 -0.004728 -0.023436 -0.271673 -0.057707 0.358825
    9 5.939814 -0.004730 0.000000 -0.059444 -0.021225 0.191719
    10 5.939809 -0.003975 0.000000 -0.060760 -0.038339 0.132153
    11 4.991439 -0.003975 0.000000 -0.054997 0.042365 0.075848
    12 4.991436 -0.001575 0.000000 0.000000 0.000000 0.000000
    13 0.000005 0.001564 3.638375 -0.000010 -1.283530 3.140806
    14 6.703436 0.000000 0.000000 -0.101532 -0.449500 -1.188524
    15 10.007079 0.000000 0.000002 0.000000 0.000000 -1.056850
    16 9.664095 -0.000001 -0.000002 -3.004291 0.049215 -0.256494
    17 0.000005 0.001585 -3.638375 -0.000010 1.155742 3.140787
    18 6.703436 0.000000 -0.000001 0.041212 0.042838 -1.676536
    19 10.007080 0.000000 -0.000002 0.000000 0.000000 -1.251947
    20 9.664097 -0.000001 0.000001 2.373810 0.187012 0.293708
    21 1.977383 0.000000 0.000000 0.227924 0.282167 -0.235325
    22 6.829860 -0.000001 0.000000 0.001241 0.000000 0.000000
    23 -4.603199 -0.446935 0.691439 -1.751612 -0.047171 1.544023
    24 -6.751354 0.809404 1.239717 0.422884 1.599155 -1.196952
  time 3
    0 1.657526 -1.147774 28.729094 0.000000 -0.230456 -1.570834
    1 -5.619946 -0.343759 9.745319 -0.000020 -1.598291 -1.570776
    2 -0.000007 0.000010 5.615750 -0.000574 3.182335 -0.520892
    3 15.693467 0.000000 0.000000 0.000000 0.000000 -0.865858
    4 22.146629 0.000000 0.000000 -0.001197 0.035162 0.118380
    5 0.000008 -0.000006 -5.615750 -0.030665 3.125103 -0.517869
    6 15.693467 0.000000 0.000000 0.000000 0.000000 -1.297915
    7 22.146629 0.000000 0.000000 -0.002088 0.048873 0.622631
    8 1.384163 -0.004728 -0.035155 -0.186557 -0.026953 0.404665
    9 5.939814 -0.004730 0.000000 -0.041910 -0.017833 0.173572
    10 5.939809 -0.003975 0.000000 -0.042894 -0.022998 0.131258
    11 4.991439 -0.003975 0.000000 -0.038661 0.032693 0.091995
    12 4.991436 -0.001575 0.000000 0.000000 0.000000 0.000000
    13 0.000005 0.001564 3.638375 -0.000010 -1.283530 3.140806
    14 6.703436 0.000000 0.000000 -0.265090 -0.199926 -1.109158
    15 10.007079 0.000000 0.000002 0.000000 0.000000 -1.371590
    16 9.664095 -0.000001 -0.000002 -2.580838 0.061297 -0.169782
    17 0.000005 0.001585 -3.638375 -0.000010 1.193264 3.140787
    18 6.703436 0.000000 -0.000001 0.122644 -0.005662 -1.447778
    19 10.007080 0.000000 -0.000002 0.000000 0.000000 -1.493522
    20 9.664097 -0.000001 0.000001 2.132422 0.172122 0.196611
    21 1.977383 0.000000 0.000000 0.096979 0.230828 -0.289943
    22 6.829860 -0.000001 0.000000 0.001241 0.000000 0.000000
    23 -4.603199 -0.446935 0.691439 -1.751612 -0.047171 1.544023
    24 -6.751354 0.809404 1.239717 0.422884 1.599155 -1.196952
  time 4
    0 2.227856 -1.975925 29.733031 0.000000 -0.278717 -1.570834
    1 -5.971520 -0.242194 9.745319 -0.000020 -1.607088 -1.570776
    2 -0.000007 0.000010 5.615750 -0.007765 3.173323 -0.430160
    3 15.693467 0.000000 0.000000 0.000000 0.000000 -0.806874
    4 22.146629 0.000000 0.000000 -0.006564 0.053660 0.101677
    5 0.000008 -0.000006 -5.615750 -0.014615 3.144563 -0.644095
    6 15.693467 0.000000 0.000000 0.000000 0.000000 -1.405266
    7 22.146629 0.000000 0.000000 -0.004985 0.033850 0.593948
    8 1.384163 -0.004728 -0.046874 -0.104851 -0.001633 0.454138
    9 5.939814 -0.004730 0.000000 -0.025479 -0.014334 0.157739
    10 5.939809 -0.003975 0.000000 -0.026130 -0.008533 0.131827
    11 4.991439 -0.003975 0.000000 -0.023420 0.023378 0.108217
    12 4.991436 -0.001575 0.000000 0.000000 0.000000 0.000000
    13 0.000005 0.001564 3.638375 -0.000010 -1.283530 3.140806
    14 6.703436 0.000000 0.000000 -0.366798 0.052925 -1.071684
    15 10.007079 0.000000 0.000002 0.000000 0.000000 -1.666622
    16 9.664095 -0.000001 -0.000002 -2.182977 0.039180 -0.090428
    17 0.000005 0.001585 -3.638375 -0.000010 1.228548 3.140787
    18 6.703436 0.000000 -0.000001 0.211684 -0.070052 -1.247793
    19 10.007080 0.000000 -0.000002 0.000000 0.000000 -1.720734
    20 9.664097 -0.000001 0.000001 1.908539 0.137708 0.111330
    21 1.977383 0.000000 0.000000 -0.020913 0.178530 -0.332951
    22 6.829860 -0.000001 0.000000 0.001241 0.000000 0.000000
    23 -4.603199 -0.446935 0.691439 -1.751612 -0.047171 1.544023
    24 -6.751354 0.809404 1.239717 0.422884 1.599155 -1.196952
  time 5
    0 2.911470 -3.034551 30.529931 0.000000 -0.328692 -1.570834
    1 -6.373876 -0.171879 9.745319 -0.000020 -1.614770 -1.570776
    2 -0.000007 0.000010 5.615750 -0.015051 3.161148 -0.358111
    3 15.693467 0.000000 0.000000 0.000000 0.000000 -0.787549
    4 22.146629 0.000000 0.000000 -0.013236 0.073901 0.104293
    5 0.000008 -0.000006 -5.615750 0.002103 3.159038 -0.778210
    6 15.693467 0.000000 0.000000 0.000000 0.000000 -1.516230
    7 22.146629 0.000000 0.000000 -0.005624 0.020908 0.574875
    8 1.384163 -0.004728 -0.058594 -0.031874 0.016981 0.508454
    9 5.939814 -0.004730 0.000000 -0.011182 -0.011050 0.146457
    10 5.939809 -0.003975 0.000000 -0.011474 0.004087 0.135016
    11 4.991439 -0.003975 0.000000 -0.010207 0.015047 0.124768
    12 4.991436 -0.001575 0.000000 0.000000 0.000000 0.000000
    13 0.000005 0.001564 3.638375 -0.000010 -1.283530 3.140806
    14 6.703436 0.000000 0.000000 -0.426707 0.275274 -1.049756
    15 10.007079 0.000000 0.000002 0.000000 0.000000 -1.922076
    16 9.664095 -0.000001 -0.000002 -1.838023 -0.004016 -0.032838
    17 0.000005 0.001585 -3.638375 -0.000010 1.259407 3.140787
    18 6.703436 0.000000 -0.000001 0.302178 -0.134250 -1.092401
    19 10.007080 0.000000 -0.000002 0.000000 0.000000 -1.919217
    20 9.664097 -0.000001 0.000001 1.716849 0.093116 0.045055
    21 1.977383 0.000000 0.000000 -0.116881 0.131822 -0.366369
    22 6.829860 -0.000001 0.000000 0.001241 0.000000 0.000000
    23 -4.603199 -0.446935 0.691439 -1.751612 -0.047171 1.544023
    24 -6.751354 0.809404 1.239717 0.422884 1.599155 -1.196952
  time 6
    0 3.809935 -4.308027 31.026039 0.000000 -0.381237 -1.570834
    1 -6.838734 -0.136722 9.745319 -0.000020 -1.620786 -1.570776
    2 -0.000007 0.000010 5.615750 -0.026747 3.143508 -0.314135
    3 15.693467 0.000000 0.000000 0.000000 0.000000 -0.823371
    4 22.146629 0.000000 0.000000 -0.019872 0.099907 0.131528
    5 0.000008 -0.000006 -5.615750 0.017770 3.167186 -0.923828
    6 15.693467 0.000000 0.000000 0.000000 0.000000 -1.632734
    7 22.146629 0.000000 0.000000 -0.004815 0.011267 0.570143
    8 1.384163 -0.004728 -0.066406 0.026885 0.028171 0.568695
    9 5.939814 -0.004730 0.000000 0.000000 -0.008365 0.141925
    10 5.939809 -0.003975 0.000000 0.000000 0.013950 0.141931
    11 4.991439 -0.003975 0.000000 0.000000 0.008372 0.141932
    12 4.991436 -0.001575 0.000000 0.000000 0.000000 0.000000
    13 0.000005 0.001564 3.638375 -0.000010 -1.283530 3.140806
    14 6.703436 0.000000 0.000000 -0.461217 0.439532 -1.030937
    15 10.007079 0.000000 0.000002 0.000000 0.000000 -2.118162
    16 9.664095 -0.000001 -0.000002 -1.569555 -0.049973 0.000000
    17 0.000005 0.001585 -3.638375 -0.000010 1.283530 3.140787
    18 6.703436 0.000000 -0.000001 0.391879 -0.176496 -0.991549
    19 10.007080 0.000000 -0.000002 0.000000 0.000000 -2.074609
    20 9.664097 -0.000001 0.000001 1.569555 0.049989 0.000000
    21 1.977383 0.000000 0.000000 -0.181962 0.096371 -0.394334
    22 6.829860 -0.000001 0.000000 0.001241 0.000000 0.000000
    23 -4.603199 -0.446935 0.691439 -1.751612 -0.047171 1.544023
    24 -6.751354 0.809404 1.239717 0.422884 1.599155 -1.196952
  time 7
    0 4.892000 -5.737758 31.494804 0.000000 -0.445395 -1.570834
    1 -7.565318 -0.144535 9.745319 -0.000020 -1.623603 -1.570776
    2 -0.000007 0.000010 5.615750 -0.046688 3.121171 -0.280984
    3 15.693467 0.000000 0.000000 0.000000 0.000000 -0.887741
    4 22.146629 0.000000 0.000000 -0.024333 0.131821 0.165471
    5 0.000008 -0.000006 -5.615750 0.027705 3.166515 -1.103343
    6 15.693467 0.000000 0.000000 0.000000 0.000000 -1.792676
    7 22.146629 0.000000 0.000000 -0.003749 0.008038 0.605523
    8 1.384163 -0.004728 -0.070313 0.057522 0.029444 0.658343
    9 5.939814 -0.004730 0.000000 0.005213 -0.007143 0.155176
    10 5.939809 -0.003975 0.000000 0.005441 0.018492 0.160545
    11 4.991439 -0.003975 0.000000 0.004707 0.005143 0.165271
    12 4.991436 -0.001575 0.000000 0.000000 0.000000 0.000000
    13 0.000005 0.001564 3.638375 -0.000010 -1.283530 3.140806
    14 6.703436 0.000000 0.000000 -0.499137 0.471765 -1.009991
    15 10.007079 0.000000 0.000002 0.000000 0.000000 -2.220311
    16 9.664095 -0.000001 -0.000002 -1.444475 -0.074104 0.010882
    17 0.000005 0.001585 -3.638375 -0.000010 1.294813 3.140787
    18 6.703436 0.000000 -0.000001 0.492892 -0.118679 -0.980670
    19 10.007080 0.000000 -0.000002 0.000000 0.000000 -2.147274
    20 9.664097 -0.000001 0.000001 1.501525 0.027653 -0.018747
    21 1.977383 0.000000 0.000000 -0.183617 0.081680 -0.446631
    22 6.829860 -0.000001 0.000000 0.001241 0.000000 0.000000
    23 -4.603199 -0.446935 0.691439 -1.751612 -0.047171 1.544023
    24 -6.751354 0.809404 1.239717 0.422884 1.599155 -1.196952
  time 8
    0 6.001408 -7.339370 32.088572 0.000000 -0.518787 -1.570834
    1 -8.397375 -0.160160 9.745319 -0.000020 -1.623291 -1.570776
    2 -0.000007 0.000010 5.615750 -0.067013 3.093274 -0.241798
    3 15.693467 0.000000 0.000000 0.000000 0.000000 -0.960596
    4 22.146629 0.000000 0.000000 -0.033616 0.164676 0.204780
    5 0.000008 -0.000006 -5.615750 0.029425 3.159230 -1.312023
    6 15.693467 0.000000 0.000000 0.000000 0.000000 -1.984975
    7 22.146629 0.000000 0.000000 -0.003238 0.011052 0.675994
    8 1.384163 -0.004728 -0.070313 0.059117 0.023903 0.770435
    9 5.939814 -0.004730 0.000000 0.004650 -0.007347 0.184242
    10 5.939809 -0.003975 0.000000 0.004890 0.017917 0.189020
    11 4.991439 -0.003975 0.000000 0.004148 0.005444 0.193215
    12 4.991436 -0.001575 0.000000 0.000000 0.000000 0.000000
    13 0.000005 0.001564 3.638375 -0.000010 -1.283530 3.140806
    14 6.703436 0.000000 0.000000 -0.560457 0.382807 -0.986018
    15 10.007079 0.000000 0.000002 0.000000 0.000000 -2.224581
    16 9.664095 -0.000001 -0.000002 -1.458372 -0.071343 0.009809
    17 0.000005 0.001585 -3.638375 -0.000010 1.293549 3.140787
    18 6.703436 0.000000 -0.000001 0.588613 0.042136 -1.031918
    19 10.007080 0.000000 -0.000002 0.000000 0.000000 -2.139208
    20 9.664097 -0.000001 0.000001 1.509062 0.030188 -0.016734
    21 1.977383 0.000000 0.000000 -0.123913 0.080961 -0.517504
    22 6.829860 -0.000001 0.000000 0.001241 0.000000 0.000000
    23 -4.603199 -0.446935 0.691439 -1.751612 -0.047171 1.544023
    24 -6.751354 0.809404 1.239717 0.422884 1.599155 -1.196952
  time 9
    0 6.970188 -9.128487 32.600306 0.000000 -0.585039 -1.570834
    1 -8.959892 -0.148441 9.745319 -0.000020 -1.621721 -1.570776
    2 -0.000007 0.000010 5.615750 -0.083791 3.062979 -0.192648
    3 15.693467 0.000000 0.000000 0.000000 0.000000 -1.031902
    4 22.146629 0.000000 0.000000 -0.046454 0.195154 0.259250
    5 0.000008 -0.000006 -5.615750 0.025890 3.151177 -1.513018
    6 15.693467 0.000000 0.000000 0.000000 0.000000 -2.137209
    7 22.146629 0.000000 0.000000 -0.002855 0.016411 0.740640
    8 1.384163 -0.004728 -0.070313 0.047076 0.018935 0.860558
    9 5.939814 -0.004730 0.000000 0.001738 -0.008006 0.211874
    10 5.939809 -0.003975 0.000000 0.001860 0.015412 0.213654
    11 4.991439 -0.003975 0.000000 0.001538 0.007250 0.215238
    12 4.991436 -0.001575 0.000000 0.000000 0.000000 0.000000
    13 0.000005 0.001564 3.638375 -0.000010 -1.283530 3.140806
    14 6.703436 0.000000 0.000000 -0.625774 0.269811 -0.957135
    15 10.007079 0.000000 0.000002 0.000000 0.000000 -2.157494
    16 9.664095 -0.000001 -0.000002 -1.527862 -0.057865 0.003947
    17 0.000005 0.001585 -3.638375 -0.000010 1.287275 3.140787
    18 6.703436 0.000000 -0.000001 0.648083 0.204354 -1.083382
    19 10.007080 0.000000 -0.000002 0.000000 0.000000 -2.098805
    20 9.664097 -0.000001 0.000001 1.546846 0.042702 -0.006412
    21 1.977383 0.000000 0.000000 -0.046605 0.079285 -0.556978
    22 6.829860 -0.000001 0.000000 0.001241 0.000000 0.000000
    23 -4.603199 -0.446935 0.691439 -1.751612 -0.047171 1.544023
    24 -6.751354 0.809404 1.239717 0.422884 1.599155 -1.196952
  time 10
    0 7.645990 -11.132454 32.834688 0.000000 -0.627970 -1.570834
    1 -9.088802 -0.132816 9.745319 -0.000020 -1.620786 -1.570776
    2 -0.000007 0.000010 5.615750 -0.096542 3.039587 -0.132767
    3 15.693467 0.000000 0.000000 0.000000 0.000000 -1.085633
    4 22.146629 0.000000 0.000000 -0.052546 0.218736 0.330892
    5 0.000008 -0.000006 -5.615750 -3.118626 6.278959 1.472124
    6 15.693467 0.000000 0.000000 0.000000 0.000000 -2.177195
    7 22.146629 0.000000 0.000000 -0.001491 0.020166 0.758185
    8 1.384163 -0.004728 -0.066406 0.038637 0.017734 0.884214
    9 5.939814 -0.004730 0.000000 0.000000 -0.008365 0.220823
    10 5.939809 -0.003975 0.000000 0.000000 0.013950 0.220829
    11 4.991439 -0.003975 0.000000 0.000000 0.008372 0.220830
    12 4.991436 -0.001575 0.000000 0.000000 0.000000 0.000000
    13 0.000005 0.001564 3.638375 -0.000010 -1.283530 3.140806
    14 6.703436 0.000000 0.000000 -0.654170 0.217456 -0.938317
    15 10.007079 0.000000 0.000002 0.000000 0.000000 -2.045245
    16 9.664095 -0.000001 -0.000002 -1.569555 -0.049973 0.000000
    17 0.000005 0.001585 -3.638375 -0.000010 1.283530 3.140787
    18 6.703436 0.000000 -0.000001 0.658270 0.256300 -1.099558
    19 10.007080 0.000000 -0.000002 0.000000 0.000000 -2.074609
    20 9.664097 -0.000001 0.000001 1.569555 0.049989 0.000000
    21 1.977383 0.000000 0.000000 0.004183 0.071700 -0.515030
    22 6.829860 -0.000001 0.000000 0.001241 0.000000 0.000000
    23 -4.603199 -0.446935 0.691439 -1.751612 -0.047171 1.544023
    24 -6.751354 0.809404 1.239717 0.422884 1.599155 -1.196952
  time 11
    0 7.958499 -13.882538 31.709654 0.000000 -0.601698 -1.570834
    1 -7.975487 -0.136722 9.745319 -0.000020 -1.620786 -1.570776
    2 -0.000007 0.000010 5.615750 -0.117058 3.038533 -0.060910
    3 15.693467 0.000000 0.000000 0.000000 0.000000 -1.114317
    4 22.146629 0.000000 0.000000 -0.021323 0.232128 0.463713
    5 0.000008 -0.000006 -5.615750 -3.119390 6.279725 1.463369
    6 15.693467 0.000000 0.000000 0.000000 0.000000 -1.885012
    7 22.146629 0.000000 0.000000 0.002386 0.020908 0.663691
    8 1.384163 -0.004728 -0.066406 0.032422 0.024064 0.706518
    9 5.939814 -0.004730 0.000000 0.000000 -0.008365 0.176383
    10 5.939809 -0.003975 0.000000 0.000000 0.013950 0.176393
    11 4.991439 -0.003975 0.000000 0.000000 0.008372 0.176380
    12 4.991436 -0.001575 0.000000 0.000000 0.000000 0.000000
    13 0.000005 0.001564 3.638375 -0.000010 -1.283530 3.140806
    14 6.703436 0.000000 0.000000 -0.555577 0.305504 -0.958363
    15 10.007079 0.000000 0.000002 0.000000 0.000000 -1.761873
    16 9.664095 -0.000001 -0.000002 -1.569555 -0.049973 0.000000
    17 0.000005 0.001585 -3.638375 -0.000010 1.283530 3.140787
    18 6.703436 0.000000 -0.000001 0.511745 -0.002727 -1.028411
    19 10.007080 0.000000 -0.000002 0.000000 0.000000 -2.074609
    20 9.664097 -0.000001 0.000001 1.569555 0.049989 0.000000
    21 1.977383 0.000000 0.000000 -0.003999 0.071939 -0.219676
    22 6.829860 -0.000001 0.000000 0.001241 0.000000 0.000000
    23 -4.603199 -0.446935 0.691439 -1.751612 -0.047171 1.544023
    24 -6.751354 0.809404 1.239717 0.422884 1.599155 -1.196952
  time 12
    0 8.013189 -17.367019 29.596308 0.000000 -0.536016 -1.570834
    1 -5.405096 -0.140628 9.745319 -0.000020 -1.620786 -1.570776
    2 -0.000007 0.000010 5.615750 -0.121181 3.037670 0.095643
    3 15.693467 0.000000 0.000000 0.000000 0.000000 -1.053179
    4 22.146629 0.000000 0.000000 0.018603 0.225844 0.630811
    5 0.000008 -0.000006 -5.615750 -3.119772 6.279342 1.487037
    6 15.693467 0.000000 0.000000 0.000000 0.000000 -1.391295
    7 22.146629 0.000000 0.000000 0.007712 0.020023 0.452352
    8 1.384163 -0.004728 -0.066406 0.020429 0.031649 0.421704
    9 5.939814 -0.004730 0.000000 0.000000 -0.008365 0.105172
    10 5.939809 -0.003975 0.000000 0.000000 0.013950 0.105175
    11 4.991439 -0.003975 0.000000 0.000000 0.008372 0.105182
    12 4.991436 -0.001575 0.000000 0.000000 0.000000 0.000000
    13 0.000005 0.001564 3.638375 -0.000010 -1.283530 3.140806
    14 6.703436 0.000000 0.000000 -0.445520 0.481598 -1.010482
    15 10.007079 0.000000 0.000002 0.000000 0.000000 -1.362147
    16 9.664095 -0.000001 -0.000002 -1.569555 -0.049973 0.000000
    17 0.000005 0.001585 -3.638375 -0.000010 1.283530 3.140787
    18 6.703436 0.000000 -0.000001 0.223459 -0.383577 -0.832148
    19 10.007080 0.000000 -0.000002 0.000000 0.000000 -2.074609
    20 9.664097 -0.000001 0.000001 1.569555 0.049989 0.000000
    21 1.977383 0.000000 0.000000 -0.036861 0.079923 0.207277
    22 6.829860 -0.000001 0.000000 0.001241 0.000000 0.000000
    23 -4.603199 -0.446935 0.691439 -1.751612 -0.047171 1.544023
    24 -6.751354 0.809404 1.239717 0.422884 1.599155 -1.196952
  time 13
    0 7.915529 -20.785092 27.721251 0.000000 -0.468622 -1.570834
    1 -2.549540 -0.140628 9.745319 -0.000020 -1.620786 -1.570776
    2 -0.000007 0.000010 5.615750 -0.111018 3.035369 0.342545
    3 15.693467 0.000000 0.000000 0.000000 0.000000 -0.838588
    4 22.146629 0.000000 0.000000 0.053235 0.200732 0.733915
    5 0.000008 -0.000006 -5.615750 -3.119772 0.000389 1.301260
    6 15.693467 0.000000 0.000000 0.000000 0.000000 -0.847396
    7 22.146629 0.000000 0.000000 0.012995 0.017439 -0.001993
    8 1.384163 -0.004728 -0.066406 0.008338 0.035326 0.168286
    9 5.939814 -0.004730 0.000000 0.000000 -0.008365 0.041839
    10 5.939809 -0.003975 0.000000 0.000000 0.013950 0.041849
    11 4.991439 -0.003975 0.000000 0.000000 0.008372 0.041848
    12 4.991436 -0.001575 0.000000 0.000000 0.000000 0.000000
    13 0.000005 0.001564 3.638375 -0.000010 -1.283530 3.140806
    14 6.703436 0.000000 0.000000 -0.450164 0.640120 -1.111285
    15 10.007079 0.000000 0.000002 0.000000 0.000000 -0.968496
    16 9.664095 -0.000001 -0.000002 -1.569555 -0.049973 0.000000
    17 0.000005 0.001585 -3.638375 -0.000010 1.283530 3.140787
    18 6.703436 0.000000 -0.000001 -0.150692 -0.651793 -0.522437
    19 10.007080 0.000000 -0.000002 0.000000 0.000000 -2.074609
    20 9.664097 -0.000001 0.000001 1.569555 0.049989 0.000000
    21 1.977383 0.000000 0.000000 -0.071562 0.087828 0.574665
    22 6.829860 -0.000001 0.000000 0.001241 0.000000 0.000000
    23 -4.603199 -0.446935 0.691439 -1.751612 -0.047171 1.544023
    24 -6.751354 0.809404 1.239717 0.422884 1.599155 -1.196952
  time 14
    0 7.759275 -23.324232 26.303239 0.000000 -0.403416 -1.570834
    1 0.149761 -0.140628 9.745319 -0.000020 -1.620786 -1.570776
    2 -0.000007 0.000010 5.615750 -0.091652 3.027316 0.669256
    3 15.693467 0.000000 0.000000 0.000000 0.000000 -0.417419
    4 22.146629 0.000000 0.000000 0.077459 0.168771 0.705405
    5 0.000008 -0.000006 -5.615750 -3.120059 0.001444 1.255300
    6 15.693467 0.000000 0.000000 0.000000 0.000000 -0.282862
    7 22.146629 0.000000 0.000000 0.017512 0.013349 -0.335926
    8 1.384163 -0.004728 -0.066406 -0.002761 0.035756 -0.054731
    9 5.939814 -0.004730 0.000000 0.000000 -0.008305 -0.013883
    10 5.939809 -0.003975 0.000000 0.000000 0.014046 -0.013879
    11 4.991439 -0.003975 0.000000 0.000000 0.008426 -0.013875
    12 4.991436 -0.001575 0.000000 0.000000 0.000000 0.000000
    13 0.000005 0.001564 3.638375 -0.000010 -1.283530 3.140806
    14 6.703436 0.000000 0.000000 -0.453633 0.835153 -1.127485
    15 10.007079 0.000000 0.000002 0.000000 0.000000 -0.722486
    16 9.664095 -0.000001 -0.000002 -1.569555 -0.049973 0.000000
    17 0.000005 0.001585 -3.638375 -0.000010 1.283530 3.140787
    18 6.703436 0.000000 -0.000001 -0.614346 -0.773042 -0.107436
    19 10.007080 0.000000 -0.000002 0.000000 0.000000 -2.074609
    20 9.664097 -0.000001 0.000001 1.569555 0.049989 0.000000
    21 1.977383 0.000000 0.000000 -0.105896 0.094375 0.888495
    22 6.829860 -0.000001 0.000000 0.001241 0.000000 0.000000
    23 -4.603199 -0.446935 0.691439 -1.751612 -0.047171 1.544023
    24 -6.751354 0.809404 1.239717 0.422884 1.599155 -1.196952
  time 15
    0 7.645990 -24.179727 25.514153 0.000000 -0.349729 -1.570834
    1 1.962316 -0.140628 9.745319 -0.000020 -1.620786 -1.570776
    2 -0.000007 0.000010 5.615750 -0.071423 3.017538 0.929858
    3 15.693467 0.000000 0.000000 0.000000 0.000000 -0.001838
    4 22.146629 0.000000 0.000000 0.088918 0.148107 0.603241
    5 0.000008 -0.000006 -5.615750 -3.120727 6.281547 1.383969
    6 15.693467 0.000000 0.000000 0.000000 0.000000 -0.001839
    7 22.146629 0.000000 0.000000 0.019685 0.011052 -0.361552
    8 1.384163 -0.004728 -0.066406 -0.010232 0.034985 -0.205831
    9 5.939814 -0.004730 0.000000 0.000000 -0.008365 -0.051630
    10 5.939809 -0.003975 0.000000 0.000000 0.013950 -0.051628
    11 4.991439 -0.003975 0.000000 0.000000 0.008372 -0.051627
    12 4.991436 -0.001575 0.000000 0.000000 0.000000 0.000000
    13 0.000005 0.001564 3.638375 -0.000010 -1.283530 3.140806
    14 6.703436 0.000000 0.000000 -0.443286 0.985662 -1.099585
    15 10.007079 0.000000 0.000002 0.000000 0.000000 -0.607445
    16 9.664095 -0.000001 -0.000002 -1.569555 -0.049973 0.000000
    17 0.000005 0.001585 -3.638375 -0.000010 1.283530 3.140787
    18 6.703436 0.000000 -0.000001 -0.962036 -0.765129 0.209075
    19 10.007080 0.000000 -0.000002 0.000000 0.000000 -2.074609
    20 9.664097 -0.000001 0.000001 1.569555 0.049989 0.000000
    21 1.977383 0.000000 0.000000 -0.133840 0.098128 1.089301
    22 6.829860 -0.000001 0.000000 0.001241 0.000000 0.000000
    23 -4.603199 -0.446935 0.691439 -1.751612 -0.047171 1.544023
    24 -6.751354 0.809404 1.239717 0.422884 1.599155 -1.196952
  time 16
    0 7.626458 -23.585959 25.365710 0.000000 -0.317936 -1.570834
    1 2.212324 -0.132816 9.745319 -0.000020 -1.620786 -1.570776
    2 -0.000007 0.000010 5.615750 -0.071136 3.018880 0.897570
    3 15.693467 0.000000 0.000000 0.000000 0.000000 -0.001838
    4 22.146629 0.000000 0.000000 0.089390 0.147754 0.602570
    5 0.000008 -0.000006 -5.615750 -3.121969 6.281068 1.393843
    6 15.693467 0.000000 0.000000 0.000000 0.000000 -0.145562
    7 22.146629 0.000000 0.000000 0.019770 0.013181 -0.304186
    8 1.384163 -0.004728 -0.066406 -0.011296 0.035828 -0.227151
    9 5.939814 -0.004730 0.000000 0.000000 -0.008689 -0.056946
    10 5.939809 -0.003975 0.000000 0.000014 0.013411 -0.056948
    11 4.991439 -0.003975 0.000000 0.000000 0.008043 -0.056949
    12 4.991436 -0.001575 0.000000 0.000000 0.000000 0.000000
    13 0.000005 0.001564 3.638375 -0.000010 -1.283530 3.140806
    14 6.703436 0.000000 0.000000 -0.388316 1.036105 -1.039692
    15 10.007079 0.000000 0.000002 0.000000 0.000000 -0.688162
    16 9.664095 -0.000001 -0.000002 -1.569555 -0.049973 0.000000
    17 0.000005 0.001585 -3.638375 -0.000010 1.283530 3.140787
    18 6.703436 0.000000 -0.000001 -1.007945 -0.760726 0.249802
    19 10.007080 0.000000 -0.000002 0.000000 0.000000 -2.074609
    20 9.664097 -0.000001 0.000001 1.569555 0.049989 0.000000
    21 1.977383 0.000000 0.000000 -0.149973 0.098767 1.088948
    22 6.829860 -0.000001 0.000000 0.001241 0.000000 0.000000
    23 -4.603199 -0.446935 0.691439 -1.751612 -0.047171 1.544023
    24 -6.751354 0.809404 1.239717 0.422884 1.599155 -1.196952
  time 17
    0 7.665522 -22.390610 25.428212 0.000000 -0.295185 -1.570834
    1 1.825593 -0.125003 9.745319 -0.000020 -1.620786 -1.570776
    2 -0.000007 0.000010 5.615750 -0.076313 3.019743 0.802527
    3 15.693467 0.000000 0.000000 0.000000 0.000000 -0.074895
    4 22.146629 0.000000 0.000000 0.089789 0.153732 0.603979
    5 0.000008 -0.000006 -5.615750 -3.123307 6.280972 1.381882
    6 15.693467 0.000000 0.000000 0.000000 0.000000 -0.370059
    7 22.146629 0.000000 0.000000 0.019045 0.016291 -0.230439
    8 1.384163 -0.004728 -0.066406 -0.009700 0.037603 -0.194371
    9 5.939814 -0.004730 0.000000 0.000000 -0.009120 -0.048762
    10 5.939809 -0.003975 0.000000 0.000014 0.012692 -0.048748
    11 4.991439 -0.003975 0.000000 0.000000 0.007619 -0.048756
    12 4.991436 -0.001575 0.000000 0.000000 0.000000 0.000000
    13 0.000005 0.001564 3.638375 -0.000010 -1.283530 3.140806
    14 6.703436 0.000000 0.000000 -0.309124 1.044300 -0.963845
    15 10.007079 0.000000 0.000002 0.000000 0.000000 -0.853702
    16 9.664095 -0.000001 -0.000002 -1.569555 -0.049973 0.000000
    17 0.000005 0.001585 -3.638375 -0.000010 1.283530 3.140787
    18 6.703436 0.000000 -0.000001 -0.931673 -0.775148 0.178727
    19 10.007080 0.000000 -0.000002 0.000000 0.000000 -2.074609
    20 9.664097 -0.000001 0.000001 1.569555 0.049989 0.000000
    21 1.977383 0.000000 0.000000 -0.161372 0.098367 1.004446
    22 6.829860 -0.000001 0.000000 0.001241 0.000000 0.000000
    23 -4.603199 -0.446935 0.691439 -1.751612 -0.047171 1.544023
    24 -6.751354 0.809404 1.239717 0.422884 1.599155 -1.196952
  time 18
    0 7.728024 -20.718684 25.490714 0.000000 -0.273196 -1.570834
    1 1.395893 -0.113284 9.745319 -0.000020 -1.620786 -1.570776
    2 -0.000007 0.000010 5.615750 -0.100568 3.035944 0.507817
    3 15.693467 0.000000 0.000000 0.000000 0.000000 -0.464687
    4 22.146629 0.000000 0.000000 0.087540 0.163923 0.722175
    5 0.000008 -0.000006 -5.615750 -3.124644 6.280780 1.376538
    6 15.693467 0.000000 0.000000 0.000000 0.000000 -0.613906
    7 22.146629 0.000000 0.000000 0.017597 0.019712 -0.142060
    8 1.384163 -0.004728 -0.066406 -0.007887 0.039378 -0.158174
    9 5.939814 -0.004730 0.000000 0.000000 -0.009564 -0.039717
    10 5.939809 -0.003975 0.000000 0.000000 0.011973 -0.039717
    11 4.991439 -0.003975 0.000000 0.000000 0.007182 -0.039710
    12 4.991436 -0.001575 0.000000 0.000000 0.000000 0.000000
    13 0.000005 0.001564 3.638375 -0.000010 -1.283530 3.140806
    14 6.703436 0.000000 0.000000 -0.233342 1.045028 -0.890206
    15 10.007079 0.000000 0.000002 0.000000 0.000000 -1.020063
    16 9.664095 -0.000001 -0.000002 -1.569555 -0.049973 0.000000
    17 0.000005 0.001585 -3.638375 -0.000010 1.283530 3.140787
    18 6.703436 0.000000 -0.000001 -0.845279 -0.785997 0.098203
    19 10.007080 0.000000 -0.000002 0.000000 0.000000 -2.074609
    20 9.664097 -0.000001 0.000001 1.569555 0.049989 0.000000
    21 1.977383 0.000000 0.000000 -0.172402 0.097729 0.914845
    22 6.829860 -0.000001 0.000000 0.001241 0.000000 0.000000
    23 -4.603199 -0.446935 0.691439 -1.751612 -0.047171 1.544023
    24 -6.751354 0.809404 1.239717 0.422884 1.599155 -1.196952
  time 19
    0 7.782713 -18.695185 25.537591 0.000000 -0.251969 -1.570834
    1 0.966192 -0.105471 9.745319 -0.000020 -1.620786 -1.570776
    2 -0.000007 0.000010 5.615750 -0.113703 3.044860 0.310257
    3 15.693467 0.000000 0.000000 0.000000 0.000000 -0.669986
    4 22.146629 0.000000 0.000000 0.085510 0.174796 0.751624
    5 0.000008 -0.000006 -5.615750 -3.126268 6.280013 1.413540
    6 15.693467 0.000000 0.000000 0.000000 0.000000 -0.933710
    7 22.146629 0.000000 0.000000 0.014487 0.023850 0.019046
    8 1.384163 -0.004728 -0.066406 -0.006098 0.041136 -0.122108
    9 5.939814 -0.004730 0.000000 0.000000 -0.010007 -0.030691
    10 5.939809 -0.003975 0.000000 0.000000 0.011218 -0.030687
    11 4.991439 -0.003975 0.000000 0.000000 0.006730 -0.030695
    12 4.991436 -0.001575 0.000000 0.000000 0.000000 0.000000
    13 0.000005 0.001564 3.638375 -0.000010 -1.283530 3.140806
    14 6.703436 0.000000 0.000000 -0.185957 1.036196 -0.844550
    15 10.007079 0.000000 0.000002 0.000000 0.000000 -1.162283
    16 9.664095 -0.000001 -0.000002 -1.569555 -0.049973 0.000000
    17 0.000005 0.001585 -3.638375 -0.000010 1.283530 3.140787
    18 6.703436 0.000000 -0.000001 -0.757563 -0.791740 0.016176
    19 10.007080 0.000000 -0.000002 0.000000 0.000000 -2.074609
    20 9.664097 -0.000001 0.000001 1.569555 0.049989 0.000000
    21 1.977383 0.000000 0.000000 -0.182974 0.096930 0.826304
    22 6.829860 -0.000001 0.000000 0.001241 0.000000 0.000000
    23 -4.603199 -0.446935 0.691439 -1.751612 -0.047171 1.544023
    24 -6.751354 0.809404 1.239717 0.422884 1.599155 -1.196952
  time 20
    0 7.798338 -16.437304 25.576654 0.000000 -0.230646 -1.570834
    1 0.513053 -0.093752 9.745319 -0.000020 -1.620786 -1.570776
    2 -0.000007 0.000010 5.615750 -0.125111 3.053680 0.131285
    3 15.693467 0.000000 0.000000 0.000000 0.000000 -0.826064
    4 22.146629 0.000000 0.000000 0.083442 0.184987 0.750349
    5 0.000008 -0.000006 -5.615750 -3.128370 6.278863 1.480318
    6 15.693467 0.000000 0.000000 0.000000 0.000000 -1.335572
    7 22.146629 0.000000 0.000000 0.009501 0.028228 0.251497
    8 1.384163 -0.004728 -0.066406 -0.004236 0.042732 -0.084700
    9 5.939814 -0.004730 0.000000 0.000000 -0.010439 -0.021359
    10 5.939809 -0.003975 0.000000 0.000000 0.010510 -0.021347
    11 4.991439 -0.003975 0.000000 0.000000 0.006306 -0.021350
    12 4.991436 -0.001575 0.000000 0.000000 0.000000 0.000000
    13 0.000005 0.001564 3.638375 -0.000010 -1.283530 3.140806
    14 6.703436 0.000000 0.000000 -0.123520 1.028821 -0.781221
    15 10.007079 0.000000 0.000002 0.000000 0.000000 -1.321172
    16 9.664095 -0.000001 -0.000002 -1.569555 -0.049973 0.000000
    17 0.000005 0.001585 -3.638375 -0.000010 1.283530 3.140787
    18 6.703436 0.000000 -0.000001 -0.666208 -0.792123 -0.069214
    19 10.007080 0.000000 -0.000002 0.000000 0.000000 -2.074609
    20 9.664097 -0.000001 0.000001 1.569555 0.049989 0.000000
    21 1.977383 0.000000 0.000000 -0.193453 0.095892 0.735846
    22 6.829860 -0.000001 0.000000 0.001241 0.000000 0.000000
    23 -4.603199 -0.446935 0.691439 -1.751612 -0.047171 1.544023
    24 -6.751354 0.809404 1.239717 0.422884 1.599155 -1.196952
  time 21
    0 7.743649 -14.077857 25.607905 0.000000 -0.210275 -1.570834
    1 0.028663 -0.085939 9.745319 -0.000020 -1.620786 -1.570776
    2 -0.000007 0.000010 5.615750 -0.133261 3.062979 -0.034466
    3 15.693467 0.000000 0.000000 0.000000 0.000000 -0.947398
    4 22.146629 0.000000 0.000000 0.079055 0.193977 0.725932
    5 0.000008 -0.000006 -5.615750 -3.130376 6.277617 1.557275
    6 15.693467 0.000000 0.000000 0.000000 0.000000 -1.696807
    7 22.146629 0.000000 0.000000 0.003835 0.031003 0.468805
    8 1.384163 -0.004728 -0.066406 -0.002253 0.044256 -0.044914
    9 5.939814 -0.004730 0.000000 0.000000 -0.010846 -0.011416
    10 5.939809 -0.003975 0.000000 0.000000 0.009815 -0.011422
    11 4.991439 -0.003975 0.000000 0.000000 0.005882 -0.011423
    12 4.991436 -0.001575 0.000000 0.000000 0.000000 0.000000
    13 0.000005 0.001564 3.638375 -0.000010 -1.283530 3.140806
    14 6.703436 0.000000 0.000000 -0.083425 1.014070 -0.739657
    15 10.007079 0.000000 0.000002 0.000000 0.000000 -1.467744
    16 9.664095 -0.000001 -0.000002 -1.569555 -0.049973 0.000000
    17 0.000005 0.001585 -3.638375 -0.000010 1.283530 3.140787
    18 6.703436 0.000000 -0.000001 -0.569826 -0.786316 -0.159329
    19 10.007080 0.000000 -0.000002 0.000000 0.000000 -2.074609
    20 9.664097 -0.000001 0.000001 1.569555 0.049989 0.000000
    21 1.977383 0.000000 0.000000 -0.203702 0.094695 0.641752
    22 6.829860 -0.000001 0.000000 0.001241 0.000000 0.000000
    23 -4.603199 -0.446935 0.691439 -1.751612 -0.047171 1.544023
    24 -6.751354 0.809404 1.239717 0.422884 1.599155 -1.196952
  time 22
    0 7.591301 -11.734035 25.631344 0.000000 -0.192760 -1.570834
    1 -0.471352 -0.078126 9.745319 -0.000020 -1.620786 -1.570776
    2 -0.000007 0.000010 5.615750 -0.138533 3.074004 -0.183929
    3 15.693467 0.000000 0.000000 0.000000 0.000000 -1.038568
    4 22.146629 0.000000 0.000000 0.073579 0.199508 0.683872
    5 0.000008 -0.000006 -5.615750 0.009650 3.148110 -1.514850
    6 15.693467 0.000000 0.000000 0.000000 0.000000 -1.984574
    7 22.146629 0.000000 0.000000 -0.001278 0.032223 0.643015
    8 1.384163 -0.004728 -0.066406 -0.000197 0.045619 -0.003745
    9 5.939814 -0.004730 0.000000 0.000000 -0.011242 -0.001128
    10 5.939809 -0.003975 0.000000 0.000000 0.009156 -0.001139
    11 4.991439 -0.003975 0.000000 0.000000 0.005485 -0.001136
    12 4.991436 -0.001575 0.000000 0.000000 0.000000 0.000000
    13 0.000005 0.001564 3.638375 -0.000010 -1.283530 3.140806
    14 6.703436 0.000000 0.000000 -0.060202 1.002325 -0.705128
    15 10.007079 0.000000 0.000002 0.000000 0.000000 -1.607747
    16 9.664095 -0.000001 -0.000002 -1.549140 -0.053838 0.001954
    17 0.000005 0.001585 -3.638375 -0.000010 1.285354 3.140787
    18 6.703436 0.000000 -0.000001 -0.479464 -0.778339 -0.238493
    19 10.007080 0.000000 -0.000002 0.000000 0.000000 -2.086515
    20 9.664097 -0.000001 0.000001 1.558419 0.046425 -0.003163
    21 1.977383 0.000000 0.000000 -0.212987 0.093497 0.547457
    22 6.829860 -0.000001 0.000000 0.001241 0.000000 0.000000
    23 -4.603199 -0.446935 0.691439 -1.751612 -0.047171 1.544023
    24 -6.751354 0.809404 1.239717 0.422884 1.599155 -1.196952
  time 23
    0 7.306136 -9.526936 25.646969 0.000000 -0.176102 -1.570834
    1 -0.990899 -0.070314 9.745319 -0.000020 -1.620786 -1.570776
    2 -0.000007 0.000010 5.615750 -0.139780 3.087521 -0.316242
    3 15.693467 0.000000 0.000000 0.000000 0.000000 -1.102669
    4 22.146629 0.000000 0.000000 0.067922 0.199743 0.630677
    5 0.000008 -0.000006 -5.615750 0.008312 3.149260 -1.441456
    6 15.693467 0.000000 0.000000 0.000000 0.000000 -2.227056
    7 22.146629 0.000000 0.000000 -0.006008 0.032295 0.794221
    8 1.384163 -0.004728 -0.066406 0.001955 0.046892 0.039155
    9 5.939814 -0.004730 0.000000 0.000000 -0.011637 0.009580
    10 5.939809 -0.003975 0.000000 0.000000 0.008497 0.009584
    11 4.991439 -0.003975 0.000000 0.000000 0.005102 0.009584
    12 4.991436 -0.001575 0.000000 0.000000 0.000000 0.000000
    13 0.000005 0.001564 3.638375 -0.000010 -1.283530 3.140806
    14 6.703436 0.000000 0.000000 -0.057321 0.986482 -0.691055
    15 10.007079 0.000000 0.000002 0.000000 0.000000 -1.735269
    16 9.664095 -0.000001 -0.000002 -1.528628 -0.057735 0.003870
    17 0.000005 0.001585 -3.638375 -0.000010 1.287202 3.140787
    18 6.703436 0.000000 -0.000001 -0.387249 -0.764619 -0.319088
    19 10.007080 0.000000 -0.000002 0.000000 0.000000 -2.098421
    20 9.664097 -0.000001 0.000001 1.547284 0.042821 -0.006297
    21 1.977383 0.000000 0.000000 -0.222087 0.092140 0.450486
    22 6.829860 -0.000001 0.000000 0.001241 0.000000 0.000000
    23 -4.603199 -0.446935 0.691439 -1.751612 -0.047171 1.544023
    24 -6.751354 0.809404 1.239717 0.422884 1.599155 -1.196952
  time 24
    0 6.852997 -7.585471 25.658688 0.000000 -0.156207 -1.570834
    1 -1.615918 -0.058595 9.745319 -0.000020 -1.620786 -1.570776
    2 -0.000007 0.000010 5.615750 -0.138150 3.105545 -0.434280
    3 15.693467 0.000000 0.000000 0.000000 0.000000 -1.144819
    4 22.146629 0.000000 0.000000 0.065782 0.193224 0.572652
    5 0.000008 -0.000006 -5.615750 0.008026 3.151657 -1.324086
    6 15.693467 0.000000 0.000000 0.000000 0.000000 -2.331837
    7 22.146629 0.000000 0.000000 -0.008777 0.030381 0.885003
    8 1.384163 -0.004728 -0.066406 0.004518 0.048255 0.090703
    9 5.939814 -0.004730 0.000000 0.000000 -0.012092 0.022449
    10 5.939809 -0.003975 0.000000 0.000000 0.007730 0.022454
    11 4.991439 -0.003975 0.000000 0.000000 0.004637 0.022442
    12 4.991436 -0.001575 0.000000 0.000000 0.000000 0.000000
    13 0.000005 0.001564 3.638375 -0.000010 -1.283530 3.140806
    14 6.703436 0.000000 0.000000 -0.138571 0.922108 -0.794640
    15 10.007079 0.000000 0.000002 0.000000 0.000000 -1.785358
    16 9.664095 -0.000001 -0.000002 -1.569555 -0.049973 0.000000
    17 0.000005 0.001585 -3.638375 -0.000010 1.283530 3.140787
    18 6.703436 0.000000 -0.000001 -0.264274 -0.722054 -0.442987
    19 10.007080 0.000000 -0.000002 0.000000 0.000000 -2.074609
    20 9.664097 -0.000001 0.000001 1.569555 0.049989 0.000000
    21 1.977383 0.000000 0.000000 -0.232658 0.090383 0.335141
    22 6.829860 -0.000001 0.000000 0.001241 0.000000 0.000000
    23 -4.603199 -0.446935 0.691439 -1.751612 -0.047171 1.544023
    24 -6.751354 0.809404 1.239717 0.422884 1.599155 -1.196952
  time 25
    0 5.751401 -5.815886 25.650875 0.000000 -0.126508 -1.570834
    1 -2.565166 -0.042969 9.745319 -0.000020 -1.620786 -1.570776
    2 -0.000007 0.000010 5.615750 -0.127796 3.143413 -0.558449
    3 15.693467 0.000000 0.000000 0.000000 0.000000 -1.177005
    4 22.146629 0.000000 0.000000 0.072201 0.166064 0.507114
    5 0.000008 -0.000006 -5.615750 0.015764 3.161243 -1.116424
    6 15.693467 0.000000 0.000000 0.000000 0.000000 -2.123319
    7 22.146629 0.000000 0.000000 -0.005539 0.017989 0.819992
    8 1.384163 -0.004728 -0.066406 0.008362 0.050084 0.169540
    9 5.939814 -0.004730 0.000000 0.000000 -0.012800 0.042126
    10 5.939809 -0.003975 0.000000 0.000000 0.006568 0.042125
    11 4.991439 -0.003975 0.000000 0.000000 0.003940 0.042133
    12 4.991436 -0.001575 0.000000 0.000000 0.000000 0.000000
    13 0.000005 0.001564 3.638375 -0.000010 -1.283530 3.140806
    14 6.703436 0.000000 0.000000 -0.281727 0.772509 -0.993545
    15 10.007079 0.000000 0.000002 0.000000 0.000000 -1.763023
    16 9.664095 -0.000001 -0.000002 -1.661377 -0.033246 -0.009847
    17 0.000005 0.001585 -3.638375 -0.000010 1.275262 3.140787
    18 6.703436 0.000000 -0.000001 -0.098234 -0.625501 -0.617634
    19 10.007080 0.000000 -0.000002 0.000000 0.000000 -2.021378
    20 9.664097 -0.000001 0.000001 1.619739 0.065513 0.014693
    21 1.977383 0.000000 0.000000 -0.246585 0.087828 0.164067
    22 6.829860 -0.000001 0.000000 0.001241 0.000000 0.000000
    23 -4.603199 -0.446935 0.691439 -1.751612 -0.047171 1.544023
    24 -6.751354 0.809404 1.239717 0.422884 1.599155 -1.196952
  time 26
    0 3.931033 -4.100990 25.592280 0.000000 -0.096333 -1.570834
    1 -3.455818 -0.027344 9.745319 -0.000020 -1.620786 -1.570776
    2 -0.000007 0.000010 5.615750 -0.099418 3.195948 -0.672271
    3 15.693467 0.000000 0.000000 0.000000 0.000000 -1.193165
    4 22.146629 0.000000 0.000000 0.082028 0.116970 0.435472
    5 0.000008 -0.000006 -5.615750 0.009936 3.165748 -0.820658
    6 15.693467 0.000000 0.000000 0.000000 0.000000 -1.722821
    7 22.146629 0.000000 0.000000 -0.005369 0.016985 0.708972
    8 1.384163 -0.004728 -0.066406 0.012135 0.051411 0.245565
    9 5.939814 -0.004730 0.000000 0.000000 -0.013435 0.061114
    10 5.939809 -0.003975 0.000000 0.000000 0.005513 0.061114
    11 4.991439 -0.003975 0.000000 0.000000 0.003297 0.061106
    12 4.991436 -0.001575 0.000000 0.000000 0.000000 0.000000
    13 0.000005 0.001564 3.638375 -0.000010 -1.283530 3.140806
    14 6.703436 0.000000 0.000000 -0.372736 0.594776 -1.152441
    15 10.007079 0.000000 0.000002 0.000000 0.000000 -1.714740
    16 9.664095 -0.000001 -0.000002 -1.764125 -0.015741 -0.022607
    17 0.000005 0.001585 -3.638375 -0.000010 1.266022 3.140787
    18 6.703436 0.000000 -0.000001 0.030231 -0.506741 -0.759140
    19 10.007080 0.000000 -0.000002 0.000000 0.000000 -1.961848
    20 9.664097 -0.000001 0.000001 1.676147 0.081948 0.032030
    21 1.977383 0.000000 0.000000 -0.262947 0.084315 -0.007158
    22 6.829860 -0.000001 0.000000 0.001241 0.000000 0.000000
    23 -4.603199 -0.446935 0.691439 -1.751612 -0.047171 1.544023
    24 -6.751354 0.809404 1.239717 0.422884 1.599155 -1.196952
  time 27
    0 2.009099 -2.522816 25.490714 0.000000 -0.073201 -1.570834
    1 -3.865987 0.003907 9.745319 -0.000020 -1.620786 -1.570776
    2 -0.000007 0.000010 5.615750 -0.060111 3.241006 -0.752081
    3 15.693467 0.000000 0.000000 0.000000 0.000000 -1.189125
    4 22.146629 0.000000 0.000000 0.087214 0.063804 0.372013
    5 0.000008 -0.000006 -5.615750 -0.028563 3.130184 -0.389149
    6 15.693467 0.000000 0.000000 0.000000 0.000000 -1.236893
    7 22.146629 0.000000 0.000000 -0.000128 0.063513 0.697615
    8 1.384163 -0.004728 -0.066406 0.025627 0.054656 0.283837
    9 5.939814 -0.004730 0.000000 0.002589 -0.012895 0.065876
    10 5.939809 -0.003975 0.000000 0.002603 0.007394 0.068566
    11 4.991439 -0.003975 0.000000 0.002377 0.001505 0.070779
    12 4.991436 -0.001575 0.000000 0.000000 0.000000 0.000000
    13 0.000005 0.001564 3.638375 -0.000010 -1.283530 3.140806
    14 6.703436 0.000000 0.000000 -0.394430 0.456832 -1.277217
    15 10.007079 0.000000 0.000002 0.000000 0.000000 -1.637554
    16 9.664095 -0.000001 -0.000002 -1.895052 0.004493 -0.041306
    17 0.000005 0.001585 -3.638375 -0.000010 1.254276 3.140787
    18 6.703436 0.000000 -0.000001 0.084144 -0.408656 -0.822342
    19 10.007080 0.000000 -0.000002 0.000000 0.000000 -1.886265
    20 9.664097 -0.000001 0.000001 1.748408 0.101392 0.055435
    21 1.977383 0.000000 0.000000 -0.301830 0.071300 -0.111499
    22 6.829860 -0.000001 0.000000 0.001241 0.000000 0.000000
    23 -4.603199 -0.446935 0.691439 -1.751612 -0.047171 1.544023
    24 -6.751354 0.809404 1.239717 0.422884 1.599155 -1.196952
  time 28
    0 0.591087 -1.167306 25.420400 0.000000 -0.061017 -1.570834
    1 -4.084743 -0.023437 9.745319 -0.000020 -1.620786 -1.570776
    2 -0.000007 0.000010 5.615750 -0.025788 3.270246 -0.802477
    3 15.693467 0.000000 0.000000 0.000000 0.000000 -1.170743
    4 22.146629 0.000000 0.000000 0.088193 0.023159 0.314458
    5 0.000008 -0.000006 -5.615750 -0.052064 3.080335 -0.010777
    6 15.693467 0.000000 0.000000 0.000000 0.000000 -0.816564
    7 22.146629 0.000000 0.000000 0.028632 0.106214 0.711811
    8 1.384163 -0.004728 -0.066406 0.014770 0.051231 0.300444
    9 5.939814 -0.004730 0.000000 0.000000 -0.013603 0.074806
    10 5.939809 -0.003975 0.000000 0.000000 0.005225 0.074814
    11 4.991439 -0.003975 0.000000 0.000000 0.003133 0.074816
    12 4.991436 -0.001575 0.000000 0.000000 0.000000 0.000000
    13 0.000005 0.001564 3.638375 -0.000010 -1.283530 3.140806
    14 6.703436 0.000000 0.000000 -0.381379 0.300860 -1.357892
    15 10.007079 0.000000 0.000002 0.000000 0.000000 -1.528672
    16 9.664095 -0.000001 -0.000002 -2.071794 0.027488 -0.070312
    17 0.000005 0.001585 -3.638375 -0.000010 1.238470 3.140787
    18 6.703436 0.000000 -0.000001 0.103923 -0.317783 -0.911455
    19 10.007080 0.000000 -0.000002 0.000000 0.000000 -1.784565
    20 9.664097 -0.000001 0.000001 1.846490 0.124758 0.089076
    21 1.977383 0.000000 0.000000 -0.297234 0.074015 -0.185451
    22 6.829860 -0.000001 0.000000 0.001241 0.000000 0.000000
    23 -4.603199 -0.446935 0.691439 -1.751612 -0.047171 1.544023
    24 -6.751354 0.809404 1.239717 0.422884 1.599155 -1.196952
  time 29
    0 0.048102 -0.116493 25.432119 0.000000 -0.067014 -1.570834
    1 -4.170683 -0.343759 9.745319 -0.000020 -1.620786 -1.570776
    2 -0.000007 0.000010 5.615750 0.057716 3.234583 -0.820297
    3 15.693467 0.000000 0.000000 0.000000 0.000000 -1.147378
    4 22.146629 0.000000 0.000000 0.008667 -0.015863 0.266562
    5 0.000008 -0.000006 -5.615750 -0.050344 3.101425 -0.147080
    6 15.693467 0.000000 0.000000 0.000000 0.000000 -0.979476
    7 22.146629 0.000000 0.000000 0.020707 0.091645 0.719528
    8 1.384163 -0.004728 -0.066406 -0.125767 0.012785 0.275967
    9 5.939814 -0.004730 0.000000 -0.031555 -0.021141 0.125441
    10 5.939809 -0.003975 0.000000 -0.031668 -0.020242 0.093607
    11 4.991439 -0.003975 0.000000 -0.028803 0.022667 0.066294
    12 4.991436 -0.001575 0.000000 0.000000 0.000000 0.000000
    13 0.000005 0.001564 3.638375 -0.000010 -1.283530 3.140806
    14 6.703436 0.000000 0.000000 -0.341048 0.056112 -1.239907
    15 10.007079 0.000000 0.000002 0.000000 0.000000 -1.385056
    16 9.664095 -0.000001 -0.000002 -2.312083 0.049800 -0.115181
    17 0.000005 0.001585 -3.638375 -0.000010 1.217095 3.140787
    18 6.703436 0.000000 -0.000001 0.078852 -0.272474 -1.210216
    19 10.007080 0.000000 -0.000002 0.000000 0.000000 -1.646840
    20 9.664097 -0.000001 0.000001 1.980897 0.150935 0.138128
    21 1.977383 0.000000 0.000000 -0.053821 0.181804 -0.197011
    22 6.829860 -0.000001 0.000000 0.001241 0.000000 0.000000
    23 -4.603199 -0.446935 0.691439 -1.751612 -0.047171 1.544023
    24 -6.751354 0.809404 1.239717 0.422884 1.599155 -1.196952
  time 30
    0 0.044195 0.590560 25.502433 0.000000 -0.079960 -1.570834
    1 -4.401159 -0.656269 9.745319 -0.000020 -1.620786 -1.570776
    2 -0.000007 0.000010 5.615750 0.063851 3.241198 -0.825183
    3 15.693467 0.000000 0.000000 0.000000 0.000000 -1.123205
    4 22.146629 0.000000 0.000000 0.011205 -0.024218 0.224972
    5 0.000008 -0.000006 -5.615750 -0.050344 3.101425 -0.147080
    6 15.693467 0.000000 0.000000 0.000000 0.000000 -0.979476
    7 22.146629 0.000000 0.000000 0.020707 0.091645 0.719528
    8 1.384163 -0.004728 -0.066406 -0.302406 -0.043343 0.263123
    9 5.939814 -0.004730 0.000000 -0.069714 -0.026174 0.186594
    10 5.939809 -0.003975 0.000000 -0.070553 -0.050000 0.117232
    11 4.991439 -0.003975 0.000000 -0.064365 0.045921 0.052583
    12 4.991436 -0.001575 0.000000 0.000000 0.000000 0.000000
    13 0.000005 0.001564 3.638375 -0.000010 -1.283530 3.140806
    14 6.703436 0.000000 0.000000 0.033981 -0.510414 -1.348646
    15 10.007079 0.000000 0.000002 0.000000 0.000000 -0.813467
    16 9.664095 -0.000001 -0.000002 -3.233653 0.027780 -0.299217
    17 0.000005 0.001585 -3.638375 -0.000010 1.135340 3.140787
    18 6.703436 0.000000 -0.000001 -0.003506 -0.041463 -1.761569
    19 10.007080 0.000000 -0.000002 0.000000 0.000000 -1.120598
    20 9.664097 -0.000001 0.000001 2.505542 0.185349 0.347274
    21 1.977383 0.000000 0.000000 0.267589 0.301649 -0.149560
    22 6.829860 -0.000001 0.000000 0.001241 0.000000 0.000000
    23 -4.603199 -0.446935 0.691439 -1.751612 -0.047171 1.544023
    24 -6.751354 0.809404 1.239717 0.422884 1.599155 -1.196952
  time 31
    0 0.118416 0.934320 25.561029 0.000000 -0.087194 -1.570834
    1 -4.639448 -0.773460 9.745319 -1.570795 -1.570451 0.000000
    2 -0.000007 0.000010 5.615750 0.025886 3.207644 -0.805159
    3 15.693467 0.000000 0.000000 0.000000 0.000000 -1.078159
    4 22.146629 0.000000 0.000000 0.011641 -0.023912 0.189620
    5 0.000008 -0.000006 -5.615750 -0.057700 3.051960 -0.147589
    6 15.693467 0.000000 0.000000 0.000000 0.000000 -0.979476
    7 22.146629 0.000000 0.000000 0.020707 0.091645 0.719528
    8 1.384163 -0.004728 0.000002 -0.431530 -0.129382 0.271166
    9 5.939814 -0.004730 0.000000 -0.093624 -0.026965 0.225909
    10 5.939809 -0.003975 0.000000 -0.095444 -0.068108 0.133519
    11 4.991439 -0.003975 0.000000 -0.087226 0.060312 0.042850
    12 4.991436 -0.001575 0.000000 0.000000 0.000000 0.000000
    13 0.000005 0.001564 3.638375 -0.000010 -1.283530 3.140806
    14 6.703436 0.000000 0.000000 0.476855 -0.764631 -1.587725
    15 10.007079 0.000000 0.000002 0.000000 0.000000 -0.446996
    16 9.664095 -0.000001 -0.000002 -3.817266 -0.065043 -0.377231
    17 0.000005 0.001585 -3.638375 -0.000010 1.082936 3.140787
    18 6.703436 0.000000 -0.000001 -0.059668 0.069576 -2.136058
    19 10.007080 0.000000 -0.000002 0.000000 0.000000 -0.783237
    20 9.664097 -0.000001 0.000001 2.840685 0.149945 0.479192
    21 1.977383 0.000000 0.000000 0.487194 0.362889 -0.096810
    22 6.829860 -0.000001 0.000000 0.001241 0.000000 0.000000
    23 -4.603199 -0.446935 0.691439 -1.751612 -0.047171 1.544023
    24 -6.751354 0.809404 1.239717 0.422884 1.599155 -1.196952
end
