version 1
nodes
  0 "Bip01" -1
  1 "Bip01 Pelvis" 0
  2 "Bip01 L Thigh" 1
  3 "Bip01 L Calf" 2
  4 "Bip01 L Foot" 3
  5 "Bip01 R Thigh" 1
  6 "Bip01 R Calf" 5
  7 "Bip01 R Foot" 6
  8 "Bip01 Spine" 1
  9 "Bip01 Spine1" 8
  10 "Bip01 Spine2" 9
  11 "Bip01 Spine3" 10
  12 "Bip01 Neck" 11
  13 "Bip01 L Clavicle" 12
  14 "Bip01 L UpperArm" 13
  15 "Bip01 L Forearm" 14
  16 "Bip01 L Hand" 15
  17 "Bip01 R Clavicle" 12
  18 "Bip01 R UpperArm" 17
  19 "Bip01 R Forearm" 18
  20 "Bip01 R Hand" 19
  21 "Bip01 Head" 12
  22 "Bip01 R Finger0" 20
  23 "Line01" 22
  24 "w_m40a1" 22
end
skeleton
  time 0
    0 0.958286 -3.558004 20.592127 -0.164843 -0.429023 -0.096672
    1 2.255294 0.097660 9.745319 -1.570795 -1.570451 0.000000
    2 -0.000007 0.000010 5.615750 0.000001 3.141591 -0.738955
    3 15.693467 0.000000 0.000000 0.000000 0.000000 -0.758394
    4 22.146629 0.000000 0.000000 0.000000 0.000000 -0.521370
    5 0.000008 -0.000006 -5.615750 0.000001 3.141591 -1.035548
    6 15.693467 0.000000 0.000000 0.000000 0.000000 -0.758352
    7 22.146629 0.000000 0.000000 0.000000 0.000000 -0.626035
    8 1.384163 -0.004728 0.000002 -0.174370 -0.080499 -0.428242
    9 5.939814 -0.004730 0.000000 -0.323488 0.073478 0.214780
    10 5.939809 -0.003975 0.000000 -0.294996 0.030764 0.100083
    11 4.991439 -0.003975 0.000000 0.000000 0.000000 0.104659
    12 4.991436 -0.001575 0.000000 0.000000 0.000000 0.000000
    13 0.000005 0.001564 3.638375 0.909056 -1.122648 2.282718
    14 6.703436 0.000000 0.000000 -1.362898 -0.451685 -0.584852
    15 10.007079 0.000000 0.000002 0.000000 0.000000 -0.984919
    16 9.664095 -0.000001 -0.000002 -1.569555 0.349021 0.000000
    17 0.000005 0.001585 -3.638375 -0.460252 1.252282 2.700816
    18 6.703436 0.000000 -0.000001 0.687641 -0.340757 -0.222317
    19 10.007080 0.000000 -0.000002 0.000000 0.000000 -0.566319
    20 9.664097 -0.000001 0.000001 1.569555 -0.261799 0.000000
    21 1.977383 0.000000 0.000000 -0.799182 -0.198651 0.347862
    22 6.829860 -0.000001 0.000000 0.001241 0.000000 0.000000
    23 -4.603199 -0.446935 0.691439 -1.751612 -0.047171 1.544023
    24 -6.751354 0.809404 1.239717 0.422884 1.599155 -1.196952
  time 1
    0 0.958286 -3.558004 20.834322 -0.164843 -0.429023 -0.096672
    1 1.813874 0.492204 9.745319 -1.570795 -1.570451 0.000000
    2 -0.000007 0.000010 5.615750 -2.714987 5.970180 1.427110
    3 15.693467 0.000000 0.000000 0.000000 0.000000 -0.758394
    4 22.146629 0.000000 0.000000 0.198035 -0.487649 -0.553368
    5 0.000008 -0.000006 -5.615750 0.000001 2.565941 -1.192567
    6 15.693467 0.000000 0.000000 0.000000 0.000000 -0.758352
    7 22.146629 0.000000 0.000000 -0.575455 0.015956 -0.787796
    8 1.384163 -0.004728 0.000002 -0.174370 -0.080499 -0.428242
    9 5.939814 -0.004730 0.000000 -0.322218 0.079014 0.231359
    10 5.939809 -0.003975 0.000000 -0.284238 0.085714 0.284270
    11 4.991439 -0.003975 0.000000 0.000000 0.000000 0.104659
    12 4.991436 -0.001575 0.000000 0.000000 0.000000 0.000000
    13 0.000005 0.001564 3.638375 0.909056 -1.122648 2.282718
    14 6.703436 0.000000 0.000000 -1.508759 0.218094 -0.513750
    15 10.007079 0.000000 0.000002 0.000000 0.000000 -0.984919
    16 9.664095 -0.000001 -0.000002 -1.569555 0.349021 0.000000
    17 0.000005 0.001585 -3.638375 -0.460252 1.252282 2.700816
    18 6.703436 0.000000 -0.000001 0.762590 0.552850 -1.053606
    19 10.007080 0.000000 -0.000002 0.000000 0.000000 -0.566319
    20 9.664097 -0.000001 0.000001 1.569555 -0.261799 0.000000
    21 1.977383 0.000000 0.000000 -0.519413 -0.659429 -0.494435
    22 6.829860 -0.000001 0.000000 0.001241 0.000000 0.000000
    23 -4.603199 -0.446935 0.691439 -1.751612 -0.047171 1.544023
    24 -6.751354 0.809404 1.239717 0.422884 1.599155 -1.196952
  time 2
    0 0.958286 -3.558004 20.580408 -0.164843 -0.429023 -0.096672
    1 2.306077 0.167975 9.745319 -1.570795 -1.570451 0.000000
    2 -0.000007 0.000010 5.615750 -2.702236 5.900675 1.461027
    3 15.693467 0.000000 0.000000 0.000000 0.000000 -0.758394
    4 22.146629 0.000000 0.000000 0.192124 -0.544463 -0.414041
    5 0.000008 -0.000006 -5.615750 0.098303 2.514175 -1.027201
    6 15.693467 0.000000 0.000000 0.000000 0.000000 -0.758352
    7 22.146629 0.000000 0.000000 -0.633870 0.016674 -0.655082
    8 1.384163 -0.004728 0.000002 -0.174370 -0.080499 -0.428242
    9 5.939814 -0.004730 0.000000 -0.326892 0.055752 0.162099
    10 5.939809 -0.003975 0.000000 -0.288191 0.070865 0.233667
    11 4.991439 -0.003975 0.000000 0.000000 0.000000 0.047829
    12 4.991436 -0.001575 0.000000 0.000000 0.000000 0.000000
    13 0.000005 0.001564 3.638375 0.676660 -1.208585 2.496617
    14 6.703436 0.000000 0.000000 -1.332561 0.520113 -0.288008
    15 10.007079 0.000000 0.000002 0.000000 0.000000 -0.933270
    16 9.664095 -0.000001 -0.000002 -1.569555 0.361428 0.000000
    17 0.000005 0.001585 -3.638375 -0.460252 1.252282 2.700816
    18 6.703436 0.000000 -0.000001 0.812998 0.383037 -0.879246
    19 10.007080 0.000000 -0.000002 0.000000 0.000000 -0.566319
    20 9.664097 -0.000001 0.000001 1.569555 -0.261799 0.000000
    21 1.977383 0.000000 0.000000 -0.255547 -0.632362 -0.632243
    22 6.829860 -0.000001 0.000000 0.001241 0.000000 0.000000
    23 -4.603199 -0.446935 0.691439 -1.751612 -0.047171 1.544023
    24 -6.751354 0.809404 1.239717 0.422884 1.599155 -1.196952
  time 3
    0 0.958286 -3.558004 20.279618 -0.164843 -0.429023 -0.096672
    1 2.880313 -0.234381 9.745319 -1.570795 -1.570451 0.000000
    2 -0.000007 0.000010 5.615750 0.392979 3.596389 -1.540115
    3 15.693467 0.000000 0.000000 0.000000 0.000000 -0.758394
    4 22.146629 0.000000 0.000000 0.185307 -0.565504 -0.242448
    5 0.000008 -0.000006 -5.615750 0.219055 2.522899 -0.816790
    6 15.693467 0.000000 0.000000 0.000000 0.000000 -0.758352
    7 22.146629 0.000000 0.000000 -0.651211 0.023348 -0.485458
    8 1.384163 -0.004728 0.000002 -0.174370 -0.080499 -0.428242
    9 5.939814 -0.004730 0.000000 -0.330175 0.029422 0.084845
    10 5.939809 -0.003975 0.000000 -0.292434 0.049964 0.163621
    11 4.991439 -0.003975 0.000000 0.000000 0.000000 -0.021410
    12 4.991436 -0.001575 0.000000 0.000000 0.000000 0.000000
    13 0.000005 0.001564 3.638375 0.287225 -1.271960 2.865643
    14 6.703436 0.000000 0.000000 -0.962294 0.649589 0.115285
    15 10.007079 0.000000 0.000002 0.000000 0.000000 -0.875380
    16 9.664095 -0.000001 -0.000002 -1.569555 0.388742 0.000000
    17 0.000005 0.001585 -3.638375 -0.460252 1.252282 2.700816
    18 6.703436 0.000000 -0.000001 0.808764 0.133902 -0.612552
    19 10.007080 0.000000 -0.000002 0.000000 0.000000 -0.566319
    20 9.664097 -0.000001 0.000001 1.569555 -0.261799 0.000000
    21 1.977383 0.000000 0.000000 -0.038930 -0.524573 -0.663237
    22 6.829860 -0.000001 0.000000 0.001241 0.000000 0.000000
    23 -4.603199 -0.446935 0.691439 -1.751612 -0.047171 1.544023
    24 -6.751354 0.809404 1.239717 0.422884 1.599155 -1.196952
  time 4
    0 0.958286 -3.558004 19.967108 -0.164843 -0.429023 -0.096672
    1 3.470175 -0.683614 9.745319 -1.570795 -1.570451 0.000000
    2 -0.000007 0.000010 5.615750 0.297491 3.651801 -1.328088
    3 15.693467 0.000000 0.000000 0.000000 0.000000 -0.758394
    4 22.146629 0.000000 0.000000 0.183421 -0.557596 -0.061330
    5 0.000008 -0.000006 -5.615750 0.327101 2.581278 -0.606380
    6 15.693467 0.000000 0.000000 0.000000 0.000000 -0.758352
    7 22.146629 0.000000 0.000000 -0.639409 0.028204 -0.301128
    8 1.384163 -0.004728 0.000002 -0.174370 -0.080499 -0.428242
    9 5.939814 -0.004730 0.000000 -0.331434 0.001390 0.003270
    10 5.939809 -0.003975 0.000000 -0.295520 0.025072 0.081371
    11 4.991439 -0.003975 0.000000 0.000000 0.000000 -0.093296
    12 4.991436 -0.001575 0.000000 0.000000 0.000000 0.000000
    13 0.000005 0.001564 3.638375 -0.219271 -1.276877 3.350966
    14 6.703436 0.000000 0.000000 -0.590852 0.507002 0.511296
    15 10.007079 0.000000 0.000002 0.000000 0.000000 -0.814781
    16 9.664095 -0.000001 -0.000002 -1.569555 0.416056 0.000000
    17 0.000005 0.001585 -3.638375 -0.460252 1.252282 2.700816
    18 6.703436 0.000000 -0.000001 0.694653 -0.095514 -0.258320
    19 10.007080 0.000000 -0.000002 0.000000 0.000000 -0.566319
    20 9.664097 -0.000001 0.000001 1.569555 -0.261799 0.000000
    21 1.977383 0.000000 0.000000 0.116007 -0.372870 -0.594686
    22 6.829860 -0.000001 0.000000 0.001241 0.000000 0.000000
    23 -4.603199 -0.446935 0.691439 -1.751612 -0.047171 1.544023
    24 -6.751354 0.809404 1.239717 0.422884 1.599155 -1.196952
  time 5
    0 0.958286 -3.558004 19.670224 -0.164843 -0.429023 -0.096672
    1 4.020973 -1.132846 9.745319 -1.570795 -1.570451 0.000000
    2 -0.000007 0.000010 5.615750 0.178897 3.675576 -1.090959
    3 15.693467 0.000000 0.000000 0.000000 0.000000 -0.758394
    4 22.146629 0.000000 0.000000 0.187519 -0.531354 0.107714
    5 0.000008 -0.000006 -5.615750 0.402953 2.665637 -0.426202
    6 15.693467 0.000000 0.000000 0.000000 0.000000 -0.758352
    7 22.146629 0.000000 0.000000 -0.612949 0.026649 -0.124151
    8 1.384163 -0.004728 0.000002 -0.174370 -0.080499 -0.428242
    9 5.939814 -0.004730 0.000000 -0.330391 -0.026893 -0.079032
    10 5.939809 -0.003975 0.000000 -0.296539 -0.001546 -0.005858
    11 4.991439 -0.003975 0.000000 0.000000 0.000000 -0.158005
    12 4.991436 -0.001575 0.000000 0.000000 0.000000 0.000000
    13 0.000005 0.001564 3.638375 -0.638523 -1.218236 3.749233
    14 6.703436 0.000000 0.000000 -0.407188 0.187955 0.716256
    15 10.007079 0.000000 0.000002 0.000000 0.000000 -0.755249
    16 9.664095 -0.000001 -0.000002 -1.569555 0.428462 0.000000
    17 0.000005 0.001585 -3.638375 -0.460252 1.252282 2.700816
    18 6.703436 0.000000 -0.000001 0.492363 -0.197300 0.162550
    19 10.007080 0.000000 -0.000002 0.000000 0.000000 -0.566319
    20 9.664097 -0.000001 0.000001 1.569555 -0.261799 0.000000
    21 1.977383 0.000000 0.000000 0.225028 -0.208472 -0.463895
    22 6.829860 -0.000001 0.000000 0.001241 0.000000 0.000000
    23 -4.603199 -0.446935 0.691439 -1.751612 -0.047171 1.544023
    24 -6.751354 0.809404 1.239717 0.422884 1.599155 -1.196952
  time 6
    0 0.958286 -3.558004 19.416310 -0.164843 -0.429023 -0.096672
    1 4.489737 -1.539108 9.745319 -1.570795 -1.570451 0.000000
    2 -0.000007 0.000010 5.615750 0.073247 3.672125 -0.884490
    3 15.693467 0.000000 0.000000 0.000000 0.000000 -0.758394
    4 22.146629 0.000000 0.000000 0.194300 -0.501841 0.245901
    5 0.000008 -0.000006 -5.615750 0.447471 2.747599 -0.289339
    6 15.693467 0.000000 0.000000 0.000000 0.000000 -0.758352
    7 22.146629 0.000000 0.000000 -0.586959 0.020166 0.023269
    8 1.384163 -0.004728 0.000002 -0.174370 -0.080499 -0.428242
    9 5.939814 -0.004730 0.000000 -0.327167 -0.053991 -0.158485
    10 5.939809 -0.003975 0.000000 -0.295313 -0.027517 -0.091020
    11 4.991439 -0.003975 0.000000 0.000000 0.000000 -0.205774
    12 4.991436 -0.001575 0.000000 0.000000 0.000000 0.000000
    13 0.000005 0.001564 3.638375 -0.896037 -1.129038 3.987101
    14 6.703436 0.000000 0.000000 -0.357098 -0.173248 0.787931
    15 10.007079 0.000000 0.000002 0.000000 0.000000 -0.700233
    16 9.664095 -0.000001 -0.000002 -1.569555 0.411087 0.000000
    17 0.000005 0.001585 -3.638375 -0.460252 1.252282 2.700816
    18 6.703436 0.000000 -0.000001 0.309058 -0.140695 0.549851
    19 10.007080 0.000000 -0.000002 0.000000 0.000000 -0.566319
    20 9.664097 -0.000001 0.000001 1.569555 -0.261799 0.000000
    21 1.977383 0.000000 0.000000 0.307116 -0.053176 -0.311750
    22 6.829860 -0.000001 0.000000 0.001241 0.000000 0.000000
    23 -4.603199 -0.446935 0.691439 -1.751612 -0.047171 1.544023
    24 -6.751354 0.809404 1.239717 0.422884 1.599155 -1.196952
  time 7
    0 0.958286 -3.558004 19.217085 -0.164843 -0.429023 -0.096672
    1 4.845217 -1.875056 9.745319 -1.570795 -1.570451 0.000000
    2 -0.000007 0.000010 5.615750 0.009972 3.664743 -0.759171
    3 15.693467 0.000000 0.000000 0.000000 0.000000 -0.758394
    4 22.146629 0.000000 0.000000 0.198035 -0.487649 0.336259
    5 0.000008 -0.000006 -5.615750 0.472500 2.799652 -0.202355
    6 15.693467 0.000000 0.000000 0.000000 0.000000 -0.758352
    7 22.146629 0.000000 0.000000 -0.575455 0.015956 0.119292
    8 1.384163 -0.004728 0.000002 -0.174370 -0.080499 -0.428242
    9 5.939814 -0.004730 0.000000 -0.322338 -0.078511 -0.231436
    10 5.939809 -0.003975 0.000000 -0.292338 -0.050503 -0.167005
    11 4.991439 -0.003975 0.000000 0.000000 0.000000 -0.226765
    12 4.991436 -0.001575 0.000000 0.000000 0.000000 0.000000
    13 0.000005 0.001564 3.638375 -1.044257 -1.039340 4.118259
    14 6.703436 0.000000 0.000000 -0.363624 -0.498213 0.803722
    15 10.007079 0.000000 0.000002 0.000000 0.000000 -0.653511
    16 9.664095 -0.000001 -0.000002 -1.569555 0.349021 0.000000
    17 0.000005 0.001585 -3.638375 -0.460252 1.252282 2.700816
    18 6.703436 0.000000 -0.000001 0.222665 -0.005662 0.808743
    19 10.007080 0.000000 -0.000002 0.000000 0.000000 -0.566319
    20 9.664097 -0.000001 0.000001 1.569555 -0.261799 0.000000
    21 1.977383 0.000000 0.000000 0.376013 0.076730 -0.175709
    22 6.829860 -0.000001 0.000000 0.001241 0.000000 0.000000
    23 -4.603199 -0.446935 0.691439 -1.751612 -0.047171 1.544023
    24 -6.751354 0.809404 1.239717 0.422884 1.599155 -1.196952
  time 8
    0 0.958286 -3.558004 19.099894 -0.164843 -0.429023 -0.096672
    1 5.067880 -2.058656 9.745319 -1.570795 -1.570451 0.000000
    2 -0.000007 0.000010 5.615750 0.115622 3.653047 -0.972060
    3 15.693467 0.000000 0.000000 0.000000 0.000000 -0.758394
    4 22.146629 0.000000 0.000000 0.167647 -0.498123 0.215178
    5 0.000008 -0.000006 -5.615750 0.405246 2.720853 -0.382532
    6 15.693467 0.000000 0.000000 0.000000 0.000000 -0.758352
    7 22.146629 0.000000 0.000000 -0.574177 0.043466 -0.022959
    8 1.384163 -0.004728 0.000002 -0.174370 -0.080499 -0.428242
    9 5.939814 -0.004730 0.000000 -0.317160 -0.097878 -0.290141
    10 5.939809 -0.003975 0.000000 -0.288247 -0.070637 -0.234497
    11 4.991439 -0.003975 0.000000 0.000000 0.000000 -0.079585
    12 4.991436 -0.001575 0.000000 0.000000 0.000000 0.000000
    13 0.000005 0.001564 3.638375 -1.070909 -1.018382 4.141173
    14 6.703436 0.000000 0.000000 -0.261327 -0.578156 0.575852
    15 10.007079 0.000000 0.000002 0.000000 0.000000 -0.643164
    16 9.664095 -0.000001 -0.000002 -1.569555 -0.030941 0.000000
    17 0.000005 0.001585 -3.638375 -0.460252 1.252282 2.700816
    18 6.703436 0.000000 -0.000001 0.257857 0.049985 0.665948
    19 10.007080 0.000000 -0.000002 0.000000 0.000000 -0.566319
    20 9.664097 -0.000001 0.000001 1.569555 -0.261799 0.000000
    21 1.977383 0.000000 0.000000 0.405658 0.043994 -0.078738
    22 6.829860 -0.000001 0.000000 0.001241 0.000000 0.000000
    23 -4.603199 -0.446935 0.691439 -1.751612 -0.047171 1.544023
    24 -6.751354 0.809404 1.239717 0.422884 1.599155 -1.196952
  time 9
    0 0.958286 -3.558004 19.064737 -0.164843 -0.429023 -0.096672
    1 5.134288 -2.093813 9.745319 -1.570795 -1.570451 0.000000
    2 -0.000007 0.000010 5.615750 0.230380 3.615755 -1.213596
    3 15.693467 0.000000 0.000000 0.000000 0.000000 -0.758394
    4 22.146629 0.000000 0.000000 0.198035 -0.487649 -0.064885
    5 0.000008 -0.000006 -5.615750 0.304651 2.645314 -0.608925
    6 15.693467 0.000000 0.000000 0.000000 0.000000 -0.758352
    7 22.146629 0.000000 0.000000 -0.575455 0.015956 -0.281909
    8 1.384163 -0.004728 0.000002 -0.174370 -0.080499 -0.428242
    9 5.939814 -0.004730 0.000000 -0.314679 -0.105836 -0.314636
    10 5.939809 -0.003975 0.000000 -0.285753 -0.080369 -0.267527
    11 4.991439 -0.003975 0.000000 0.000000 0.000000 0.069777
    12 4.991436 -0.001575 0.000000 0.000000 0.000000 0.000000
    13 0.000005 0.001564 3.638375 -1.044257 -1.039340 4.118259
    14 6.703436 0.000000 0.000000 -0.188014 -0.501855 0.363692
    15 10.007079 0.000000 0.000002 0.000000 0.000000 -0.653511
    16 9.664095 -0.000001 -0.000002 -1.569555 -0.366180 0.000000
    17 0.000005 0.001585 -3.638375 -0.460252 1.252282 2.700816
    18 6.703436 0.000000 -0.000001 0.316599 0.062748 0.438120
    19 10.007080 0.000000 -0.000002 0.000000 0.000000 -0.566319
    20 9.664097 -0.000001 0.000001 1.569555 -0.261799 0.000000
    21 1.977383 0.000000 0.000000 0.390215 -0.044952 -0.041333
    22 6.829860 -0.000001 0.000000 0.001241 0.000000 0.000000
    23 -4.603199 -0.446935 0.691439 -1.751612 -0.047171 1.544023
    24 -6.751354 0.809404 1.239717 0.422884 1.599155 -1.196952
  time 10
    0 0.958286 -3.558004 19.092082 -0.164843 -0.429023 -0.096672
    1 5.087412 -2.054749 9.745319 -1.570795 -1.570451 0.000000
    2 -0.000007 0.000010 5.615750 0.192319 3.631285 -1.131583
    3 15.693467 0.000000 0.000000 0.000000 0.000000 -0.758394
    4 22.146629 0.000000 0.000000 0.344359 -0.402217 -0.327641
    5 0.000008 -0.000006 -5.615750 0.341717 2.668896 -0.529270
    6 15.693467 0.000000 0.000000 0.000000 0.000000 -0.758352
    7 22.146629 0.000000 0.000000 -0.561565 -0.134011 -0.441414
    8 1.384163 -0.004728 0.000002 -0.174370 -0.080499 -0.428242
    9 5.939814 -0.004730 0.000000 -0.316273 -0.100826 -0.299185
    10 5.939809 -0.003975 0.000000 -0.287200 -0.074892 -0.248880
    11 4.991439 -0.003975 0.000000 0.000000 0.000000 0.014847
    12 4.991436 -0.001575 0.000000 0.000000 0.000000 0.000000
    13 0.000005 0.001564 3.638375 -1.044257 -1.039340 4.118259
    14 6.703436 0.000000 0.000000 -0.217469 -0.504951 0.445185
    15 10.007079 0.000000 0.000002 0.000000 0.000000 -0.653511
    16 9.664095 -0.000001 -0.000002 -1.569555 -0.233734 0.000000
    17 0.000005 0.001585 -3.638375 -0.460252 1.252282 2.700816
    18 6.703436 0.000000 -0.000001 0.300392 0.044816 0.505187
    19 10.007080 0.000000 -0.000002 0.000000 0.000000 -0.566319
    20 9.664097 -0.000001 0.000001 1.569555 -0.261799 0.000000
    21 1.977383 0.000000 0.000000 0.390399 -0.022037 -0.066068
    22 6.829860 -0.000001 0.000000 0.001241 0.000000 0.000000
    23 -4.603199 -0.446935 0.691439 -1.751612 -0.047171 1.544023
    24 -6.751354 0.809404 1.239717 0.422884 1.599155 -1.196952
  time 11
    0 0.958286 -3.558004 19.150677 -0.164843 -0.429023 -0.096672
    1 4.970221 -1.968809 9.745319 -1.570795 -1.570451 0.000000
    2 -0.000007 0.000010 5.615750 0.103351 3.655444 -0.947053
    3 15.693467 0.000000 0.000000 0.000000 0.000000 -0.758394
    4 22.146629 0.000000 0.000000 0.472587 -0.233822 -0.567723
    5 0.000008 -0.000006 -5.615750 0.413939 2.729385 -0.361155
    6 15.693467 0.000000 0.000000 0.000000 0.000000 -0.758352
    7 22.146629 0.000000 0.000000 -0.487343 -0.319599 -0.603831
    8 1.384163 -0.004728 0.000002 -0.174370 -0.080499 -0.428242
    9 5.939814 -0.004730 0.000000 -0.319497 -0.089717 -0.265282
    10 5.939809 -0.003975 0.000000 -0.290023 -0.062751 -0.207910
    11 4.991439 -0.003975 0.000000 0.000000 0.000000 -0.105944
    12 4.991436 -0.001575 0.000000 0.000000 0.000000 0.000000
    13 0.000005 0.001564 3.638375 -1.044257 -1.039340 4.118259
    14 6.703436 0.000000 0.000000 -0.287607 -0.506225 0.624863
    15 10.007079 0.000000 0.000002 0.000000 0.000000 -0.653511
    16 9.664095 -0.000001 -0.000002 -1.569555 0.057660 0.000000
    17 0.000005 0.001585 -3.638375 -0.460252 1.252282 2.700816
    18 6.703436 0.000000 -0.000001 0.262223 0.013738 0.655354
    19 10.007080 0.000000 -0.000002 0.000000 0.000000 -0.566319
    20 9.664097 -0.000001 0.000001 1.569555 -0.261799 0.000000
    21 1.977383 0.000000 0.000000 0.386262 0.027945 -0.120535
    22 6.829860 -0.000001 0.000000 0.001241 0.000000 0.000000
    23 -4.603199 -0.446935 0.691439 -1.751612 -0.047171 1.544023
    24 -6.751354 0.809404 1.239717 0.422884 1.599155 -1.196952
  time 12
    0 0.958286 -3.558004 19.217085 -0.164843 -0.429023 -0.096672
    1 4.845217 -1.875056 9.745319 -1.570795 -1.570451 0.000000
    2 -0.000007 0.000010 5.615750 0.009972 3.664743 -0.759171
    3 15.693467 0.000000 0.000000 0.000000 0.000000 -0.758394
    4 22.146629 0.000000 0.000000 0.522413 -0.032055 -0.774198
    5 0.000008 -0.000006 -5.615750 0.472500 2.799652 -0.202355
    6 15.693467 0.000000 0.000000 0.000000 0.000000 -0.758352
    7 22.146629 0.000000 0.000000 -0.345674 -0.469973 -0.804176
    8 1.384163 -0.004728 0.000002 -0.174370 -0.080499 -0.428242
    9 5.939814 -0.004730 0.000000 -0.322338 -0.078511 -0.231436
    10 5.939809 -0.003975 0.000000 -0.292338 -0.050503 -0.167005
    11 4.991439 -0.003975 0.000000 0.000000 0.000000 -0.226765
    12 4.991436 -0.001575 0.000000 0.000000 0.000000 0.000000
    13 0.000005 0.001564 3.638375 -1.044257 -1.039340 4.118259
    14 6.703436 0.000000 0.000000 -0.363624 -0.498213 0.803722
    15 10.007079 0.000000 0.000002 0.000000 0.000000 -0.653511
    16 9.664095 -0.000001 -0.000002 -1.569555 0.349021 0.000000
    17 0.000005 0.001585 -3.638375 -0.460252 1.252282 2.700816
    18 6.703436 0.000000 -0.000001 0.222665 -0.005662 0.808743
    19 10.007080 0.000000 -0.000002 0.000000 0.000000 -0.566319
    20 9.664097 -0.000001 0.000001 1.569555 -0.261799 0.000000
    21 1.977383 0.000000 0.000000 0.376013 0.076730 -0.175709
    22 6.829860 -0.000001 0.000000 0.001241 0.000000 0.000000
    23 -4.603199 -0.446935 0.691439 -1.751612 -0.047171 1.544023
    24 -6.751354 0.809404 1.239717 0.422884 1.599155 -1.196952
end
