version 1
nodes
  0 "Bip01" -1
  1 "Bip01 Pelvis" 0
  2 "Bip01 L Thigh" 1
  3 "Bip01 L Calf" 2
  4 "Bip01 L Foot" 3
  5 "Bip01 R Thigh" 1
  6 "Bip01 R Calf" 5
  7 "Bip01 R Foot" 6
  8 "Bip01 Spine" 1
  9 "Bip01 Spine1" 8
  10 "Bip01 Spine2" 9
  11 "Bip01 Spine3" 10
  12 "Bip01 Neck" 11
  13 "Bip01 L Clavicle" 12
  14 "Bip01 L UpperArm" 13
  15 "Bip01 L Forearm" 14
  16 "Bip01 L Hand" 15
  17 "Bip01 R Clavicle" 12
  18 "Bip01 R UpperArm" 17
  19 "Bip01 R Forearm" 18
  20 "Bip01 R Hand" 19
  21 "Bip01 Head" 12
  22 "Bip01 R Finger0" 20
  23 "Line01" 22
  24 "w_m40a1" 22
end
skeleton
  time 0
    0 1.794249 -4.214274 20.592127 -0.164843 -0.429023 -0.096672
    1 2.255294 0.097660 9.745319 -1.570795 -1.570451 0.000000
    2 -0.000007 0.000010 5.615750 0.000001 3.141591 -0.738955
    3 15.693467 0.000000 0.000000 0.000000 0.000000 -0.758394
    4 22.146629 0.000000 0.000000 0.000000 0.000000 -0.521370
    5 0.000008 -0.000006 -5.615750 0.000001 3.141591 -1.035548
    6 15.693467 0.000000 0.000000 0.000000 0.000000 -0.758352
    7 22.146629 0.000000 0.000000 0.000000 0.000000 -0.626035
    8 1.384163 -0.004728 0.000002 -0.174370 -0.080499 -0.428242
    9 5.939814 -0.004730 0.000000 -0.323488 0.073478 0.214780
    10 5.939809 -0.003975 0.000000 -0.294996 0.030764 0.100083
    11 4.991439 -0.003975 0.000000 0.000000 0.000000 0.104659
    12 4.991436 -0.001575 0.000000 0.000000 0.000000 0.000000
    13 0.000005 0.001564 3.638375 0.909056 -1.122648 2.282718
    14 6.703436 0.000000 0.000000 -1.362898 -0.451685 -0.584852
    15 10.007079 0.000000 0.000002 0.000000 0.000000 -0.984919
    16 9.664095 -0.000001 -0.000002 -1.569555 0.349021 0.000000
    17 0.000005 0.001585 -3.638375 -0.460252 1.252282 2.700816
    18 6.703436 0.000000 -0.000001 0.679571 0.358660 -1.018462
    19 10.007080 0.000000 -0.000002 0.000000 0.000000 -0.566319
    20 9.664097 -0.000001 0.000001 1.569555 -0.261799 0.000000
    21 1.977383 0.000000 0.000000 -0.594744 -0.600025 -0.158041
    22 6.829860 -0.000001 0.000000 0.001241 0.000000 0.000000
    23 -4.603199 -0.446935 0.691439 -1.751612 -0.047171 1.544023
    24 -6.751354 0.809404 1.239717 0.422884 1.599155 -1.196952
  time 1
    0 1.794249 -4.214274 20.584315 -0.164843 -0.429023 -0.096672
    1 2.282638 0.121098 9.745319 -1.570795 -1.570451 0.000000
    2 -0.000007 0.000010 5.615750 0.000001 3.141591 -0.794141
    3 15.693467 0.000000 0.000000 0.000000 0.000000 -0.746947
    4 22.146629 0.000000 0.000000 0.000000 0.000000 -0.587982
    5 0.000008 -0.000006 -5.615750 0.000001 3.141591 -1.087514
    6 15.693467 0.000000 0.000000 0.000000 0.000000 -0.758111
    7 22.146629 0.000000 0.000000 0.000000 0.000000 -0.678232
    8 1.384163 -0.004728 0.000002 -0.174370 -0.080499 -0.428242
    9 5.939814 -0.004730 0.000000 -0.323488 0.073478 0.214780
    10 5.939809 -0.003975 0.000000 -0.392699 0.040484 0.096601
    11 4.991439 -0.003975 0.000000 0.000000 0.000000 0.104659
    12 4.991436 -0.001575 0.000000 0.000000 0.000000 0.000000
    13 0.000005 0.001564 3.638375 0.909056 -1.122648 2.282718
    14 6.703436 0.000000 0.000000 -1.406168 -0.452231 -0.475868
    15 10.007079 0.000000 0.000002 0.000000 0.000000 -0.984919
    16 9.664095 -0.000001 -0.000002 -1.569555 0.349021 0.000000
    17 0.000005 0.001585 -3.638375 0.447993 1.337515 3.578196
    18 6.703436 0.000000 -0.000001 0.714565 0.214310 -1.292314
    19 10.007080 0.000000 -0.000002 0.000000 0.000000 -0.766262
    20 9.664097 -0.000001 0.000001 1.569555 -0.261799 0.000000
    21 1.977383 0.000000 0.000000 -0.531087 -0.629248 -0.206854
    22 6.829860 -0.000001 0.000000 0.001241 0.000000 0.000000
    23 -4.603199 -0.446935 0.691439 -1.751612 -0.047171 1.544023
    24 -6.751354 0.809404 1.239717 0.422884 1.599155 -1.196952
  time 2
    0 1.794249 -4.214274 20.580408 -0.164843 -0.429023 -0.096672
    1 2.298264 0.132818 9.745319 -1.570795 -1.570451 0.000000
    2 -0.000007 0.000010 5.615750 0.000001 3.141591 -0.843675
    3 15.693467 0.000000 0.000000 0.000000 0.000000 -0.758394
    4 22.146629 0.000000 0.000000 0.000000 0.000000 -0.626017
    5 0.000008 -0.000006 -5.615750 0.000001 3.141591 -1.122786
    6 15.693467 0.000000 0.000000 0.000000 0.000000 -0.758352
    7 22.146629 0.000000 0.000000 0.000000 0.000000 -0.713249
    8 1.384163 -0.004728 0.000002 -0.174370 -0.080499 -0.428242
    9 5.939814 -0.004730 0.000000 -0.323488 0.073478 0.214780
    10 5.939809 -0.003975 0.000000 -0.451365 0.046141 0.094062
    11 4.991439 -0.003975 0.000000 0.000000 0.000000 0.104659
    12 4.991436 -0.001575 0.000000 0.000000 0.000000 0.000000
    13 0.000005 0.001564 3.638375 0.909056 -1.122648 2.282718
    14 6.703436 0.000000 0.000000 -1.432036 -0.450593 -0.410493
    15 10.007079 0.000000 0.000002 0.000000 0.000000 -0.984919
    16 9.664095 -0.000001 -0.000002 -1.569555 0.349021 0.000000
    17 0.000005 0.001585 -3.638375 0.987551 1.276916 4.108040
    18 6.703436 0.000000 -0.000001 0.749956 0.136136 -1.451715
    19 10.007080 0.000000 -0.000002 0.000000 0.000000 -0.903756
    20 9.664097 -0.000001 0.000001 1.569555 -0.261799 0.000000
    21 1.977383 0.000000 0.000000 -0.491468 -0.644817 -0.239010
    22 6.829860 -0.000001 0.000000 0.001241 0.000000 0.000000
    23 -4.603199 -0.446935 0.691439 -1.751612 -0.047171 1.544023
    24 -6.751354 0.809404 1.239717 0.422884 1.599155 -1.196952
  time 3
    0 1.794249 -4.214274 20.584315 -0.164843 -0.429023 -0.096672
    1 2.274826 0.117192 9.745319 -1.570795 -1.570451 0.000000
    2 -0.000007 0.000010 5.615750 0.000001 3.141591 -0.891963
    3 15.693467 0.000000 0.000000 0.000000 0.000000 -0.827007
    4 22.146629 0.000000 0.000000 0.000000 0.000000 -0.605758
    5 0.000008 -0.000006 -5.615750 0.000001 3.141591 -1.127265
    6 15.693467 0.000000 0.000000 0.000000 0.000000 -0.759636
    7 22.146629 0.000000 0.000000 0.000000 0.000000 -0.716452
    8 1.384163 -0.004728 0.000002 -0.174370 -0.080499 -0.428242
    9 5.939814 -0.004730 0.000000 -0.323488 0.073478 0.214780
    10 5.939809 -0.003975 0.000000 -0.373153 0.038566 0.097382
    11 4.991439 -0.003975 0.000000 0.000000 0.000000 0.104659
    12 4.991436 -0.001575 0.000000 0.000000 0.000000 0.000000
    13 0.000005 0.001564 3.638375 0.909056 -1.122648 2.282718
    14 6.703436 0.000000 0.000000 -1.397526 -0.452505 -0.497632
    15 10.007079 0.000000 0.000002 0.000000 0.000000 -0.984919
    16 9.664095 -0.000001 -0.000002 -1.569555 0.349021 0.000000
    17 0.000005 0.001585 -3.638375 0.229399 1.338706 3.364189
    18 6.703436 0.000000 -0.000001 0.719857 0.191847 -1.185880
    19 10.007080 0.000000 -0.000002 0.000000 0.000000 -0.835009
    20 9.664097 -0.000001 0.000001 1.569555 -0.261799 0.000000
    21 1.977383 0.000000 0.000000 -0.544095 -0.623738 -0.196607
    22 6.829860 -0.000001 0.000000 0.001241 0.000000 0.000000
    23 -4.603199 -0.446935 0.691439 -1.751612 -0.047171 1.544023
    24 -6.751354 0.809404 1.239717 0.422884 1.599155 -1.196952
  time 4
    0 1.794249 -4.214274 20.592127 -0.164843 -0.429023 -0.096672
    1 2.255294 0.097660 9.745319 -1.570795 -1.570451 0.000000
    2 -0.000007 0.000010 5.615750 0.000001 3.141591 -0.943413
    3 15.693467 0.000000 0.000000 0.000000 0.000000 -0.918512
    4 22.146629 0.000000 0.000000 0.000000 0.000000 -0.565644
    5 0.000008 -0.000006 -5.615750 0.000001 3.141591 -1.122277
    6 15.693467 0.000000 0.000000 0.000000 0.000000 -0.761323
    7 22.146629 0.000000 0.000000 0.000000 0.000000 -0.709755
    8 1.384163 -0.004728 0.000002 -0.174370 -0.080499 -0.428242
    9 5.939814 -0.004730 0.000000 -0.323488 0.073478 0.214780
    10 5.939809 -0.003975 0.000000 -0.294996 0.030764 0.100083
    11 4.991439 -0.003975 0.000000 0.000000 0.000000 0.104659
    12 4.991436 -0.001575 0.000000 0.000000 0.000000 0.000000
    13 0.000005 0.001564 3.638375 0.909056 -1.122648 2.282718
    14 6.703436 0.000000 0.000000 -1.362898 -0.451685 -0.584852
    15 10.007079 0.000000 0.000002 0.000000 0.000000 -0.984919
    16 9.664095 -0.000001 -0.000002 -1.569555 0.349021 0.000000
    17 0.000005 0.001585 -3.638375 -0.460252 1.252282 2.700816
    18 6.703436 0.000000 -0.000001 0.712448 0.281826 -0.932499
    19 10.007080 0.000000 -0.000002 0.000000 0.000000 -0.742296
    20 9.664097 -0.000001 0.000001 1.569555 -0.261799 0.000000
    21 1.977383 0.000000 0.000000 -0.594744 -0.600025 -0.158041
    22 6.829860 -0.000001 0.000000 0.001241 0.000000 0.000000
    23 -4.603199 -0.446935 0.691439 -1.751612 -0.047171 1.544023
    24 -6.751354 0.809404 1.239717 0.422884 1.599155 -1.196952
  time 5
    0 1.794249 -4.214274 20.584315 -0.164843 -0.429023 -0.096672
    1 2.274826 0.117192 9.745319 -1.570795 -1.570451 0.000000
    2 -0.000007 0.000010 5.615750 0.000001 3.141591 -0.980203
    3 15.693467 0.000000 0.000000 0.000000 0.000000 -0.998572
    4 22.146629 0.000000 0.000000 0.000000 0.000000 -0.522377
    5 0.000008 -0.000006 -5.615750 0.000001 3.141591 -1.111131
    6 15.693467 0.000000 0.000000 0.000000 0.000000 -0.762848
    7 22.146629 0.000000 0.000000 0.000000 0.000000 -0.697160
    8 1.384163 -0.004728 0.000002 -0.174370 -0.080499 -0.428242
    9 5.939814 -0.004730 0.000000 -0.323488 0.073478 0.214780
    10 5.939809 -0.003975 0.000000 -0.373153 0.038566 0.097382
    11 4.991439 -0.003975 0.000000 0.000000 0.000000 0.104659
    12 4.991436 -0.001575 0.000000 0.000000 0.000000 0.000000
    13 0.000005 0.001564 3.638375 0.909056 -1.122648 2.282718
    14 6.703436 0.000000 0.000000 -1.397526 -0.452505 -0.497632
    15 10.007079 0.000000 0.000002 0.000000 0.000000 -0.984919
    16 9.664095 -0.000001 -0.000002 -1.569555 0.349021 0.000000
    17 0.000005 0.001585 -3.638375 0.229399 1.338706 3.364189
    18 6.703436 0.000000 -0.000001 0.717145 0.201929 -1.195542
    19 10.007080 0.000000 -0.000002 0.000000 0.000000 -0.825254
    20 9.664097 -0.000001 0.000001 1.569555 -0.261799 0.000000
    21 1.977383 0.000000 0.000000 -0.544095 -0.623738 -0.196607
    22 6.829860 -0.000001 0.000000 0.001241 0.000000 0.000000
    23 -4.603199 -0.446935 0.691439 -1.751612 -0.047171 1.544023
    24 -6.751354 0.809404 1.239717 0.422884 1.599155 -1.196952
  time 6
    0 1.794249 -4.214274 20.580408 -0.164843 -0.429023 -0.096672
    1 2.298264 0.132818 9.745319 -1.570795 -1.570451 0.000000
    2 -0.000007 0.000010 5.615750 0.000001 3.141591 -0.984707
    3 15.693467 0.000000 0.000000 0.000000 0.000000 -1.032912
    4 22.146629 0.000000 0.000000 0.000000 0.000000 -0.492593
    5 0.000008 -0.000006 -5.615750 0.000001 3.141591 -1.097032
    6 15.693467 0.000000 0.000000 0.000000 0.000000 -0.763490
    7 22.146629 0.000000 0.000000 0.000000 0.000000 -0.682382
    8 1.384163 -0.004728 0.000002 -0.174370 -0.080499 -0.428242
    9 5.939814 -0.004730 0.000000 -0.323488 0.073478 0.214780
    10 5.939809 -0.003975 0.000000 -0.451365 0.046141 0.094062
    11 4.991439 -0.003975 0.000000 0.000000 0.000000 0.104659
    12 4.991436 -0.001575 0.000000 0.000000 0.000000 0.000000
    13 0.000005 0.001564 3.638375 0.909056 -1.122648 2.282718
    14 6.703436 0.000000 0.000000 -1.432036 -0.450593 -0.410493
    15 10.007079 0.000000 0.000002 0.000000 0.000000 -0.984919
    16 9.664095 -0.000001 -0.000002 -1.569555 0.349021 0.000000
    17 0.000005 0.001585 -3.638375 0.987551 1.276916 4.108040
    18 6.703436 0.000000 -0.000001 0.746450 0.152792 -1.466531
    19 10.007080 0.000000 -0.000002 0.000000 0.000000 -0.888163
    20 9.664097 -0.000001 0.000001 1.569555 -0.261799 0.000000
    21 1.977383 0.000000 0.000000 -0.491468 -0.644817 -0.239010
    22 6.829860 -0.000001 0.000000 0.001241 0.000000 0.000000
    23 -4.603199 -0.446935 0.691439 -1.751612 -0.047171 1.544023
    24 -6.751354 0.809404 1.239717 0.422884 1.599155 -1.196952
  time 7
    0 1.794249 -4.214274 20.584315 -0.164843 -0.429023 -0.096672
    1 2.282638 0.121098 9.745319 -1.570795 -1.570451 0.000000
    2 -0.000007 0.000010 5.615750 0.000001 3.141591 -0.888226
    3 15.693467 0.000000 0.000000 0.000000 0.000000 -0.929959
    4 22.146629 0.000000 0.000000 0.000000 0.000000 -0.499032
    5 0.000008 -0.000006 -5.615750 0.000001 3.141591 -1.070362
    6 15.693467 0.000000 0.000000 0.000000 0.000000 -0.761563
    7 22.146629 0.000000 0.000000 0.000000 0.000000 -0.657630
    8 1.384163 -0.004728 0.000002 -0.174370 -0.080499 -0.428242
    9 5.939814 -0.004730 0.000000 -0.323488 0.073478 0.214780
    10 5.939809 -0.003975 0.000000 -0.392699 0.040484 0.096601
    11 4.991439 -0.003975 0.000000 0.000000 0.000000 0.104659
    12 4.991436 -0.001575 0.000000 0.000000 0.000000 0.000000
    13 0.000005 0.001564 3.638375 0.909056 -1.122648 2.282718
    14 6.703436 0.000000 0.000000 -1.406168 -0.452231 -0.475868
    15 10.007079 0.000000 0.000002 0.000000 0.000000 -0.984919
    16 9.664095 -0.000001 -0.000002 -1.569555 0.349021 0.000000
    17 0.000005 0.001585 -3.638375 0.447993 1.337515 3.578196
    18 6.703436 0.000000 -0.000001 0.711588 0.224392 -1.302048
    19 10.007080 0.000000 -0.000002 0.000000 0.000000 -0.756430
    20 9.664097 -0.000001 0.000001 1.569555 -0.261799 0.000000
    21 1.977383 0.000000 0.000000 -0.531087 -0.629248 -0.206854
    22 6.829860 -0.000001 0.000000 0.001241 0.000000 0.000000
    23 -4.603199 -0.446935 0.691439 -1.751612 -0.047171 1.544023
    24 -6.751354 0.809404 1.239717 0.422884 1.599155 -1.196952
  time 8
    0 1.794249 -4.214274 20.592127 -0.164843 -0.429023 -0.096672
    1 2.255294 0.097660 9.745319 -1.570795 -1.570451 0.000000
    2 -0.000007 0.000010 5.615750 0.000001 3.141591 -0.738955
    3 15.693467 0.000000 0.000000 0.000000 0.000000 -0.758394
    4 22.146629 0.000000 0.000000 0.000000 0.000000 -0.521370
    5 0.000008 -0.000006 -5.615750 0.000001 3.141591 -1.035548
    6 15.693467 0.000000 0.000000 0.000000 0.000000 -0.758352
    7 22.146629 0.000000 0.000000 0.000000 0.000000 -0.626035
    8 1.384163 -0.004728 0.000002 -0.174370 -0.080499 -0.428242
    9 5.939814 -0.004730 0.000000 -0.323488 0.073478 0.214780
    10 5.939809 -0.003975 0.000000 -0.294996 0.030764 0.100083
    11 4.991439 -0.003975 0.000000 0.000000 0.000000 0.104659
    12 4.991436 -0.001575 0.000000 0.000000 0.000000 0.000000
    13 0.000005 0.001564 3.638375 0.909056 -1.122648 2.282718
    14 6.703436 0.000000 0.000000 -1.362898 -0.451685 -0.584852
    15 10.007079 0.000000 0.000002 0.000000 0.000000 -0.984919
    16 9.664095 -0.000001 -0.000002 -1.569555 0.349021 0.000000
    17 0.000005 0.001585 -3.638375 -0.460252 1.252282 2.700816
    18 6.703436 0.000000 -0.000001 0.679571 0.358660 -1.018462
    19 10.007080 0.000000 -0.000002 0.000000 0.000000 -0.566319
    20 9.664097 -0.000001 0.000001 1.569555 -0.261799 0.000000
    21 1.977383 0.000000 0.000000 -0.594744 -0.600025 -0.158041
    22 6.829860 -0.000001 0.000000 0.001241 0.000000 0.000000
    23 -4.603199 -0.446935 0.691439 -1.751612 -0.047171 1.544023
    24 -6.751354 0.809404 1.239717 0.422884 1.599155 -1.196952
end
