version 1
nodes
  0 "Bip01" -1
  1 "Bip01 Pelvis" 0
  2 "Bip01 L Thigh" 1
  3 "Bip01 L Calf" 2
  4 "Bip01 L Foot" 3
  5 "Bip01 R Thigh" 1
  6 "Bip01 R Calf" 5
  7 "Bip01 R Foot" 6
  8 "Bip01 Spine" 1
  9 "Bip01 Spine1" 8
  10 "Bip01 Spine2" 9
  11 "Bip01 Spine3" 10
  12 "Bip01 Neck" 11
  13 "Bip01 L Clavicle" 12
  14 "Bip01 L UpperArm" 13
  15 "Bip01 L Forearm" 14
  16 "Bip01 L Hand" 15
  17 "Bip01 R Clavicle" 12
  18 "Bip01 R UpperArm" 17
  19 "Bip01 R Forearm" 18
  20 "Bip01 R Hand" 19
  21 "Bip01 Head" 12
  22 "Bip01 R Finger0" 20
  23 "Line01" 22
  24 "w_m40a1" 22
end
skeleton
  time 0
    0 2.665369 -16.156045 32.119823 0.004662 -0.881272 -1.574469
    1 -4.639448 -0.773460 9.745319 -1.570795 -1.570451 0.000000
    2 -0.000007 0.000010 5.615750 -0.005655 3.238034 0.083859
    3 15.693467 0.000000 0.000000 0.000000 0.000000 -1.174783
    4 22.146629 0.000000 0.000000 0.073107 -0.063239 0.374763
    5 0.000008 -0.000006 -5.615750 0.037545 3.014191 0.942993
    6 15.693467 0.000000 0.000000 0.000000 0.000000 -0.713549
    7 22.146629 0.000000 0.000000 -0.029910 0.129394 0.770852
    8 1.384163 -0.004728 0.000002 -0.431530 -0.129382 0.271166
    9 5.939814 -0.004730 0.000000 -0.093624 -0.026965 0.225909
    10 5.939809 -0.003975 0.000000 -0.095444 -0.068108 0.133519
    11 4.991439 -0.003975 0.000000 -0.087226 0.060312 0.042835
    12 4.991436 -0.001575 0.000000 0.000000 0.000000 0.000000
    13 0.000005 0.001564 3.638375 -0.000010 -1.283530 3.140806
    14 6.703436 0.000000 0.000000 0.481265 -0.765450 -1.588380
    15 10.007079 0.000000 0.000002 0.000000 0.000000 -0.446996
    16 9.664095 -0.000001 -0.000002 -3.820717 -0.067348 -0.377001
    17 0.000005 0.001585 -3.638375 -0.000010 1.082936 3.140787
    18 6.703436 0.000000 -0.000001 -0.059668 0.069576 -2.136058
    19 10.007080 0.000000 -0.000002 0.000000 0.000000 -0.783237
    20 9.664097 -0.000001 0.000001 2.840685 0.149945 0.479192
    21 1.977383 0.000000 0.000000 0.487194 0.362889 -0.096810
    22 6.829860 -0.000001 0.000000 0.001241 0.000000 0.000000
    23 -4.603199 -0.446935 0.691439 -1.751612 -0.047171 1.544023
    24 -6.751354 0.809404 1.239717 0.422884 1.599155 -1.196952
  time 1
    0 2.618493 -15.917756 31.998725 0.004662 -0.881272 -1.574469
    1 -4.639448 -0.773460 9.745319 -1.570795 -1.570451 0.000000
    2 -0.000007 0.000010 5.615750 -0.004505 3.239856 0.070062
    3 15.693467 0.000000 0.000000 0.000000 0.000000 -1.184142
    4 22.146629 0.000000 0.000000 0.074522 -0.064275 0.370202
    5 0.000008 -0.000006 -5.615750 0.034201 3.014574 0.918104
    6 15.693467 0.000000 0.000000 0.000000 0.000000 -0.747593
    7 22.146629 0.000000 0.000000 -0.029783 0.128127 0.780243
    8 1.384163 -0.004728 0.000002 -0.431530 -0.129382 0.271166
    9 5.939814 -0.004730 0.000000 -0.093624 -0.026965 0.225909
    10 5.939809 -0.003975 0.000000 -0.095444 -0.068108 0.133519
    11 4.991439 -0.003975 0.000000 -0.087226 0.060312 0.042835
    12 4.991436 -0.001575 0.000000 0.000000 0.000000 0.000000
    13 0.000005 0.001564 3.638375 -0.000010 -1.283530 3.140806
    14 6.703436 0.000000 0.000000 0.487026 -0.770549 -1.600735
    15 10.007079 0.000000 0.000002 0.000000 0.000000 -0.617052
    16 9.664095 -0.000001 -0.000002 -3.812570 -0.043769 -0.200244
    17 0.000005 0.001585 -3.638375 -0.000010 1.082936 3.140787
    18 6.703436 0.000000 -0.000001 -0.036978 0.089168 -1.906798
    19 10.007080 0.000000 -0.000002 0.000000 0.000000 -1.122749
    20 9.664097 -0.000001 0.000001 2.857462 0.144084 0.582212
    21 1.977383 0.000000 0.000000 0.495789 0.350514 -0.072176
    22 6.829860 -0.000001 0.000000 0.001241 0.000000 0.000000
    23 -4.603199 -0.446935 0.691439 -1.751612 -0.047171 1.544023
    24 -6.751354 0.809404 1.239717 0.422884 1.599155 -1.196952
  time 2
    0 2.708339 -15.448992 31.799501 0.004662 -0.881272 -1.574469
    1 -4.487099 -0.894558 9.745319 -1.570795 -1.570451 0.000000
    2 -0.000007 0.000010 5.615750 -0.002108 3.239377 0.055691
    3 15.693467 0.000000 0.000000 0.000000 0.000000 -1.187711
    4 22.146629 0.000000 0.000000 0.073506 -0.064698 0.359670
    5 0.000008 -0.000006 -5.615750 0.032673 3.013615 0.888380
    6 15.693467 0.000000 0.000000 0.000000 0.000000 -0.783001
    7 22.146629 0.000000 0.000000 -0.032041 0.128222 0.785922
    8 1.384163 -0.004728 0.000002 -0.431530 -0.129382 0.271166
    9 5.939814 -0.004730 0.000000 -0.093624 -0.026965 0.225909
    10 5.939809 -0.003975 0.000000 -0.174827 -0.072471 0.052604
    11 4.991439 -0.003975 0.000000 -0.087226 0.060312 0.042835
    12 4.991436 -0.001575 0.000000 0.000000 0.000000 0.000000
    13 0.000005 0.001564 3.638375 -0.000010 -1.283530 3.140806
    14 6.703436 0.000000 0.000000 0.186309 -0.883636 -1.155386
    15 10.007079 0.000000 0.000002 0.000000 0.000000 -1.119585
    16 9.664095 -0.000001 -0.000002 -3.843241 0.033918 0.027052
    17 0.000005 0.001585 -3.638375 0.184333 1.075811 3.303451
    18 6.703436 0.000000 -0.000001 0.010518 -0.045993 -2.029623
    19 10.007080 0.000000 -0.000002 0.000000 0.000000 -1.109921
    20 9.664097 -0.000001 0.000001 2.856586 0.144440 0.576692
    21 1.977383 0.000000 0.000000 0.601685 0.290391 0.109146
    22 6.829860 -0.000001 0.000000 0.001241 0.000000 0.000000
    23 -4.603199 -0.446935 0.691439 -1.751612 -0.047171 1.544023
    24 -6.751354 0.809404 1.239717 0.422884 1.599155 -1.196952
  time 3
    0 2.665369 -15.171640 31.412770 0.004662 -0.881272 -1.574469
    1 -4.041773 -1.066438 9.745319 -1.570795 -1.570451 0.000000
    2 -0.000007 0.000010 5.615750 0.000576 3.246279 0.053679
    3 15.693467 0.000000 0.000000 0.000000 0.000000 -1.190337
    4 22.146629 0.000000 0.000000 0.076806 -0.071265 0.360006
    5 0.000008 -0.000006 -5.615750 0.033055 3.019655 0.884562
    6 15.693467 0.000000 0.000000 0.000000 0.000000 -0.791031
    7 22.146629 0.000000 0.000000 -0.032935 0.122002 0.790290
    8 1.384163 -0.004728 0.000002 -0.473846 -0.117583 0.276399
    9 5.939814 -0.004730 0.000000 -0.095469 -0.037668 0.113088
    10 5.939809 -0.003975 0.000000 -0.169882 -0.071812 0.057599
    11 4.991439 -0.003975 0.000000 -0.087226 0.060312 0.042835
    12 4.991436 -0.001575 0.000000 0.000000 0.000000 0.000000
    13 0.000005 0.001564 3.638375 -0.000010 -1.283530 3.140806
    14 6.703436 0.000000 0.000000 0.080955 -0.757802 -0.889061
    15 10.007079 0.000000 0.000002 0.000000 0.000000 -1.357877
    16 9.664095 -0.000001 -0.000002 -3.830877 -0.024900 0.134837
    17 0.000005 0.001585 -3.638375 0.173043 1.076662 3.293486
    18 6.703436 0.000000 -0.000001 -0.003109 -0.167626 -2.043366
    19 10.007080 0.000000 -0.000002 0.000000 0.000000 -1.062758
    20 9.664097 -0.000001 0.000001 2.854641 0.145232 0.564702
    21 1.977383 0.000000 0.000000 0.633076 0.247116 0.198343
    22 6.829860 -0.000001 0.000000 0.001241 0.000000 0.000000
    23 -4.603199 -0.446935 0.691439 -1.751612 -0.047171 1.544023
    24 -6.751354 0.809404 1.239717 0.422884 1.599155 -1.196952
  time 4
    0 1.805968 -15.105232 31.486991 0.004662 -0.881272 -1.574469
    1 -4.151152 -0.800805 9.745319 -1.570795 -1.570451 0.000000
    2 -0.000007 0.000010 5.615750 -0.001821 3.272930 0.051379
    3 15.693467 0.000000 0.000000 0.000000 0.000000 -1.184681
    4 22.146629 0.000000 0.000000 0.098492 -0.087127 0.350279
    5 0.000008 -0.000006 -5.615750 0.022451 3.043141 0.871278
    6 15.693467 0.000000 0.000000 0.000000 0.000000 -0.808374
    7 22.146629 0.000000 0.000000 -0.023604 0.098272 0.796114
    8 1.384163 -0.004728 0.000002 -0.532871 -0.100726 0.282843
    9 5.939814 -0.004730 0.000000 -0.095373 -0.036877 0.121349
    10 5.939809 -0.003975 0.000000 -0.159592 -0.070613 0.068013
    11 4.991439 -0.003975 0.000000 -0.087226 0.060312 0.042835
    12 4.991436 -0.001575 0.000000 0.000000 0.000000 0.000000
    13 0.000005 0.001564 3.638375 -0.000010 -1.283530 3.140806
    14 6.703436 0.000000 0.000000 -0.116289 -0.832283 -0.685819
    15 10.007079 0.000000 0.000002 0.000000 0.000000 -1.479815
    16 9.664095 -0.000001 -0.000002 -3.842282 0.020992 0.166181
    17 0.000005 0.001585 -3.638375 0.149514 1.078267 3.272702
    18 6.703436 0.000000 -0.000001 -0.007674 -0.135207 -2.119452
    19 10.007080 0.000000 -0.000002 0.000000 0.000000 -1.030420
    20 9.664097 -0.000001 0.000001 2.852696 0.145984 0.552511
    21 1.977383 0.000000 0.000000 0.672006 0.234980 0.155536
    22 6.829860 -0.000001 0.000000 0.001241 0.000000 0.000000
    23 -4.603199 -0.446935 0.691439 -1.751612 -0.047171 1.544023
    24 -6.751354 0.809404 1.239717 0.422884 1.599155 -1.196952
  time 5
    0 1.255170 -15.222423 31.557306 0.004662 -0.881272 -1.574469
    1 -4.233185 -0.773460 9.745319 -1.570795 -1.570451 0.000000
    2 -0.000007 0.000010 5.615750 -0.001916 3.294021 0.055691
    3 15.693467 0.000000 0.000000 0.000000 0.000000 -1.178755
    4 22.146629 0.000000 0.000000 0.113795 -0.101743 0.347193
    5 0.000008 -0.000006 -5.615750 0.017674 3.062409 0.873721
    6 15.693467 0.000000 0.000000 0.000000 0.000000 -0.807731
    7 22.146629 0.000000 0.000000 -0.018406 0.079062 0.798735
    8 1.384163 -0.004728 0.000002 -0.521337 -0.104062 0.281632
    9 5.939814 -0.004730 0.000000 -0.095170 -0.035307 0.137718
    10 5.939809 -0.003975 0.000000 -0.149206 -0.069630 0.078540
    11 4.991439 -0.003975 0.000000 -0.087226 0.060312 0.042850
    12 4.991436 -0.001575 0.000000 0.000000 0.000000 0.000000
    13 0.000005 0.001564 3.638375 -0.000010 -1.283530 3.140806
    14 6.703436 0.000000 0.000000 -0.062495 -0.844848 -0.778849
    15 10.007079 0.000000 0.000002 0.000000 0.000000 -1.376516
    16 9.664095 -0.000001 -0.000002 -3.838257 0.009267 0.109970
    17 0.000005 0.001585 -3.638375 0.125511 1.079653 3.251634
    18 6.703436 0.000000 -0.000001 -0.014222 -0.102023 -2.125679
    19 10.007080 0.000000 -0.000002 0.000000 0.000000 -0.990861
    20 9.664097 -0.000001 0.000001 2.850751 0.146658 0.540636
    21 1.977383 0.000000 0.000000 0.648474 0.255899 0.117021
    22 6.829860 -0.000001 0.000000 0.001241 0.000000 0.000000
    23 -4.603199 -0.446935 0.691439 -1.751612 -0.047171 1.544023
    24 -6.751354 0.809404 1.239717 0.422884 1.599155 -1.196952
  time 6
    0 1.317672 -15.425554 31.647152 0.004662 -0.881272 -1.574469
    1 -4.307406 -0.765647 9.745319 -1.570795 -1.570451 0.000000
    2 -0.000007 0.000010 5.615750 -0.002492 3.291433 0.061152
    3 15.693467 0.000000 0.000000 0.000000 0.000000 -1.178486
    4 22.146629 0.000000 0.000000 0.111728 -0.100166 0.352560
    5 0.000008 -0.000006 -5.615750 0.019107 3.060108 0.885936
    6 15.693467 0.000000 0.000000 0.000000 0.000000 -0.793359
    7 22.146629 0.000000 0.000000 -0.018790 0.081646 0.796478
    8 1.384163 -0.004728 0.000002 -0.505015 -0.108742 0.279902
    9 5.939814 -0.004730 0.000000 -0.094942 -0.033749 0.154125
    10 5.939809 -0.003975 0.000000 -0.139164 -0.068887 0.088758
    11 4.991439 -0.003975 0.000000 -0.087226 0.060312 0.042835
    12 4.991436 -0.001575 0.000000 0.000000 0.000000 0.000000
    13 0.000005 0.001564 3.638375 -0.000010 -1.283530 3.140806
    14 6.703436 0.000000 0.000000 0.014992 -0.849947 -0.898470
    15 10.007079 0.000000 0.000002 0.000000 0.000000 -1.252690
    16 9.664095 -0.000001 -0.000002 -3.833464 -0.005673 0.044907
    17 0.000005 0.001585 -3.638375 0.102266 1.080748 3.231040
    18 6.703436 0.000000 -0.000001 -0.021235 -0.069797 -2.127039
    19 10.007080 0.000000 -0.000002 0.000000 0.000000 -0.952225
    20 9.664097 -0.000001 0.000001 2.848903 0.147331 0.529164
    21 1.977383 0.000000 0.000000 0.620437 0.277616 0.079212
    22 6.829860 -0.000001 0.000000 0.001241 0.000000 0.000000
    23 -4.603199 -0.446935 0.691439 -1.751612 -0.047171 1.544023
    24 -6.751354 0.809404 1.239717 0.422884 1.599155 -1.196952
  time 7
    0 1.411425 -15.573996 31.744811 0.004662 -0.881272 -1.574469
    1 -4.381627 -0.761741 9.745319 -1.570795 -1.570451 0.000000
    2 -0.000007 0.000010 5.615750 -0.003163 3.287694 0.065942
    3 15.693467 0.000000 0.000000 0.000000 0.000000 -1.176601
    4 22.146629 0.000000 0.000000 0.108900 -0.097648 0.355712
    5 0.000008 -0.000006 -5.615750 0.020731 3.056753 0.895403
    6 15.693467 0.000000 0.000000 0.000000 0.000000 -0.780834
    7 22.146629 0.000000 0.000000 -0.019599 0.085115 0.793202
    8 1.384163 -0.004728 0.000002 -0.489032 -0.113297 0.278129
    9 5.939814 -0.004730 0.000000 -0.094690 -0.032263 0.169805
    10 5.939809 -0.003975 0.000000 -0.129605 -0.068372 0.098521
    11 4.991439 -0.003975 0.000000 -0.087226 0.060312 0.042835
    12 4.991436 -0.001575 0.000000 0.000000 0.000000 0.000000
    13 0.000005 0.001564 3.638375 -0.000010 -1.283530 3.140806
    14 6.703436 0.000000 0.000000 0.096947 -0.849856 -1.022264
    15 10.007079 0.000000 0.000002 0.000000 0.000000 -1.122705
    16 9.664095 -0.000001 -0.000002 -3.829343 -0.019573 -0.023565
    17 0.000005 0.001585 -3.638375 0.079970 1.081599 3.211395
    18 6.703436 0.000000 -0.000001 -0.028511 -0.039165 -2.128327
    19 10.007080 0.000000 -0.000002 0.000000 0.000000 -0.915278
    20 9.664097 -0.000001 0.000001 2.847104 0.147925 0.518266
    21 1.977383 0.000000 0.000000 0.592584 0.297737 0.042311
    22 6.829860 -0.000001 0.000000 0.001241 0.000000 0.000000
    23 -4.603199 -0.446935 0.691439 -1.751612 -0.047171 1.544023
    24 -6.751354 0.809404 1.239717 0.422884 1.599155 -1.196952
  time 8
    0 1.505177 -15.699000 31.842471 0.004662 -0.881272 -1.574469
    1 -4.448036 -0.757835 9.745319 -1.570795 -1.570451 0.000000
    2 -0.000007 0.000010 5.615750 -0.003738 3.284051 0.070733
    3 15.693467 0.000000 0.000000 0.000000 0.000000 -1.173840
    4 22.146629 0.000000 0.000000 0.106180 -0.095247 0.357926
    5 0.000008 -0.000006 -5.615750 0.022260 3.053782 0.904310
    6 15.693467 0.000000 0.000000 0.000000 0.000000 -0.768388
    7 22.146629 0.000000 0.000000 -0.020366 0.088320 0.789489
    8 1.384163 -0.004728 0.000002 -0.473992 -0.117547 0.276399
    9 5.939814 -0.004730 0.000000 -0.094439 -0.030860 0.184491
    10 5.939809 -0.003975 0.000000 -0.120638 -0.068072 0.107665
    11 4.991439 -0.003975 0.000000 -0.087226 0.060312 0.042835
    12 4.991436 -0.001575 0.000000 0.000000 0.000000 0.000000
    13 0.000005 0.001564 3.638375 -0.000010 -1.283530 3.140806
    14 6.703436 0.000000 0.000000 0.180607 -0.844028 -1.147204
    15 10.007079 0.000000 0.000002 0.000000 0.000000 -0.987875
    16 9.664095 -0.000001 -0.000002 -3.825797 -0.032077 -0.094796
    17 0.000005 0.001585 -3.638375 0.059098 1.082207 3.192984
    18 6.703436 0.000000 -0.000001 -0.035854 -0.010576 -2.129830
    19 10.007080 0.000000 -0.000002 0.000000 0.000000 -0.880712
    20 9.664097 -0.000001 0.000001 2.845402 0.148479 0.508031
    21 1.977383 0.000000 0.000000 0.565834 0.315861 0.006925
    22 6.829860 -0.000001 0.000000 0.001241 0.000000 0.000000
    23 -4.603199 -0.446935 0.691439 -1.751612 -0.047171 1.544023
    24 -6.751354 0.809404 1.239717 0.422884 1.599155 -1.196952
  time 9
    0 1.595024 -15.824004 31.940130 0.004662 -0.881272 -1.574469
    1 -4.510538 -0.761741 9.745319 -1.570795 -1.570451 0.000000
    2 -0.000007 0.000010 5.615750 -0.004313 3.280408 0.075619
    3 15.693467 0.000000 0.000000 0.000000 0.000000 -1.171012
    4 22.146629 0.000000 0.000000 0.103460 -0.092870 0.360274
    5 0.000008 -0.000006 -5.615750 0.023979 3.050810 0.913523
    6 15.693467 0.000000 0.000000 0.000000 0.000000 -0.755542
    7 22.146629 0.000000 0.000000 -0.021133 0.091502 0.785703
    8 1.384163 -0.004728 0.000002 -0.460257 -0.121402 0.274756
    9 5.939814 -0.004730 0.000000 -0.094199 -0.029602 0.197914
    10 5.939809 -0.003975 0.000000 -0.112469 -0.067941 0.116028
    11 4.991439 -0.003975 0.000000 -0.087226 0.060312 0.042835
    12 4.991436 -0.001575 0.000000 0.000000 0.000000 0.000000
    13 0.000005 0.001564 3.638375 -0.000010 -1.283530 3.140806
    14 6.703436 0.000000 0.000000 0.264090 -0.832009 -1.270999
    15 10.007079 0.000000 0.000002 0.000000 0.000000 -0.848776
    16 9.664095 -0.000001 -0.000002 -3.822825 -0.043087 -0.168173
    17 0.000005 0.001585 -3.638375 0.039933 1.082596 3.176091
    18 6.703436 0.000000 -0.000001 -0.043064 0.015461 -2.131477
    19 10.007080 0.000000 -0.000002 0.000000 0.000000 -0.849142
    20 9.664097 -0.000001 0.000001 2.843895 0.148994 0.498686
    21 1.977383 0.000000 0.000000 0.540923 0.331830 -0.025987
    22 6.829860 -0.000001 0.000000 0.001241 0.000000 0.000000
    23 -4.603199 -0.446935 0.691439 -1.751612 -0.047171 1.544023
    24 -6.751354 0.809404 1.239717 0.422884 1.599155 -1.196952
  time 10
    0 1.692683 -15.956820 32.022164 0.004662 -0.881272 -1.574469
    1 -4.565227 -0.765647 9.745319 -1.570795 -1.570451 0.000000
    2 -0.000007 0.000010 5.615750 -0.004697 3.276573 0.080505
    3 15.693467 0.000000 0.000000 0.000000 0.000000 -1.168925
    4 22.146629 0.000000 0.000000 0.100559 -0.090399 0.363225
    5 0.000008 -0.000006 -5.615750 0.025795 3.047742 0.923397
    6 15.693467 0.000000 0.000000 0.000000 0.000000 -0.742213
    7 22.146629 0.000000 0.000000 -0.021900 0.094875 0.782063
    8 1.384163 -0.004728 0.000002 -0.448215 -0.124756 0.273285
    9 5.939814 -0.004730 0.000000 -0.093959 -0.028487 0.209636
    10 5.939809 -0.003975 0.000000 -0.105334 -0.067941 0.123366
    11 4.991439 -0.003975 0.000000 -0.087226 0.060312 0.042835
    12 4.991436 -0.001575 0.000000 0.000000 0.000000 0.000000
    13 0.000005 0.001564 3.638375 -0.000010 -1.283530 3.140806
    14 6.703436 0.000000 0.000000 0.344634 -0.813526 -1.390211
    15 10.007079 0.000000 0.000002 0.000000 0.000000 -0.707048
    16 9.664095 -0.000001 -0.000002 -3.820333 -0.052474 -0.242470
    17 0.000005 0.001585 -3.638375 0.023140 1.082815 3.161286
    18 6.703436 0.000000 -0.000001 -0.049746 0.038243 -2.133266
    19 10.007080 0.000000 -0.000002 0.000000 0.000000 -0.821490
    20 9.664097 -0.000001 0.000001 2.842533 0.149390 0.490520
    21 1.977383 0.000000 0.000000 0.518678 0.345164 -0.055316
    22 6.829860 -0.000001 0.000000 0.001241 0.000000 0.000000
    23 -4.603199 -0.446935 0.691439 -1.751612 -0.047171 1.544023
    24 -6.751354 0.809404 1.239717 0.422884 1.599155 -1.196952
  time 11
    0 1.888002 -16.140419 32.084666 0.004662 -0.881272 -1.574469
    1 -4.608197 -0.769554 9.745319 -1.570795 -1.570451 0.000000
    2 -0.000007 0.000010 5.615750 -0.005080 3.269096 0.085583
    3 15.693467 0.000000 0.000000 0.000000 0.000000 -1.169396
    4 22.146629 0.000000 0.000000 0.094938 -0.085409 0.369330
    5 0.000008 -0.000006 -5.615750 0.028852 3.041320 0.936834
    6 15.693467 0.000000 0.000000 0.000000 0.000000 -0.725352
    7 22.146629 0.000000 0.000000 -0.023391 0.101693 0.778205
    8 1.384163 -0.004728 0.000002 -0.438325 -0.127499 0.272075
    9 5.939814 -0.004730 0.000000 -0.093767 -0.027589 0.219293
    10 5.939809 -0.003975 0.000000 -0.099466 -0.068013 0.129387
    11 4.991439 -0.003975 0.000000 -0.087226 0.060312 0.042835
    12 4.991436 -0.001575 0.000000 0.000000 0.000000 0.000000
    13 0.000005 0.001564 3.638375 -0.000010 -1.283530 3.140806
    14 6.703436 0.000000 0.000000 0.418770 -0.789397 -1.500423
    15 10.007079 0.000000 0.000002 0.000000 0.000000 -0.566717
    16 9.664095 -0.000001 -0.000002 -3.818512 -0.059976 -0.315502
    17 0.000005 0.001585 -3.638375 0.009383 1.082912 3.149138
    18 6.703436 0.000000 -0.000001 -0.055567 0.056877 -2.134841
    19 10.007080 0.000000 -0.000002 0.000000 0.000000 -0.798830
    20 9.664097 -0.000001 0.000001 2.841414 0.149747 0.483792
    21 1.977383 0.000000 0.000000 0.500109 0.355783 -0.079798
    22 6.829860 -0.000001 0.000000 0.001241 0.000000 0.000000
    23 -4.603199 -0.446935 0.691439 -1.751612 -0.047171 1.544023
    24 -6.751354 0.809404 1.239717 0.422884 1.599155 -1.196952
  time 12
    0 2.665369 -16.156045 32.119823 0.004662 -0.881272 -1.574469
    1 -4.639448 -0.773460 9.745319 -1.570795 -1.570451 0.000000
    2 -0.000007 0.000010 5.615750 -0.005655 3.238034 0.083859
    3 15.693467 0.000000 0.000000 0.000000 0.000000 -1.174783
    4 22.146629 0.000000 0.000000 0.073107 -0.063239 0.374763
    5 0.000008 -0.000006 -5.615750 0.037545 3.014191 0.942993
    6 15.693467 0.000000 0.000000 0.000000 0.000000 -0.713549
    7 22.146629 0.000000 0.000000 -0.029910 0.129394 0.770852
    8 1.384163 -0.004728 0.000002 -0.431530 -0.129382 0.271166
    9 5.939814 -0.004730 0.000000 -0.093624 -0.026965 0.225909
    10 5.939809 -0.003975 0.000000 -0.095444 -0.068108 0.133519
    11 4.991439 -0.003975 0.000000 -0.087226 0.060312 0.042835
    12 4.991436 -0.001575 0.000000 0.000000 0.000000 0.000000
    13 0.000005 0.001564 3.638375 -0.000010 -1.283530 3.140806
    14 6.703436 0.000000 0.000000 0.481265 -0.765450 -1.588380
    15 10.007079 0.000000 0.000002 0.000000 0.000000 -0.446996
    16 9.664095 -0.000001 -0.000002 -3.820717 -0.067348 -0.377001
    17 0.000005 0.001585 -3.638375 -0.000010 1.082936 3.140787
    18 6.703436 0.000000 -0.000001 -0.059668 0.069576 -2.136058
    19 10.007080 0.000000 -0.000002 0.000000 0.000000 -0.783237
    20 9.664097 -0.000001 0.000001 2.840685 0.149945 0.479192
    21 1.977383 0.000000 0.000000 0.487194 0.362889 -0.096810
    22 6.829860 -0.000001 0.000000 0.001241 0.000000 0.000000
    23 -4.603199 -0.446935 0.691439 -1.751612 -0.047171 1.544023
    24 -6.751354 0.809404 1.239717 0.422884 1.599155 -1.196952
end
