version 1
nodes
  0 "Bip01" -1
  1 "Bip01 Pelvis" 0
  2 "Bip01 L Thigh" 1
  3 "Bip01 L Calf" 2
  4 "Bip01 L Foot" 3
  5 "Bip01 R Thigh" 1
  6 "Bip01 R Calf" 5
  7 "Bip01 R Foot" 6
  8 "Bip01 Spine" 1
  9 "Bip01 Spine1" 8
  10 "Bip01 Spine2" 9
  11 "Bip01 Spine3" 10
  12 "Bip01 Neck" 11
  13 "Bip01 L Clavicle" 12
  14 "Bip01 L UpperArm" 13
  15 "Bip01 L Forearm" 14
  16 "Bip01 L Hand" 15
  17 "Bip01 R Clavicle" 12
  18 "Bip01 R UpperArm" 17
  19 "Bip01 R Forearm" 18
  20 "Bip01 R Hand" 19
  21 "Bip01 Head" 12
  22 "Bip01 R Finger0" 20
  23 "Line01" 22
  24 "w_m40a1" 22
end
skeleton
  time 0
    0 2.665369 8.172822 24.271927 0.003823 0.689368 -1.568348
    1 -4.639448 -0.773460 9.745319 -1.570795 -1.570451 0.000000
    2 -0.000007 0.000010 5.615750 -3.071342 6.248293 1.526944
    3 15.693467 0.000000 0.000000 0.000000 0.000000 -0.864781
    4 22.146629 0.000000 0.000000 -0.014469 -0.077054 -0.058579
    5 0.000008 -0.000006 -5.615750 -0.137373 3.109094 -1.192770
    6 15.693467 0.000000 0.000000 0.000000 0.000000 -1.146243
    7 22.146629 0.000000 0.000000 0.105112 0.094420 0.650150
    8 1.384163 -0.004728 0.000002 -0.431530 -0.129382 0.271166
    9 5.939814 -0.004730 0.000000 -0.093624 -0.026965 0.225909
    10 5.939809 -0.003975 0.000000 -0.095444 -0.068108 0.133519
    11 4.991439 -0.003975 0.000000 -0.087226 0.060312 0.042835
    12 4.991436 -0.001575 0.000000 0.000000 0.000000 0.000000
    13 0.000005 0.001564 3.638375 -0.000010 -1.283530 3.140806
    14 6.703436 0.000000 0.000000 0.317590 -0.802964 -1.342428
    15 10.007079 0.000000 0.000002 0.000000 0.000000 -0.705817
    16 9.664095 -0.000001 -0.000002 -4.373946 -0.030064 -0.484288
    17 0.000005 0.001585 -3.638375 -0.000010 1.082936 3.140787
    18 6.703436 0.000000 -0.000001 -0.047893 0.092677 -2.099554
    19 10.007080 0.000000 -0.000002 0.000000 0.000000 -0.849142
    20 9.664097 -0.000001 0.000001 2.837135 -0.187268 0.509928
    21 1.977383 0.000000 0.000000 0.487194 0.362889 -0.096810
    22 6.829860 -0.000001 0.000000 0.001241 0.000000 0.000000
    23 -4.603199 -0.446935 0.691439 -1.751612 -0.047171 1.544023
    24 -7.032613 1.114101 1.649886 1.377957 1.402704 -0.308004
  time 1
    0 2.665369 10.137726 24.502403 0.003357 0.506127 -1.569209
    1 -4.709762 -0.773460 9.745319 -1.570795 -1.570451 0.000000
    2 -0.000007 0.000010 5.615750 0.053306 3.189142 -1.302028
    3 15.693467 0.000000 0.000000 0.000000 0.000000 -0.490745
    4 22.146629 0.000000 0.000000 -0.003373 -0.071382 -0.303626
    5 0.000008 -0.000006 -5.615750 -0.130877 3.103726 -1.129403
    6 15.693467 0.000000 0.000000 0.000000 0.000000 -1.134922
    7 22.146629 0.000000 0.000000 0.084703 0.106908 0.518746
    8 1.384163 -0.004728 0.000002 -0.450536 -0.134098 0.275837
    9 5.939814 -0.004730 0.000000 -0.097770 -0.027744 0.233654
    10 5.939809 -0.003975 0.000000 -0.099590 -0.071045 0.133975
    11 4.991439 -0.003975 0.000000 -0.091001 0.062897 0.042506
    12 4.991436 -0.001575 0.000000 0.000000 0.000000 0.000000
    13 0.000005 0.001564 3.638375 -0.000010 -1.283530 3.140806
    14 6.703436 0.000000 0.000000 0.157972 -0.770185 -1.026110
    15 10.007079 0.000000 0.000002 0.000000 0.000000 -1.232901
    16 9.664095 -0.000001 -0.000002 -4.373946 -0.030064 -0.484288
    17 0.000005 0.001585 -3.638375 -0.000010 1.082936 3.140787
    18 6.703436 0.000000 -0.000001 -0.084078 0.020311 -1.783687
    19 10.007080 0.000000 -0.000002 0.000000 0.000000 -1.549288
    20 9.664097 -0.000001 0.000001 2.827847 -0.303698 0.548083
    21 1.977383 0.000000 0.000000 0.511094 0.376702 -0.089440
    22 6.829860 -0.000001 0.000000 0.001241 0.000000 0.000000
    23 -4.603199 -0.446935 0.691439 -1.751612 -0.047171 1.544023
    24 -7.032613 1.114101 1.649886 1.377957 1.402704 -0.308004
  time 2
    0 2.665369 10.864311 24.131298 0.003263 0.447585 -1.569400
    1 -4.737107 -0.773460 9.745319 -1.570795 -1.570451 0.000000
    2 -0.000007 0.000010 5.615750 0.048608 3.191922 -1.222123
    3 15.693467 0.000000 0.000000 0.000000 0.000000 -0.391563
    4 22.146629 0.000000 0.000000 0.000471 -0.070017 -0.381708
    5 0.000008 -0.000006 -5.615750 -0.130686 3.104301 -1.138005
    6 15.693467 0.000000 0.000000 0.000000 0.000000 -1.173141
    7 22.146629 0.000000 0.000000 0.077460 0.111812 0.489626
    8 1.384163 -0.004728 0.000002 -0.457936 -0.135910 0.277653
    9 5.939814 -0.004730 0.000000 -0.099376 -0.028044 0.236656
    10 5.939809 -0.003975 0.000000 -0.101202 -0.072171 0.134154
    11 4.991439 -0.003975 0.000000 -0.092469 0.063910 0.042372
    12 4.991436 -0.001575 0.000000 0.000000 0.000000 0.000000
    13 0.000005 0.001564 3.638375 -0.000010 -1.283530 3.140806
    14 6.703436 0.000000 0.000000 0.141981 -0.805969 -1.025865
    15 10.007079 0.000000 0.000002 0.000000 0.000000 -1.223950
    16 9.664095 -0.000001 -0.000002 -4.373946 -0.030064 -0.484288
    17 0.000005 0.001585 -3.638375 -0.000010 1.082936 3.140787
    18 6.703436 0.000000 -0.000001 -0.074552 0.024650 -1.797859
    19 10.007080 0.000000 -0.000002 0.000000 0.000000 -1.549672
    20 9.664097 -0.000001 0.000001 2.833099 -0.245562 0.528732
    21 1.977383 0.000000 0.000000 0.520516 0.381972 -0.086411
    22 6.829860 -0.000001 0.000000 0.001241 0.000000 0.000000
    23 -4.603199 -0.446935 0.691439 -1.751612 -0.047171 1.544023
    24 -7.032613 1.114101 1.649886 1.377957 1.402704 -0.308004
  time 3
    0 2.665369 10.965876 23.764099 0.003263 0.445015 -1.569400
    1 -4.733201 -0.773460 9.745319 -1.570795 -1.570451 0.000000
    2 -0.000007 0.000010 5.615750 0.051005 3.190388 -1.265525
    3 15.693467 0.000000 0.000000 0.000000 0.000000 -0.455866
    4 22.146629 0.000000 0.000000 0.000870 -0.070606 -0.363328
    5 0.000008 -0.000006 -5.615750 -0.132501 3.106410 -1.161367
    6 15.693467 0.000000 0.000000 0.000000 0.000000 -1.208871
    7 22.146629 0.000000 0.000000 0.077332 0.113391 0.499308
    8 1.384163 -0.004728 0.000002 -0.456872 -0.135658 0.277394
    9 5.939814 -0.004730 0.000000 -0.099149 -0.028008 0.236235
    10 5.939809 -0.003975 0.000000 -0.100968 -0.072015 0.134138
    11 4.991439 -0.003975 0.000000 -0.092260 0.063759 0.042387
    12 4.991436 -0.001575 0.000000 0.000000 0.000000 0.000000
    13 0.000005 0.001564 3.638375 -0.000010 -1.283530 3.140806
    14 6.703436 0.000000 0.000000 0.168848 -0.839840 -1.099503
    15 10.007079 0.000000 0.000002 0.000000 0.000000 -1.104722
    16 9.664095 -0.000001 -0.000002 -4.373946 -0.030064 -0.484288
    17 0.000005 0.001585 -3.638375 -0.000010 1.082936 3.140787
    18 6.703436 0.000000 -0.000001 -0.058411 0.043603 -1.871726
    19 10.007080 0.000000 -0.000002 0.000000 0.000000 -1.399888
    20 9.664097 -0.000001 0.000001 2.837622 -0.178951 0.507283
    21 1.977383 0.000000 0.000000 0.519137 0.381173 -0.086815
    22 6.829860 -0.000001 0.000000 0.001241 0.000000 0.000000
    23 -4.603199 -0.446935 0.691439 -1.751612 -0.047171 1.544023
    24 -7.032613 1.114101 1.649886 1.377957 1.402704 -0.308004
  time 4
    0 2.665369 10.473674 23.744567 0.003357 0.488992 -1.569304
    1 -4.709762 -0.773460 9.745319 -1.570795 -1.570451 0.000000
    2 -0.000007 0.000010 5.615750 0.056086 3.187033 -1.355203
    3 15.693467 0.000000 0.000000 0.000000 0.000000 -0.571545
    4 22.146629 0.000000 0.000000 -0.001741 -0.072253 -0.293228
    5 0.000008 -0.000006 -5.615750 -0.134125 3.107848 -1.174549
    6 15.693467 0.000000 0.000000 0.000000 0.000000 -1.210638
    7 22.146629 0.000000 0.000000 0.082914 0.110879 0.531995
    8 1.384163 -0.004728 0.000002 -0.450536 -0.134098 0.275837
    9 5.939814 -0.004730 0.000000 -0.097770 -0.027744 0.233654
    10 5.939809 -0.003975 0.000000 -0.099590 -0.071045 0.133975
    11 4.991439 -0.003975 0.000000 -0.091001 0.062897 0.042506
    12 4.991436 -0.001575 0.000000 0.000000 0.000000 0.000000
    13 0.000005 0.001564 3.638375 -0.000010 -1.283530 3.140806
    14 6.703436 0.000000 0.000000 0.203359 -0.838929 -1.160950
    15 10.007079 0.000000 0.000002 0.000000 0.000000 -1.011688
    16 9.664095 -0.000001 -0.000002 -4.373946 -0.030064 -0.484288
    17 0.000005 0.001585 -3.638375 -0.000010 1.082936 3.140787
    18 6.703436 0.000000 -0.000001 -0.053186 0.056239 -1.923189
    19 10.007080 0.000000 -0.000002 0.000000 0.000000 -1.274069
    20 9.664097 -0.000001 0.000001 2.838156 -0.168932 0.504120
    21 1.977383 0.000000 0.000000 0.511094 0.376702 -0.089440
    22 6.829860 -0.000001 0.000000 0.001241 0.000000 0.000000
    23 -4.603199 -0.446935 0.691439 -1.751612 -0.047171 1.544023
    24 -7.032613 1.114101 1.649886 1.377957 1.402704 -0.308004
  time 5
    0 2.665369 9.754902 23.853946 0.003450 0.551913 -1.569017
    1 -4.678511 -0.773460 9.745319 -1.570795 -1.570451 0.000000
    2 -0.000007 0.000010 5.615750 0.061551 3.183294 -1.452066
    3 15.693467 0.000000 0.000000 0.000000 0.000000 -0.687964
    4 22.146629 0.000000 0.000000 -0.005657 -0.074159 -0.210585
    5 0.000008 -0.000006 -5.615750 -0.135654 3.108806 -1.184169
    6 15.693467 0.000000 0.000000 0.000000 0.000000 -1.198513
    7 22.146629 0.000000 0.000000 0.090541 0.106310 0.573346
    8 1.384163 -0.004728 0.000002 -0.442097 -0.132018 0.273761
    9 5.939814 -0.004730 0.000000 -0.095925 -0.027409 0.230212
    10 5.939809 -0.003975 0.000000 -0.097744 -0.069738 0.133780
    11 4.991439 -0.003975 0.000000 -0.089323 0.061748 0.042656
    12 4.991436 -0.001575 0.000000 0.000000 0.000000 0.000000
    13 0.000005 0.001564 3.638375 -0.000010 -1.283530 3.140806
    14 6.703436 0.000000 0.000000 0.242925 -0.827730 -1.226325
    15 10.007079 0.000000 0.000002 0.000000 0.000000 -0.911182
    16 9.664095 -0.000001 -0.000002 -4.373946 -0.030064 -0.484288
    17 0.000005 0.001585 -3.638375 -0.000010 1.082936 3.140787
    18 6.703436 0.000000 -0.000001 -0.050672 0.069066 -1.977086
    19 10.007080 0.000000 -0.000002 0.000000 0.000000 -1.135039
    20 9.664097 -0.000001 0.000001 2.837962 -0.172338 0.505213
    21 1.977383 0.000000 0.000000 0.500431 0.370634 -0.092822
    22 6.829860 -0.000001 0.000000 0.001241 0.000000 0.000000
    23 -4.603199 -0.446935 0.691439 -1.751612 -0.047171 1.544023
    24 -7.032613 1.114101 1.649886 1.377957 1.402704 -0.308004
  time 6
    0 2.665369 8.938471 24.053170 0.003636 0.622544 -1.568730
    1 -4.651167 -0.773460 9.745319 -1.570795 -1.570451 0.000000
    2 -0.000007 0.000010 5.615750 0.066344 3.179555 -1.540977
    3 15.693467 0.000000 0.000000 0.000000 0.000000 -0.787549
    4 22.146629 0.000000 0.000000 -0.010190 -0.075830 -0.129148
    5 0.000008 -0.000006 -5.615750 -0.136705 3.109190 -1.189666
    6 15.693467 0.000000 0.000000 0.000000 0.000000 -1.174747
    7 22.146629 0.000000 0.000000 0.098380 0.100449 0.614842
    8 1.384163 -0.004728 0.000002 -0.434698 -0.130171 0.271945
    9 5.939814 -0.004730 0.000000 -0.094319 -0.027097 0.227190
    10 5.939809 -0.003975 0.000000 -0.096133 -0.068600 0.133601
    11 4.991439 -0.003975 0.000000 -0.087855 0.060736 0.042790
    12 4.991436 -0.001575 0.000000 0.000000 0.000000 0.000000
    13 0.000005 0.001564 3.638375 -0.000010 -1.283530 3.140806
    14 6.703436 0.000000 0.000000 0.282021 -0.813344 -1.288590
    15 10.007079 0.000000 0.000002 0.000000 0.000000 -0.807801
    16 9.664095 -0.000001 -0.000002 -4.373946 -0.030064 -0.484288
    17 0.000005 0.001585 -3.638375 -0.000010 1.082936 3.140787
    18 6.703436 0.000000 -0.000001 -0.049481 0.081318 -2.035350
    19 10.007080 0.000000 -0.000002 0.000000 0.000000 -0.990785
    20 9.664097 -0.000001 0.000001 2.837476 -0.181169 0.508002
    21 1.977383 0.000000 0.000000 0.491147 0.365205 -0.095598
    22 6.829860 -0.000001 0.000000 0.001241 0.000000 0.000000
    23 -4.603199 -0.446935 0.691439 -1.751612 -0.047171 1.544023
    24 -7.032613 1.114101 1.649886 1.377957 1.402704 -0.308004
  time 7
    0 2.665369 8.172822 24.271927 0.003823 0.689368 -1.568348
    1 -4.639448 -0.773460 9.745319 -1.570795 -1.570451 0.000000
    2 -0.000007 0.000010 5.615750 -3.071342 6.248293 1.526944
    3 15.693467 0.000000 0.000000 0.000000 0.000000 -0.864781
    4 22.146629 0.000000 0.000000 -0.014469 -0.077054 -0.058579
    5 0.000008 -0.000006 -5.615750 -0.137373 3.109094 -1.192770
    6 15.693467 0.000000 0.000000 0.000000 0.000000 -1.146243
    7 22.146629 0.000000 0.000000 0.105112 0.094420 0.650150
    8 1.384163 -0.004728 0.000002 -0.431530 -0.129382 0.271166
    9 5.939814 -0.004730 0.000000 -0.093624 -0.026965 0.225909
    10 5.939809 -0.003975 0.000000 -0.095444 -0.068108 0.133519
    11 4.991439 -0.003975 0.000000 -0.087226 0.060312 0.042835
    12 4.991436 -0.001575 0.000000 0.000000 0.000000 0.000000
    13 0.000005 0.001564 3.638375 -0.000010 -1.283530 3.140806
    14 6.703436 0.000000 0.000000 0.317590 -0.802964 -1.342428
    15 10.007079 0.000000 0.000002 0.000000 0.000000 -0.705817
    16 9.664095 -0.000001 -0.000002 -4.373946 -0.030064 -0.484288
    17 0.000005 0.001585 -3.638375 -0.000010 1.082936 3.140787
    18 6.703436 0.000000 -0.000001 -0.047893 0.092677 -2.099554
    19 10.007080 0.000000 -0.000002 0.000000 0.000000 -0.849142
    20 9.664097 -0.000001 0.000001 2.837135 -0.187268 0.509928
    21 1.977383 0.000000 0.000000 0.487194 0.362889 -0.096810
    22 6.829860 -0.000001 0.000000 0.001241 0.000000 0.000000
    23 -4.603199 -0.446935 0.691439 -1.751612 -0.047171 1.544023
    24 -7.032613 1.114101 1.649886 1.377957 1.402704 -0.308004
end
