version 1
nodes
  0 "Bip01" -1
  1 "Bip01 Pelvis" 0
  2 "Bip01 L Thigh" 1
  3 "Bip01 L Calf" 2
  4 "Bip01 L Foot" 3
  5 "Bip01 R Thigh" 1
  6 "Bip01 R Calf" 5
  7 "Bip01 R Foot" 6
  8 "Bip01 Spine" 1
  9 "Bip01 Spine1" 8
  10 "Bip01 Spine2" 9
  11 "Bip01 Spine3" 10
  12 "Bip01 Neck" 11
  13 "Bip01 L Clavicle" 12
  14 "Bip01 L UpperArm" 13
  15 "Bip01 L Forearm" 14
  16 "Bip01 L Hand" 15
  17 "Bip01 R Clavicle" 12
  18 "Bip01 R UpperArm" 17
  19 "Bip01 R Forearm" 18
  20 "Bip01 R Hand" 19
  21 "Bip01 Head" 12
  22 "Bip01 R Finger0" 20
  23 "Line01" 22
  24 "w_m40a1" 22
end
skeleton
  time 0
    0 2.665369 -4.858825 25.486808 0.002890 -0.095857 -1.571121
    1 -4.639448 -0.773460 9.745319 -1.570795 -1.570451 0.000000
    2 -0.000007 0.000010 5.615750 0.027037 3.211575 -0.786093
    3 15.693467 0.000000 0.000000 0.000000 0.000000 -1.056949
    4 22.146629 0.000000 0.000000 0.036844 -0.065357 0.174594
    5 0.000008 -0.000006 -5.615750 -0.054070 3.055315 -0.135832
    6 15.693467 0.000000 0.000000 0.000000 0.000000 -0.965987
    7 22.146629 0.000000 0.000000 0.032935 0.096382 0.738165
    8 1.384163 -0.004728 0.000002 -0.431530 -0.129382 0.271166
    9 5.939814 -0.004730 0.000000 -0.093624 -0.026965 0.225909
    10 5.939809 -0.003975 0.000000 -0.095444 -0.068108 0.133519
    11 4.991439 -0.003975 0.000000 -0.087226 0.060312 0.042835
    12 4.991436 -0.001575 0.000000 0.000000 0.000000 0.000000
    13 0.000005 0.001564 3.638375 0.579253 -1.231436 2.588178
    14 6.703436 0.000000 0.000000 -0.478325 -0.656006 -0.985773
    15 10.007079 0.000000 0.000002 0.000000 0.000000 -0.558259
    16 9.664095 -0.000001 -0.000002 -0.855590 0.447722 -0.269713
    17 0.000005 0.001585 -3.638375 -0.000010 1.072699 3.140787
    18 6.703436 0.000000 -0.000001 -0.100285 -0.017149 -2.145864
    19 10.007080 0.000000 -0.000002 0.000000 0.000000 -0.738840
    20 9.664097 -0.000001 0.000001 2.797017 0.042108 0.489830
    21 1.977383 0.000000 0.000000 0.625631 0.301490 -0.285350
    22 6.829860 -0.000001 0.000000 0.001241 0.000000 0.000000
    23 -4.603199 -0.446935 0.691439 -1.751612 -0.047171 1.544023
    24 -6.751354 0.809404 1.239717 0.422884 1.599155 -1.196952
  time 1
    0 2.813811 -4.784604 23.424245 0.002424 -0.097665 -1.590631
    1 -4.866017 -0.660175 9.745319 -1.570795 -1.570451 0.000000
    2 -0.000007 0.000010 5.615750 0.034802 3.206110 -0.918598
    3 15.693467 0.000000 0.000000 0.000000 0.000000 -1.233968
    4 22.146629 0.000000 0.000000 0.041304 -0.063639 0.219337
    5 0.000008 -0.000006 -5.615750 -0.076997 3.049084 -0.240019
    6 15.693467 0.000000 0.000000 0.000000 0.000000 -1.150178
    7 22.146629 0.000000 0.000000 0.041159 0.112601 0.820138
    8 1.384163 -0.004728 0.000002 -0.385660 -0.112185 0.291622
    9 5.939814 -0.004730 0.000000 -0.093624 -0.026965 0.225909
    10 5.939809 -0.003975 0.000000 -0.100637 -0.067497 0.148521
    11 4.991439 -0.003975 0.000000 -0.058492 0.060285 0.042850
    12 4.991436 -0.001575 0.000000 0.000000 0.000000 0.000000
    13 0.000005 0.001564 3.638375 0.579253 -1.231436 2.588178
    14 6.703436 0.000000 0.000000 -0.672924 -0.376840 -0.711265
    15 10.007079 0.000000 0.000002 0.000000 0.000000 -0.658437
    16 9.664095 -0.000001 -0.000002 -0.855590 0.447722 -0.269713
    17 0.000005 0.001585 -3.638375 -0.000010 1.072699 3.140787
    18 6.703436 0.000000 -0.000001 0.052789 -0.063287 -1.848463
    19 10.007080 0.000000 -0.000002 0.000000 0.000000 -0.790765
    20 9.664097 -0.000001 0.000001 2.562923 0.047731 0.452193
    21 1.977383 0.000000 0.000000 0.552552 0.289273 -0.328257
    22 6.829860 -0.000001 0.000000 0.001241 0.000000 0.000000
    23 -4.603199 -0.446935 0.691439 -1.751612 -0.047171 1.544023
    24 -6.751354 0.809404 1.239717 0.422884 1.599155 -1.196952
  time 2
    0 3.313826 -4.620537 21.021828 -0.001119 -0.101663 -1.607081
    1 -5.116025 -0.558610 9.745319 -1.570795 -1.570451 0.000000
    2 -0.000007 0.000010 5.615750 0.042664 3.197770 -1.077738
    3 15.693467 0.000000 0.000000 0.000000 0.000000 -1.445866
    4 22.146629 0.000000 0.000000 0.045076 -0.061074 0.272264
    5 0.000008 -0.000006 -5.615750 -0.105561 3.044579 -0.366601
    6 15.693467 0.000000 0.000000 0.000000 0.000000 -1.372105
    7 22.146629 0.000000 0.000000 0.048956 0.133653 0.918127
    8 1.384163 -0.004728 0.000002 -0.331713 -0.094361 0.315061
    9 5.939814 -0.004730 0.000000 -0.093624 -0.026965 0.225909
    10 5.939809 -0.003975 0.000000 -0.106243 -0.066730 0.164776
    11 4.991439 -0.003975 0.000000 -0.023187 0.060257 0.042850
    12 4.991436 -0.001575 0.000000 0.000000 0.000000 0.000000
    13 0.000005 0.001564 3.638375 0.579253 -1.231436 2.588178
    14 6.703436 0.000000 0.000000 -0.752116 0.005851 -0.478731
    15 10.007079 0.000000 0.000002 0.000000 0.000000 -0.774874
    16 9.664095 -0.000001 -0.000002 -0.855590 0.447722 -0.269713
    17 0.000005 0.001585 -3.638375 -0.000010 1.072699 3.140787
    18 6.703436 0.000000 -0.000001 0.231860 -0.164180 -1.526083
    19 10.007080 0.000000 -0.000002 0.000000 0.000000 -0.842306
    20 9.664097 -0.000001 0.000001 2.295908 0.045078 0.410962
    21 1.977383 0.000000 0.000000 0.463891 0.275860 -0.383279
    22 6.829860 -0.000001 0.000000 0.001241 0.000000 0.000000
    23 -4.603199 -0.446935 0.691439 -1.751612 -0.047171 1.544023
    24 -6.751354 0.809404 1.239717 0.422884 1.599155 -1.196952
  time 3
    0 3.809935 -4.452563 19.224898 -0.004569 -0.105756 -1.624774
    1 -5.377752 -0.472670 9.745319 -1.570795 -1.570451 0.000000
    2 -0.000007 0.000010 5.615750 0.049087 3.189909 -1.209572
    3 15.693467 0.000000 0.000000 0.000000 0.000000 -1.619990
    4 22.146629 0.000000 0.000000 0.033761 -0.060062 0.314592
    5 0.000008 -0.000006 -5.615750 -0.128489 3.044579 -0.473995
    6 15.693467 0.000000 0.000000 0.000000 0.000000 -1.557821
    7 22.146629 0.000000 0.000000 0.056710 0.150661 0.998425
    8 1.384163 -0.004728 0.000002 -0.275155 -0.077092 0.340575
    9 5.939814 -0.004730 0.000000 -0.093624 -0.026965 0.225909
    10 5.939809 -0.003975 0.000000 -0.112125 -0.065831 0.181812
    11 4.991439 -0.003975 0.000000 0.013423 0.060230 0.042850
    12 4.991436 -0.001575 0.000000 0.000000 0.000000 0.000000
    13 0.000005 0.001564 3.638375 0.579253 -1.231436 2.588178
    14 6.703436 0.000000 0.000000 -0.710492 0.408666 -0.242107
    15 10.007079 0.000000 0.000002 0.000000 0.000000 -0.896155
    16 9.664095 -0.000001 -0.000002 -0.855590 0.447722 -0.269713
    17 0.000005 0.001585 -3.638375 -0.000010 1.072699 3.140787
    18 6.703436 0.000000 -0.000001 0.415892 -0.324165 -1.231689
    19 10.007080 0.000000 -0.000002 0.000000 0.000000 -0.896766
    20 9.664097 -0.000001 0.000001 2.017611 0.030623 0.370047
    21 1.977383 0.000000 0.000000 0.373393 0.257336 -0.438352
    22 6.829860 -0.000001 0.000000 0.001241 0.000000 0.000000
    23 -4.603199 -0.446935 0.691439 -1.751612 -0.047171 1.544023
    24 -6.751354 0.809404 1.239717 0.422884 1.599155 -1.196952
  time 4
    0 3.931033 -4.378342 18.310808 -0.004569 -0.107565 -1.648014
    1 -5.639478 -0.394542 9.745319 -1.570795 -1.570451 0.000000
    2 -0.000007 0.000010 5.615750 0.051868 3.183773 -1.268782
    3 15.693467 0.000000 0.000000 0.000000 0.000000 -1.692844
    4 22.146629 0.000000 0.000000 -0.017334 -0.059426 0.328276
    5 0.000008 -0.000006 -5.615750 -0.137755 3.046209 -0.527539
    6 15.693467 0.000000 0.000000 0.000000 0.000000 -1.645099
    7 22.146629 0.000000 0.000000 0.071282 0.157431 1.032641
    8 1.384163 -0.004728 0.000002 -0.221571 -0.061132 0.366869
    9 5.939814 -0.004730 0.000000 -0.093624 -0.026965 0.225909
    10 5.939809 -0.003975 0.000000 -0.118089 -0.064813 0.199140
    11 4.991439 -0.003975 0.000000 0.046095 0.060202 0.042850
    12 4.991436 -0.001575 0.000000 0.000000 0.000000 0.000000
    13 0.000005 0.001564 3.638375 0.579253 -1.231436 2.588178
    14 6.703436 0.000000 0.000000 -0.534118 0.746195 0.064474
    15 10.007079 0.000000 0.000002 0.000000 0.000000 -1.011031
    16 9.664095 -0.000001 -0.000002 -0.855590 0.447722 -0.269713
    17 0.000005 0.001585 -3.638375 -0.000010 1.072699 3.140787
    18 6.703436 0.000000 -0.000001 0.589738 -0.524098 -1.005721
    19 10.007080 0.000000 -0.000002 0.000000 0.000000 -0.957525
    20 9.664097 -0.000001 0.000001 1.749818 0.004130 0.334393
    21 1.977383 0.000000 0.000000 0.294017 0.233782 -0.480957
    22 6.829860 -0.000001 0.000000 0.001241 0.000000 0.000000
    23 -4.603199 -0.446935 0.691439 -1.751612 -0.047171 1.544023
    24 -6.751354 0.809404 1.239717 0.422884 1.599155 -1.196952
  time 5
    0 3.325546 -4.483814 17.967047 0.001958 -0.104709 -1.681392
    1 -5.885580 -0.324228 9.745319 -1.570795 -1.570451 0.000000
    2 -0.000007 0.000010 5.615750 0.060208 3.184732 -1.287753
    3 15.693467 0.000000 0.000000 0.000000 0.000000 -1.712236
    4 22.146629 0.000000 0.000000 -0.078692 -0.067193 0.328813
    5 0.000008 -0.000006 -5.615750 -0.133839 3.052631 -0.555279
    6 15.693467 0.000000 0.000000 0.000000 0.000000 -1.681391
    7 22.146629 0.000000 0.000000 0.085683 0.151522 1.040139
    8 1.384163 -0.004728 0.000002 -0.176546 -0.046876 0.392513
    9 5.939814 -0.004730 0.000000 -0.093624 -0.026965 0.225909
    10 5.939809 -0.003975 0.000000 -0.123971 -0.063710 0.216322
    11 4.991439 -0.003975 0.000000 0.069562 0.060175 0.042850
    12 4.991436 -0.001575 0.000000 0.000000 0.000000 0.000000
    13 0.000005 0.001564 3.638375 0.579253 -1.231436 2.588178
    14 6.703436 0.000000 0.000000 -0.245159 0.952064 0.444449
    15 10.007079 0.000000 0.000002 0.000000 0.000000 -1.107842
    16 9.664095 -0.000001 -0.000002 -0.855590 0.447722 -0.269713
    17 0.000005 0.001585 -3.638375 -0.000010 1.072699 3.140787
    18 6.703436 0.000000 -0.000001 0.751609 -0.725564 -0.873162
    19 10.007080 0.000000 -0.000002 0.000000 0.000000 -1.027885
    20 9.664097 -0.000001 0.000001 1.513682 -0.031394 0.307510
    21 1.977383 0.000000 0.000000 0.237070 0.208951 -0.499129
    22 6.829860 -0.000001 0.000000 0.001241 0.000000 0.000000
    23 -4.603199 -0.446935 0.691439 -1.751612 -0.047171 1.544023
    24 -6.751354 0.809404 1.239717 0.422884 1.599155 -1.196952
  time 6
    0 1.626275 -4.858825 18.275650 0.017995 -0.094238 -1.728924
    1 -6.100430 -0.250007 9.745319 -1.570795 -1.570451 0.000000
    2 -0.000007 0.000010 5.615750 0.099132 3.213971 -1.268878
    3 15.693467 0.000000 0.000000 0.000000 0.000000 -1.691969
    4 22.146629 0.000000 0.000000 -0.097803 -0.111816 0.327874
    5 0.000008 -0.000006 -5.615750 -0.098014 3.078802 -0.571464
    6 15.693467 0.000000 0.000000 0.000000 0.000000 -1.681391
    7 22.146629 0.000000 0.000000 0.082062 0.109850 1.019173
    8 1.384163 -0.004728 0.000002 -0.145764 -0.034287 0.415822
    9 5.939814 -0.004730 0.000000 -0.093624 -0.026965 0.225909
    10 5.939809 -0.003975 0.000000 -0.129632 -0.062548 0.232853
    11 4.991439 -0.003975 0.000000 0.078557 0.060175 0.042850
    12 4.991436 -0.001575 0.000000 0.000000 0.000000 0.000000
    13 0.000005 0.001564 3.638375 0.579253 -1.231436 2.588178
    14 6.703436 0.000000 0.000000 -0.039096 1.040476 0.704474
    15 10.007079 0.000000 0.000002 0.000000 0.000000 -1.175339
    16 9.664095 -0.000001 -0.000002 -0.855590 0.447722 -0.269713
    17 0.000005 0.001585 -3.638375 -0.000010 1.072699 3.140787
    18 6.703436 0.000000 -0.000001 0.904154 -0.882677 -0.845820
    19 10.007080 0.000000 -0.000002 0.000000 0.000000 -1.111303
    20 9.664097 -0.000001 0.000001 1.329820 -0.070917 0.290028
    21 1.977383 0.000000 0.000000 0.212803 0.186914 -0.482017
    22 6.829860 -0.000001 0.000000 0.001241 0.000000 0.000000
    23 -4.603199 -0.446935 0.691439 -1.751612 -0.047171 1.544023
    24 -6.751354 0.809404 1.239717 0.422884 1.599155 -1.196952
  time 7
    0 -1.076933 -5.515095 19.217085 0.037481 -0.086147 -1.795201
    1 -6.303561 -0.164067 9.745319 -1.570795 -1.570451 0.000000
    2 -0.000007 0.000010 5.615750 0.126072 3.269671 -1.138194
    3 15.693467 0.000000 0.000000 0.000000 0.000000 -1.546529
    4 22.146629 0.000000 0.000000 -0.077459 -0.160063 0.330960
    5 0.000008 -0.000006 -5.615750 -0.052064 3.109957 -0.457606
    6 15.693467 0.000000 0.000000 0.000000 0.000000 -1.542164
    7 22.146629 0.000000 0.000000 0.072986 0.054279 0.990199
    8 1.384163 -0.004728 0.000002 -0.125622 -0.022614 0.438180
    9 5.939814 -0.004730 0.000000 -0.093612 -0.027013 0.225355
    10 5.939809 -0.003975 0.000000 -0.135184 -0.061193 0.249743
    11 4.991439 -0.003975 0.000000 0.077602 0.060175 0.042850
    12 4.991436 -0.001575 0.000000 0.000000 0.000000 0.000000
    13 0.000005 0.001564 3.638375 0.579253 -1.231436 2.588178
    14 6.703436 0.000000 0.000000 -0.409481 1.035468 0.297499
    15 10.007079 0.000000 0.000002 0.000000 0.000000 -1.186835
    16 9.664095 -0.000001 -0.000002 -0.855590 0.447722 -0.269713
    17 0.000005 0.001585 -3.638375 -0.000010 1.072699 3.140787
    18 6.703436 0.000000 -0.000001 1.049157 -0.919052 -0.937724
    19 10.007080 0.000000 -0.000002 0.000000 0.000000 -1.254943
    20 9.664097 -0.000001 0.000001 1.256878 -0.113529 0.282178
    21 1.977383 0.000000 0.000000 0.211148 0.166474 -0.437494
    22 6.829860 -0.000001 0.000000 0.001241 0.000000 0.000000
    23 -4.603199 -0.446935 0.691439 -1.751612 -0.047171 1.544023
    24 -6.751354 0.809404 1.239717 0.422884 1.599155 -1.196952
  time 8
    0 -4.373908 -6.358871 20.599940 0.055383 -0.087956 -1.878119
    1 -6.506692 -0.078126 9.745319 -1.570795 -1.570451 0.000000
    2 -0.000007 0.000010 5.615750 0.143808 3.333902 -0.988731
    3 15.693467 0.000000 0.000000 0.000000 0.000000 -1.377725
    4 22.146629 0.000000 0.000000 -0.061902 -0.214453 0.341290
    5 0.000008 -0.000006 -5.615750 -0.006782 3.149643 -0.326799
    6 15.693467 0.000000 0.000000 0.000000 0.000000 -1.385755
    7 22.146629 0.000000 0.000000 0.055134 -0.004521 0.962899
    8 1.384163 -0.004728 0.000002 -0.108478 -0.011262 0.461965
    9 5.939814 -0.004730 0.000000 -0.093564 -0.027157 0.223863
    10 5.939809 -0.003975 0.000000 -0.140886 -0.059492 0.268113
    11 4.991439 -0.003975 0.000000 0.074805 0.060175 0.042850
    12 4.991436 -0.001575 0.000000 0.000000 0.000000 0.000000
    13 0.000005 0.001564 3.638375 0.579253 -1.231436 2.588178
    14 6.703436 0.000000 0.000000 -0.944010 0.696481 -0.367783
    15 10.007079 0.000000 0.000002 0.000000 0.000000 -1.146436
    16 9.664095 -0.000001 -0.000002 -0.855590 0.447722 -0.269713
    17 0.000005 0.001585 -3.638375 -0.000010 1.072699 3.140787
    18 6.703436 0.000000 -0.000001 1.149839 -0.824541 -1.078014
    19 10.007080 0.000000 -0.000002 0.000000 0.000000 -1.448126
    20 9.664097 -0.000001 0.000001 1.282214 -0.157447 0.275968
    21 1.977383 0.000000 0.000000 0.214411 0.145156 -0.381563
    22 6.829860 -0.000001 0.000000 0.001241 0.000000 0.000000
    23 -4.603199 -0.446935 0.691439 -1.751612 -0.047171 1.544023
    24 -6.751354 0.809404 1.239717 0.422884 1.599155 -1.196952
  time 9
    0 -8.127929 -7.331557 22.221083 0.074403 -0.092239 -1.971844
    1 -6.713730 0.007814 9.745319 -1.570795 -1.570451 0.000000
    2 -0.000007 0.000010 5.615750 0.149273 3.395929 -0.839746
    3 15.693467 0.000000 0.000000 0.000000 0.000000 -1.217135
    4 22.146629 0.000000 0.000000 -0.051204 -0.268607 0.336594
    5 0.000008 -0.000006 -5.615750 0.027514 3.189139 -0.190547
    6 15.693467 0.000000 0.000000 0.000000 0.000000 -1.215054
    7 22.146629 0.000000 0.000000 0.032296 -0.053466 0.929483
    8 1.384163 -0.004728 0.000002 -0.093849 -0.000180 0.486831
    9 5.939814 -0.004730 0.000000 -0.093504 -0.027373 0.221569
    10 5.939809 -0.003975 0.000000 -0.146685 -0.057490 0.287670
    11 4.991439 -0.003975 0.000000 0.070331 0.060175 0.042850
    12 4.991436 -0.001575 0.000000 0.000000 0.000000 0.000000
    13 0.000005 0.001564 3.638375 0.579253 -1.231436 2.588178
    14 6.703436 0.000000 0.000000 -1.104393 0.168743 -0.707910
    15 10.007079 0.000000 0.000002 0.000000 0.000000 -1.088710
    16 9.664095 -0.000001 -0.000002 -0.855590 0.447722 -0.269713
    17 0.000005 0.001585 -3.638375 -0.000010 1.072699 3.140787
    18 6.703436 0.000000 -0.000001 1.187545 -0.668130 -1.193395
    19 10.007080 0.000000 -0.000002 0.000000 0.000000 -1.607359
    20 9.664097 -0.000001 0.000001 1.319706 -0.197842 0.262368
    21 1.977383 0.000000 0.000000 0.221168 0.122400 -0.316293
    22 6.829860 -0.000001 0.000000 0.001241 0.000000 0.000000
    23 -4.603199 -0.446935 0.691439 -1.751612 -0.047171 1.544023
    24 -6.751354 0.809404 1.239717 0.422884 1.599155 -1.196952
  time 10
    0 -12.206178 -8.386277 23.889103 0.096221 -0.091763 -2.070064
    1 -6.916861 0.097660 9.745319 -1.570795 -1.570451 0.000000
    2 -0.000007 0.000010 5.615750 0.144959 3.444534 -0.711745
    3 15.693467 0.000000 0.000000 0.000000 0.000000 -1.096474
    4 22.146629 0.000000 0.000000 -0.033471 -0.313607 0.291986
    5 0.000008 -0.000006 -5.615750 0.044423 3.216843 -0.059231
    6 15.693467 0.000000 0.000000 0.000000 0.000000 -1.033031
    7 22.146629 0.000000 0.000000 0.012612 -0.081239 0.880926
    8 1.384163 -0.004728 0.000002 -0.081323 0.010651 0.512519
    9 5.939814 -0.004730 0.000000 -0.093432 -0.027636 0.218681
    10 5.939809 -0.003975 0.000000 -0.152526 -0.055201 0.308123
    11 4.991439 -0.003975 0.000000 0.064412 0.060189 0.042850
    12 4.991436 -0.001575 0.000000 0.000000 0.000000 0.000000
    13 0.000005 0.001564 3.638375 0.579253 -1.231436 2.588178
    14 6.703436 0.000000 0.000000 -1.117092 -0.214677 -0.875888
    15 10.007079 0.000000 0.000002 0.000000 0.000000 -1.048475
    16 9.664095 -0.000001 -0.000002 -0.855590 0.447722 -0.269713
    17 0.000005 0.001585 -3.638375 -0.000010 1.072699 3.140787
    18 6.703436 0.000000 -0.000001 1.203885 -0.521929 -1.270340
    19 10.007080 0.000000 -0.000002 0.000000 0.000000 -1.649145
    20 9.664097 -0.000001 0.000001 1.282214 -0.231622 0.239768
    21 1.977383 0.000000 0.000000 0.229946 0.097888 -0.243704
    22 6.829860 -0.000001 0.000000 0.001241 0.000000 0.000000
    23 -4.603199 -0.446935 0.691439 -1.751612 -0.047171 1.544023
    24 -6.751354 0.809404 1.239717 0.422884 1.599155 -1.196952
  time 11
    0 -16.475840 -9.468341 25.400868 0.121022 -0.079294 -2.165989
    1 -7.116086 0.187507 9.745319 -1.570795 -1.570451 0.000000
    2 -0.000007 0.000010 5.615750 0.136139 3.480005 -0.600414
    3 15.693467 0.000000 0.000000 0.000000 0.000000 -1.005911
    4 22.146629 0.000000 0.000000 0.008522 -0.348015 0.173722
    5 0.000008 -0.000006 -5.615750 0.043563 3.227387 0.094378
    6 15.693467 0.000000 0.000000 0.000000 0.000000 -0.797053
    7 22.146629 0.000000 0.000000 0.001236 -0.085856 0.799244
    8 1.384163 -0.004728 0.000002 -0.070442 0.021320 0.538726
    9 5.939814 -0.004730 0.000000 -0.093336 -0.027948 0.215373
    10 5.939809 -0.003975 0.000000 -0.158380 -0.052684 0.329226
    11 4.991439 -0.003975 0.000000 0.057141 0.060189 0.042850
    12 4.991436 -0.001575 0.000000 0.000000 0.000000 0.000000
    13 0.000005 0.001564 3.638375 0.578870 -1.231515 2.588466
    14 6.703436 0.000000 0.000000 -1.116680 -0.390225 -0.935126
    15 10.007079 0.000000 0.000002 0.000000 0.000000 -1.021870
    16 9.664095 -0.000001 -0.000002 -0.858082 0.447397 -0.270518
    17 0.000005 0.001585 -3.638375 -0.000010 1.072699 3.140787
    18 6.703436 0.000000 -0.000001 1.233785 -0.386512 -1.317151
    19 10.007080 0.000000 -0.000002 0.000000 0.000000 -1.519792
    20 9.664097 -0.000001 0.000001 1.112503 -0.258195 0.209434
    21 1.977383 0.000000 0.000000 0.239460 0.071300 -0.165714
    22 6.829860 -0.000001 0.000000 0.001241 0.000000 0.000000
    23 -4.603199 -0.446935 0.691439 -1.751612 -0.047171 1.544023
    24 -6.751354 0.809404 1.239717 0.422884 1.599155 -1.196952
  time 12
    0 -20.804097 -10.526967 26.553247 0.147688 -0.047976 -2.252446
    1 -7.311404 0.277353 9.745319 -1.570795 -1.570787 0.000000
    2 -0.000007 0.000010 5.615750 0.124059 3.508478 -0.492532
    3 15.693467 0.000000 0.000000 0.000000 0.000000 -0.924168
    4 22.146629 0.000000 0.000000 0.074848 -0.368820 -0.001426
    5 0.000008 -0.000006 -5.615750 0.032577 3.225183 0.275828
    6 15.693467 0.000000 0.000000 0.000000 0.000000 -0.507840
    7 22.146629 0.000000 0.000000 -0.002599 -0.076335 0.690918
    8 1.384163 -0.004728 0.000002 -0.060721 0.031811 0.565192
    9 5.939814 -0.004730 0.000000 -0.093240 -0.028284 0.211816
    10 5.939809 -0.003975 0.000000 -0.164220 -0.049976 0.350655
    11 4.991439 -0.003975 0.000000 0.048752 0.060202 0.042850
    12 4.991436 -0.001575 0.000000 0.000000 0.000000 0.000000
    13 0.000005 0.001564 3.638375 0.578103 -1.231673 2.589233
    14 6.703436 0.000000 0.000000 -1.119384 -0.491566 -0.949772
    15 10.007079 0.000000 0.000002 0.000000 0.000000 -0.990585
    16 9.664095 -0.000001 -0.000002 -0.863258 0.446715 -0.272165
    17 0.000005 0.001585 -3.638375 -0.000010 1.072699 3.140787
    18 6.703436 0.000000 -0.000001 1.265935 -0.231058 -1.348072
    19 10.007080 0.000000 -0.000002 0.000000 0.000000 -1.277218
    20 9.664097 -0.000001 0.000001 0.861826 -0.285006 0.176369
    21 1.977383 0.000000 0.000000 0.248423 0.042636 -0.084089
    22 6.829860 -0.000001 0.000000 0.001241 0.000000 0.000000
    23 -4.603199 -0.446935 0.691439 -1.751612 -0.047171 1.544023
    24 -6.751354 0.809404 1.239717 0.422884 1.599155 -1.196952
  time 13
    0 -25.062040 -11.511372 27.162640 0.174913 0.008186 -2.321688
    1 -7.498910 0.367200 9.745319 -1.570795 -1.570451 0.000000
    2 -0.000007 0.000010 5.615750 0.109486 3.528611 -0.396818
    3 15.693467 0.000000 0.000000 0.000000 0.000000 -0.866195
    4 22.146629 0.000000 0.000000 0.150131 -0.368279 -0.182075
    5 0.000008 -0.000006 -5.615750 0.019967 3.213392 0.442873
    6 15.693467 0.000000 0.000000 0.000000 0.000000 -0.233402
    7 22.146629 0.000000 0.000000 0.000895 -0.060714 0.582373
    8 1.384163 -0.004728 0.000002 -0.051799 0.042122 0.591658
    9 5.939814 -0.004730 0.000000 -0.093132 -0.028619 0.208202
    10 5.939809 -0.003975 0.000000 -0.169992 -0.047123 0.372133
    11 4.991439 -0.003975 0.000000 0.039360 0.060202 0.042850
    12 4.991436 -0.001575 0.000000 0.000000 0.000000 0.000000
    13 0.000005 0.001564 3.638375 0.577528 -1.231778 2.589712
    14 6.703436 0.000000 0.000000 -1.133612 -0.543557 -0.932262
    15 10.007079 0.000000 0.000002 0.000000 0.000000 -0.967265
    16 9.664095 -0.000001 -0.000002 -0.867091 0.446228 -0.273392
    17 0.000005 0.001585 -3.638375 -0.000010 1.072699 3.140787
    18 6.703436 0.000000 -0.000001 1.286772 -0.077965 -1.369473
    19 10.007080 0.000000 -0.000002 0.000000 0.000000 -1.005302
    20 9.664097 -0.000001 0.000001 0.605266 -0.319301 0.148450
    21 1.977383 0.000000 0.000000 0.255823 0.012216 -0.000647
    22 6.829860 -0.000001 0.000000 0.001241 0.000000 0.000000
    23 -4.603199 -0.446935 0.691439 -1.751612 -0.047171 1.544023
    24 -6.751354 0.809404 1.239717 0.422884 1.599155 -1.196952
  time 14
    0 -29.112944 -12.359054 27.080607 0.202138 0.094619 -2.366064
    1 -7.674697 0.457046 9.745319 -1.570795 -1.570451 0.000000
    2 -0.000007 0.000010 5.615750 0.093668 3.539731 -0.322374
    3 15.693467 0.000000 0.000000 0.000000 0.000000 -0.846870
    4 22.146629 0.000000 0.000000 0.213883 -0.349215 -0.315231
    5 0.000008 -0.000006 -5.615750 0.011465 3.198821 0.553525
    6 15.693467 0.000000 0.000000 0.000000 0.000000 -0.042065
    7 22.146629 0.000000 0.000000 0.008181 -0.046313 0.500764
    8 1.384163 -0.004728 0.000002 -0.043191 0.052254 0.617908
    9 5.939814 -0.004730 0.000000 -0.093036 -0.028943 0.204722
    10 5.939809 -0.003975 0.000000 -0.175695 -0.044187 0.393399
    11 4.991439 -0.003975 0.000000 0.029176 0.060216 0.042850
    12 4.991436 -0.001575 0.000000 0.000000 0.000000 0.000000
    13 0.000005 0.001564 3.638375 0.577720 -1.231752 2.589520
    14 6.703436 0.000000 0.000000 -1.159186 -0.570690 -0.898061
    15 10.007079 0.000000 0.000002 0.000000 0.000000 -0.964719
    16 9.664095 -0.000001 -0.000002 -0.865750 0.446390 -0.273008
    17 0.000005 0.001585 -3.638375 -0.000010 1.072699 3.140787
    18 6.703436 0.000000 -0.000001 1.280620 0.051134 -1.391233
    19 10.007080 0.000000 -0.000002 0.000000 0.000000 -0.787769
    20 9.664097 -0.000001 0.000001 0.418341 -0.361082 0.131026
    21 1.977383 0.000000 0.000000 0.260787 -0.019083 0.083250
    22 6.829860 -0.000001 0.000000 0.001241 0.000000 0.000000
    23 -4.603199 -0.446935 0.691439 -1.751612 -0.047171 1.544023
    24 -6.751354 0.809404 1.239717 0.422884 1.599155 -1.196952
  time 15
    0 -32.827902 -13.030950 26.209486 0.231881 0.215511 -2.376871
    1 -7.838764 0.542986 9.745319 -1.570795 -1.570451 0.000000
    2 -0.000007 0.000010 5.615750 0.077849 3.541265 -0.278206
    3 15.693467 0.000000 0.000000 0.000000 0.000000 -0.881143
    4 22.146629 0.000000 0.000000 0.249022 -0.324598 -0.351119
    5 0.000008 -0.000006 -5.615750 0.009936 3.189905 0.566402
    6 15.693467 0.000000 0.000000 0.000000 0.000000 -0.001839
    7 22.146629 0.000000 0.000000 0.012740 -0.038562 0.473100
    8 1.384163 -0.004728 0.000002 -0.034485 0.062152 0.643639
    9 5.939814 -0.004730 0.000000 -0.092941 -0.029242 0.201529
    10 5.939809 -0.003975 0.000000 -0.181273 -0.041227 0.414161
    11 4.991439 -0.003975 0.000000 0.018363 0.060216 0.042850
    12 4.991436 -0.001575 0.000000 0.000000 0.000000 0.000000
    13 0.000005 0.001564 3.638375 0.579253 -1.231436 2.588178
    14 6.703436 0.000000 0.000000 -1.193579 -0.598643 -0.862551
    15 10.007079 0.000000 0.000002 0.000000 0.000000 -0.995512
    16 9.664095 -0.000001 -0.000002 -0.855590 0.447722 -0.269713
    17 0.000005 0.001585 -3.638375 -0.000010 1.072699 3.140787
    18 6.703436 0.000000 -0.000001 1.228295 0.134540 -1.424873
    19 10.007080 0.000000 -0.000002 0.000000 0.000000 -0.708576
    20 9.664097 -0.000001 0.000001 0.378223 -0.406188 0.122515
    21 1.977383 0.000000 0.000000 0.262809 -0.050541 0.166086
    22 6.829860 -0.000001 0.000000 0.001241 0.000000 0.000000
    23 -4.603199 -0.446935 0.691439 -1.751612 -0.047171 1.544023
    24 -6.751354 0.809404 1.239717 0.422884 1.599155 -1.196952
  time 16
    0 -36.222536 -13.484088 24.697721 0.270388 0.373336 -2.352196
    1 -7.995019 0.621114 9.745319 -1.570795 -1.570451 0.000000
    2 -0.000007 0.000010 5.615750 0.060784 3.534746 -0.254445
    3 15.693467 0.000000 0.000000 0.000000 0.000000 -0.963626
    4 22.146629 0.000000 0.000000 0.261569 -0.300097 -0.303290
    5 0.000008 -0.000006 -5.615750 0.014235 3.187317 0.493771
    6 15.693467 0.000000 0.000000 0.000000 0.000000 -0.091284
    7 22.146629 0.000000 0.000000 0.012612 -0.036673 0.493702
    8 1.384163 -0.004728 0.000002 -0.025297 0.071782 0.668678
    9 5.939814 -0.004730 0.000000 -0.092857 -0.029494 0.198813
    10 5.939809 -0.003975 0.000000 -0.186728 -0.038303 0.434158
    11 4.991439 -0.003975 0.000000 0.007084 0.060230 0.042850
    12 4.991436 -0.001575 0.000000 0.000000 0.000000 0.000000
    13 0.000005 0.001564 3.638375 0.583184 -1.230621 2.584439
    14 6.703436 0.000000 0.000000 -1.240259 -0.620769 -0.823359
    15 10.007079 0.000000 0.000002 0.000000 0.000000 -1.073930
    16 9.664095 -0.000001 -0.000002 -0.828657 0.451002 -0.260977
    17 0.000005 0.001585 -3.638375 -0.000010 1.072699 3.140787
    18 6.703436 0.000000 -0.000001 1.129928 0.174744 -1.470682
    19 10.007080 0.000000 -0.000002 0.000000 0.000000 -0.756583
    20 9.664097 -0.000001 0.000001 0.468039 -0.459849 0.114321
    21 1.977383 0.000000 0.000000 0.261752 -0.080882 0.246449
    22 6.829860 -0.000001 0.000000 0.001241 0.000000 0.000000
    23 -4.603199 -0.446935 0.691439 -1.751612 -0.047171 1.544023
    24 -6.751354 0.809404 1.239717 0.422884 1.599155 -1.196952
  time 17
    0 -39.433572 -13.761441 22.939855 0.328474 0.561718 -2.291083
    1 -8.135648 0.695335 9.745319 -1.570795 -1.570787 0.000000
    2 -0.000007 0.000010 5.615750 0.041705 3.522571 -0.235954
    3 15.693467 0.000000 0.000000 0.000000 0.000000 -1.074254
    4 22.146629 0.000000 0.000000 0.265957 -0.272208 -0.221653
    5 0.000008 -0.000006 -5.615750 0.020827 3.185592 0.381796
    6 15.693467 0.000000 0.000000 0.000000 0.000000 -0.235329
    7 22.146629 0.000000 0.000000 0.010865 -0.036362 0.535490
    8 1.384163 -0.004728 0.000002 -0.015165 0.081053 0.692766
    9 5.939814 -0.004730 0.000000 -0.092797 -0.029686 0.196767
    10 5.939809 -0.003975 0.000000 -0.192017 -0.035486 0.453064
    11 4.991439 -0.003975 0.000000 -0.004474 0.060243 0.042850
    12 4.991436 -0.001575 0.000000 0.000000 0.000000 0.000000
    13 0.000005 0.001564 3.638375 0.589128 -1.229385 2.578878
    14 6.703436 0.000000 0.000000 -1.297463 -0.617764 -0.775494
    15 10.007079 0.000000 0.000002 0.000000 0.000000 -1.191516
    16 9.664095 -0.000001 -0.000002 -0.787538 0.455647 -0.247451
    17 0.000005 0.001585 -3.638375 -0.000010 1.072699 3.140787
    18 6.703436 0.000000 -0.000001 1.005034 0.191400 -1.518782
    19 10.007080 0.000000 -0.000002 0.000000 0.000000 -0.856132
    20 9.664097 -0.000001 0.000001 0.613533 -0.525035 0.097586
    21 1.977383 0.000000 0.000000 0.257937 -0.108907 0.323026
    22 6.829860 -0.000001 0.000000 0.001241 0.000000 0.000000
    23 -4.603199 -0.446935 0.691439 -1.751612 -0.047171 1.544023
    24 -6.751354 0.809404 1.239717 0.422884 1.599155 -1.196952
  time 18
    0 -42.515697 -13.909883 21.287461 0.428704 0.769233 -2.175075
    1 -8.268465 0.761743 9.745319 -1.570795 -1.570451 0.000000
    2 -0.000007 0.000010 5.615750 0.021668 3.506465 -0.223211
    3 15.693467 0.000000 0.000000 0.000000 0.000000 -1.205621
    4 22.146629 0.000000 0.000000 0.263491 -0.242907 -0.114391
    5 0.000008 -0.000006 -5.615750 0.029138 3.183674 0.239792
    6 15.693467 0.000000 0.000000 0.000000 0.000000 -0.421928
    7 22.146629 0.000000 0.000000 0.008266 -0.037414 0.593147
    8 1.384163 -0.004728 0.000002 -0.003752 0.089911 0.715686
    9 5.939814 -0.004730 0.000000 -0.092761 -0.029794 0.195562
    10 5.939809 -0.003975 0.000000 -0.197169 -0.032826 0.470653
    11 4.991439 -0.003975 0.000000 -0.016173 0.060243 0.042850
    12 4.991436 -0.001575 0.000000 0.000000 0.000000 0.000000
    13 0.000005 0.001564 3.638375 0.595360 -1.228044 2.572934
    14 6.703436 0.000000 0.000000 -1.355784 -0.597915 -0.727711
    15 10.007079 0.000000 0.000002 0.000000 0.000000 -1.326920
    16 9.664095 -0.000001 -0.000002 -0.743640 0.459999 -0.232852
    17 0.000005 0.001585 -3.638375 -0.000010 1.072699 3.140787
    18 6.703436 0.000000 -0.000001 0.862876 0.188528 -1.563374
    19 10.007080 0.000000 -0.000002 0.000000 0.000000 -0.993934
    20 9.664097 -0.000001 0.000001 0.808919 -0.592358 0.064233
    21 1.977383 0.000000 0.000000 0.252008 -0.133499 0.394404
    22 6.829860 -0.000001 0.000000 0.001241 0.000000 0.000000
    23 -4.603199 -0.446935 0.691439 -1.751612 -0.047171 1.544023
    24 -6.751354 0.809404 1.239717 0.422884 1.599155 -1.196952
  time 19
    0 -45.523601 -13.980197 20.033517 0.623383 0.976747 -1.955681
    1 -8.385656 0.816432 9.745319 -1.570795 -1.570787 0.000000
    2 -0.000007 0.000010 5.615750 0.001727 3.487867 -0.217175
    3 15.693467 0.000000 0.000000 0.000000 0.000000 -1.350320
    4 22.146629 0.000000 0.000000 0.255695 -0.213817 0.010447
    5 0.000008 -0.000006 -5.615750 0.038023 3.180607 0.077276
    6 15.693467 0.000000 0.000000 0.000000 0.000000 -0.639038
    7 22.146629 0.000000 0.000000 0.005624 -0.039543 0.661652
    8 1.384163 -0.004728 0.000002 0.009354 0.098232 0.737179
    9 5.939814 -0.004730 0.000000 -0.092761 -0.029818 0.195390
    10 5.939809 -0.003975 0.000000 -0.202128 -0.030429 0.486631
    11 4.991439 -0.003975 0.000000 -0.027825 0.060257 0.042850
    12 4.991436 -0.001575 0.000000 0.000000 0.000000 0.000000
    13 0.000005 0.001564 3.638375 0.600346 -1.226966 2.568236
    14 6.703436 0.000000 0.000000 -1.407696 -0.570872 -0.685982
    15 10.007079 0.000000 0.000002 0.000000 0.000000 -1.458958
    16 9.664095 -0.000001 -0.000002 -0.708752 0.463052 -0.221089
    17 0.000005 0.001585 -3.638375 -0.000010 1.072699 3.140787
    18 6.703436 0.000000 -0.000001 0.712316 0.171362 -1.599520
    19 10.007080 0.000000 -0.000002 0.000000 0.000000 -1.156776
    20 9.664097 -0.000001 0.000001 1.047293 -0.651207 0.009316
    21 1.977383 0.000000 0.000000 0.244930 -0.153459 0.459017
    22 6.829860 -0.000001 0.000000 0.001241 0.000000 0.000000
    23 -4.603199 -0.446935 0.691439 -1.751612 -0.047171 1.544023
    24 -6.751354 0.809404 1.239717 0.422884 1.599155 -1.196952
  time 20
    0 -48.504161 -14.019261 19.373340 1.029245 1.141141 -1.519381
    1 -8.491128 0.859402 9.745319 -1.570795 -1.570451 0.000000
    2 -0.000007 0.000010 5.615750 -0.017064 3.468405 -0.218229
    3 15.693467 0.000000 0.000000 0.000000 0.000000 -1.501012
    4 22.146629 0.000000 0.000000 0.244271 -0.186258 0.144944
    5 0.000008 -0.000006 -5.615750 0.046334 3.176005 -0.096437
    6 15.693467 0.000000 0.000000 0.000000 0.000000 -0.874454
    7 22.146629 0.000000 0.000000 0.003664 -0.042270 0.735544
    8 1.384163 -0.004728 0.000002 0.024588 0.105943 0.757115
    9 5.939814 -0.004730 0.000000 -0.092785 -0.029722 0.196404
    10 5.939809 -0.003975 0.000000 -0.206922 -0.028332 0.500706
    11 4.991439 -0.003975 0.000000 -0.039244 0.060271 0.042850
    12 4.991436 -0.001575 0.000000 0.000000 0.000000 0.000000
    13 0.000005 0.001564 3.638375 0.602359 -1.226545 2.566414
    14 6.703436 0.000000 0.000000 -1.448086 -0.546652 -0.652927
    15 10.007079 0.000000 0.000002 0.000000 0.000000 -1.566362
    16 9.664095 -0.000001 -0.000002 -0.694471 0.464188 -0.216261
    17 0.000005 0.001585 -3.638375 -0.000010 1.072699 3.140787
    18 6.703436 0.000000 -0.000001 0.561491 0.146538 -1.624142
    19 10.007080 0.000000 -0.000002 0.000000 0.000000 -1.331371
    20 9.664097 -0.000001 0.000001 1.316788 -0.691245 -0.065125
    21 1.977383 0.000000 0.000000 0.237760 -0.167911 0.515352
    22 6.829860 -0.000001 0.000000 0.001241 0.000000 0.000000
    23 -4.603199 -0.446935 0.691439 -1.751612 -0.047171 1.544023
    24 -6.751354 0.809404 1.239717 0.422884 1.599155 -1.196952
  time 21
    0 -51.515972 -14.081763 19.353808 1.688058 1.170364 -0.826580
    1 -8.588787 0.886747 9.745319 -1.570795 -1.570451 0.000000
    2 -0.000007 0.000010 5.615750 -0.034033 3.449807 -0.226852
    3 15.693467 0.000000 0.000000 0.000000 0.000000 -1.650357
    4 22.146629 0.000000 0.000000 0.230999 -0.161334 0.281454
    5 0.000008 -0.000006 -5.615750 0.053117 3.169774 -0.271779
    6 15.693467 0.000000 0.000000 0.000000 0.000000 -1.116214
    7 22.146629 0.000000 0.000000 0.002897 -0.044926 0.809800
    8 1.384163 -0.004728 0.000002 0.042312 0.112936 0.775192
    9 5.939814 -0.004730 0.000000 -0.092857 -0.029494 0.198813
    10 5.939809 -0.003975 0.000000 -0.211522 -0.026642 0.512616
    11 4.991439 -0.003975 0.000000 -0.050313 0.060271 0.042850
    12 4.991436 -0.001575 0.000000 0.000000 0.000000 0.000000
    13 0.000005 0.001564 3.638375 0.603797 -1.226230 2.564976
    14 6.703436 0.000000 0.000000 -1.485183 -0.511324 -0.624863
    15 10.007079 0.000000 0.000002 0.000000 0.000000 -1.658246
    16 9.664095 -0.000001 -0.000002 -0.684023 0.464968 -0.212736
    17 0.000005 0.001585 -3.638375 -0.000010 1.072699 3.140787
    18 6.703436 0.000000 -0.000001 0.417546 0.120756 -1.637026
    19 10.007080 0.000000 -0.000002 0.000000 0.000000 -1.504430
    20 9.664097 -0.000001 0.000001 1.597856 -0.705383 -0.147904
    21 1.977383 0.000000 0.000000 0.231693 -0.175975 0.561743
    22 6.829860 -0.000001 0.000000 0.001241 0.000000 0.000000
    23 -4.603199 -0.446935 0.691439 -1.751612 -0.047171 1.544023
    24 -6.751354 0.809404 1.239717 0.422884 1.599155 -1.196952
  time 22
    0 -54.605910 -14.206767 19.869449 2.199930 1.033481 -0.279627
    1 -8.670821 0.898466 9.745319 -1.570795 -1.570451 0.000000
    2 -0.000007 0.000010 5.615750 -0.048414 3.433605 -0.243235
    3 15.693467 0.000000 0.000000 0.000000 0.000000 -1.790949
    4 22.146629 0.000000 0.000000 0.217509 -0.140011 0.412262
    5 0.000008 -0.000006 -5.615750 0.057224 3.162393 -0.439588
    6 15.693467 0.000000 0.000000 0.000000 0.000000 -1.352112
    7 22.146629 0.000000 0.000000 0.003622 -0.046696 0.879106
    8 1.384163 -0.004728 0.000002 0.062865 0.119141 0.791236
    9 5.939814 -0.004730 0.000000 -0.092976 -0.029123 0.202791
    10 5.939809 -0.003975 0.000000 -0.215916 -0.025419 0.522102
    11 4.991439 -0.003975 0.000000 -0.060800 0.060285 0.042850
    12 4.991436 -0.001575 0.000000 0.000000 0.000000 0.000000
    13 0.000005 0.001564 3.638375 0.605810 -1.225783 2.563155
    14 6.703436 0.000000 0.000000 -1.519929 -0.458332 -0.602280
    15 10.007079 0.000000 0.000002 0.000000 0.000000 -1.748817
    16 9.664095 -0.000001 -0.000002 -0.669742 0.466007 -0.207870
    17 0.000005 0.001585 -3.638375 -0.000010 1.072699 3.140787
    18 6.703436 0.000000 -0.000001 0.287294 0.100335 -1.640390
    19 10.007080 0.000000 -0.000002 0.000000 0.000000 -1.662817
    20 9.664097 -0.000001 0.000001 1.866039 -0.693106 -0.222258
    21 1.977383 0.000000 0.000000 0.227786 -0.177093 0.596523
    22 6.829860 -0.000001 0.000000 0.001241 0.000000 0.000000
    23 -4.603199 -0.446935 0.691439 -1.751612 -0.047171 1.544023
    24 -6.751354 0.809404 1.239717 0.422884 1.599155 -1.196952
  time 23
    0 -57.828664 -14.452868 20.721038 2.454654 0.820635 -6.273924
    1 -8.745042 0.890653 9.745319 -1.570795 -1.570787 0.000000
    2 -0.000007 0.000010 5.615750 -0.059248 3.421334 -0.267667
    3 15.693467 0.000000 0.000000 0.000000 0.000000 -1.915448
    4 22.146629 0.000000 0.000000 0.205433 -0.123230 0.529989
    5 0.000008 -0.000006 -5.615750 0.058084 3.154628 -0.590296
    6 15.693467 0.000000 0.000000 0.000000 0.000000 -1.570186
    7 22.146629 0.000000 0.000000 0.005752 -0.046720 0.938219
    8 1.384163 -0.004728 0.000002 0.086635 0.124431 0.804988
    9 5.939814 -0.004730 0.000000 -0.093144 -0.028595 0.208508
    10 5.939809 -0.003975 0.000000 -0.220118 -0.024760 0.528854
    11 4.991439 -0.003975 0.000000 -0.070564 0.060298 0.042850
    12 4.991436 -0.001575 0.000000 0.000000 0.000000 0.000000
    13 0.000005 0.001564 3.638375 0.604756 -1.225993 2.564018
    14 6.703436 0.000000 0.000000 -1.540035 -0.409801 -0.587962
    15 10.007079 0.000000 0.000002 0.000000 0.000000 -1.824443
    16 9.664095 -0.000001 -0.000002 -0.676931 0.465488 -0.210322
    17 0.000005 0.001585 -3.638375 -0.000010 1.072699 3.140787
    18 6.703436 0.000000 -0.000001 0.177484 0.090699 -1.638100
    19 10.007080 0.000000 -0.000002 0.000000 0.000000 -1.793168
    20 9.664097 -0.000001 0.000001 2.098771 -0.660395 -0.274272
    21 1.977383 0.000000 0.000000 0.226729 -0.170386 0.618128
    22 6.829860 -0.000001 0.000000 0.001241 0.000000 0.000000
    23 -4.603199 -0.446935 0.691439 -1.751612 -0.047171 1.544023
    24 -6.751354 0.809404 1.239717 0.422884 1.599155 -1.196952
  time 24
    0 -61.235018 -14.863037 21.670285 2.585652 0.590370 -6.113061
    1 -8.803637 0.863309 9.745319 -1.570795 -1.570451 0.000000
    2 -0.000007 0.000010 5.615750 -0.065479 3.414432 -0.300530
    3 15.693467 0.000000 0.000000 0.000000 0.000000 -2.016447
    4 22.146629 0.000000 0.000000 0.196222 -0.112051 0.627256
    5 0.000008 -0.000006 -5.615750 0.055505 3.147439 -0.714690
    6 15.693467 0.000000 0.000000 0.000000 0.000000 -1.758230
    7 22.146629 0.000000 0.000000 0.008948 -0.044208 0.982045
    8 1.384163 -0.004728 0.000002 0.114007 0.128788 0.816189
    9 5.939814 -0.004730 0.000000 -0.093360 -0.027876 0.216157
    10 5.939809 -0.003975 0.000000 -0.224098 -0.024724 0.532629
    11 4.991439 -0.003975 0.000000 -0.079419 0.060298 0.042850
    12 4.991436 -0.001575 0.000000 0.000000 0.000000 0.000000
    13 0.000005 0.001564 3.638375 0.597182 -1.227650 2.571208
    14 6.703436 0.000000 0.000000 -1.535920 -0.388404 -0.581334
    15 10.007079 0.000000 0.000002 0.000000 0.000000 -1.871412
    16 9.664095 -0.000001 -0.000002 -0.730701 0.461168 -0.228522
    17 0.000005 0.001585 -3.638375 -0.000010 1.072699 3.140787
    18 6.703436 0.000000 -0.000001 0.094795 0.096187 -1.634951
    19 10.007080 0.000000 -0.000002 0.000000 0.000000 -1.882347
    20 9.664097 -0.000001 0.000001 2.280590 -0.616595 -0.298596
    21 1.977383 0.000000 0.000000 0.228751 -0.155136 0.625044
    22 6.829860 -0.000001 0.000000 0.001241 0.000000 0.000000
    23 -4.603199 -0.446935 0.691439 -1.751612 -0.047171 1.544023
    24 -6.751354 0.809404 1.239717 0.422884 1.599155 -1.196952
  time 25
    0 -64.875755 -15.491962 22.510155 2.664251 0.367054 -6.012641
    1 -8.854420 0.808619 9.745319 -1.570795 -1.570787 0.000000
    2 -0.000007 0.000010 5.615750 -0.065959 3.414048 -0.342207
    3 15.693467 0.000000 0.000000 0.000000 0.000000 -2.086609
    4 22.146629 0.000000 0.000000 0.191109 -0.107626 0.696550
    5 0.000008 -0.000006 -5.615750 0.049391 3.141495 -0.803404
    6 15.693467 0.000000 0.000000 0.000000 0.000000 -1.904201
    7 22.146629 0.000000 0.000000 0.012740 -0.038562 1.005414
    8 1.384163 -0.004728 0.000002 0.145321 0.132142 0.824665
    9 5.939814 -0.004730 0.000000 -0.093624 -0.026965 0.225909
    10 5.939809 -0.003975 0.000000 -0.227845 -0.025407 0.533134
    11 4.991439 -0.003975 0.000000 -0.087226 0.060312 0.042835
    12 4.991436 -0.001575 0.000000 0.000000 0.000000 0.000000
    13 0.000005 0.001564 3.638375 0.579253 -1.231436 2.588178
    14 6.703436 0.000000 0.000000 -1.498235 -0.417085 -0.583052
    15 10.007079 0.000000 0.000002 0.000000 0.000000 -1.876010
    16 9.664095 -0.000001 -0.000002 -0.855590 0.447722 -0.269713
    17 0.000005 0.001585 -3.638375 -0.000010 1.072699 3.140787
    18 6.703436 0.000000 -0.000001 0.046041 0.120565 -1.634951
    19 10.007080 0.000000 -0.000002 0.000000 0.000000 -1.916990
    20 9.664097 -0.000001 0.000001 2.401771 -0.570775 -0.297877
    21 1.977383 0.000000 0.000000 0.233256 -0.130305 0.615907
    22 6.829860 -0.000001 0.000000 0.001241 0.000000 0.000000
    23 -4.603199 -0.446935 0.691439 -1.751612 -0.047171 1.544023
    24 -6.751354 0.809404 1.239717 0.422884 1.599155 -1.196952
  time 26
    0 -69.364173 -16.742000 22.674222 2.703597 0.159158 -5.952581
    1 -8.834888 0.578144 9.745319 -1.570795 -1.570451 0.000000
    2 -0.000007 0.000010 5.615750 -0.059823 3.420855 -0.394136
    3 15.693467 0.000000 0.000000 0.000000 0.000000 -2.119333
    4 22.146629 0.000000 0.000000 0.188970 -0.112851 0.742769
    5 0.000008 -0.000006 -5.615750 0.039933 3.136702 -0.858679
    6 15.693467 0.000000 0.000000 0.000000 0.000000 -2.015727
    7 22.146629 0.000000 0.000000 0.016958 -0.029424 1.004103
    8 1.384163 -0.004728 0.000002 0.223424 0.132106 0.809096
    9 5.939814 -0.004730 0.000000 -0.094475 -0.023682 0.260750
    10 5.939809 -0.003975 0.000000 -0.230807 -0.033293 0.503586
    11 4.991439 -0.003975 0.000000 -0.092586 0.060312 0.042835
    12 4.991436 -0.001575 0.000000 0.000000 0.000000 0.000000
    13 0.000005 0.001564 3.638375 0.551355 -1.236932 2.614448
    14 6.703436 0.000000 0.000000 -1.370834 -0.474175 -0.639754
    15 10.007079 0.000000 0.000002 0.000000 0.000000 -1.851623
    16 9.664095 -0.000001 -0.000002 -1.040479 0.419076 -0.326920
    17 0.000005 0.001585 -3.638375 -0.000010 1.072699 3.140787
    18 6.703436 0.000000 -0.000001 0.055832 0.142517 -1.587281
    19 10.007080 0.000000 -0.000002 0.000000 0.000000 -1.908079
    20 9.664097 -0.000001 0.000001 2.480742 -0.523569 -0.279102
    21 1.977383 0.000000 0.000000 0.232336 -0.050381 0.618330
    22 6.829860 -0.000001 0.000000 0.001241 0.000000 0.000000
    23 -4.603199 -0.446935 0.691439 -1.751612 -0.047171 1.544023
    24 -6.751354 0.809404 1.239717 0.422884 1.599155 -1.196952
  time 27
    0 -74.790120 -18.695185 22.006233 2.716184 -0.037029 -5.916334
    1 -8.651289 0.144537 9.745319 -1.570795 -1.570451 0.000000
    2 -0.000007 0.000010 5.615750 -0.047072 3.433414 -0.457370
    3 15.693467 0.000000 0.000000 0.000000 0.000000 -2.118659
    4 22.146629 0.000000 0.000000 0.187265 -0.128290 0.776041
    5 0.000008 -0.000006 -5.615750 0.027610 3.132868 -0.891559
    6 15.693467 0.000000 0.000000 0.000000 0.000000 -2.109508
    7 22.146629 0.000000 0.000000 0.020707 -0.016865 0.981171
    8 1.384163 -0.004728 0.000002 0.358521 0.132339 0.758413
    9 5.939814 -0.004730 0.000000 -0.095769 -0.017282 0.327811
    10 5.939809 -0.003975 0.000000 -0.231220 -0.050899 0.432823
    11 4.991439 -0.003975 0.000000 -0.094916 0.060312 0.042835
    12 4.991436 -0.001575 0.000000 0.000000 0.000000 0.000000
    13 0.000005 0.001564 3.638375 0.517416 -1.243112 2.646567
    14 6.703436 0.000000 0.000000 -1.139903 -0.509230 -0.774676
    15 10.007079 0.000000 0.000002 0.000000 0.000000 -1.821077
    16 9.664095 -0.000001 -0.000002 -1.252684 0.373899 -0.384779
    17 0.000005 0.001585 -3.638375 -0.000010 1.072699 3.140787
    18 6.703436 0.000000 -0.000001 0.115698 0.134668 -1.470038
    19 10.007080 0.000000 -0.000002 0.000000 0.000000 -1.877278
    20 9.664097 -0.000001 0.000001 2.542840 -0.472166 -0.246726
    21 1.977383 0.000000 0.000000 0.218410 0.095094 0.643872
    22 6.829860 -0.000001 0.000000 0.001241 0.000000 0.000000
    23 -4.603199 -0.446935 0.691439 -1.751612 -0.047171 1.544023
    24 -6.751354 0.809404 1.239717 0.422884 1.599155 -1.196952
  time 28
    0 -80.434823 -20.906190 20.935888 2.729610 -0.228837 -5.890321
    1 -8.287997 -0.277351 9.745319 -1.570795 -1.570451 0.000000
    2 -0.000007 0.000010 5.615750 -0.027802 3.449615 -0.531623
    3 15.693467 0.000000 0.000000 0.000000 0.000000 -2.092871
    4 22.146629 0.000000 0.000000 0.184038 -0.151731 0.796434
    5 0.000008 -0.000006 -5.615750 0.013184 3.129608 -0.905708
    6 15.693467 0.000000 0.000000 0.000000 0.000000 -2.187231
    7 22.146629 0.000000 0.000000 0.022454 -0.001387 0.942369
    8 1.384163 -0.004728 0.000002 0.502178 0.140068 0.689047
    9 5.939814 -0.004730 0.000000 -0.096740 -0.009959 0.403516
    10 5.939809 -0.003975 0.000000 -0.227625 -0.072099 0.343968
    11 4.991439 -0.003975 0.000000 -0.095312 0.060312 0.042835
    12 4.991436 -0.001575 0.000000 0.000000 0.000000 0.000000
    13 0.000005 0.001564 3.638375 0.477916 -1.249607 2.684054
    14 6.703436 0.000000 0.000000 -0.871756 -0.505770 -0.942080
    15 10.007079 0.000000 0.000002 0.000000 0.000000 -1.784865
    16 9.664095 -0.000001 -0.000002 -1.482430 0.311411 -0.434974
    17 0.000005 0.001585 -3.638375 -0.000010 1.072674 3.140787
    18 6.703436 0.000000 -0.000001 0.179931 0.100080 -1.332397
    19 10.007080 0.000000 -0.000002 0.000000 0.000000 -1.827426
    20 9.664097 -0.000001 0.000001 2.591176 -0.418030 -0.203684
    21 1.977383 0.000000 0.000000 0.186788 0.254541 0.664619
    22 6.829860 -0.000001 0.000000 0.001241 0.000000 0.000000
    23 -4.603199 -0.446935 0.691439 -1.751612 -0.047171 1.544023
    24 -6.751354 0.809404 1.239717 0.422884 1.599155 -1.196952
  time 29
    0 -85.579511 -22.917970 19.881168 2.766998 -0.424929 -5.871480
    1 -7.827045 -0.523452 9.745319 -1.570795 -1.570451 0.000000
    2 -0.000007 0.000010 5.615750 -0.002012 3.467447 -0.616702
    3 15.693467 0.000000 0.000000 0.000000 0.000000 -2.050181
    4 22.146629 0.000000 0.000000 0.177655 -0.180491 0.804417
    5 0.000008 -0.000006 -5.615750 -0.002769 3.126541 -0.904894
    6 15.693467 0.000000 0.000000 0.000000 0.000000 -2.250582
    7 22.146629 0.000000 0.000000 0.020920 0.016123 0.893375
    8 1.384163 -0.004728 0.000002 0.606034 0.153535 0.617995
    9 5.939814 -0.004730 0.000000 -0.097183 -0.004051 0.464267
    10 5.939809 -0.003975 0.000000 -0.220076 -0.090580 0.260172
    11 4.991439 -0.003975 0.000000 -0.094776 0.060312 0.042835
    12 4.991436 -0.001575 0.000000 0.000000 0.000000 0.000000
    13 0.000005 0.001564 3.638375 0.433527 -1.256076 2.726143
    14 6.703436 0.000000 0.000000 -0.637238 -0.474903 -1.083221
    15 10.007079 0.000000 0.000002 0.000000 0.000000 -1.743808
    16 9.664095 -0.000001 -0.000002 -1.721760 0.233886 -0.470226
    17 0.000005 0.001585 -3.638375 -0.000010 1.072674 3.140787
    18 6.703436 0.000000 -0.000001 0.211154 0.059685 -1.223028
    19 10.007080 0.000000 -0.000002 0.000000 0.000000 -1.761368
    20 9.664097 -0.000001 0.000001 2.628571 -0.362190 -0.152533
    21 1.977383 0.000000 0.000000 0.133243 0.374626 0.650788
    22 6.829860 -0.000001 0.000000 0.001241 0.000000 0.000000
    23 -4.603199 -0.446935 0.691439 -1.751612 -0.047171 1.544023
    24 -6.751354 0.809404 1.239717 0.422884 1.599155 -1.196952
  time 30
    0 -89.505412 -24.289106 19.326464 2.855387 -0.634348 -5.868037
    1 -7.455940 -0.515640 9.745319 -1.570795 -1.570787 0.000000
    2 -0.000007 0.000010 5.615750 0.029721 3.484415 -0.712032
    3 15.693467 0.000000 0.000000 0.000000 0.000000 -1.998941
    4 22.146629 0.000000 0.000000 0.167320 -0.211534 0.800392
    5 0.000008 -0.000006 -5.615750 -0.019870 3.123377 -0.892729
    6 15.693467 0.000000 0.000000 0.000000 0.000000 -2.301086
    7 22.146629 0.000000 0.000000 0.015552 0.034567 0.839794
    8 1.384163 -0.004728 0.000002 0.622888 0.160869 0.560868
    9 5.939814 -0.004730 0.000000 -0.097399 -0.001858 0.486525
    10 5.939809 -0.003975 0.000000 -0.210489 -0.100479 0.204851
    11 4.991439 -0.003975 0.000000 -0.094357 0.060312 0.042835
    12 4.991436 -0.001575 0.000000 0.000000 0.000000 0.000000
    13 0.000005 0.001564 3.638375 0.385111 -1.262203 2.772260
    14 6.703436 0.000000 0.000000 -0.486556 -0.456966 -1.148350
    15 10.007079 0.000000 0.000002 0.000000 0.000000 -1.698318
    16 9.664095 -0.000001 -0.000002 -1.965787 0.146487 -0.485591
    17 0.000005 0.001585 -3.638375 -0.000010 1.072650 3.140787
    18 6.703436 0.000000 -0.000001 0.187803 0.041689 -1.189745
    19 10.007080 0.000000 -0.000002 0.000000 0.000000 -1.682020
    20 9.664097 -0.000001 0.000001 2.657504 -0.305322 -0.095545
    21 1.977383 0.000000 0.000000 0.072665 0.403450 0.579612
    22 6.829860 -0.000001 0.000000 0.001241 0.000000 0.000000
    23 -4.603199 -0.446935 0.691439 -1.751612 -0.047171 1.544023
    24 -6.751354 0.809404 1.239717 0.422884 1.599155 -1.196952
  time 31
    0 -92.485972 -25.128975 19.513969 3.015848 -0.865280 -5.909926
    1 -7.174681 -0.351572 9.745319 -1.570795 -1.570787 0.000000
    2 -0.000007 0.000010 5.615750 0.066728 3.498508 -0.817135
    3 15.693467 0.000000 0.000000 0.000000 0.000000 -1.947431
    4 22.146629 0.000000 0.000000 0.153794 -0.241518 0.784628
    5 0.000008 -0.000006 -5.615750 -0.037638 3.119926 -0.872981
    6 15.693467 0.000000 0.000000 0.000000 0.000000 -2.340509
    7 22.146629 0.000000 0.000000 0.006519 0.052820 0.787305
    8 1.384163 -0.004728 0.000002 0.563186 0.156099 0.514292
    9 5.939814 -0.004730 0.000000 -0.097662 -0.002996 0.474421
    10 5.939809 -0.003975 0.000000 -0.199855 -0.103187 0.173546
    11 4.991439 -0.003975 0.000000 -0.094194 0.060312 0.042835
    12 4.991436 -0.001575 0.000000 0.000000 0.000000 0.000000
    13 0.000005 0.001564 3.638375 0.333819 -1.267726 2.821156
    14 6.703436 0.000000 0.000000 -0.396723 -0.459242 -1.147122
    15 10.007079 0.000000 0.000002 0.000000 0.000000 -1.649214
    16 9.664095 -0.000001 -0.000002 -2.211347 0.056133 -0.478924
    17 0.000005 0.001585 -3.638375 -0.000010 1.072650 3.140787
    18 6.703436 0.000000 -0.000001 0.125026 0.038434 -1.226249
    19 10.007080 0.000000 -0.000002 0.000000 0.000000 -1.592226
    20 9.664097 -0.000001 0.000001 2.680262 -0.248057 -0.034618
    21 1.977383 0.000000 0.000000 0.035620 0.354027 0.474616
    22 6.829860 -0.000001 0.000000 0.001241 0.000000 0.000000
    23 -4.603199 -0.446935 0.691439 -1.751612 -0.047171 1.544023
    24 -6.751354 0.809404 1.239717 0.422884 1.599155 -1.196952
  time 32
    0 -95.279026 -25.855560 19.806947 -2.971933 -1.103350 -6.079492
    1 -6.854359 -0.167973 9.745319 -1.570795 -1.570451 0.000000
    2 -0.000007 0.000010 5.615750 0.107665 3.507520 -0.930957
    3 15.693467 0.000000 0.000000 0.000000 0.000000 -1.903934
    4 22.146629 0.000000 0.000000 0.139397 -0.267454 0.757057
    5 0.000008 -0.000006 -5.615750 -0.055503 3.115996 -0.849314
    6 15.693467 0.000000 0.000000 0.000000 0.000000 -2.370458
    7 22.146629 0.000000 0.000000 -0.005241 0.070044 0.741514
    8 1.384163 -0.004728 0.000002 0.473331 0.143080 0.466117
    9 5.939814 -0.004730 0.000000 -0.097938 -0.005357 0.449811
    10 5.939809 -0.003975 0.000000 -0.187747 -0.103799 0.145950
    11 4.991439 -0.003975 0.000000 -0.093728 0.060312 0.042835
    12 4.991436 -0.001575 0.000000 0.000000 0.000000 0.000000
    13 0.000005 0.001564 3.638375 0.280993 -1.272485 2.871587
    14 6.703436 0.000000 0.000000 -0.317708 -0.457877 -1.122904
    15 10.007079 0.000000 0.000002 0.000000 0.000000 -1.597072
    16 9.664095 -0.000001 -0.000002 -2.456620 -0.029674 -0.450608
    17 0.000005 0.001585 -3.638375 -0.000010 1.072650 3.140787
    18 6.703436 0.000000 -0.000001 0.053649 0.024331 -1.289379
    19 10.007080 0.000000 -0.000002 0.000000 0.000000 -1.494751
    20 9.664097 -0.000001 0.000001 2.698692 -0.190911 0.028638
    21 1.977383 0.000000 0.000000 0.031162 0.280970 0.368710
    22 6.829860 -0.000001 0.000000 0.001241 0.000000 0.000000
    23 -4.603199 -0.446935 0.691439 -1.751612 -0.047171 1.544023
    24 -6.751354 0.809404 1.239717 0.422884 1.599155 -1.196952
  time 33
    0 -97.884574 -26.480579 19.572565 -2.269578 -1.278120 -0.366944
    1 -6.487160 -0.015624 9.745319 -1.570795 -1.570451 0.000000
    2 -0.000007 0.000010 5.615750 0.150424 3.509629 -1.051965
    3 15.693467 0.000000 0.000000 0.000000 0.000000 -1.876731
    4 22.146629 0.000000 0.000000 0.127829 -0.286871 0.717346
    5 0.000008 -0.000006 -5.615750 -0.073176 3.111682 -0.825494
    6 15.693467 0.000000 0.000000 0.000000 0.000000 -2.392458
    7 22.146629 0.000000 0.000000 -0.018364 0.085904 0.708171
    8 1.384163 -0.004728 0.000002 0.361326 0.121042 0.419498
    9 5.939814 -0.004730 0.000000 -0.098142 -0.008665 0.415582
    10 5.939809 -0.003975 0.000000 -0.174717 -0.102636 0.121934
    11 4.991439 -0.003975 0.000000 -0.093052 0.060312 0.042835
    12 4.991436 -0.001575 0.000000 0.000000 0.000000 0.000000
    13 0.000005 0.001564 3.638375 0.228167 -1.276325 2.922113
    14 6.703436 0.000000 0.000000 -0.242514 -0.452231 -1.082484
    15 10.007079 0.000000 0.000002 0.000000 0.000000 -1.542467
    16 9.664095 -0.000001 -0.000002 -2.698634 -0.104016 -0.403631
    17 0.000005 0.001585 -3.638375 -0.000010 1.072626 3.140787
    18 6.703436 0.000000 -0.000001 -0.015479 -0.004896 -1.373482
    19 10.007080 0.000000 -0.000002 0.000000 0.000000 -1.392514
    20 9.664097 -0.000001 0.000001 2.714447 -0.134676 0.092842
    21 1.977383 0.000000 0.000000 0.065771 0.204240 0.263208
    22 6.829860 -0.000001 0.000000 0.001241 0.000000 0.000000
    23 -4.603199 -0.446935 0.691439 -1.751612 -0.047171 1.544023
    24 -6.751354 0.809404 1.239717 0.422884 1.599155 -1.196952
  time 34
    0 -100.302617 -27.015751 18.447531 -1.260752 -1.218721 -1.236867
    1 -6.076992 0.054690 9.745319 -1.570795 -1.570451 0.000000
    2 -0.000007 0.000010 5.615750 0.192511 3.503397 -1.178434
    3 15.693467 0.000000 0.000000 0.000000 0.000000 -1.874105
    4 22.146629 0.000000 0.000000 0.123224 -0.297814 0.664754
    5 0.000008 -0.000006 -5.615750 -0.090085 3.107081 -0.805236
    6 15.693467 0.000000 0.000000 0.000000 0.000000 -2.408356
    7 22.146629 0.000000 0.000000 -0.030805 0.100640 0.693029
    8 1.384163 -0.004728 0.000002 0.235055 0.090485 0.377291
    9 5.939814 -0.004730 0.000000 -0.098178 -0.012632 0.374680
    10 5.939809 -0.003975 0.000000 -0.161245 -0.100071 0.101303
    11 4.991439 -0.003975 0.000000 -0.092190 0.060312 0.042835
    12 4.991436 -0.001575 0.000000 0.000000 0.000000 0.000000
    13 0.000005 0.001564 3.638375 0.176971 -1.279244 2.971106
    14 6.703436 0.000000 0.000000 -0.166262 -0.442489 -1.032983
    15 10.007079 0.000000 0.000002 0.000000 0.000000 -1.486055
    16 9.664095 -0.000001 -0.000002 -2.932885 -0.162022 -0.343320
    17 0.000005 0.001585 -3.638375 -0.000010 1.072626 3.140787
    18 6.703436 0.000000 -0.000001 -0.072369 -0.050269 -1.472114
    19 10.007080 0.000000 -0.000002 0.000000 0.000000 -1.288433
    20 9.664097 -0.000001 0.000001 2.728938 -0.080144 0.156846
    21 1.977383 0.000000 0.000000 0.136828 0.143639 0.158313
    22 6.829860 -0.000001 0.000000 0.001241 0.000000 0.000000
    23 -4.603199 -0.446935 0.691439 -1.751612 -0.047171 1.544023
    24 -6.751354 0.809404 1.239717 0.422884 1.599155 -1.196952
  time 35
    0 -102.540966 -27.468890 16.322466 -0.771071 -0.993120 -1.578964
    1 -5.647291 0.023439 9.745319 -1.570795 -1.570451 0.000000
    2 -0.000007 0.000010 5.615750 -2.850454 6.029809 1.542178
    3 15.693467 0.000000 0.000000 0.000000 0.000000 -2.211377
    4 22.146629 0.000000 0.000000 0.244054 -0.175478 0.103287
    5 0.000008 -0.000006 -5.615750 -0.105943 3.102575 -0.792156
    6 15.693467 0.000000 0.000000 0.000000 0.000000 -2.419597
    7 22.146629 0.000000 0.000000 -0.040392 0.114850 0.701911
    8 1.384163 -0.004728 0.000002 0.101893 0.053132 0.341916
    9 5.939814 -0.004730 0.000000 -0.097998 -0.016946 0.330029
    10 5.939809 -0.003975 0.000000 -0.147801 -0.096500 0.083893
    11 4.991439 -0.003975 0.000000 -0.091234 0.060312 0.042835
    12 4.991436 -0.001575 0.000000 0.000000 0.000000 0.000000
    13 0.000005 0.001564 3.638375 0.129227 -1.281268 3.016935
    14 6.703436 0.000000 0.000000 -0.086599 -0.429377 -0.980781
    15 10.007079 0.000000 0.000002 0.000000 0.000000 -1.428494
    16 9.664095 -0.000001 -0.000002 -3.152662 -0.201548 -0.276725
    17 0.000005 0.001585 -3.638375 -0.000010 1.072601 3.140787
    18 6.703436 0.000000 -0.000001 -0.108885 -0.108533 -1.578906
    19 10.007080 0.000000 -0.000002 0.000000 0.000000 -1.185197
    20 9.664097 -0.000001 0.000001 2.743284 -0.028265 0.219584
    21 1.977383 0.000000 0.000000 0.233991 0.114256 0.056900
    22 6.829860 -0.000001 0.000000 0.001241 0.000000 0.000000
    23 -4.603199 -0.446935 0.691439 -1.751612 -0.047171 1.544023
    24 -6.751354 0.809404 1.239717 0.422884 1.599155 -1.196952
  time 36
    0 -104.595717 -27.859527 13.595820 -0.527442 -0.740009 -1.665133
    1 -5.225403 -0.113284 9.745319 -1.570795 -1.570451 0.000000
    2 -0.000007 0.000010 5.615750 -2.871641 6.095958 1.419733
    3 15.693467 0.000000 0.000000 0.000000 0.000000 -2.216090
    4 22.146629 0.000000 0.000000 0.212142 -0.157451 0.034194
    5 0.000008 -0.000006 -5.615750 -0.122757 3.097878 -0.780602
    6 15.693467 0.000000 0.000000 0.000000 0.000000 -2.400568
    7 22.146629 0.000000 0.000000 -0.039114 0.134729 0.777550
    8 1.384163 -0.004728 0.000002 -0.031197 0.011727 0.314715
    9 5.939814 -0.004730 0.000000 -0.097579 -0.021333 0.284557
    10 5.939809 -0.003975 0.000000 -0.134839 -0.092293 0.069526
    11 4.991439 -0.003975 0.000000 -0.090256 0.060312 0.042835
    12 4.991436 -0.001575 0.000000 0.000000 0.000000 0.000000
    13 0.000005 0.001564 3.638375 0.086659 -1.282531 3.057682
    14 6.703436 0.000000 0.000000 -0.004351 -0.414172 -0.931198
    15 10.007079 0.000000 0.000002 0.000000 0.000000 -1.370358
    16 9.664095 -0.000001 -0.000002 -3.349628 -0.223731 -0.211510
    17 0.000005 0.001585 -3.638375 -0.000010 1.072601 3.140787
    18 6.703436 0.000000 -0.000001 -0.120990 -0.172986 -1.688704
    19 10.007080 0.000000 -0.000002 0.000000 0.000000 -1.085802
    20 9.664097 -0.000001 0.000001 2.758504 0.019812 0.280022
    21 1.977383 0.000000 0.000000 0.342047 0.122560 -0.034417
    22 6.829860 -0.000001 0.000000 0.001241 0.000000 0.000000
    23 -4.603199 -0.446935 0.691439 -1.751612 -0.047171 1.544023
    24 -6.751354 0.809404 1.239717 0.422884 1.599155 -1.196952
  time 37
    0 -106.470774 -28.195475 11.150433 -0.361107 -0.499844 -1.664464
    1 -4.850392 -0.347666 9.745319 -1.570795 -1.570451 0.000000
    2 -0.000007 0.000010 5.615750 -2.908744 6.156931 1.313959
    3 15.693467 0.000000 0.000000 0.000000 0.000000 -2.188955
    4 22.146629 0.000000 0.000000 0.168227 -0.145283 0.012527
    5 0.000008 -0.000006 -5.615750 -0.140908 3.092318 -0.762737
    6 15.693467 0.000000 0.000000 0.000000 0.000000 -2.336093
    7 22.146629 0.000000 0.000000 -0.017725 0.159704 0.928610
    8 1.384163 -0.004728 0.000002 -0.157686 -0.030414 0.295730
    9 5.939814 -0.004730 0.000000 -0.096955 -0.025503 0.241188
    10 5.939809 -0.003975 0.000000 -0.122786 -0.087871 0.057973
    11 4.991439 -0.003975 0.000000 -0.089300 0.060312 0.042835
    12 4.991436 -0.001575 0.000000 0.000000 0.000000 0.000000
    13 0.000005 0.001564 3.638375 0.050898 -1.283188 3.092005
    14 6.703436 0.000000 0.000000 0.077075 -0.398511 -0.888815
    15 10.007079 0.000000 0.000002 0.000000 0.000000 -1.312386
    16 9.664095 -0.000001 -0.000002 -3.515348 -0.232337 -0.154341
    17 0.000005 0.001585 -3.638375 -0.000010 1.072601 3.140787
    18 6.703436 0.000000 -0.000001 -0.109679 -0.235142 -1.797214
    19 10.007080 0.000000 -0.000002 0.000000 0.000000 -0.993089
    20 9.664097 -0.000001 0.000001 2.775281 0.062939 0.337269
    21 1.977383 0.000000 0.000000 0.445553 0.164717 -0.108975
    22 6.829860 -0.000001 0.000000 0.001241 0.000000 0.000000
    23 -4.603199 -0.446935 0.691439 -1.751612 -0.047171 1.544023
    24 -6.751354 0.809404 1.239717 0.422884 1.599155 -1.196952
  time 38
    0 -108.170044 -28.488453 9.494132 -0.226100 -0.289283 -1.627452
    1 -4.537882 -0.628924 9.745319 -1.570795 -1.570451 0.000000
    2 -0.000007 0.000010 5.615750 -2.953707 6.207932 1.230796
    3 15.693467 0.000000 0.000000 0.000000 0.000000 -2.140139
    4 22.146629 0.000000 0.000000 0.122897 -0.130150 0.020777
    5 0.000008 -0.000006 -5.615750 -0.157913 3.086087 -0.739273
    6 15.693467 0.000000 0.000000 0.000000 0.000000 -2.243998
    7 22.146629 0.000000 0.000000 0.022113 0.176928 1.109299
    8 1.384163 -0.004728 0.000002 -0.271092 -0.069955 0.283794
    9 5.939814 -0.004730 0.000000 -0.096236 -0.029159 0.202848
    10 5.939809 -0.003975 0.000000 -0.112056 -0.083628 0.049041
    11 4.991439 -0.003975 0.000000 -0.088415 0.060312 0.042835
    12 4.991436 -0.001575 0.000000 0.000000 0.000000 0.000000
    13 0.000005 0.001564 3.638375 0.023479 -1.283477 3.118275
    14 6.703436 0.000000 0.000000 0.152622 -0.383669 -0.857151
    15 10.007079 0.000000 0.000002 0.000000 0.000000 -1.255071
    16 9.664095 -0.000001 -0.000002 -3.642058 -0.232630 -0.110200
    17 0.000005 0.001585 -3.638375 -0.000010 1.072601 3.140787
    18 6.703436 0.000000 -0.000001 -0.080771 -0.286897 -1.899497
    19 10.007080 0.000000 -0.000002 0.000000 0.000000 -0.909824
    20 9.664097 -0.000001 0.000001 2.794246 0.099848 0.390288
    21 1.977383 0.000000 0.000000 0.533110 0.229151 -0.164048
    22 6.829860 -0.000001 0.000000 0.001241 0.000000 0.000000
    23 -4.603199 -0.446935 0.691439 -1.751612 -0.047171 1.544023
    24 -6.751354 0.809404 1.239717 0.422884 1.599155 -1.196952
  time 39
    0 -109.697435 -28.750179 8.873020 -0.110486 -0.118512 -1.576668
    1 -4.307406 -0.910183 9.745319 -1.570795 -1.570451 0.000000
    2 -0.000007 0.000010 5.615750 -2.997617 6.246567 1.177526
    3 15.693467 0.000000 0.000000 0.000000 0.000000 -2.079673
    4 22.146629 0.000000 0.000000 0.085256 -0.111533 0.040768
    5 0.000008 -0.000006 -5.615750 -0.171000 3.079664 -0.710872
    6 15.693467 0.000000 0.000000 0.000000 0.000000 -2.141866
    7 22.146629 0.000000 0.000000 0.068001 0.177573 1.271789
    8 1.384163 -0.004728 0.000002 -0.364720 -0.103793 0.276615
    9 5.939814 -0.004730 0.000000 -0.095517 -0.032023 0.172482
    10 5.939809 -0.003975 0.000000 -0.103075 -0.079973 0.042451
    11 4.991439 -0.003975 0.000000 -0.087715 0.060312 0.042835
    12 4.991436 -0.001575 0.000000 0.000000 0.000000 0.000000
    13 0.000005 0.001564 3.638375 0.006030 -1.283530 3.134958
    14 6.703436 0.000000 0.000000 0.216234 -0.370831 -0.839314
    15 10.007079 0.000000 0.000002 0.000000 0.000000 -1.199234
    16 9.664095 -0.000001 -0.000002 -3.722665 -0.229999 -0.082190
    17 0.000005 0.001585 -3.638375 -0.000010 1.072577 3.140787
    18 6.703436 0.000000 -0.000001 -0.044454 -0.322442 -1.989254
    19 10.007080 0.000000 -0.000002 0.000000 0.000000 -0.838926
    20 9.664097 -0.000001 0.000001 2.815934 0.129272 0.437989
    21 1.977383 0.000000 0.000000 0.598329 0.300452 -0.201958
    22 6.829860 -0.000001 0.000000 0.001241 0.000000 0.000000
    23 -4.603199 -0.446935 0.691439 -1.751612 -0.047171 1.544023
    24 -6.751354 0.809404 1.239717 0.422884 1.599155 -1.196952
  time 40
    0 -111.049039 -28.988468 9.310533 -0.016223 0.006663 -1.529423
    1 -4.143339 -1.140659 9.745319 -1.570795 -1.570451 0.000000
    2 -0.000007 0.000010 5.615750 -3.031555 6.271589 1.162101
    3 15.693467 0.000000 0.000000 0.000000 0.000000 -2.017525
    4 22.146629 0.000000 0.000000 0.060488 -0.097459 0.054989
    5 0.000008 -0.000006 -5.615750 -0.177688 3.073529 -0.678145
    6 15.693467 0.000000 0.000000 0.000000 0.000000 -2.047443
    7 22.146629 0.000000 0.000000 0.102300 0.165541 1.367084
    8 1.384163 -0.004728 0.000002 -0.431530 -0.129382 0.271166
    9 5.939814 -0.004730 0.000000 -0.094954 -0.033856 0.153016
    10 5.939809 -0.003975 0.000000 -0.096243 -0.077277 0.037993
    11 4.991439 -0.003975 0.000000 -0.087226 0.060312 0.042835
    12 4.991436 -0.001575 0.000000 0.000000 0.000000 0.000000
    13 0.000005 0.001564 3.638375 -0.000010 -1.283530 3.140806
    14 6.703436 0.000000 0.000000 0.261856 -0.360997 -0.838496
    15 10.007079 0.000000 0.000002 0.000000 0.000000 -1.145286
    16 9.664095 -0.000001 -0.000002 -3.751036 -0.228537 -0.072419
    17 0.000005 0.001585 -3.638375 -0.000010 1.072577 3.140787
    18 6.703436 0.000000 -0.000001 -0.013098 -0.338651 -2.058827
    19 10.007080 0.000000 -0.000002 0.000000 0.000000 -0.783237
    20 9.664097 -0.000001 0.000001 2.840685 0.149945 0.479192
    21 1.977383 0.000000 0.000000 0.638178 0.363129 -0.228813
    22 6.829860 -0.000001 0.000000 0.001241 0.000000 0.000000
    23 -4.603199 -0.446935 0.691439 -1.751612 -0.047171 1.544023
    24 -6.751354 0.809404 1.239717 0.422884 1.599155 -1.196952
  time 41
    0 -112.150635 -29.179880 10.466818 0.051001 0.085576 -1.494324
    1 -4.049586 -1.285194 9.745319 -1.570795 -1.570451 0.000000
    2 -0.000007 0.000010 5.615750 -3.051113 6.282518 1.195634
    3 15.693467 0.000000 0.000000 0.000000 0.000000 -1.952683
    4 22.146629 0.000000 0.000000 0.046853 -0.098165 0.069478
    5 0.000008 -0.000006 -5.615750 -0.176637 3.068065 -0.639870
    6 15.693467 0.000000 0.000000 0.000000 0.000000 -1.960888
    7 22.146629 0.000000 0.000000 0.122070 0.146092 1.384119
    8 1.384163 -0.004728 0.000002 -0.472855 -0.146221 0.266972
    9 5.939814 -0.004730 0.000000 -0.094570 -0.034707 0.143837
    10 5.939809 -0.003975 0.000000 -0.091684 -0.075407 0.036984
    11 4.991439 -0.003975 0.000000 -0.086923 0.060312 0.042835
    12 4.991436 -0.001575 0.000000 0.000000 0.000000 0.000000
    13 0.000005 0.001564 3.638375 0.012262 -1.283530 3.129109
    14 6.703436 0.000000 0.000000 0.275260 -0.357446 -0.849296
    15 10.007079 0.000000 0.000002 0.000000 0.000000 -1.091420
    16 9.664095 -0.000001 -0.000002 -3.694294 -0.231168 -0.092076
    17 0.000005 0.001585 -3.638375 -0.000010 1.072577 3.140787
    18 6.703436 0.000000 -0.000001 0.006086 -0.336928 -2.106210
    19 10.007080 0.000000 -0.000002 0.000000 0.000000 -0.744217
    20 9.664097 -0.000001 0.000001 2.861401 0.160439 0.509871
    21 1.977383 0.000000 0.000000 0.658493 0.406644 -0.248146
    22 6.829860 -0.000001 0.000000 0.001241 0.000000 0.000000
    23 -4.603199 -0.446935 0.691439 -1.751612 -0.047171 1.544023
    24 -6.751354 0.809404 1.239717 0.422884 1.599155 -1.196952
  time 42
    0 -112.951440 -29.289258 11.873111 0.092212 0.125746 -1.471467
    1 -4.022241 -1.355509 9.745319 -1.570795 -1.570451 0.000000
    2 -0.000007 0.000010 5.615750 -3.060413 6.282422 1.273527
    3 15.693467 0.000000 0.000000 0.000000 0.000000 -1.878347
    4 22.146629 0.000000 0.000000 0.039491 -0.111463 0.096445
    5 0.000008 -0.000006 -5.615750 -0.169281 3.063464 -0.595589
    6 15.693467 0.000000 0.000000 0.000000 0.000000 -1.870238
    7 22.146629 0.000000 0.000000 0.134767 0.120974 1.354635
    8 1.384163 -0.004728 0.000002 -0.496866 -0.156083 0.264896
    9 5.939814 -0.004730 0.000000 -0.094307 -0.034911 0.141561
    10 5.939809 -0.003975 0.000000 -0.089025 -0.073945 0.040433
    11 4.991439 -0.003975 0.000000 -0.086760 0.060312 0.042835
    12 4.991436 -0.001575 0.000000 0.000000 0.000000 0.000000
    13 0.000005 0.001564 3.638375 0.046488 -1.283241 3.096224
    14 6.703436 0.000000 0.000000 0.250157 -0.363547 -0.863124
    15 10.007079 0.000000 0.000002 0.000000 0.000000 -1.035583
    16 9.664095 -0.000001 -0.000002 -3.535763 -0.232727 -0.147290
    17 0.000005 0.001585 -3.638375 -0.000010 1.072601 3.140787
    18 6.703436 0.000000 -0.000001 0.014024 -0.321931 -2.136272
    19 10.007080 0.000000 -0.000002 0.000000 0.000000 -0.719713
    20 9.664097 -0.000001 0.000001 2.871661 0.161706 0.528042
    21 1.977383 0.000000 0.000000 0.669340 0.430038 -0.261019
    22 6.829860 -0.000001 0.000000 0.001241 0.000000 0.000000
    23 -4.603199 -0.446935 0.691439 -1.751612 -0.047171 1.544023
    24 -6.751354 0.809404 1.239717 0.422884 1.599155 -1.196952
  time 43
    0 -113.502238 -29.336135 13.396595 0.110113 0.135361 -1.461807
    1 -4.037867 -1.363322 9.745319 -1.570795 -1.570451 0.000000
    2 -0.000007 0.000010 5.615750 -3.064056 6.275232 1.381122
    3 15.693467 0.000000 0.000000 0.000000 0.000000 -1.796268
    4 22.146629 0.000000 0.000000 0.035973 -0.130173 0.128442
    5 0.000008 -0.000006 -5.615750 -0.158008 3.059725 -0.546931
    6 15.693467 0.000000 0.000000 0.000000 0.000000 -1.775573
    7 22.146629 0.000000 0.000000 0.141755 0.095832 1.295522
    8 1.384163 -0.004728 0.000002 -0.506563 -0.160064 0.264074
    9 5.939814 -0.004730 0.000000 -0.094139 -0.034576 0.145003
    10 5.939809 -0.003975 0.000000 -0.087909 -0.072830 0.047511
    11 4.991439 -0.003975 0.000000 -0.086690 0.060312 0.042850
    12 4.991436 -0.001575 0.000000 0.000000 0.000000 0.000000
    13 0.000005 0.001564 3.638375 0.098643 -1.282215 3.046272
    14 6.703436 0.000000 0.000000 0.193599 -0.379572 -0.878915
    15 10.007079 0.000000 0.000002 0.000000 0.000000 -0.978022
    16 9.664095 -0.000001 -0.000002 -3.294228 -0.218794 -0.230247
    17 0.000005 0.001585 -3.638375 -0.000010 1.072601 3.140787
    18 6.703436 0.000000 -0.000001 0.011378 -0.296788 -2.152234
    19 10.007080 0.000000 -0.000002 0.000000 0.000000 -0.707193
    20 9.664097 -0.000001 0.000001 2.873023 0.155806 0.535777
    21 1.977383 0.000000 0.000000 0.673523 0.435547 -0.269499
    22 6.829860 -0.000001 0.000000 0.001241 0.000000 0.000000
    23 -4.603199 -0.446935 0.691439 -1.751612 -0.047171 1.544023
    24 -6.751354 0.809404 1.239717 0.422884 1.599155 -1.196952
  time 44
    0 -113.857718 -29.328322 14.990394 0.108994 0.121558 -1.463624
    1 -4.092556 -1.312539 9.745319 -1.570795 -1.570451 0.000000
    2 -0.000007 0.000010 5.615750 -3.066644 6.264974 1.503471
    3 15.693467 0.000000 0.000000 0.000000 0.000000 -1.708196
    4 22.146629 0.000000 0.000000 0.034487 -0.146295 0.157891
    5 0.000008 -0.000006 -5.615750 -0.144825 3.056657 -0.495627
    6 15.693467 0.000000 0.000000 0.000000 0.000000 -1.676734
    7 22.146629 0.000000 0.000000 0.143715 0.075259 1.223523
    8 1.384163 -0.004728 0.000002 -0.505015 -0.159437 0.264204
    9 5.939814 -0.004730 0.000000 -0.094043 -0.033832 0.152901
    10 5.939809 -0.003975 0.000000 -0.088006 -0.071991 0.057469
    11 4.991439 -0.003975 0.000000 -0.086713 0.060312 0.042835
    12 4.991436 -0.001575 0.000000 0.000000 0.000000 0.000000
    13 0.000005 0.001564 3.638375 0.164124 -1.279848 2.983474
    14 6.703436 0.000000 0.000000 0.113173 -0.405066 -0.895770
    15 10.007079 0.000000 0.000002 0.000000 0.000000 -0.919146
    16 9.664095 -0.000001 -0.000002 -2.991831 -0.174104 -0.326269
    17 0.000005 0.001585 -3.638375 -0.000010 1.072626 3.140787
    18 6.703436 0.000000 -0.000001 0.000265 -0.263923 -2.157531
    19 10.007080 0.000000 -0.000002 0.000000 0.000000 -0.704044
    20 9.664097 -0.000001 0.000001 2.867430 0.144361 0.535288
    21 1.977383 0.000000 0.000000 0.672558 0.426684 -0.274951
    22 6.829860 -0.000001 0.000000 0.001241 0.000000 0.000000
    23 -4.603199 -0.446935 0.691439 -1.751612 -0.047171 1.544023
    24 -6.751354 0.809404 1.239717 0.422884 1.599155 -1.196952
  time 45
    0 -114.072568 -29.281446 16.654507 0.094169 0.090812 -1.473475
    1 -4.174590 -1.230505 9.745319 -1.570795 -1.570451 0.000000
    2 -0.000007 0.000010 5.615750 0.069796 3.168242 -1.515780
    3 15.693467 0.000000 0.000000 0.000000 0.000000 -1.615882
    4 22.146629 0.000000 0.000000 0.033399 -0.150767 0.177478
    5 0.000008 -0.000006 -5.615750 -0.131928 3.054069 -0.443304
    6 15.693467 0.000000 0.000000 0.000000 0.000000 -1.573638
    7 22.146629 0.000000 0.000000 0.140136 0.063441 1.154872
    8 1.384163 -0.004728 0.000002 -0.495319 -0.155438 0.264982
    9 5.939814 -0.004730 0.000000 -0.093995 -0.032778 0.164049
    10 5.939809 -0.003975 0.000000 -0.088997 -0.071320 0.069493
    11 4.991439 -0.003975 0.000000 -0.086783 0.060312 0.042835
    12 4.991436 -0.001575 0.000000 0.000000 0.000000 0.000000
    13 0.000005 0.001564 3.638375 0.238234 -1.275667 2.912526
    14 6.703436 0.000000 0.000000 0.016109 -0.438665 -0.912952
    15 10.007079 0.000000 0.000002 0.000000 0.000000 -0.859286
    16 9.664095 -0.000001 -0.000002 -2.652532 -0.090895 -0.413862
    17 0.000005 0.001585 -3.638375 -0.000010 1.072626 3.140787
    18 6.703436 0.000000 -0.000001 -0.016339 -0.225187 -2.155884
    19 10.007080 0.000000 -0.000002 0.000000 0.000000 -0.707731
    20 9.664097 -0.000001 0.000001 2.856830 0.128797 0.529020
    21 1.977383 0.000000 0.000000 0.667502 0.407682 -0.278081
    22 6.829860 -0.000001 0.000000 0.001241 0.000000 0.000000
    23 -4.603199 -0.446935 0.691439 -1.751612 -0.047171 1.544023
    24 -6.751354 0.809404 1.239717 0.422884 1.599155 -1.196952
  time 46
    0 -114.197572 -29.215037 18.381122 0.071326 0.049118 -1.487629
    1 -4.272249 -1.125033 9.745319 -1.570795 -1.570451 0.000000
    2 -0.000007 0.000010 5.615750 0.062797 3.175337 -1.389598
    3 15.693467 0.000000 0.000000 0.000000 0.000000 -1.517037
    4 22.146629 0.000000 0.000000 0.033254 -0.141282 0.185126
    5 0.000008 -0.000006 -5.615750 -0.118936 3.051768 -0.389149
    6 15.693467 0.000000 0.000000 0.000000 0.000000 -1.464682
    7 22.146629 0.000000 0.000000 0.128546 0.062532 1.086586
    8 1.384163 -0.004728 0.000002 -0.480520 -0.149359 0.266280
    9 5.939814 -0.004730 0.000000 -0.093959 -0.031543 0.177224
    10 5.939809 -0.003975 0.000000 -0.090526 -0.070757 0.082819
    11 4.991439 -0.003975 0.000000 -0.086876 0.060312 0.042835
    12 4.991436 -0.001575 0.000000 0.000000 0.000000 0.000000
    13 0.000005 0.001564 3.638375 0.315891 -1.269461 2.838222
    14 6.703436 0.000000 0.000000 -0.090303 -0.478454 -0.929726
    15 10.007079 0.000000 0.000002 0.000000 0.000000 -0.798851
    16 9.664095 -0.000001 -0.000002 -2.295310 0.025961 -0.471567
    17 0.000005 0.001585 -3.638375 -0.000010 1.072650 3.140787
    18 6.703436 0.000000 -0.000001 -0.035655 -0.182495 -2.150373
    19 10.007080 0.000000 -0.000002 0.000000 0.000000 -0.715642
    20 9.664097 -0.000001 0.000001 2.843360 0.110620 0.519302
    21 1.977383 0.000000 0.000000 0.659275 0.382850 -0.279494
    22 6.829860 -0.000001 0.000000 0.001241 0.000000 0.000000
    23 -4.603199 -0.446935 0.691439 -1.751612 -0.047171 1.544023
    24 -6.751354 0.809404 1.239717 0.422884 1.599155 -1.196952
  time 47
    0 -114.287419 -29.136910 20.174146 0.045966 0.002761 -1.502453
    1 -4.381627 -1.015655 9.745319 -1.570795 -1.570451 0.000000
    2 -0.000007 0.000010 5.615750 0.055319 3.184252 -1.249620
    3 15.693467 0.000000 0.000000 0.000000 0.000000 -1.410583
    4 22.146629 0.000000 0.000000 0.034414 -0.124242 0.185796
    5 0.000008 -0.000006 -5.615750 -0.104415 3.050426 -0.332042
    6 15.693467 0.000000 0.000000 0.000000 0.000000 -1.349864
    7 22.146629 0.000000 0.000000 0.109160 0.069422 1.007379
    8 1.384163 -0.004728 0.000002 -0.463666 -0.142473 0.267880
    9 5.939814 -0.004730 0.000000 -0.093923 -0.030225 0.191222
    10 5.939809 -0.003975 0.000000 -0.092262 -0.070218 0.096666
    11 4.991439 -0.003975 0.000000 -0.086993 0.060312 0.042835
    12 4.991436 -0.001575 0.000000 0.000000 0.000000 0.000000
    13 0.000005 0.001564 3.638375 0.392397 -1.261336 2.765357
    14 6.703436 0.000000 0.000000 -0.199302 -0.522433 -0.945599
    15 10.007079 0.000000 0.000002 0.000000 0.000000 -0.738169
    16 9.664095 -0.000001 -0.000002 -1.930036 0.159576 -0.484710
    17 0.000005 0.001585 -3.638375 -0.000010 1.072650 3.140787
    18 6.703436 0.000000 -0.000001 -0.055236 -0.137951 -2.144074
    19 10.007080 0.000000 -0.000002 0.000000 0.000000 -0.725321
    20 9.664097 -0.000001 0.000001 2.828869 0.091254 0.508404
    21 1.977383 0.000000 0.000000 0.649163 0.356262 -0.279898
    22 6.829860 -0.000001 0.000000 0.001241 0.000000 0.000000
    23 -4.603199 -0.446935 0.691439 -1.751612 -0.047171 1.544023
    24 -6.751354 0.809404 1.239717 0.422884 1.599155 -1.196952
  time 48
    0 -114.396797 -29.066595 21.998420 0.022750 -0.041598 -1.515269
    1 -4.483193 -0.910183 9.745319 -1.570795 -1.570451 0.000000
    2 -0.000007 0.000010 5.615750 0.046690 3.193456 -1.101594
    3 15.693467 0.000000 0.000000 0.000000 0.000000 -1.299753
    4 22.146629 0.000000 0.000000 0.035647 -0.103061 0.182644
    5 0.000008 -0.000006 -5.615750 -0.089130 3.050139 -0.273306
    6 15.693467 0.000000 0.000000 0.000000 0.000000 -1.231674
    7 22.146629 0.000000 0.000000 0.084916 0.080426 0.921475
    8 1.384163 -0.004728 0.000002 -0.447852 -0.136017 0.269437
    9 5.939814 -0.004730 0.000000 -0.093851 -0.028943 0.204818
    10 5.939809 -0.003975 0.000000 -0.093887 -0.069630 0.110252
    11 4.991439 -0.003975 0.000000 -0.087110 0.060312 0.042835
    12 4.991436 -0.001575 0.000000 0.000000 0.000000 0.000000
    13 0.000005 0.001564 3.638375 0.463631 -1.251790 2.697572
    14 6.703436 0.000000 0.000000 -0.304421 -0.568232 -0.960326
    15 10.007079 0.000000 0.000002 0.000000 0.000000 -0.677570
    16 9.664095 -0.000001 -0.000002 -1.561312 0.287085 -0.448653
    17 0.000005 0.001585 -3.638375 -0.000010 1.072674 3.140787
    18 6.703436 0.000000 -0.000001 -0.073362 -0.093791 -2.139636
    19 10.007080 0.000000 -0.000002 0.000000 0.000000 -0.734077
    20 9.664097 -0.000001 0.000001 2.815204 0.072245 0.498513
    21 1.977383 0.000000 0.000000 0.638730 0.331750 -0.280100
    22 6.829860 -0.000001 0.000000 0.001241 0.000000 0.000000
    23 -4.603199 -0.446935 0.691439 -1.751612 -0.047171 1.544023
    24 -6.751354 0.809404 1.239717 0.422884 1.599155 -1.196952
  time 49
    0 -114.576490 -29.011906 23.795350 0.006340 -0.077485 -1.524163
    1 -4.576946 -0.828149 9.745319 -1.570795 -1.570451 0.000000
    2 -0.000007 0.000010 5.615750 0.036816 3.201700 -0.951461
    3 15.693467 0.000000 0.000000 0.000000 0.000000 -1.187913
    4 22.146629 0.000000 0.000000 0.036155 -0.081008 0.178686
    5 0.000008 -0.000006 -5.615750 -0.073654 3.050714 -0.214163
    6 15.693467 0.000000 0.000000 0.000000 0.000000 -1.112681
    7 22.146629 0.000000 0.000000 0.058969 0.092076 0.833387
    8 1.384163 -0.004728 0.000002 -0.436125 -0.131247 0.270691
    9 5.939814 -0.004730 0.000000 -0.093755 -0.027816 0.216788
    10 5.939809 -0.003975 0.000000 -0.095058 -0.068935 0.122797
    11 4.991439 -0.003975 0.000000 -0.087179 0.060312 0.042835
    12 4.991436 -0.001575 0.000000 0.000000 0.000000 0.000000
    13 0.000005 0.001564 3.638375 0.526619 -1.241508 2.637842
    14 6.703436 0.000000 0.000000 -0.399427 -0.613485 -0.973663
    15 10.007079 0.000000 0.000002 0.000000 0.000000 -0.617545
    16 9.664095 -0.000001 -0.000002 -1.196614 0.387085 -0.370448
    17 0.000005 0.001585 -3.638375 -0.000010 1.072699 3.140787
    18 6.703436 0.000000 -0.000001 -0.088643 -0.052694 -2.139493
    19 10.007080 0.000000 -0.000002 0.000000 0.000000 -0.739454
    20 9.664097 -0.000001 0.000001 2.804020 0.055295 0.491670
    21 1.977383 0.000000 0.000000 0.630135 0.312588 -0.281463
    22 6.829860 -0.000001 0.000000 0.001241 0.000000 0.000000
    23 -4.603199 -0.446935 0.691439 -1.751612 -0.047171 1.544023
    24 -6.751354 0.809404 1.239717 0.422884 1.599155 -1.196952
  time 50
    0 -114.877280 -28.988468 25.494621 0.001026 -0.097951 -1.527415
    1 -4.639448 -0.773460 9.745319 -1.570795 -1.570451 0.000000
    2 -0.000007 0.000010 5.615750 0.025886 3.207644 -0.805159
    3 15.693467 0.000000 0.000000 0.000000 0.000000 -1.078159
    4 22.146629 0.000000 0.000000 0.035756 -0.061333 0.176741
    5 0.000008 -0.000006 -5.615750 -0.058655 3.052056 -0.155835
    6 15.693467 0.000000 0.000000 0.000000 0.000000 -0.995374
    7 22.146629 0.000000 0.000000 0.034725 0.101262 0.747920
    8 1.384163 -0.004728 0.000002 -0.431530 -0.129382 0.271166
    9 5.939814 -0.004730 0.000000 -0.093624 -0.026965 0.225909
    10 5.939809 -0.003975 0.000000 -0.095444 -0.068108 0.133519
    11 4.991439 -0.003975 0.000000 -0.087226 0.060312 0.042835
    12 4.991436 -0.001575 0.000000 0.000000 0.000000 0.000000
    13 0.000005 0.001564 3.638375 0.579253 -1.231436 2.588178
    14 6.703436 0.000000 0.000000 -0.478325 -0.656006 -0.985773
    15 10.007079 0.000000 0.000002 0.000000 0.000000 -0.558259
    16 9.664095 -0.000001 -0.000002 -0.855590 0.447722 -0.269713
    17 0.000005 0.001585 -3.638375 -0.000010 1.072699 3.140787
    18 6.703436 0.000000 -0.000001 -0.100285 -0.017149 -2.145864
    19 10.007080 0.000000 -0.000002 0.000000 0.000000 -0.738840
    20 9.664097 -0.000001 0.000001 2.797017 0.042108 0.489830
    21 1.977383 0.000000 0.000000 0.625631 0.301490 -0.285350
    22 6.829860 -0.000001 0.000000 0.001241 0.000000 0.000000
    23 -4.603199 -0.446935 0.691439 -1.751612 -0.047171 1.544023
    24 -6.751354 0.809404 1.239717 0.422884 1.599155 -1.196952
end
